0, 0
0, 0
0, 0
0, 0
0, 0
0, 0
0, 0
0, 0
0, 0
0, 0
0, 0
0, 0
0, 0
0, 0
0, 0
0, 0
0, 0
0, 0
0, 0
0, 0
0, 0
0, 0
0, 0
0, 0
0.01240241, 0.000934321
0.1145883, 0.008632379
0.2333346, 0.017578
0.2391593, 0.01801679
0.1465032, 0.01103665
0.01218134, 0.0009176648
-0.1198575, -0.009029329
-0.244051, -0.0183853
-0.3777821, -0.02845979
-0.5095254, -0.03838452
-0.628899, -0.04737739
-0.6930285, -0.05220852
-0.6033318, -0.04545133
-0.481032, -0.03623799
-0.3440689, -0.02592003
-0.2121149, -0.01597944
-0.08616725, -0.006491319
-0.01063692, -0.0008013286
-0.084503, -0.006365944
-0.2077644, -0.0156517
-0.3398095, -0.02559917
-0.4727238, -0.03574809
-0.5777305, -0.05049254
-0.677894, -0.08118103
-0.77778, -0.1315157
-0.8823984, -0.1993869
-0.9897747, -0.2700708
-1.101848, -0.3438463
-1.214021, -0.4176879
-1.314297, -0.4836975
-1.335717, -0.4977975
-1.23825, -0.4336365
-1.138919, -0.3682488
-1.0278, -0.295101
-0.9190148, -0.2234897
-0.8139098, -0.1543011
-0.7022794, -0.08081677
-0.590069, -0.006950769
-0.5139663, 0.0431462
-0.509738, 0.04592963
-0.509738, 0.04592964
-0.509738, 0.04592963
-0.509738, 0.04592963
