0, 1
0, 1
0, 1
0, 1
0, 1
0, 1
0, 1
0, 1
0.03879676, 0.9986308
0.1787306, 0.9828382
0.3376504, 0.9402061
0.4811076, 0.8754222
0.5088543, 0.859895
0.4106514, 0.9117392
0.4064045, 0.9136934
0.4064045, 0.9136934
0.4064045, 0.9136934
0.4064045, 0.9136934
0.4099751, 0.9120485
0.5157435, 0.8554143
0.6413967, 0.7668925
0.6608635, 0.7503147
0.7543219, 0.6546094
0.8563129, 0.5142859
0.9294316, 0.3662178
0.9742638, 0.221018
0.9974254, 0.05579883
0.9931904, -0.1056662
0.9658028, -0.2560226
0.9703484, -0.237305
0.9960974, -0.07423545
0.9957184, 0.07982402
0.9814581, 0.1915817
0.9810476, 0.1937672
0.9810476, 0.1937672
0.9810476, 0.1937672
0.9810476, 0.1937672
0.9810476, 0.1937672
0.9810475, 0.1937672
0.9810476, 0.1937672
0.9810476, 0.1937672
0.9810476, 0.1937672
0.9810476, 0.1937672
0.9810476, 0.1937672
0.9810476, 0.1937672
0.9810476, 0.1937672
0.9810476, 0.1937672
0.9810476, 0.1937672
0.9810476, 0.1937672
0.9810476, 0.1937672
0.9810476, 0.1937672
0.9810476, 0.1937672
0.9810476, 0.1937672
0.9810475, 0.1937672
0.9810476, 0.1937672
0.9810476, 0.1937672
0.9810476, 0.1937672
