0, 1
0, 1
0, 1
0, 1
0, 1
0, 1
0, 1
0, 1
0, 1
0, 1
0, 1
0, 1
0, 1
0, 1
0, 1
0, 1
0, 1
0, 1
0, 1
0, 1
0, 1
0, 1
0, 1
0, 1
0, 1
0, 1
0, 1
0, 1
0, 1
-2.238756E-11, 1
-3.880511E-10, 1
-2.095476E-09, 1
-2.149206E-09, 1
8.596825E-10, 1
2.017866E-09, 1
0.07609487, 0.9957414
0.2450583, 0.96864
0.3744178, 0.9263338
0.4782191, 0.8776959
0.5760795, 0.8167856
0.662245, 0.7485653
0.7004598, 0.7136748
0.71201, 0.7016725
0.7891916, 0.6131654
0.8498759, 0.5259666
0.906783, 0.4204378
0.9487048, 0.313843
0.9840916, 0.1723052
0.999005, 0.01562125
0.9916797, -0.1230018
0.9919304, -0.1140529
0.994011, 0.09070437
0.9540825, 0.2942008
0.8819197, 0.4679787
0.7670974, 0.6386768
0.6178563, 0.7842157
0.4513356, 0.8905971
0.2949731, 0.9542164
0.1230184, 0.9913361
-0.03777996, 0.9982065
-0.1993228, 0.9786994
-0.3644091, 0.9301946
-0.5090156, 0.859374
-0.649807, 0.758262
-0.7814847, 0.6218773
-0.842469, 0.5387399
-0.8438649, 0.5365557
-0.8438647, 0.5365558
-0.7937849, 0.605828
-0.6724766, 0.7380168
-0.5234383, 0.8506331
-0.363481, 0.930198
-0.2142842, 0.975698
-0.0475498, 0.9976629
0.1352551, 0.9892299
0.3146549, 0.9473556
0.4990765, 0.8652158
0.5485101, 0.836143
0.5490451, 0.8357926
0.549045, 0.8357927
0.5490449, 0.8357928
0.549045, 0.8357928
0.5490452, 0.8357926
0.5490455, 0.8357925
0.5490453, 0.8357925
0.5490452, 0.8357926
0.5490451, 0.8357926
0.5668707, 0.8233032
0.6420919, 0.766562
0.6456529, 0.763631
0.6456529, 0.763631
0.6456529, 0.7636309
0.645653, 0.7636309
0.6456529, 0.7636309
0.645653, 0.7636309
0.6456532, 0.7636307
0.6456533, 0.7636307
0.6456533, 0.7636307
0.6456534, 0.7636306
0.6456535, 0.7636304
0.6456535, 0.7636304
0.6456537, 0.7636304
0.6456537, 0.7636304
0.6456537, 0.7636304
0.6456537, 0.7636304
0.6188194, 0.7840237
0.3817713, 0.9195031
0.07619778, 0.9933622
-0.2376498, 0.9682019
-0.4581313, 0.8855703
-0.7344306, 0.6730953
-0.9042489, 0.4183683
-0.9850426, 0.1488584
-0.9842027, -0.1514705
-0.8859993, -0.4543735
-0.7087507, -0.6994569
-0.4519979, -0.8872772
-0.1481088, -0.9850122
0.1439573, -0.9852846
0.4377196, -0.8948094
0.6976612, -0.711667
0.8734052, -0.4780777
0.97827, -0.1857879
0.9816871, 0.1704944
0.8833963, 0.459409
0.7391922, 0.671795
0.712448, 0.7017251
0.6608657, 0.7484223
0.5214791, 0.852387
0.4910212, 0.8711476
0.4910212, 0.8711476
0.4910212, 0.8711476
0.4910212, 0.8711477
0.4910212, 0.8711476
0.4910212, 0.8711477
0.4910208, 0.8711479
0.4910207, 0.871148
0.4910206, 0.871148
0.4910206, 0.871148
0.4910205, 0.871148
0.4910202, 0.8711482
0.4910202, 0.8711482
0.4910202, 0.8711482
0.4910202, 0.8711482
0.4910202, 0.8711482
0.4910202, 0.8711482
0.4910202, 0.8711482
0.4910202, 0.8711482
0.4910202, 0.8711482
0.4910202, 0.8711482
0.4910202, 0.8711482
0.4910202, 0.8711482
0.4910202, 0.8711482
0.4910202, 0.8711482
0.4910202, 0.8711482
0.4910202, 0.8711482
0.4910202, 0.8711482
0.4910202, 0.8711482
0.4910202, 0.8711482
0.4910202, 0.8711482
0.4910202, 0.8711482
0.4910202, 0.8711482
0.4910202, 0.8711482
0.4910202, 0.8711482
0.4910202, 0.8711482
0.4910202, 0.8711482
0.4910202, 0.8711482
0.4910202, 0.8711482
0.4910202, 0.8711482
0.4910202, 0.8711482
0.4910202, 0.8711482
0.4910202, 0.8711482
0.4910202, 0.8711482
0.4910202, 0.8711482
0.4910202, 0.8711482
0.4910202, 0.8711482
0.4910202, 0.8711482
0.4910202, 0.8711482
0.4910202, 0.8711482
0.4910202, 0.8711482
0.4910202, 0.8711482
0.4910202, 0.8711482
0.4910202, 0.8711482
