0, 0
0, 0
0, 0
0, 0
0, 0
0, 0
0, 0
0, 0
0, 0
0, 0
0, 0
0, 0
0, 0
0, 0
0, 0
0, 0
0, 0
0, 0
0, 0
0, 0
0, 0
0, 0
0, 0
0, 0
0, 0
0, 0
0, 0
0, 0
0, 0
0, 0
0, 0
0, 0
0, 0
-1.279619E-06, 0.01635665
-0.0001054461, 0.1070294
-0.0005975247, 0.2138113
-0.001523238, 0.3148385
-0.002984404, 0.4224573
-0.004574451, 0.5257596
0.0006624904, 0.620364
0.02315217, 0.7260419
0.06273641, 0.8255286
0.08514526, 0.8719418
-0.003072854, 0.8841599
-0.1526436, 0.8966166
-0.2861083, 0.9242129
-0.4278223, 0.9435561
-0.576587, 0.941732
-0.670279, 0.8889485
-0.7425104, 0.8133899
-0.7930821, 0.7609453
-0.7935623, 0.7604489
-0.7935622, 0.7604488
-0.7935622, 0.7604488
-0.7935623, 0.7604489
-0.7935622, 0.7604488
-0.7935623, 0.7604489
-0.7935622, 0.7604488
-0.7935622, 0.7604488
-0.7935622, 0.7604488
-0.7935622, 0.7604488
-0.7935622, 0.7604488
-0.7935622, 0.7604488
-0.7935622, 0.7604488
-0.7935622, 0.7604488
-0.7935622, 0.7604488
-0.7935622, 0.7604488
-0.7935622, 0.7604488
-0.7935622, 0.7604488
-0.7935622, 0.7604488
-0.7935622, 0.7604488
-0.7935622, 0.7604488
-0.7935622, 0.7604488
-0.7935622, 0.7604488
-0.7935622, 0.7604488
-0.7935622, 0.7604488
-0.7935622, 0.7604488
-0.7935622, 0.7604488
-0.7935622, 0.7604488
-0.7935622, 0.7604488
-0.7935622, 0.7604488
-0.7935622, 0.7604488
-0.7935622, 0.7604488
-0.7935622, 0.7604488
-0.7935622, 0.7604488
-0.7935622, 0.7604488
-0.7935622, 0.7604489
-0.7935622, 0.7604488
-0.7935622, 0.7604488
-0.7935623, 0.7604489
-0.7935622, 0.7604489
-0.7935622, 0.7604488
-0.7935622, 0.7604489
-0.7935623, 0.7604489
-0.7935623, 0.7604489
-0.7935622, 0.7604489
-0.7935622, 0.7604488
-0.7935622, 0.7604488
-0.7935622, 0.7604488
-0.7935622, 0.7604489
-0.7935622, 0.7604488
-0.7935622, 0.7604488
-0.7935622, 0.7604488
-0.7935622, 0.7604488
-0.7935622, 0.7604489
-0.7935622, 0.7604488
-0.7935622, 0.7604488
-0.7935622, 0.7604488
-0.7935622, 0.7604488
-0.7935622, 0.7604488
-0.7935622, 0.7604488
-0.7935622, 0.7604488
-0.7935622, 0.7604488
-0.7935623, 0.7604489
-0.7935623, 0.7604489
-0.7935622, 0.7604489
-0.7935623, 0.7604489
-0.7935622, 0.7604488
-0.7935623, 0.7604489
-0.7935622, 0.7604488
-0.7935622, 0.7604488
