0, 0
0, 0
0, 0
0, 0
0, 0
0, 0
0, 0
0, 0
0, 0
0, 0
0, 0
0, 0
0, 0
0, 0
0, 0
0, 0
0, 0
0, 0
0, 0
0, 0
0, 0
0, 0
0, 0
0, 0
0, 0
0, 0
0, 0
0, 0
0, 0
0, 0
0, 0
0, 0
0, 0
1.238793E-06, 0.0152561
2.250431E-05, 0.1182715
5.883435E-05, 0.2361905
9.199046E-05, 0.3387916
0.0001284726, 0.4486971
0.0004454132, 0.5549861
0.008434155, 0.6499466
0.03675001, 0.7540957
0.08539636, 0.8493465
0.1131088, 0.8927066
0.0262231, 0.9112818
-0.1227976, 0.9290898
-0.2495725, 0.9536937
-0.3903794, 0.9667467
-0.5330672, 0.9544569
-0.616302, 0.8946541
-0.6790758, 0.8130986
-0.7194278, 0.7606847
-0.7198491, 0.7601375
-0.7198489, 0.7601375
-0.7198489, 0.7601375
-0.7198491, 0.7601375
-0.719849, 0.7601375
-0.7198491, 0.7601375
-0.7198489, 0.7601375
-0.7198489, 0.7601375
-0.719849, 0.7601375
-0.7198489, 0.7601375
-0.719849, 0.7601375
-0.7198489, 0.7601375
-0.7198489, 0.7601375
-0.7198489, 0.7601375
-0.7198489, 0.7601375
-0.7198489, 0.7601375
-0.7198489, 0.7601375
-0.7198489, 0.7601375
-0.7198489, 0.7601375
-0.7198489, 0.7601375
-0.7198489, 0.7601375
-0.7198489, 0.7601375
-0.7198489, 0.7601375
-0.7198489, 0.7601375
-0.719849, 0.7601375
-0.719849, 0.7601375
-0.7198489, 0.7601375
-0.7198489, 0.7601375
-0.7198489, 0.7601375
-0.7198489, 0.7601375
-0.7198489, 0.7601375
-0.7198489, 0.7601375
-0.7198489, 0.7601375
-0.7198489, 0.7601375
-0.719849, 0.7601375
-0.7198491, 0.7601375
-0.719849, 0.7601375
-0.719849, 0.7601375
-0.7198491, 0.7601375
-0.7198491, 0.7601375
-0.7198491, 0.7601374
-0.7198491, 0.7601375
-0.7198491, 0.7601375
-0.7198491, 0.7601375
-0.7198491, 0.7601375
-0.719849, 0.7601375
-0.719849, 0.7601375
-0.719849, 0.7601375
-0.7198491, 0.7601375
-0.7198489, 0.7601375
-0.7198489, 0.7601375
-0.7198489, 0.7601375
-0.719849, 0.7601375
-0.7198491, 0.7601375
-0.7198489, 0.7601375
-0.719849, 0.7601375
-0.7198489, 0.7601375
-0.719849, 0.7601375
-0.7198489, 0.7601375
-0.7198489, 0.7601375
-0.719849, 0.7601375
-0.719849, 0.7601375
-0.7198491, 0.7601375
-0.7198491, 0.7601375
-0.7198491, 0.7601375
-0.7198491, 0.7601375
-0.7198491, 0.7601374
-0.7198491, 0.7601375
-0.719849, 0.7601375
-0.7198489, 0.7601375
