0, 1
0, 1
1.601738E-05, 1
0.003784735, 0.9999903
0.0145527, 0.9998876
0.02678285, 0.9996349
0.03888642, 0.9992379
0.05197708, 0.9986404
0.06459338, 0.9979055
0.07689197, 0.9970331
0.09008975, 0.9959259
0.1031653, 0.9946572
0.1155607, 0.9932942
0.1283424, 0.9917228
0.1409675, 0.9900075
0.1532435, 0.9881819
0.1660216, 0.9861149
0.1789342, 0.9838539
0.191198, 0.9815451
0.203852, 0.9789945
0.2171708, 0.9761257
0.2275145, 0.9737732
0.2286282, 0.9735137
0.2287406, 0.9734873
0.231975, 0.9727213
0.2327015, 0.9725484
0.2327015, 0.9725484
0.2327015, 0.9725484
0.2327015, 0.9725484
0.2298859, 0.9731892
0.1184839, 0.9918531
-0.0395299, 0.9982287
-0.2040008, 0.9777986
-0.3628986, 0.9307172
-0.5003583, 0.8644736
-0.6411148, 0.7659979
-0.7601054, 0.6481625
-0.8515601, 0.5220137
-0.9256774, 0.3752527
-0.9754343, 0.2151531
-0.9967692, 0.0638098
-0.9934685, -0.103831
-0.9622851, -0.2682013
-0.9081854, -0.4155461
-0.8261862, -0.5615816
-0.7209663, -0.6915389
-0.6067539, -0.7936286
-0.4777023, -0.8773127
-0.324165, -0.9450256
-0.1724172, -0.9837334
-0.04027621, -0.9990117
-0.02825191, -0.9996011
-0.009658213, -0.9996308
0.1254553, -0.9910256
0.2532546, -0.9672879
0.2611187, -0.9653066
0.2611187, -0.9653065
0.2611187, -0.9653065
0.2637981, -0.9645501
0.3634443, -0.9304475
0.5045705, -0.8623725
0.5505586, -0.8347966
0.5505586, -0.8347966
0.6051698, -0.7947112
0.7303324, -0.6815556
0.8280514, -0.5585791
0.9066007, -0.4193445
0.9613804, -0.2738333
0.9680577, -0.2507272
0.9680577, -0.2507272
0.9674274, -0.2530621
0.9466463, -0.3218894
0.9437163, -0.3307559
0.9437163, -0.3307559
0.9437163, -0.3307559
0.9437163, -0.3307559
0.9437162, -0.3307559
0.9437162, -0.3307559
0.9437163, -0.3307559
0.9437163, -0.3307559
0.9437163, -0.3307559
0.9437163, -0.3307559
0.9437163, -0.3307559
0.9437163, -0.3307559
0.9437163, -0.3307559
0.9437163, -0.3307559
0.9437163, -0.3307559
0.9437163, -0.3307559
0.9437163, -0.3307559
0.9437163, -0.3307559
0.9437162, -0.3307559
0.9437163, -0.3307559
0.9437163, -0.3307559
0.9437163, -0.3307559
0.9437163, -0.3307559
0.9437163, -0.3307559
0.9437163, -0.3307559
0.9437163, -0.3307559
0.9437163, -0.3307559
0.9437163, -0.3307559
0.9437163, -0.3307559
0.9437163, -0.3307559
0.9437162, -0.3307559
0.9437162, -0.3307559
0.9437163, -0.3307559
0.9437162, -0.3307559
0.9437162, -0.3307559
0.9437163, -0.3307559
0.9437163, -0.3307559
0.9437163, -0.3307559
0.9437163, -0.3307559
0.9437163, -0.3307559
0.9437163, -0.3307559
0.9437163, -0.3307559
0.9437163, -0.3307559
0.9437163, -0.3307559
0.9437163, -0.3307559
0.9437163, -0.3307559
0.9437162, -0.3307559
0.9437162, -0.3307559
0.9437163, -0.3307559
0.9437162, -0.3307559
0.9437162, -0.3307559
0.9437162, -0.3307559
0.9437162, -0.3307559
0.9437162, -0.3307559
0.9437163, -0.3307559
0.9437162, -0.3307559
0.9437162, -0.3307559
0.9437163, -0.3307559
0.9437162, -0.3307559
0.9437163, -0.3307559
0.9437162, -0.3307559
0.9437163, -0.3307559
0.9437162, -0.3307559
0.9437162, -0.3307559
0.9437163, -0.3307559
