0, 0
0, 0
-1.404327E-07, 0.003008004
-2.817069E-05, 0.07751536
-0.00011154, 0.182475
-0.0002056963, 0.2864633
-0.0002968239, 0.3844594
-0.0003969744, 0.4917742
-0.0004989018, 0.6008571
-0.0006042796, 0.7038823
-0.0007110986, 0.8087456
-0.0008159804, 0.9170418
-0.0009115963, 1.016974
-0.001011318, 1.121477
-0.001111799, 1.228169
-0.001208794, 1.330081
-0.001315848, 1.438253
-0.001423683, 1.545507
-0.001519693, 1.645464
-0.001619482, 1.750213
-0.001729974, 1.864089
-0.001804403, 1.942551
-0.001809835, 1.94861
-0.001812257, 1.954534
-0.001857137, 2.032621
-0.001868874, 2.07932
-0.001868874, 2.07932
-0.001868874, 2.07932
-0.001868874, 2.07932
-0.001868863, 2.07932
-0.001868544, 2.079319
-0.001868716, 2.079319
-0.001869206, 2.079319
-0.001869477, 2.079319
-0.001869977, 2.079319
-0.001870641, 2.079319
-0.001870678, 2.079319
-0.00187099, 2.079319
-0.001871329, 2.079318
-0.001871723, 2.079317
-0.001871735, 2.079317
-0.001871884, 2.079317
-0.001872072, 2.079317
-0.001872099, 2.079317
-0.0018722, 2.079316
-0.001872796, 2.079315
-0.001872798, 2.079315
-0.001872914, 2.079315
-0.001872833, 2.079314
-0.001873016, 2.079314
-0.001873221, 2.079314
-0.001873255, 2.079314
-0.001873306, 2.079314
-0.001873712, 2.079315
-0.001873698, 2.079315
-0.001873732, 2.079315
-0.001873732, 2.079315
-0.001873732, 2.079315
-0.001873732, 2.079315
-0.001873686, 2.079315
-0.001873823, 2.079315
-0.001873851, 2.079315
-0.001873851, 2.079315
-0.001873715, 2.079315
-0.001873476, 2.079314
-0.001873285, 2.079313
-0.001873067, 2.079312
-0.001873218, 2.079312
-0.001873374, 2.079312
-0.001873374, 2.079312
-0.00187335, 2.079312
-0.001873273, 2.079312
-0.001873255, 2.079312
-0.001873255, 2.079312
-0.001873255, 2.079312
-0.001873255, 2.079312
-0.001873255, 2.079312
-0.001873255, 2.079312
-0.001873255, 2.079312
-0.001873255, 2.079312
-0.001873255, 2.079312
-0.001873255, 2.079312
-0.001873255, 2.079312
-0.001873255, 2.079312
-0.001873255, 2.079312
-0.001873255, 2.079312
-0.001873255, 2.079312
-0.001873255, 2.079312
-0.001873255, 2.079312
-0.001873255, 2.079312
-0.001873255, 2.079312
-0.001873255, 2.079312
-0.001873255, 2.079312
-0.001873255, 2.079312
-0.001873255, 2.079312
-0.001873255, 2.079312
-0.001873255, 2.079312
-0.001873255, 2.079312
-0.001873255, 2.079312
-0.001873255, 2.079312
-0.001873255, 2.079312
-0.001873255, 2.079312
-0.001873255, 2.079312
-0.001873255, 2.079312
-0.001873255, 2.079312
-0.001873255, 2.079312
-0.001873255, 2.079312
-0.001873255, 2.079312
-0.001873255, 2.079312
-0.001873255, 2.079312
-0.001873255, 2.079312
-0.001873255, 2.079312
-0.001873255, 2.079312
-0.001873255, 2.079312
-0.001873255, 2.079312
-0.001873255, 2.079312
-0.001873255, 2.079312
-0.001873255, 2.079312
-0.001873255, 2.079312
-0.001873255, 2.079312
-0.001873255, 2.079312
-0.001873255, 2.079312
-0.001873255, 2.079312
-0.001873255, 2.079312
-0.001873255, 2.079312
-0.001873255, 2.079312
-0.001873255, 2.079312
-0.001873255, 2.079312
-0.001873255, 2.079312
-0.001873255, 2.079312
-0.001873255, 2.079312
-0.001873255, 2.079312
-0.001873255, 2.079312
-0.001873255, 2.079312
-0.001873255, 2.079312
-0.001873255, 2.079312
-0.001873255, 2.079312
