0, 0
0, 0
-8.677923E-15, 0.002776777
0.0001091971, 0.07257952
0.0009907091, 0.1775346
0.003101232, 0.2815002
0.006271255, 0.3794439
0.01108889, 0.486649
0.01741441, 0.5955469
0.02463479, 0.6983173
0.03332661, 0.8028184
0.04374377, 0.9106109
0.05463351, 1.009947
0.06731535, 1.113676
0.08163555, 1.219402
0.09659851, 1.320208
0.113797, 1.427003
0.1322246, 1.53266
0.1507024, 1.630893
0.1713416, 1.733587
0.1952389, 1.844925
0.2125824, 1.921445
0.2139514, 1.927348
0.2155275, 1.934057
0.2347179, 2.015084
0.24557, 2.060505
0.24557, 2.060505
0.24557, 2.060505
0.24557, 2.060505
0.24557, 2.060505
0.2455699, 2.060505
0.2455699, 2.060505
0.2455699, 2.060505
0.2455699, 2.060505
0.2455699, 2.060505
0.2455699, 2.060505
0.24557, 2.060505
0.24557, 2.060505
0.24557, 2.060505
0.2455699, 2.060505
0.2455699, 2.060505
0.24557, 2.060505
0.24557, 2.060505
0.2455699, 2.060505
0.24557, 2.060504
0.24557, 2.060505
0.24557, 2.060505
0.24557, 2.060505
0.2455699, 2.060505
0.24557, 2.060505
0.24557, 2.060505
0.2455699, 2.060505
0.2455699, 2.060505
0.2455699, 2.060505
0.2455701, 2.060505
0.2455702, 2.060505
0.2455702, 2.060505
0.2455702, 2.060505
0.2455702, 2.060505
0.24557, 2.060505
0.24557, 2.060505
0.2455701, 2.060505
0.2455701, 2.060505
0.24557, 2.060505
0.2455699, 2.060505
0.24557, 2.060505
0.24557, 2.060505
0.2455699, 2.060505
0.24557, 2.060505
0.24557, 2.060505
0.24557, 2.060505
0.24557, 2.060505
0.2455699, 2.060505
0.2455699, 2.060505
0.2455699, 2.060505
0.2455699, 2.060505
0.2455699, 2.060505
0.2455699, 2.060505
0.2455699, 2.060505
0.2455699, 2.060505
0.2455699, 2.060505
0.2455699, 2.060505
0.2455699, 2.060505
0.2455699, 2.060505
0.2455699, 2.060505
0.2455699, 2.060505
0.2455699, 2.060505
0.2455699, 2.060505
0.2455699, 2.060505
0.2455699, 2.060505
0.2455699, 2.060505
0.2455699, 2.060505
0.2455699, 2.060505
0.2455699, 2.060505
0.2455699, 2.060505
0.2455699, 2.060505
0.2455699, 2.060505
0.2455699, 2.060505
0.2455699, 2.060505
0.2455699, 2.060505
0.2455699, 2.060505
0.2455699, 2.060505
0.2455699, 2.060505
0.2455699, 2.060505
0.2455699, 2.060505
0.2455699, 2.060505
0.2455699, 2.060505
0.2455699, 2.060505
0.2455699, 2.060505
0.2455699, 2.060505
0.2455699, 2.060505
0.2455699, 2.060505
0.2455699, 2.060505
0.2455699, 2.060505
0.2455699, 2.060505
0.2455699, 2.060505
0.2455699, 2.060505
0.2455699, 2.060505
0.2455699, 2.060505
0.2455699, 2.060505
0.2455699, 2.060505
0.2455699, 2.060505
0.2455699, 2.060505
0.2455699, 2.060505
0.2455699, 2.060505
0.2455699, 2.060505
0.2455699, 2.060505
0.2455699, 2.060505
0.2455699, 2.060505
0.2455699, 2.060505
0.2455699, 2.060505
0.2455699, 2.060505
0.2455699, 2.060505
0.2455699, 2.060505
0.2455699, 2.060505
0.2455699, 2.060505
0.2455699, 2.060505
