0, 1
0, 1
0, 1
0, 1
0, 1
0, 1
0, 1
0, 1
0, 1
0, 1
0, 1
0, 1
0, 1
0, 1
0, 1
0, 1
0, 1
0, 1
0, 1
0, 1
0, 1
0, 1
0, 1
0, 1
0, 1
5.404997E-11, 1
-8.980611E-10, 1
-2.461352E-09, 1
-3.940211E-09, 1
0.001229746, 0.9999902
0.0760516, 0.9966128
0.1764431, 0.9838178
0.2847271, 0.9580826
0.3878734, 0.9211633
0.4294741, 0.9030791
0.4294741, 0.9030791
0.4294741, 0.9030791
0.4294741, 0.9030791
0.4294741, 0.9030791
0.3886007, 0.9203442
0.2112318, 0.9756139
0.005953821, 0.9982694
-0.2043242, 0.9770393
-0.3763585, 0.9256052
-0.414131, 0.9102173
-0.414131, 0.9102173
-0.414131, 0.9102173
-0.414131, 0.9102173
-0.414131, 0.9102173
-0.414131, 0.9102173
-0.414131, 0.9102173
-0.414131, 0.9102173
-0.414131, 0.9102173
-0.414131, 0.9102173
-0.414131, 0.9102173
-0.414131, 0.9102173
-0.414131, 0.9102173
-0.414131, 0.9102173
-0.414131, 0.9102173
-0.414131, 0.9102173
-0.414131, 0.9102173
-0.414131, 0.9102173
-0.414131, 0.9102173
-0.414131, 0.9102173
-0.414131, 0.9102173
-0.414131, 0.9102173
-0.414131, 0.9102173
-0.414131, 0.9102173
-0.414131, 0.9102173
-0.414131, 0.9102173
-0.414131, 0.9102173
-0.414131, 0.9102173
-0.414131, 0.9102173
-0.414131, 0.9102173
-0.414131, 0.9102173
-0.414131, 0.9102173
-0.414131, 0.9102173
-0.414131, 0.9102173
-0.414131, 0.9102173
-0.414131, 0.9102173
-0.414131, 0.9102173
-0.414131, 0.9102173
-0.414131, 0.9102173
-0.414131, 0.9102173
-0.414131, 0.9102173
-0.414131, 0.9102173
-0.414131, 0.9102173
-0.414131, 0.9102173
-0.414131, 0.9102173
-0.414131, 0.9102173
-0.414131, 0.9102173
-0.414131, 0.9102173
-0.414131, 0.9102173
-0.414131, 0.9102173
-0.414131, 0.9102173
-0.414131, 0.9102173
-0.414131, 0.9102173
-0.414131, 0.9102173
-0.414131, 0.9102173
-0.414131, 0.9102173
-0.414131, 0.9102173
-0.414131, 0.9102173
-0.414131, 0.9102173
-0.414131, 0.9102173
-0.414131, 0.9102173
-0.414131, 0.9102174
-0.414131, 0.9102173
-0.414131, 0.9102173
-0.414131, 0.9102173
-0.414131, 0.9102173
-0.414131, 0.9102173
-0.414131, 0.9102173
-0.414131, 0.9102173
-0.414131, 0.9102173
-0.414131, 0.9102173
-0.414131, 0.9102173
-0.414131, 0.9102173
-0.414131, 0.9102173
-0.414131, 0.9102173
-0.414131, 0.9102173
-0.414131, 0.9102173
-0.414131, 0.9102173
-0.414131, 0.9102173
-0.414131, 0.9102173
-0.414131, 0.9102173
-0.414131, 0.9102173
-0.414131, 0.9102173
-0.414131, 0.9102173
-0.414131, 0.9102173
-0.414131, 0.9102173
-0.414131, 0.9102173
-0.414131, 0.9102173
-0.414131, 0.9102173
-0.414131, 0.9102173
-0.414131, 0.9102173
-0.414131, 0.9102173
-0.414131, 0.9102173
-0.414131, 0.9102173
-0.414131, 0.9102173
-0.414131, 0.9102173
-0.414131, 0.9102173
-0.414131, 0.9102173
-0.414131, 0.9102173
-0.414131, 0.9102173
-0.414131, 0.9102173
-0.414131, 0.9102173
-0.414131, 0.9102173
-0.414131, 0.9102173
-0.414131, 0.9102173
-0.414131, 0.9102173
-0.414131, 0.9102173
-0.414131, 0.9102173
-0.414131, 0.9102173
-0.414131, 0.9102173
-0.414131, 0.9102173
-0.414131, 0.9102173
-0.414131, 0.9102173
-0.414131, 0.9102173
-0.414131, 0.9102173
-0.414131, 0.9102173
-0.414131, 0.9102173
-0.414131, 0.9102173
-0.414131, 0.9102173
-0.414131, 0.9102173
-0.414131, 0.9102173
-0.414131, 0.9102173
-0.414131, 0.9102173
-0.414131, 0.9102173
-0.414131, 0.9102173
-0.414131, 0.9102173
-0.414131, 0.9102173
-0.414131, 0.9102173
-0.414131, 0.9102173
-0.414131, 0.9102173
-0.414131, 0.9102173
-0.414131, 0.9102173
-0.414131, 0.9102173
-0.414131, 0.9102173
-0.414131, 0.9102173
-0.414131, 0.9102173
-0.414131, 0.9102173
-0.414131, 0.9102173
-0.414131, 0.9102173
-0.414131, 0.9102173
-0.414131, 0.9102173
-0.414131, 0.9102173
-0.414131, 0.9102173
-0.414131, 0.9102173
-0.414131, 0.9102173
-0.414131, 0.9102173
-0.414131, 0.9102173
-0.414131, 0.9102173
-0.414131, 0.9102173
-0.414131, 0.9102173
-0.414131, 0.9102173
-0.414131, 0.9102173
-0.414131, 0.9102173
-0.414131, 0.9102173
-0.414131, 0.9102173
-0.414131, 0.9102173
-0.414131, 0.9102173
-0.414131, 0.9102173
-0.414131, 0.9102173
-0.414131, 0.9102173
-0.414131, 0.9102173
-0.414131, 0.9102173
-0.414131, 0.9102173
-0.414131, 0.9102173
-0.414131, 0.9102173
-0.414131, 0.9102173
-0.414131, 0.9102173
-0.414131, 0.9102173
-0.414131, 0.9102173
-0.414131, 0.9102173
-0.414131, 0.9102173
-0.414131, 0.9102173
-0.414131, 0.9102173
-0.414131, 0.9102173
-0.414131, 0.9102173
-0.414131, 0.9102173
-0.414131, 0.9102173
-0.414131, 0.9102173
-0.414131, 0.9102173
-0.414131, 0.9102173
-0.414131, 0.9102173
-0.414131, 0.9102173
-0.414131, 0.9102173
-0.414131, 0.9102173
-0.414131, 0.9102173
-0.414131, 0.9102173
-0.414131, 0.9102173
-0.414131, 0.9102173
-0.414131, 0.9102173
-0.414131, 0.9102173
-0.414131, 0.9102173
-0.414131, 0.9102173
-0.414131, 0.9102173
-0.414131, 0.9102173
-0.414131, 0.9102173
-0.414131, 0.9102173
-0.414131, 0.9102173
-0.414131, 0.9102173
-0.414131, 0.9102173
-0.414131, 0.9102173
-0.414131, 0.9102173
-0.414131, 0.9102173
-0.414131, 0.9102173
-0.414131, 0.9102173
-0.414131, 0.9102173
-0.414131, 0.9102173
-0.414131, 0.9102173
-0.414131, 0.9102173
-0.414131, 0.9102173
-0.414131, 0.9102173
-0.414131, 0.9102174
-0.414131, 0.9102173
-0.414131, 0.9102173
-0.414131, 0.9102173
-0.414131, 0.9102173
-0.414131, 0.9102173
-0.414131, 0.9102173
-0.414131, 0.9102173
-0.414131, 0.9102173
-0.414131, 0.9102173
-0.414131, 0.9102173
-0.414131, 0.9102173
-0.414131, 0.9102173
-0.414131, 0.9102173
-0.414131, 0.9102173
-0.414131, 0.9102173
-0.414131, 0.9102173
-0.414131, 0.9102173
-0.414131, 0.9102173
-0.414131, 0.9102173
-0.414131, 0.9102173
-0.414131, 0.9102173
-0.414131, 0.9102173
-0.414131, 0.9102173
-0.414131, 0.9102173
-0.414131, 0.9102173
-0.414131, 0.9102173
-0.414131, 0.9102173
-0.414131, 0.9102173
-0.414131, 0.9102173
-0.414131, 0.9102173
-0.414131, 0.9102173
-0.414131, 0.9102173
-0.414131, 0.9102173
-0.414131, 0.9102173
-0.414131, 0.9102173
-0.414131, 0.9102173
-0.414131, 0.9102173
-0.414131, 0.9102173
-0.414131, 0.9102173
-0.414131, 0.9102173
-0.414131, 0.9102173
-0.414131, 0.9102173
-0.414131, 0.9102173
-0.414131, 0.9102173
-0.414131, 0.9102173
-0.414131, 0.9102173
-0.414131, 0.9102173
-0.414131, 0.9102173
-0.414131, 0.9102173
-0.414131, 0.9102173
-0.414131, 0.9102173
-0.414131, 0.9102173
-0.414131, 0.9102173
-0.414131, 0.9102173
-0.414131, 0.9102173
-0.414131, 0.9102173
-0.414131, 0.9102173
-0.414131, 0.9102173
-0.414131, 0.9102173
-0.414131, 0.9102173
-0.414131, 0.9102173
-0.414131, 0.9102173
-0.414131, 0.9102173
-0.414131, 0.9102173
-0.414131, 0.9102173
-0.414131, 0.9102173
-0.414131, 0.9102173
-0.414131, 0.9102173
-0.414131, 0.9102173
-0.414131, 0.9102173
-0.414131, 0.9102173
-0.414131, 0.9102173
-0.414131, 0.9102173
-0.414131, 0.9102173
-0.414131, 0.9102173
-0.414131, 0.9102173
-0.414131, 0.9102173
-0.414131, 0.9102173
-0.414131, 0.9102173
-0.414131, 0.9102173
-0.414131, 0.9102173
-0.414131, 0.9102173
-0.414131, 0.9102173
-0.414131, 0.9102173
-0.414131, 0.9102173
-0.414131, 0.9102173
-0.414131, 0.9102173
-0.414131, 0.9102173
-0.414131, 0.9102173
-0.414131, 0.9102173
-0.414131, 0.9102173
-0.414131, 0.9102173
-0.414131, 0.9102173
-0.414131, 0.9102173
-0.414131, 0.9102174
-0.414131, 0.9102174
-0.414131, 0.9102174
-0.414131, 0.9102173
-0.414131, 0.9102174
-0.414131, 0.9102174
-0.414131, 0.9102173
-0.414131, 0.9102173
-0.414131, 0.9102173
-0.414131, 0.9102173
-0.414131, 0.9102173
-0.414131, 0.9102173
-0.414131, 0.9102173
-0.414131, 0.9102173
-0.414131, 0.9102173
-0.414131, 0.9102173
-0.414131, 0.9102173
-0.414131, 0.9102173
-0.414131, 0.9102173
-0.414131, 0.9102173
-0.414131, 0.9102173
-0.414131, 0.9102173
-0.414131, 0.9102173
-0.414131, 0.9102173
-0.414131, 0.9102173
-0.414131, 0.9102173
-0.414131, 0.9102173
-0.414131, 0.9102173
-0.414131, 0.9102173
-0.414131, 0.9102173
-0.414131, 0.9102173
-0.414131, 0.9102173
-0.414131, 0.9102173
-0.414131, 0.9102173
-0.414131, 0.9102173
-0.414131, 0.9102173
-0.414131, 0.9102173
-0.414131, 0.9102173
-0.414131, 0.9102173
-0.414131, 0.9102173
-0.414131, 0.9102173
-0.414131, 0.9102173
-0.414131, 0.9102173
-0.414131, 0.9102173
-0.414131, 0.9102173
-0.414131, 0.9102173
-0.414131, 0.9102173
-0.414131, 0.9102173
-0.414131, 0.9102173
-0.414131, 0.9102173
-0.414131, 0.9102173
-0.414131, 0.9102173
-0.414131, 0.9102173
-0.414131, 0.9102173
-0.414131, 0.9102173
-0.414131, 0.9102173
-0.414131, 0.9102173
-0.414131, 0.9102173
-0.414131, 0.9102173
-0.414131, 0.9102173
-0.414131, 0.9102173
-0.414131, 0.9102173
-0.414131, 0.9102173
-0.414131, 0.9102173
-0.414131, 0.9102173
-0.414131, 0.9102173
-0.414131, 0.9102173
-0.414131, 0.9102173
-0.414131, 0.9102173
-0.414131, 0.9102173
-0.414131, 0.9102173
-0.414131, 0.9102173
-0.414131, 0.9102173
-0.414131, 0.9102173
-0.414131, 0.9102173
-0.414131, 0.9102173
-0.414131, 0.9102173
-0.414131, 0.9102173
-0.414131, 0.9102173
-0.414131, 0.9102173
-0.414131, 0.9102173
-0.414131, 0.9102174
-0.414131, 0.9102173
-0.414131, 0.9102173
-0.414131, 0.9102173
-0.414131, 0.9102173
-0.414131, 0.9102173
-0.414131, 0.9102173
-0.414131, 0.9102173
-0.414131, 0.9102173
-0.414131, 0.9102173
-0.414131, 0.9102173
-0.414131, 0.9102173
-0.414131, 0.9102173
-0.414131, 0.9102173
-0.414131, 0.9102173
-0.414131, 0.9102173
-0.414131, 0.9102173
-0.414131, 0.9102173
-0.414131, 0.9102173
-0.414131, 0.9102173
-0.414131, 0.9102173
-0.414131, 0.9102173
-0.414131, 0.9102173
-0.414131, 0.9102173
-0.414131, 0.9102173
-0.414131, 0.9102173
-0.414131, 0.9102173
-0.414131, 0.9102173
-0.414131, 0.9102173
-0.414131, 0.9102173
-0.414131, 0.9102173
-0.414131, 0.9102173
-0.414131, 0.9102173
-0.414131, 0.9102173
-0.414131, 0.9102173
-0.414131, 0.9102173
-0.414131, 0.9102173
-0.414131, 0.9102173
-0.414131, 0.9102173
-0.414131, 0.9102173
-0.414131, 0.9102173
-0.414131, 0.9102173
-0.414131, 0.9102173
-0.414131, 0.9102173
-0.414131, 0.9102173
-0.414131, 0.9102173
-0.414131, 0.9102173
-0.414131, 0.9102173
-0.414131, 0.9102173
-0.414131, 0.9102173
-0.414131, 0.9102173
-0.414131, 0.9102173
-0.414131, 0.9102173
-0.414131, 0.9102173
-0.414131, 0.9102173
-0.414131, 0.9102173
-0.414131, 0.9102173
-0.414131, 0.9102173
-0.414131, 0.9102173
-0.414131, 0.9102173
-0.414131, 0.9102173
-0.414131, 0.9102173
-0.414131, 0.9102173
-0.414131, 0.9102173
-0.414131, 0.9102173
-0.414131, 0.9102173
-0.414131, 0.9102173
-0.414131, 0.9102173
-0.414131, 0.9102173
-0.414131, 0.9102173
-0.414131, 0.9102173
-0.414131, 0.9102173
-0.414131, 0.9102173
-0.414131, 0.9102173
-0.414131, 0.9102173
-0.414131, 0.9102173
-0.414131, 0.9102173
-0.414131, 0.9102173
-0.414131, 0.9102173
-0.414131, 0.9102173
-0.414131, 0.9102173
-0.414131, 0.9102173
-0.414131, 0.9102173
-0.414131, 0.9102173
-0.414131, 0.9102173
-0.414131, 0.9102173
-0.414131, 0.9102173
-0.414131, 0.9102173
-0.414131, 0.9102173
-0.414131, 0.9102173
-0.414131, 0.9102173
-0.414131, 0.9102173
-0.414131, 0.9102173
-0.414131, 0.9102173
-0.414131, 0.9102173
-0.414131, 0.9102173
-0.414131, 0.9102173
-0.414131, 0.9102173
-0.414131, 0.9102173
-0.414131, 0.9102173
-0.414131, 0.9102173
-0.414131, 0.9102173
-0.414131, 0.9102173
-0.414131, 0.9102173
-0.414131, 0.9102173
-0.414131, 0.9102173
-0.414131, 0.9102173
-0.414131, 0.9102173
-0.414131, 0.9102173
-0.414131, 0.9102173
-0.414131, 0.9102173
-0.414131, 0.9102173
-0.414131, 0.9102173
-0.414131, 0.9102173
-0.414131, 0.9102173
-0.414131, 0.9102173
-0.414131, 0.9102173
-0.414131, 0.9102173
-0.414131, 0.9102173
-0.414131, 0.9102173
-0.414131, 0.9102173
-0.414131, 0.9102173
-0.414131, 0.9102173
-0.414131, 0.9102173
-0.414131, 0.9102173
-0.414131, 0.9102173
-0.414131, 0.9102173
-0.414131, 0.9102173
-0.414131, 0.9102173
-0.414131, 0.9102173
-0.414131, 0.9102173
-0.414131, 0.9102173
-0.414131, 0.9102173
-0.414131, 0.9102173
-0.414131, 0.9102173
-0.414131, 0.9102173
-0.414131, 0.9102173
-0.414131, 0.9102173
-0.414131, 0.9102173
-0.414131, 0.9102173
-0.414131, 0.9102173
-0.414131, 0.9102173
-0.414131, 0.9102173
-0.414131, 0.9102173
-0.414131, 0.9102173
-0.414131, 0.9102173
-0.414131, 0.9102173
-0.414131, 0.9102173
-0.414131, 0.9102173
-0.414131, 0.9102173
-0.414131, 0.9102173
-0.414131, 0.9102173
-0.414131, 0.9102173
-0.414131, 0.9102173
-0.414131, 0.9102173
-0.414131, 0.9102173
-0.414131, 0.9102173
-0.414131, 0.9102173
-0.414131, 0.9102173
-0.414131, 0.9102173
-0.414131, 0.9102173
-0.414131, 0.9102173
-0.414131, 0.9102173
-0.414131, 0.9102173
-0.414131, 0.9102173
-0.414131, 0.9102173
-0.414131, 0.9102173
-0.414131, 0.9102173
-0.414131, 0.9102173
-0.414131, 0.9102173
-0.414131, 0.9102173
-0.414131, 0.9102173
-0.414131, 0.9102173
-0.414131, 0.9102173
-0.414131, 0.9102173
-0.414131, 0.9102173
-0.414131, 0.9102173
-0.414131, 0.9102173
-0.414131, 0.9102173
-0.414131, 0.9102173
-0.414131, 0.9102173
-0.414131, 0.9102173
-0.414131, 0.9102173
-0.414131, 0.9102173
-0.414131, 0.9102173
-0.414131, 0.9102173
-0.414131, 0.9102173
-0.414131, 0.9102173
-0.414131, 0.9102173
-0.414131, 0.9102173
-0.414131, 0.9102173
-0.414131, 0.9102173
-0.414131, 0.9102173
-0.414131, 0.9102173
-0.414131, 0.9102173
-0.414131, 0.9102173
-0.414131, 0.9102173
-0.414131, 0.9102173
-0.414131, 0.9102173
-0.414131, 0.9102173
-0.414131, 0.9102173
-0.414131, 0.9102173
-0.414131, 0.9102173
-0.414131, 0.9102173
-0.414131, 0.9102173
-0.414131, 0.9102173
-0.414131, 0.9102173
-0.414131, 0.9102173
-0.414131, 0.9102173
-0.414131, 0.9102174
-0.414131, 0.9102174
-0.414131, 0.9102173
-0.414131, 0.9102174
-0.414131, 0.9102173
-0.414131, 0.9102173
-0.414131, 0.9102173
