0, 1
0, 1
0, 1
0, 1
0, 1
0, 1
0, 1
0, 1
0, 1
0, 1
0, 1
0, 1
0, 1
0, 1
0, 1
0, 1
0, 1
0, 1
0, 1
0, 1
0, 1
0, 1
0, 1
0, 1
0, 1
-0.001259774, 0.9999989
-0.005359447, 0.9999847
-0.01011084, 0.999948
-0.01456274, 0.9998933
-0.01758467, 0.9998376
0.08688462, 0.9951018
0.2358152, 0.9707286
0.3935632, 0.9180802
0.5375518, 0.8418931
0.598856, 0.8008566
0.598856, 0.8008566
0.598856, 0.8008566
0.598856, 0.8008566
0.598856, 0.8008566
0.5682645, 0.8220387
0.4377903, 0.8977771
0.2823883, 0.9581329
0.1150951, 0.9921655
-0.02886631, 0.99908
-0.06025444, 0.9981832
-0.06025444, 0.9981832
-0.06025444, 0.9981832
-0.06025444, 0.9981832
-0.06025444, 0.9981832
-0.06025444, 0.9981832
-0.06025444, 0.9981832
-0.06025444, 0.9981832
-0.06025444, 0.9981832
-0.06025444, 0.9981832
-0.06025444, 0.9981832
-0.06025444, 0.9981832
-0.06025444, 0.9981832
-0.06025444, 0.9981832
-0.06025444, 0.9981832
-0.06025444, 0.9981832
-0.06025444, 0.9981832
-0.06025444, 0.9981832
-0.06025444, 0.9981832
-0.06025444, 0.9981832
-0.06025444, 0.9981832
-0.06025444, 0.9981832
-0.06025444, 0.9981832
-0.06025444, 0.9981832
-0.06025444, 0.9981832
-0.06025444, 0.9981832
-0.06025444, 0.9981832
-0.06025444, 0.9981832
-0.06025444, 0.9981832
-0.06025444, 0.9981832
-0.06025444, 0.9981832
-0.06025444, 0.9981832
-0.06025444, 0.9981832
-0.06025444, 0.9981832
-0.06025444, 0.9981832
-0.06025444, 0.9981832
-0.06025444, 0.9981832
-0.06025444, 0.9981832
-0.06025444, 0.9981832
-0.06025444, 0.9981832
-0.06025444, 0.9981832
-0.06025444, 0.9981832
-0.06025444, 0.9981832
-0.06025444, 0.9981832
-0.06025444, 0.9981832
-0.06025444, 0.9981832
-0.06025444, 0.9981832
-0.06025444, 0.9981832
-0.06025444, 0.9981832
-0.06025444, 0.9981832
-0.06025444, 0.9981832
-0.06025444, 0.9981832
-0.06025444, 0.9981832
-0.06025444, 0.9981832
-0.06025443, 0.9981832
-0.06025444, 0.9981832
-0.06025444, 0.9981832
-0.06025444, 0.9981832
-0.06025443, 0.9981832
-0.06025442, 0.9981831
-0.06025444, 0.9981832
-0.06025443, 0.9981831
-0.06025442, 0.9981831
-0.06025442, 0.9981831
-0.06025443, 0.9981832
-0.06025444, 0.9981832
-0.06025444, 0.9981832
-0.06025444, 0.9981832
-0.06025444, 0.9981832
-0.06025444, 0.9981832
-0.06025444, 0.9981832
-0.06025444, 0.9981832
-0.06025444, 0.9981832
-0.06025444, 0.9981832
-0.06025444, 0.9981832
-0.06025444, 0.9981832
-0.06025444, 0.9981832
-0.06025444, 0.9981832
-0.06025444, 0.9981832
-0.06025444, 0.9981832
-0.06025444, 0.9981832
-0.06025444, 0.9981832
-0.06025444, 0.9981832
-0.06025444, 0.9981832
-0.06025444, 0.9981832
-0.06025444, 0.9981832
-0.06025444, 0.9981832
-0.06025444, 0.9981832
-0.06025444, 0.9981832
-0.06025444, 0.9981832
-0.06025444, 0.9981832
-0.06025444, 0.9981832
-0.06025444, 0.9981832
-0.06025444, 0.9981832
-0.06025444, 0.9981832
-0.06025444, 0.9981832
-0.06025444, 0.9981832
-0.06025444, 0.9981832
-0.06025444, 0.9981832
-0.06025444, 0.9981832
-0.06025444, 0.9981832
-0.06025444, 0.9981832
-0.06025444, 0.9981832
-0.06025444, 0.9981832
-0.06025444, 0.9981832
-0.06025444, 0.9981832
-0.06025444, 0.9981832
-0.06025444, 0.9981832
-0.06025444, 0.9981832
-0.06025444, 0.9981832
-0.06025444, 0.9981832
-0.06025444, 0.9981832
-0.06025444, 0.9981832
-0.06025444, 0.9981832
-0.06025444, 0.9981832
-0.06025444, 0.9981832
-0.06025444, 0.9981832
-0.06025444, 0.9981832
-0.06025444, 0.9981832
-0.06025444, 0.9981832
-0.06025444, 0.9981832
-0.06025444, 0.9981832
-0.06025444, 0.9981832
-0.06025444, 0.9981832
-0.06025444, 0.9981832
-0.06025444, 0.9981832
-0.06025444, 0.9981832
-0.06025444, 0.9981832
-0.06025444, 0.9981832
-0.06025444, 0.9981832
-0.06025444, 0.9981832
-0.06025444, 0.9981832
-0.06025444, 0.9981832
-0.06025444, 0.9981832
-0.06025444, 0.9981832
-0.06025444, 0.9981832
-0.06025444, 0.9981832
-0.06025444, 0.9981832
-0.06025444, 0.9981832
-0.06025444, 0.9981832
-0.06025444, 0.9981832
-0.06025444, 0.9981832
-0.06025444, 0.9981832
-0.06025444, 0.9981832
-0.06025444, 0.9981832
-0.06025444, 0.9981832
-0.06025444, 0.9981832
-0.06025444, 0.9981832
-0.06025444, 0.9981832
-0.06025444, 0.9981832
-0.06025444, 0.9981832
-0.06025444, 0.9981832
-0.06025444, 0.9981832
-0.06025444, 0.9981832
-0.06025444, 0.9981832
-0.06025444, 0.9981832
-0.06025444, 0.9981832
-0.06025444, 0.9981832
-0.06025444, 0.9981832
-0.06025444, 0.9981832
-0.06025444, 0.9981832
-0.06025444, 0.9981832
-0.06025444, 0.9981832
-0.06025444, 0.9981832
-0.06025444, 0.9981832
-0.06025444, 0.9981832
-0.06025444, 0.9981832
-0.06025444, 0.9981832
-0.06025444, 0.9981832
-0.06025444, 0.9981832
-0.06025444, 0.9981832
-0.06025444, 0.9981832
-0.06025444, 0.9981832
-0.06025444, 0.9981832
-0.06025444, 0.9981832
-0.06025444, 0.9981832
-0.06025444, 0.9981832
-0.06025444, 0.9981832
-0.06025444, 0.9981832
-0.06025444, 0.9981832
-0.06025444, 0.9981832
-0.06025444, 0.9981832
-0.06025444, 0.9981832
-0.06025444, 0.9981832
-0.06025444, 0.9981832
-0.06025444, 0.9981832
-0.06025444, 0.9981832
-0.06025444, 0.9981832
-0.06025444, 0.9981832
-0.06025444, 0.9981832
-0.06025444, 0.9981832
-0.06025444, 0.9981832
-0.06025444, 0.9981832
-0.06025444, 0.9981832
-0.06025444, 0.9981832
-0.06025444, 0.9981832
-0.06025444, 0.9981832
-0.06025444, 0.9981832
-0.06025444, 0.9981832
-0.06025444, 0.9981832
-0.06025444, 0.9981832
-0.06025444, 0.9981832
-0.06025444, 0.9981832
-0.06025444, 0.9981832
-0.06025444, 0.9981832
-0.06025444, 0.9981832
-0.06025444, 0.9981832
-0.06025444, 0.9981832
-0.06025444, 0.9981832
-0.06025442, 0.9981831
-0.06025443, 0.9981831
-0.06025444, 0.9981832
-0.06025444, 0.9981832
-0.06025444, 0.9981832
-0.06025444, 0.9981832
-0.06025444, 0.9981832
-0.06025443, 0.9981832
-0.06025443, 0.9981832
-0.06025444, 0.9981832
-0.06025444, 0.9981832
-0.06025444, 0.9981832
-0.06025444, 0.9981832
-0.06025444, 0.9981832
-0.06025444, 0.9981832
-0.06025443, 0.9981832
-0.06025444, 0.9981832
-0.06025443, 0.9981832
-0.06025442, 0.9981831
-0.06025442, 0.9981831
-0.06025442, 0.9981831
-0.06025444, 0.9981832
-0.06025444, 0.9981832
-0.06025444, 0.9981832
-0.06025444, 0.9981832
-0.06025444, 0.9981832
-0.06025444, 0.9981832
-0.06025444, 0.9981832
-0.06025444, 0.9981832
-0.06025444, 0.9981832
-0.06025444, 0.9981832
-0.06025444, 0.9981832
-0.06025444, 0.9981832
-0.06025444, 0.9981832
-0.06025444, 0.9981832
-0.06025444, 0.9981832
-0.06025444, 0.9981832
-0.06025444, 0.9981832
-0.06025444, 0.9981832
-0.06025444, 0.9981832
-0.06025444, 0.9981832
-0.06025444, 0.9981832
-0.06025444, 0.9981832
-0.06025444, 0.9981832
-0.06025444, 0.9981832
-0.06025444, 0.9981832
-0.06025444, 0.9981832
-0.06025444, 0.9981832
-0.06025444, 0.9981832
-0.06025444, 0.9981832
-0.06025444, 0.9981832
-0.06025444, 0.9981832
-0.06025444, 0.9981832
-0.06025444, 0.9981832
-0.06025444, 0.9981832
-0.06025444, 0.9981832
-0.06025444, 0.9981832
-0.06025444, 0.9981832
-0.06025444, 0.9981832
-0.06025444, 0.9981832
-0.06025444, 0.9981832
-0.06025444, 0.9981832
-0.06025444, 0.9981832
-0.06025444, 0.9981832
-0.06025444, 0.9981832
-0.06025444, 0.9981832
-0.06025444, 0.9981832
-0.06025444, 0.9981832
-0.06025444, 0.9981832
-0.06025444, 0.9981832
-0.06025444, 0.9981832
-0.06025444, 0.9981832
-0.06025444, 0.9981832
-0.06025444, 0.9981832
-0.06025444, 0.9981832
-0.06025444, 0.9981832
-0.06025444, 0.9981832
-0.06025444, 0.9981832
-0.06025444, 0.9981832
-0.06025444, 0.9981832
-0.06025444, 0.9981832
-0.06025444, 0.9981832
-0.06025444, 0.9981832
-0.06025444, 0.9981832
-0.06025444, 0.9981832
-0.06025444, 0.9981832
-0.06025444, 0.9981832
-0.06025444, 0.9981832
-0.06025444, 0.9981832
-0.06025444, 0.9981832
-0.06025444, 0.9981832
-0.06025444, 0.9981832
-0.06025444, 0.9981832
-0.06025444, 0.9981832
-0.06025444, 0.9981832
-0.06025444, 0.9981832
-0.06025443, 0.9981831
-0.06025443, 0.9981831
-0.06025443, 0.9981831
-0.06025442, 0.9981831
-0.06025443, 0.9981831
-0.06025443, 0.9981831
-0.06025444, 0.9981832
-0.06025444, 0.9981832
-0.06025444, 0.9981832
-0.06025444, 0.9981832
-0.06025444, 0.9981832
-0.06025444, 0.9981832
-0.06025444, 0.9981832
-0.06025444, 0.9981832
-0.06025444, 0.9981832
-0.06025444, 0.9981832
-0.06025444, 0.9981832
-0.06025444, 0.9981832
-0.06025444, 0.9981832
-0.06025444, 0.9981832
-0.06025444, 0.9981832
-0.06025444, 0.9981832
-0.06025444, 0.9981832
-0.06025444, 0.9981832
-0.06025444, 0.9981832
-0.06025444, 0.9981832
-0.06025444, 0.9981832
-0.06025444, 0.9981832
-0.06025444, 0.9981832
-0.06025444, 0.9981832
-0.06025444, 0.9981832
-0.06025444, 0.9981832
-0.06025444, 0.9981832
-0.06025444, 0.9981832
-0.06025444, 0.9981832
-0.06025444, 0.9981832
-0.06025444, 0.9981832
-0.06025444, 0.9981832
-0.06025444, 0.9981832
-0.06025444, 0.9981832
-0.06025444, 0.9981832
-0.06025444, 0.9981832
-0.06025444, 0.9981832
-0.06025444, 0.9981832
-0.06025444, 0.9981832
-0.06025444, 0.9981832
-0.06025444, 0.9981832
-0.06025444, 0.9981832
-0.06025444, 0.9981832
-0.06025444, 0.9981832
-0.06025444, 0.9981832
-0.06025444, 0.9981832
-0.06025444, 0.9981832
-0.06025444, 0.9981832
-0.06025444, 0.9981832
-0.06025444, 0.9981832
-0.06025444, 0.9981832
-0.06025444, 0.9981832
-0.06025444, 0.9981832
-0.06025444, 0.9981832
-0.06025444, 0.9981832
-0.06025444, 0.9981832
-0.06025444, 0.9981832
-0.06025444, 0.9981832
-0.06025444, 0.9981832
-0.06025444, 0.9981832
-0.06025444, 0.9981832
-0.06025444, 0.9981832
-0.06025444, 0.9981832
-0.06025444, 0.9981832
-0.06025444, 0.9981832
-0.06025444, 0.9981832
-0.06025444, 0.9981832
-0.06025444, 0.9981832
-0.06025444, 0.9981832
-0.06025444, 0.9981832
-0.06025444, 0.9981832
-0.06025443, 0.9981832
-0.06025444, 0.9981832
-0.06025444, 0.9981832
-0.06025444, 0.9981832
-0.06025443, 0.9981831
-0.06025444, 0.9981832
-0.06025444, 0.9981832
-0.06025444, 0.9981832
-0.06025444, 0.9981832
-0.06025444, 0.9981832
-0.06025444, 0.9981832
-0.06025444, 0.9981832
-0.06025444, 0.9981832
-0.06025444, 0.9981832
-0.06025444, 0.9981832
-0.06025444, 0.9981832
-0.06025444, 0.9981832
-0.06025444, 0.9981832
-0.06025444, 0.9981832
-0.06025444, 0.9981832
-0.06025444, 0.9981832
-0.06025444, 0.9981832
-0.06025444, 0.9981832
-0.06025444, 0.9981832
-0.06025444, 0.9981832
-0.06025444, 0.9981832
-0.06025444, 0.9981832
-0.06025444, 0.9981832
-0.06025444, 0.9981832
-0.06025444, 0.9981832
-0.06025444, 0.9981832
-0.06025444, 0.9981832
-0.06025444, 0.9981832
-0.06025444, 0.9981832
-0.06025444, 0.9981832
-0.06025444, 0.9981832
-0.06025444, 0.9981832
-0.06025444, 0.9981832
-0.06025444, 0.9981832
-0.06025444, 0.9981832
-0.06025444, 0.9981832
-0.06025444, 0.9981832
-0.06025444, 0.9981832
-0.06025444, 0.9981832
-0.06025444, 0.9981832
-0.06025444, 0.9981832
-0.06025444, 0.9981832
-0.06025444, 0.9981832
-0.06025444, 0.9981832
-0.06025444, 0.9981832
-0.06025444, 0.9981832
-0.06025444, 0.9981832
-0.06025444, 0.9981832
-0.06025444, 0.9981832
-0.06025444, 0.9981832
-0.06025444, 0.9981832
-0.06025444, 0.9981832
-0.06025444, 0.9981832
-0.06025444, 0.9981832
-0.06025444, 0.9981832
-0.06025444, 0.9981832
-0.06025444, 0.9981832
-0.06025444, 0.9981832
-0.06025444, 0.9981832
-0.06025444, 0.9981832
-0.06025444, 0.9981832
-0.06025444, 0.9981832
-0.06025444, 0.9981832
-0.06025444, 0.9981832
-0.06025444, 0.9981832
-0.06025444, 0.9981832
-0.06025444, 0.9981832
-0.06025444, 0.9981832
-0.06025444, 0.9981832
-0.06025444, 0.9981832
-0.06025444, 0.9981832
-0.06025444, 0.9981832
-0.06025444, 0.9981832
-0.06025444, 0.9981832
-0.06025444, 0.9981832
-0.06025444, 0.9981832
-0.06025444, 0.9981832
-0.06025444, 0.9981832
-0.06025444, 0.9981832
-0.06025444, 0.9981832
-0.06025444, 0.9981832
-0.06025444, 0.9981832
-0.06025444, 0.9981832
-0.06025444, 0.9981832
-0.06025444, 0.9981832
-0.06025444, 0.9981832
-0.06025444, 0.9981832
-0.06025444, 0.9981832
-0.06025444, 0.9981832
-0.06025444, 0.9981832
-0.06025444, 0.9981832
-0.06025444, 0.9981832
-0.06025444, 0.9981832
-0.06025444, 0.9981832
-0.06025444, 0.9981832
-0.06025444, 0.9981832
-0.06025444, 0.9981832
-0.06025444, 0.9981832
-0.06025444, 0.9981832
-0.06025444, 0.9981832
-0.06025444, 0.9981832
-0.06025444, 0.9981832
-0.06025444, 0.9981832
-0.06025444, 0.9981832
-0.06025444, 0.9981832
-0.06025444, 0.9981832
-0.06025444, 0.9981832
-0.06025444, 0.9981832
-0.06025444, 0.9981832
-0.06025444, 0.9981832
-0.06025444, 0.9981832
-0.06025444, 0.9981832
-0.06025444, 0.9981832
-0.06025444, 0.9981832
-0.06025444, 0.9981832
-0.06025444, 0.9981832
-0.06025444, 0.9981832
-0.06025444, 0.9981832
-0.06025444, 0.9981832
-0.06025444, 0.9981832
-0.06025444, 0.9981832
-0.06025444, 0.9981832
-0.06025444, 0.9981832
-0.06025444, 0.9981832
-0.06025444, 0.9981832
-0.06025444, 0.9981832
-0.06025444, 0.9981832
-0.06025444, 0.9981832
-0.06025444, 0.9981832
-0.06025444, 0.9981832
-0.06025444, 0.9981832
-0.06025444, 0.9981832
-0.06025444, 0.9981832
-0.06025444, 0.9981832
-0.06025444, 0.9981832
-0.06025444, 0.9981832
-0.06025444, 0.9981832
-0.06025444, 0.9981832
-0.06025444, 0.9981832
-0.06025444, 0.9981832
-0.06025444, 0.9981832
-0.06025444, 0.9981832
-0.06025444, 0.9981832
-0.06025444, 0.9981832
-0.06025444, 0.9981832
-0.06025444, 0.9981832
-0.06025444, 0.9981832
-0.06025444, 0.9981832
-0.06025444, 0.9981832
-0.06025444, 0.9981832
-0.06025444, 0.9981832
-0.06025444, 0.9981832
-0.06025444, 0.9981832
-0.06025444, 0.9981832
-0.06025444, 0.9981832
-0.06025444, 0.9981832
-0.06025444, 0.9981832
-0.06025444, 0.9981832
-0.06025444, 0.9981832
-0.06025444, 0.9981832
-0.06025444, 0.9981832
-0.06025444, 0.9981832
-0.06025444, 0.9981832
-0.06025444, 0.9981832
-0.06025444, 0.9981832
-0.06025444, 0.9981832
-0.06025444, 0.9981832
-0.06025444, 0.9981832
-0.06025444, 0.9981832
-0.06025444, 0.9981832
-0.06025444, 0.9981832
-0.06025444, 0.9981832
-0.06025444, 0.9981832
-0.06025444, 0.9981832
-0.06025444, 0.9981832
-0.06025444, 0.9981832
-0.06025444, 0.9981832
-0.06025444, 0.9981832
-0.06025444, 0.9981832
-0.06025444, 0.9981832
-0.06025444, 0.9981832
-0.06025444, 0.9981832
-0.06025444, 0.9981832
-0.06025444, 0.9981832
-0.06025444, 0.9981832
-0.06025444, 0.9981832
-0.06025444, 0.9981832
-0.06025444, 0.9981832
-0.06025444, 0.9981832
-0.06025444, 0.9981832
-0.06025444, 0.9981832
-0.06025444, 0.9981832
-0.06025444, 0.9981832
-0.06025444, 0.9981832
-0.06025444, 0.9981832
-0.06025444, 0.9981832
-0.06025444, 0.9981832
-0.06025444, 0.9981832
-0.06025444, 0.9981832
-0.06025444, 0.9981832
-0.06025444, 0.9981832
-0.06025444, 0.9981832
-0.06025444, 0.9981832
-0.06025444, 0.9981832
-0.06025444, 0.9981832
-0.06025444, 0.9981832
-0.06025444, 0.9981832
-0.06025444, 0.9981832
-0.06025443, 0.9981831
-0.06025443, 0.9981831
-0.06025443, 0.9981832
-0.06025442, 0.9981831
-0.06025442, 0.9981831
-0.06025444, 0.9981832
-0.06025444, 0.9981832
