0, 0.1111111
-0.0001786684, 0.4845086
-0.0006672118, 0.5762112
-0.00126864, 0.6773102
-0.002847401, 0.7876101
-0.01640193, 0.8895549
-0.04721437, 0.9821607
-0.09909038, 1.073404
-0.1197918, 1.101582
-0.1197916, 1.101582
-0.1197915, 1.101582
-0.1197917, 1.101582
-0.1197916, 1.101581
-0.119792, 1.101581
-0.1262555, 1.097857
-0.1925112, 1.053105
-0.2695229, 0.9818907
-0.33179, 0.9072582
-0.3793361, 0.8480463
-0.4335465, 0.7787628
-0.4891632, 0.6896079
-0.5291207, 0.604636
-0.5717264, 0.5104002
-0.6130217, 0.419026
-0.6277629, 0.3864071
-0.6277629, 0.3864071
-0.6277629, 0.3864071
-0.6277629, 0.3864071
-0.6302129, 0.3809808
-0.6587633, 0.317774
-0.693381, 0.2411624
-0.7280779, 0.1643602
-0.7621769, 0.08885583
-0.7952096, 0.01570811
-0.8293092, -0.05980466
-0.8646588, -0.1380855
-0.8971148, -0.2099595
-0.9292278, -0.2810733
-0.9374231, -0.2992223
-0.9377279, -0.2998975
-0.9600738, -0.3493901
-0.996479, -0.4300129
-1.016453, -0.4742469
-1.017105, -0.4756898
-1.041397, -0.5294932
-1.073463, -0.6005096
-1.080997, -0.6171942
-1.083561, -0.6228743
-1.113191, -0.6885006
-1.154453, -0.779897
-1.179001, -0.8342734
-1.179001, -0.8342734
-1.179001, -0.8342734
-1.179001, -0.8342734
-1.179001, -0.8342734
-1.179001, -0.8342734
-1.179001, -0.8342734
-1.179001, -0.8342734
-1.179001, -0.8342734
-1.179001, -0.8342734
-1.179001, -0.8342734
-1.179001, -0.8342734
-1.179001, -0.8342734
-1.179001, -0.8342734
-1.179001, -0.8342733
-1.179001, -0.8342735
-1.179002, -0.8342736
-1.179001, -0.8342733
-1.179001, -0.8342736
-1.179001, -0.8342739
-1.179, -0.8342739
-1.179, -0.8342739
-1.179, -0.8342742
-1.179001, -0.8342745
-1.179001, -0.834275
-1.179002, -0.8342757
-1.179003, -0.8342761
-1.179003, -0.8342761
-1.179003, -0.8342761
-1.179003, -0.8342758
-1.179003, -0.8342759
-1.179003, -0.8342762
-1.179003, -0.8342763
-1.179003, -0.8342766
-1.179003, -0.8342766
-1.179003, -0.8342765
-1.179003, -0.8342764
-1.179003, -0.8342761
-1.179003, -0.8342767
-1.179003, -0.8342771
-1.179003, -0.8342771
-1.179003, -0.8342771
-1.179003, -0.8342771
-1.179003, -0.8342771
-1.179003, -0.8342771
-1.179003, -0.8342771
-1.179003, -0.8342771
-1.179003, -0.8342771
-1.179003, -0.8342771
-1.179003, -0.8342771
-1.179003, -0.8342771
-1.179003, -0.834277
-1.179003, -0.834277
-1.179003, -0.834277
-1.179003, -0.834277
-1.179003, -0.8342771
-1.179003, -0.8342771
-1.179003, -0.834277
-1.179003, -0.834277
-1.179003, -0.834277
-1.179003, -0.834277
-1.179003, -0.8342771
-1.179003, -0.8342771
