0, 0
0, 0
0, 0
0, 0
0, 0
-9.211521E-06, 0.07175653
0.002035751, 0.1871281
0.01506652, 0.292397
0.03981031, 0.3937767
0.07462905, 0.4856057
0.1242319, 0.5765938
0.1885992, 0.6613659
0.2704028, 0.7516959
0.3571063, 0.846617
0.4436793, 0.9413916
0.5310886, 1.037081
0.6141346, 1.127993
0.6998469, 1.221825
0.7864354, 1.316616
0.8724123, 1.410738
0.9567661, 1.503081
1.039351, 1.593487
1.125701, 1.688014
1.212823, 1.783387
1.299058, 1.877788
1.385725, 1.972667
1.471501, 2.066569
1.557667, 2.1609
1.638905, 2.249833
1.672266, 2.286354
1.672266, 2.286354
1.672266, 2.286354
1.672266, 2.286354
1.672266, 2.286354
1.672266, 2.286354
1.672266, 2.286354
1.672266, 2.286354
1.672266, 2.286354
1.672266, 2.286354
1.672266, 2.286354
1.672266, 2.286354
1.672266, 2.286354
1.672266, 2.286354
1.672266, 2.286354
1.672267, 2.286353
1.672269, 2.286352
1.672271, 2.286351
1.672272, 2.28635
1.672274, 2.28635
1.672276, 2.286349
1.672277, 2.286349
1.672279, 2.286348
1.67228, 2.286347
1.672281, 2.286346
1.672283, 2.286346
1.672284, 2.286346
1.672285, 2.286345
1.672286, 2.286345
1.672287, 2.286345
1.672289, 2.286343
1.67229, 2.286343
1.672292, 2.286342
1.672293, 2.286342
1.672294, 2.286341
1.672296, 2.28634
1.672297, 2.286339
1.672297, 2.286339
1.672297, 2.286339
1.672299, 2.286339
1.6723, 2.286339
1.672302, 2.286338
1.672303, 2.286337
1.672305, 2.286336
1.672307, 2.286335
1.672308, 2.286335
1.672309, 2.286335
1.672311, 2.286333
1.672313, 2.286333
1.672314, 2.286332
1.672315, 2.286332
1.672317, 2.286331
1.672319, 2.28633
1.672319, 2.28633
1.672321, 2.286329
1.672322, 2.286329
1.672321, 2.286329
1.672321, 2.28633
1.672321, 2.286331
1.67232, 2.286331
1.67232, 2.286331
1.67232, 2.286331
1.67232, 2.286331
1.67232, 2.286331
1.67232, 2.286331
1.67232, 2.286331
1.67232, 2.286331
1.67232, 2.286331
1.67232, 2.286331
1.67232, 2.286331
1.67232, 2.286331
