0, 0
0, 0
0, 0
0, 0
0, 0
0, 0
0, 0
0, 0
0, 0
0, 0
0, 0
0, 0
0, 0
0, 0
0, 0.01899645
0, 0.1116839
0, 0.2171018
0, 0.3191371
0, 0.4247555
0.02334142, 0.5281663
0.1198886, 0.588645
0.2205602, 0.5891947
0.3220111, 0.5875206
0.4197503, 0.5741844
0.5189876, 0.5440497
0.6124493, 0.497963
0.69385, 0.4400573
0.7933779, 0.3904523
0.9400119, 0.3907818
1.088536, 0.3932508
1.231917, 0.3956466
1.377654, 0.4041568
1.518485, 0.4334049
1.637857, 0.4276246
1.713822, 0.3495007
1.75869, 0.213731
1.804222, 0.07247293
1.855351, -0.05105294
1.94551, -0.1095374
2.039516, -0.1577138
2.150415, -0.1599959
2.1692, -0.08618537
2.079469, -0.03762287
1.948342, -0.05454812
1.911244, -0.1443032
1.991525, -0.2095826
2.046804, -0.2379119
2.052333, -0.2407456
2.137782, -0.2490588
2.177912, -0.1711384
2.094139, -0.1152652
2.01619, -0.03808352
1.969716, 0.1000014
1.92589, 0.1695793
2.005424, 0.1288192
2.065913, 0.05834531
1.978834, 0.02077357
1.919427, 0.04891892
1.917967, 0.04966708
