0, 1
0, 1
0, 1
0, 1
0, 1
0, 1
0, 1
0, 1
0, 1
0, 1
0, 1
0, 1
0, 1
0, 1
0, 1
0, 1
0, 1
0, 1
0, 1
0, 1
0, 1
0, 1
0.06382436, 0.9970022
0.2164535, 0.9752046
0.3720651, 0.9269877
0.5184758, 0.8537937
0.6451821, 0.7627198
0.6952559, 0.7187623
0.6952559, 0.7187623
0.6952559, 0.7187623
0.6931781, 0.7207259
0.6085574, 0.7922371
0.4849022, 0.8738775
0.4560776, 0.8899401
0.4560776, 0.8899401
0.4560776, 0.8899401
0.4560776, 0.8899401
0.4560776, 0.88994
0.4560776, 0.88994
0.4560776, 0.88994
0.4560776, 0.88994
0.4560776, 0.88994
0.4560776, 0.8899401
0.4560776, 0.88994
0.4560776, 0.88994
0.4560776, 0.8899401
0.4560776, 0.8899401
0.4560776, 0.8899401
0.4560776, 0.8899401
0.4560776, 0.8899401
0.4560776, 0.8899401
0.4560776, 0.88994
0.4560776, 0.88994
0.4560776, 0.88994
0.4560776, 0.88994
0.4560776, 0.88994
0.4560776, 0.88994
0.4560776, 0.88994
0.4560776, 0.8899401
