0, 1
0, 1
0, 1
0, 1
0, 1
0, 1
0, 1
0, 1
0, 1
0, 1
0, 1
0, 1
0, 1
0, 1
0, 1
0, 1
0, 1
0, 1
0, 1
1.124859E-05, 1
0.003565932, 0.9999914
0.01197613, 0.9999248
0.02118298, 0.9997723
0.03120683, 0.999508
0.04125296, 0.9991449
0.05101134, 0.9986942
0.06111373, 0.9981264
0.07109036, 0.9974657
0.08087091, 0.9967209
0.09102797, 0.9958436
0.1010664, 0.9948756
0.1106305, 0.993858
0.1205928, 0.9926976
0.1283448, 0.9917292
0.1288901, 0.991659
0.1296927, 0.9915538
0.1360469, 0.9906992
0.144788, 0.9894596
0.1482754, 0.988946
0.1482754, 0.988946
0.1485507, 0.9889047
0.1537677, 0.9881042
0.162684, 0.9866744
0.172145, 0.9850675
0.1820817, 0.9832792
0.1917349, 0.9814425
0.2011508, 0.9795567
0.2047409, 0.9788161
0.2047409, 0.9788161
0.2055507, 0.9786459
0.212079, 0.9772493
0.2215263, 0.9751499
0.2310151, 0.9729463
0.2402315, 0.9707119
0.2498826, 0.9682713
0.2594664, 0.9657483
0.268698, 0.9632206
0.2784279, 0.9604526
0.2882483, 0.957551
0.2975673, 0.9546974
0.3070817, 0.9516781
0.3164628, 0.9486011
0.3256341, 0.9454917
0.3298798, 0.9440231
0.32988, 0.9440231
0.3298802, 0.944023
0.3298802, 0.944023
0.3298802, 0.944023
0.3720545, 0.9272652
0.5141912, 0.8563347
0.6487443, 0.7597236
0.7594926, 0.6487975
0.8529472, 0.5198666
0.9270617, 0.3724371
0.9742343, 0.2202317
0.9972422, 0.05637248
0.9931437, -0.1092988
0.9640999, -0.2615083
0.9099237, -0.4120308
0.8252286, -0.5630571
0.7269198, -0.6849098
0.6004412, -0.7981929
0.4542175, -0.8895749
0.305604, -0.9509968
0.1582242, -0.9863812
0.02531994, -0.9995266
0.0704024, -0.9964377
0.2141399, -0.9760768
0.2434634, -0.9698838
0.2272952, -0.9738194
0.2149675, -0.9766147
0.2033885, -0.9790928
0.1932343, -0.9811484
0.1836668, -0.9829849
0.1738485, -0.9847677
0.1637293, -0.9865009
0.1541572, -0.988043
0.08999203, -0.9951837
0.02863686, -0.9995743
0.01395761, -0.9998972
0.00317385, -0.9999905
-0.001145766, -0.999954
0.08109856, -0.9965039
0.0793744, -0.9968335
0.06807147, -0.997678
0.05917621, -0.9982439
0.04835713, -0.9988236
0.04276187, -0.9990854
0.04266477, -0.9990894
0.03830529, -0.9992638
0.03511066, -0.9993836
0.03511066, -0.9993836
0.03511066, -0.9993837
0.03511066, -0.9993837
0.03511066, -0.9993837
0.03511066, -0.9993837
0.03511066, -0.9993837
0.03511066, -0.9993837
0.03511066, -0.9993837
0.03511066, -0.9993837
0.03511066, -0.9993837
0.03511066, -0.9993837
0.03511066, -0.9993837
0.03511066, -0.9993837
0.03511066, -0.9993837
0.03511066, -0.9993837
0.03511066, -0.9993837
0.03511066, -0.9993837
0.03511066, -0.9993837
0.03511066, -0.9993837
0.03511066, -0.9993837
0.03511066, -0.9993837
0.03511066, -0.9993837
0.03511066, -0.9993837
0.03511066, -0.9993837
0.03511066, -0.9993836
0.03511066, -0.9993837
0.03511066, -0.9993837
0.03511066, -0.9993837
0.03511066, -0.9993837
0.03511066, -0.9993837
0.03511066, -0.9993837
0.03511066, -0.9993837
0.03511066, -0.9993837
0.03511066, -0.9993837
0.03511066, -0.9993837
0.03511066, -0.9993837
0.03511066, -0.9993837
0.03511066, -0.9993837
0.03511066, -0.9993836
0.03511066, -0.9993837
0.03511066, -0.9993837
0.03511066, -0.9993837
0.03511066, -0.9993837
0.03511066, -0.9993837
0.03511066, -0.9993836
0.03511066, -0.9993836
0.03511066, -0.9993836
0.03511066, -0.9993836
0.03511066, -0.9993836
0.03511066, -0.9993836
0.03511066, -0.9993835
0.03511066, -0.9993836
0.03511066, -0.9993837
0.03511066, -0.9993836
0.03511066, -0.9993836
0.03511066, -0.9993837
0.03511066, -0.9993836
0.03511066, -0.9993836
0.03511066, -0.9993836
0.03511066, -0.9993837
0.03511066, -0.9993837
0.03511066, -0.9993836
0.03511066, -0.9993836
0.03511066, -0.9993836
0.03511066, -0.9993836
0.03511066, -0.9993837
0.03511066, -0.9993836
0.03511066, -0.9993837
0.03511066, -0.9993836
0.03511066, -0.9993837
0.03511066, -0.9993836
0.03511066, -0.9993837
0.03511066, -0.9993836
0.03511066, -0.9993837
0.03511066, -0.9993837
0.03511066, -0.9993837
0.03511066, -0.9993836
0.03511066, -0.9993836
0.03511066, -0.9993836
0.03511066, -0.9993837
0.03511066, -0.9993837
0.03511066, -0.9993837
0.03511066, -0.9993836
0.03511066, -0.9993836
0.03511066, -0.9993837
0.03511066, -0.9993837
0.03511066, -0.9993836
0.03511066, -0.9993837
0.03511066, -0.9993837
0.03511066, -0.9993836
0.03511066, -0.9993837
0.03511066, -0.9993837
0.03511066, -0.9993837
0.03511066, -0.9993837
0.03511066, -0.9993837
0.03511066, -0.9993836
0.03511066, -0.9993836
0.03511066, -0.9993836
0.03511066, -0.9993836
0.03511066, -0.9993836
0.03511066, -0.9993836
0.03511066, -0.9993836
0.03511066, -0.9993836
0.03511066, -0.9993836
0.03511066, -0.9993837
0.03511066, -0.9993836
0.03511066, -0.9993837
0.03511066, -0.9993837
0.03511066, -0.9993837
0.03511066, -0.9993836
0.03511066, -0.9993837
0.03511066, -0.9993837
0.03511066, -0.9993837
0.03511066, -0.9993837
0.03511066, -0.9993837
0.03511066, -0.9993836
0.03511066, -0.9993837
0.03511066, -0.9993837
0.03511066, -0.9993837
0.03511066, -0.9993837
0.03511066, -0.9993837
0.03511066, -0.9993837
0.03511066, -0.9993837
0.03511066, -0.9993837
0.03511066, -0.9993837
0.03511066, -0.9993837
0.03511066, -0.9993837
0.03511066, -0.9993837
0.03511066, -0.9993837
0.03511066, -0.9993837
0.03511066, -0.9993837
0.03511066, -0.9993836
0.03511066, -0.9993836
0.03511066, -0.9993837
0.03511066, -0.9993836
0.03511066, -0.9993837
0.03511066, -0.9993837
0.03511066, -0.9993837
0.03511066, -0.9993837
0.03511066, -0.9993837
0.03511066, -0.9993837
0.03511066, -0.9993837
0.03511066, -0.9993837
0.03511066, -0.9993837
0.03511066, -0.9993837
0.03511066, -0.9993837
0.03511066, -0.9993837
0.03511066, -0.9993837
0.03511066, -0.9993836
0.03511066, -0.9993836
0.03511066, -0.9993836
0.03511066, -0.9993836
0.03511066, -0.9993836
0.03511066, -0.9993836
0.03511066, -0.9993837
0.03511066, -0.9993837
0.03511066, -0.9993837
0.03511066, -0.9993837
0.03511066, -0.9993837
0.03511066, -0.9993836
0.03511066, -0.9993836
0.03511066, -0.9993836
0.03511066, -0.9993837
0.03511066, -0.9993837
0.03511066, -0.9993837
0.03511066, -0.9993837
0.03511066, -0.9993837
0.03511066, -0.9993836
0.03511066, -0.9993837
0.03511066, -0.9993837
0.03511066, -0.9993837
0.03511066, -0.9993837
0.03511066, -0.9993837
0.03511066, -0.9993836
0.03511066, -0.9993837
0.03511066, -0.9993837
0.03511066, -0.9993837
0.03511066, -0.9993837
0.03511066, -0.9993837
0.03511066, -0.9993837
0.03511066, -0.9993837
0.03511066, -0.9993837
0.03511066, -0.9993837
0.03511066, -0.9993836
0.03511066, -0.9993837
0.03511066, -0.9993836
0.03511066, -0.9993837
0.03511066, -0.9993837
0.03511066, -0.9993836
0.03511066, -0.9993837
0.03511066, -0.9993836
0.03511066, -0.9993837
0.03511066, -0.9993837
0.03511066, -0.9993837
0.03511066, -0.9993837
0.03511066, -0.9993837
0.03511066, -0.9993837
0.03511066, -0.9993837
0.03511066, -0.9993837
0.03511066, -0.9993837
0.03511066, -0.9993837
0.03511066, -0.9993837
0.03511066, -0.9993836
0.03511066, -0.9993835
0.03511066, -0.9993836
0.03511066, -0.9993836
0.03511066, -0.9993837
0.03511066, -0.9993837
0.03511066, -0.9993837
0.03511066, -0.9993837
0.03511066, -0.9993837
0.03511066, -0.9993837
0.03511066, -0.9993837
0.03511066, -0.9993837
0.03511066, -0.9993837
0.03511066, -0.9993837
0.03511066, -0.9993837
0.03511066, -0.9993837
0.03511066, -0.9993837
0.03511066, -0.9993836
0.03511066, -0.9993836
0.03511066, -0.9993837
0.03511066, -0.9993836
0.03511066, -0.9993836
0.03511066, -0.9993836
0.03511066, -0.9993837
0.03511066, -0.9993837
0.03511066, -0.9993837
0.03511066, -0.9993837
0.03511066, -0.9993837
0.03511066, -0.9993837
0.03511066, -0.9993837
0.03511066, -0.9993837
0.03511066, -0.9993837
0.03511066, -0.9993837
0.03511066, -0.9993837
0.03511066, -0.9993837
0.03511066, -0.9993837
0.03511066, -0.9993836
0.03511066, -0.9993836
0.03511066, -0.9993837
0.03511066, -0.9993836
0.03511066, -0.9993837
0.03511066, -0.9993837
0.03511066, -0.9993837
0.03511066, -0.9993837
0.03511066, -0.9993837
0.03511066, -0.9993836
0.03511066, -0.9993836
0.03511066, -0.9993837
0.03511066, -0.9993837
0.03511066, -0.9993836
0.03511066, -0.9993837
0.03511066, -0.9993837
0.03511066, -0.9993836
0.03511066, -0.9993836
0.03511066, -0.9993836
0.03511066, -0.9993837
0.03511066, -0.9993837
0.03511066, -0.9993836
0.03511066, -0.9993837
0.03511066, -0.9993837
0.03511066, -0.9993837
0.03511066, -0.9993835
0.03511066, -0.9993836
0.03511066, -0.9993837
0.03511066, -0.9993837
0.03511066, -0.9993837
0.03511066, -0.9993837
0.03511066, -0.9993837
0.03511066, -0.9993836
0.03511066, -0.9993836
0.03511066, -0.9993837
0.03511066, -0.9993837
0.03511066, -0.9993837
0.03511066, -0.9993837
0.03511066, -0.9993837
0.03511066, -0.9993837
0.03511066, -0.9993837
0.03511066, -0.9993837
0.03511066, -0.9993837
0.03511066, -0.9993837
0.03511066, -0.9993836
0.03511066, -0.9993837
0.03511066, -0.9993837
0.03511066, -0.9993837
0.03511066, -0.9993837
0.03511066, -0.9993837
0.03511066, -0.9993837
0.03511066, -0.9993837
0.03511066, -0.9993836
0.03511066, -0.9993837
0.03511066, -0.9993837
0.03511066, -0.9993836
0.03511066, -0.9993836
0.03511066, -0.9993836
0.03511066, -0.9993837
0.03511066, -0.9993837
0.03511066, -0.9993837
0.03511066, -0.9993837
0.03511066, -0.9993837
0.03511066, -0.9993837
0.03511066, -0.9993837
0.03511066, -0.9993837
0.03511066, -0.9993836
0.03511066, -0.9993836
0.03511066, -0.9993836
0.03511066, -0.9993836
0.03511066, -0.9993837
0.03511066, -0.9993836
0.03511066, -0.9993837
0.03511066, -0.9993837
0.03511066, -0.9993836
0.03511066, -0.9993836
0.03511066, -0.9993836
0.03511066, -0.9993837
0.03511066, -0.9993836
