0, 1
0, 1
0, 1
1.995691E-10, 1
2.949188E-10, 1
7.65015E-10, 1
9.313226E-10, 1
9.313226E-10, 1
9.313226E-10, 1
9.313226E-10, 1
9.313226E-10, 1
9.313226E-10, 1
9.313226E-10, 1
1.038783E-09, 1
1.002963E-09, 1
-3.58201E-10, 1
0, 1
0, 1
0, 1
0, 1
-3.559778E-13, 1
-4.5225E-09, 1
-9.127358E-09, 1
-1.262701E-08, 1
-1.493866E-08, 1
-1.567519E-08, 1
-2.11065E-08, 1
-2.791284E-08, 1
-2.72199E-08, 1
-3.179934E-08, 1
-3.269129E-08, 1
-4.143619E-08, 1
-4.398454E-08, 1
-4.603797E-08, 1
-4.81978E-08, 1
-5.043211E-08, 1
0.1293291, 0.9878904
0.4118011, 0.9073381
0.6568919, 0.7490886
0.851647, 0.5163227
0.9672756, 0.2392625
0.9947023, -0.05417282
0.9338384, -0.3468514
0.7955072, -0.6001482
0.5726677, -0.8148862
0.297736, -0.9507726
0.002975689, -0.9964303
-0.2943529, -0.9519619
-0.5590812, -0.8244569
-0.7784467, -0.6217514
-0.9292217, -0.3586608
-0.994696, -0.05468644
-0.9656424, 0.2439409
-0.8848922, 0.4648312
-0.8766734, 0.4810859
-0.8766735, 0.4810859
-0.8660631, 0.4988005
-0.7190899, 0.6896598
-0.5798207, 0.8147062
-0.5775499, 0.8163556
-0.5775499, 0.8163556
-0.5528181, 0.8322724
-0.39527, 0.9182395
-0.3837366, 0.9234427
-0.3837366, 0.9234427
-0.3526022, 0.9347439
-0.1598498, 0.9864401
-0.1358707, 0.9907265
-0.1358707, 0.9907265
-0.09058832, 0.9944328
0.007631267, 0.9999711
0.007631166, 0.9999711
0.007631138, 0.9999711
0.007631142, 0.9999711
0.007631124, 0.9999712
0.007631063, 0.9999711
0.007630964, 0.9999712
0.007630985, 0.9999711
0.007630925, 0.9999711
0.007630833, 0.9999711
0.007630773, 0.9999711
0.007630662, 0.9999711
0.007630679, 0.9999711
0.007630645, 0.9999711
0.007630541, 0.9999711
0.007630474, 0.9999711
0.007630527, 0.9999711
0.007630486, 0.999971
0.007630395, 0.9999711
0.007630358, 0.999971
0.007630288, 0.999971
0.007630253, 0.999971
0.007630263, 0.999971
0.007630252, 0.9999711
0.007630312, 0.9999711
0.007630324, 0.9999711
0.007630324, 0.9999711
0.007630324, 0.9999711
0.007630324, 0.9999711
0.007630324, 0.9999711
0.007630324, 0.9999711
0.007630324, 0.9999711
0.007630324, 0.9999712
0.007630324, 0.9999711
0.007630324, 0.9999712
0.007630324, 0.9999712
0.007630324, 0.9999712
0.007630324, 0.9999712
0.007630324, 0.9999712
0.007630324, 0.9999711
0.007630324, 0.9999711
0.007630324, 0.9999712
0.007630324, 0.9999712
0.007630324, 0.9999712
0.007630324, 0.9999712
0.007630324, 0.9999711
0.007630324, 0.9999711
0.007630324, 0.9999712
0.007630324, 0.9999711
0.007630324, 0.9999712
0.007630324, 0.9999711
0.007630324, 0.9999712
0.007630324, 0.9999712
0.007630324, 0.9999711
0.007630324, 0.9999712
0.007630324, 0.9999711
0.007630324, 0.9999712
0.007630324, 0.9999712
0.007630324, 0.9999712
0.007630324, 0.9999711
0.007630324, 0.9999711
0.007630324, 0.9999712
0.007630324, 0.9999711
0.007630324, 0.9999711
0.007630324, 0.9999711
0.007630324, 0.9999711
0.007630324, 0.999971
0.007630324, 0.999971
0.007630324, 0.999971
0.007630324, 0.9999711
