0, 0
0, 0
0, 0
0, 0
0, 0
0, 0
0, 0
0, 0
0, 0
0, 0
0, 0
0, 0
0, 0
0, 0
0, 0
-0.003759224, -0.04171919
-0.01243148, -0.1433855
-0.02002112, -0.245669
-0.0266082, -0.3523553
-0.03137881, -0.449186
-0.03221787, -0.4831911
0.03282904, -0.4779977
0.08154316, -0.4740306
0.08123057, -0.4703564
0.07466063, -0.3913525
0.06670871, -0.2856024
0.06013061, -0.181276
0.05497914, -0.07902409
0.05106836, 0.02425133
0.0483256, 0.1325778
0.04705588, 0.2326382
0.0470314, 0.3357556
0.04833001, 0.4406278
0.05099074, 0.5459422
0.05406605, 0.6306782
0.05437845, 0.6382151
0.05437845, 0.6382151
0.05437845, 0.6382151
0.05437845, 0.6382151
0.05437845, 0.6382151
0.05437845, 0.6382151
0.05437845, 0.6382151
0.05246037, 0.5941328
0.04829909, 0.4855805
0.04550607, 0.3804331
0.04404841, 0.2766855
0.04390246, 0.1727974
0.04513033, 0.06472055
0.04761792, -0.03873401
0.05130913, -0.139521
0.05639729, -0.243625
0.06169205, -0.3313284
0.06241661, -0.3423637
0.06241661, -0.3423637
0.06241661, -0.3423637
0.06241661, -0.3423637
0.06241661, -0.3423637
0.06241661, -0.3423637
0.06241661, -0.3423637
0.06241661, -0.3423637
0.06241661, -0.3423637
0.06241661, -0.3423637
0.06241661, -0.3423637
0.06241661, -0.3423637
0.06241661, -0.3423637
0.06241661, -0.3423637
0.06241661, -0.3423637
0.06135077, -0.3268581
0.05522186, -0.2335711
0.04928502, -0.1276461
0.04476566, -0.02410218
0.04157748, 0.07759406
0.03960777, 0.1824058
0.03894916, 0.2874236
0.03962556, 0.3901559
0.04162929, 0.4942885
0.0449383, 0.5994723
0.04930241, 0.7002128
0.05513296, 0.8082036
0.05390983, 0.9124706
0.03619613, 1.015451
0.001840562, 1.114169
-0.0477712, 1.20936
-0.09948161, 1.30347
-0.1428653, 1.385263
-0.1490231, 1.396996
-0.1113585, 1.324465
-0.06330124, 1.230606
-0.07588224, 1.114565
-0.1572585, 0.9934205
-0.2563778, 0.8877513
-0.3530112, 0.7966698
-0.3803983, 0.6961008
-0.3955693, 0.5903491
-0.3742297, 0.4838943
-0.2862946, 0.372231
-0.1835965, 0.2683028
-0.08630493, 0.176717
-0.05921791, 0.07909454
-0.03734477, -0.02228581
-0.06942097, -0.1387063
-0.1449273, -0.2635898
-0.2018664, -0.3836361
-0.1832851, -0.4877367
-0.1563034, -0.588171
-0.1429822, -0.6884613
-0.1381344, -0.7928011
-0.1320157, -0.8983735
-0.1224772, -1.002866
-0.1042636, -1.089832
-0.1004752, -1.103898
-0.1063249, -1.082843
-0.1318744, -0.9897252
-0.1573404, -0.8932043
-0.1778, -0.7939335
-0.1898483, -0.6907225
-0.1993846, -0.5866178
-0.2074145, -0.4825148
-0.2141346, -0.3776485
-0.2193881, -0.2755075
-0.2234972, -0.169796
-0.2262436, -0.0640813
-0.2276412, 0.04095263
-0.2276586, 0.1461426
-0.2263557, 0.2500635
-0.2237523, 0.3533545
-0.2198879, 0.456045
-0.2146707, 0.5607516
-0.2081122, 0.6656485
-0.2002041, 0.7700664
-0.190747, 0.876278
-0.1816397, 0.966499
-0.1801565, 0.980421
-0.1801565, 0.980421
-0.1801565, 0.980421
-0.1801565, 0.980421
-0.1801565, 0.980421
-0.1801565, 0.980421
-0.1801565, 0.980421
-0.1801565, 0.980421
-0.1801565, 0.980421
-0.1801565, 0.980421
-0.1801565, 0.980421
-0.1801565, 0.980421
-0.1801565, 0.980421
-0.1801565, 0.980421
-0.1801565, 0.980421
-0.1801565, 0.980421
-0.1801565, 0.980421
-0.1801565, 0.980421
-0.1801565, 0.980421
-0.1801565, 0.980421
-0.1801565, 0.980421
-0.1811006, 0.9718332
-0.189905, 0.8901385
-0.2003077, 0.7858168
-0.2098643, 0.676802
-0.2178016, 0.5702458
-0.2240879, 0.4682578
-0.2291375, 0.36607
-0.2329353, 0.2623395
-0.2353903, 0.1573317
-0.2364273, 0.06897568
-0.2365164, 0.05507093
-0.2365164, 0.05507093
-0.2365164, 0.05507093
-0.2365164, 0.05507093
-0.2365164, 0.05507093
-0.2365164, 0.05507093
