0, 0
0, 0
0, 0
0, 0
0, 0
0, 0
0, 0
0, 0
0, 0
0, 0
0, 0
0, 0
0, 0
0, 0
0, 0
0, 0
0, 0
0, 0
0, 0
0, 0
0, 0
0, 0
0, 0
0, 0
0, 0
0, 0
0, 0
0, 0
0, 0
0, 0
0, 0.0007080642
1.056882E-05, 0.07013132
4.279678E-05, 0.1831208
7.711621E-05, 0.2870556
0.0001141832, 0.3912007
0.0001493283, 0.4953639
0.0001869093, 0.6103405
0.0002214661, 0.7153321
0.000256988, 0.8313891
0.007950491, 0.957288
0.09241398, 1.061217
0.2002819, 1.169011
0.3282382, 1.287128
0.4508139, 1.366248
0.5749887, 1.418195
0.684416, 1.471719
0.6480153, 1.540462
0.5360682, 1.58071
0.3886108, 1.613994
0.2554615, 1.660047
0.1551868, 1.666762
0.06612371, 1.625187
-0.01688947, 1.568406
-0.08782066, 1.510738
-0.1690849, 1.444074
-0.2450149, 1.374018
-0.2836846, 1.256027
-0.3309114, 1.111953
-0.3945116, 0.9774513
-0.4283892, 0.8703963
-0.3764031, 0.7721955
-0.2735395, 0.6956612
-0.1857528, 0.6314653
-0.09553985, 0.5632547
-0.08137272, 0.5496282
-0.07922393, 0.5499614
-0.02225325, 0.5587948
0.0551347, 0.5799382
0.1203036, 0.6556776
0.1889679, 0.7495233
0.2645005, 0.8445205
0.3540045, 0.8866519
0.4511461, 0.9294506
0.5452321, 0.9861964
0.6262244, 1.04903
0.7015303, 1.122218
0.74555, 1.172925
0.7467007, 1.174356
0.7467005, 1.174356
0.7467003, 1.174356
0.7467003, 1.174356
0.7467003, 1.174356
0.7467003, 1.174356
0.7467003, 1.174356
0.7466998, 1.174356
0.7466996, 1.174356
0.7466993, 1.174356
0.7466993, 1.174356
0.7466993, 1.174356
0.7466994, 1.174356
0.7466994, 1.174356
0.7466994, 1.174356
0.7466993, 1.174356
0.7466994, 1.174356
0.7466994, 1.174356
0.7466993, 1.174356
0.7466993, 1.174356
0.7466993, 1.174356
0.7466993, 1.174356
0.7466993, 1.174356
0.7466993, 1.174356
0.7466993, 1.174356
0.7466993, 1.174356
0.7466993, 1.174356
0.7466993, 1.174356
0.7466993, 1.174356
0.7466993, 1.174356
0.7466993, 1.174356
0.7466993, 1.174356
0.7466993, 1.174356
0.7466993, 1.174356
0.7466993, 1.174356
0.7466993, 1.174356
0.7466993, 1.174356
0.7466993, 1.174356
