0, 0
0.07829025, -1.534726E-05
0.1601071, -0.0002394898
0.2352054, -0.0006786455
0.1980188, -0.0003603271
0.09611972, 0.0003439237
-0.003744075, 0.0006596468
-0.02534669, 0.0006851818
-0.02534669, 0.0006851819
-0.02534669, 0.0006851821
-0.02534669, 0.0006851819
-0.02534669, 0.000685182
-0.02534669, 0.0006851821
-0.02534669, 0.0006851821
-0.02534669, 0.0006851821
-0.02534669, 0.0006851821
-0.02534669, 0.0006851819
-0.02534669, 0.0006851821
-0.02534669, 0.0006851819
-0.02534669, 0.000685182
-0.02534669, 0.0006851818
-0.02534669, 0.0006851818
-0.02534669, 0.0006851816
-0.02534669, 0.0006851816
-0.02534669, 0.0006851815
-0.02534669, 0.0006851815
-0.02534669, 0.0006851818
-0.02534669, 0.0006851816
-0.0253467, 0.0006851817
-0.0253467, 0.0006851819
-0.0253467, 0.0006851816
-0.02534669, 0.0006851817
-0.0253467, 0.0006851821
-0.02534669, 0.0006851815
-0.02534669, 0.0006851818
-0.0253467, 0.0006851819
-0.0253467, 0.000685182
-0.0253467, 0.0006851821
-0.0253467, 0.0006851822
-0.0253467, 0.0006851818
-0.0253467, 0.0006851819
-0.0253467, 0.000685182
-0.0253467, 0.0006851817
-0.0412972, 0.006619484
-0.124963, 0.04504827
-0.2145953, 0.1041339
-0.2910256, 0.1754168
-0.3546466, 0.2581078
-0.4061448, 0.350238
-0.4536526, 0.4419492
-0.5003961, 0.5304723
-0.5271879, 0.5807412
-0.5271879, 0.5807412
-0.5342569, 0.5859224
-0.6068282, 0.633284
-0.7263052, 0.6322145
-0.8225723, 0.5707497
-0.8757039, 0.4865995
-0.9297006, 0.3999092
-0.9746582, 0.3070496
-1.004493, 0.206358
-1.017338, 0.1025771
-1.012971, -0.001962713
-0.992808, -0.1004846
-0.9798669, -0.2094705
-1.013384, -0.347453
-1.027673, -0.4955662
-1.017686, -0.6440822
-0.9667426, -0.752745
-0.8943788, -0.8069004
-0.8832865, -0.815259
-0.8832865, -0.815259
-0.8832865, -0.815259
-0.8832865, -0.8152591
-0.8832865, -0.8152591
-0.8832865, -0.8152591
-0.8832865, -0.8152591
-0.8832865, -0.815259
-0.8832865, -0.815259
