0, 1
0, 1
-1.611904E-10, 1
-9.978456E-11, 1
9.978456E-11, 1
-1.214046E-09, 1
-1.914393E-05, 1
0.01605128, 0.9996717
0.1138892, 0.9929983
0.2210348, 0.9747264
0.3251283, 0.9451824
0.4258493, 0.9042431
0.5208107, 0.8531283
0.6089185, 0.792648
0.6908152, 0.7223515
0.764539, 0.6437595
0.8333629, 0.5518917
0.8886703, 0.457401
0.9335384, 0.357197
0.9667858, 0.2534741
0.9891119, 0.1435631
0.9989414, 0.03441995
0.9968814, -0.07284031
0.983095, -0.1801934
0.9700588, -0.2428672
0.9700629, -0.2428543
0.988609, -0.1398228
0.9965769, 0.05752467
0.963663, 0.2603386
0.8904124, 0.4512729
0.7830809, 0.619345
0.6455967, 0.7614372
0.4784063, 0.8761677
0.2893662, 0.9553335
0.08688541, 0.9943913
-0.1267049, 0.9904473
-0.3169754, 0.9465166
-0.3966044, 0.9175535
-0.2971393, 0.9543033
-0.1883013, 0.9815942
-0.08004192, 0.9963543
0.02652766, 0.9991361
0.1373788, 0.9899868
0.2506043, 0.9672563
0.4097226, 0.9104172
0.5873075, 0.8071749
0.7392191, 0.6708935
0.8597119, 0.5074068
0.919052, 0.3940876
0.9211749, 0.3891488
0.9211753, 0.3891479
0.871812, 0.4865028
0.7588463, 0.6486219
0.6155515, 0.7862109
0.5321184, 0.8466646
0.5314006, 0.8471206
0.5314008, 0.8471205
0.5314006, 0.8471206
0.4882725, 0.8715848
0.3234927, 0.9446864
0.1501902, 0.9873935
-0.01851699, 0.9986775
-0.1843541, 0.9816589
-0.3413568, 0.9388227
-0.5057386, 0.8609816
-0.6638323, 0.7454846
-0.8020816, 0.5943422
-0.8971577, 0.4403067
-0.9117299, 0.4107895
-0.9119254, 0.410356
-0.9119551, 0.4102897
-0.9119552, 0.4102897
-0.9119552, 0.4102897
-0.9119553, 0.4102896
-0.9119553, 0.4102897
-0.9119553, 0.4102897
-0.9119553, 0.4102896
-0.9119552, 0.4102897
-0.9119552, 0.4102897
