0, 1
0, 1
0, 1
0, 1
0, 1
0, 1
0, 1
0, 1
0, 1
0, 1
0, 1
0, 1
0, 1
0, 1
0, 1
0, 1
0, 1
0, 1
0, 1
0, 1
0, 1
0, 1
0, 1
0.01969611, 0.9994838
0.156068, 0.9866012
0.3142344, 0.9481565
0.4687257, 0.882186
0.6027057, 0.7963887
0.7278205, 0.6840746
0.8344706, 0.5492548
0.8749021, 0.4841642
0.8109173, 0.5831947
0.6940826, 0.7183212
0.5670229, 0.8223472
0.4323275, 0.9005001
0.3014388, 0.9532204
0.2882972, 0.957518
0.3876935, 0.9205341
0.515079, 0.8568574
0.5282327, 0.8490995
0.5282327, 0.8490995
0.5282327, 0.8490994
0.5282327, 0.8490995
0.5282327, 0.8490995
0.5430574, 0.8393441
0.6594595, 0.7502731
0.7696196, 0.63666
0.8644797, 0.5003517
0.9354199, 0.3507285
0.9790273, 0.1975368
0.9983191, 0.03852977
0.9997386, -0.02286544
0.9997386, -0.02286544
0.9997386, -0.02286544
0.9997386, -0.02286544
0.9997386, -0.02286544
0.9997386, -0.02286544
0.9997386, -0.02286544
0.9997386, -0.02286544
0.9997386, -0.02286544
0.9997386, -0.02286544
0.9997386, -0.02286544
0.9997386, -0.02286544
0.9997386, -0.02286544
0.9997386, -0.02286544
0.9997386, -0.02286544
0.9997386, -0.02286544
0.9997386, -0.02286544
0.9997386, -0.02286544
0.9997386, -0.02286544
0.9997386, -0.02286544
0.9997386, -0.02286544
0.9997386, -0.02286544
0.9997386, -0.02286544
0.9997386, -0.02286544
0.9997386, -0.02286544
0.9997386, -0.02286544
0.9997386, -0.02286544
0.9997386, -0.02286544
0.9997386, -0.02286544
0.9997386, -0.02286544
0.9997386, -0.02286544
0.9997386, -0.02286544
0.9997386, -0.02286544
0.9997386, -0.02286544
0.9997386, -0.02286544
0.9997386, -0.02286544
0.9997386, -0.02286544
0.9997386, -0.02286544
0.9997386, -0.02286544
0.9997386, -0.02286544
0.9997386, -0.02286544
0.9997386, -0.02286544
0.9997386, -0.02286544
0.9997386, -0.02286544
0.9997386, -0.02286544
0.9997386, -0.02286544
0.9997386, -0.02286544
0.9997386, -0.02286544
0.9995197, 0.003566467
0.9869987, 0.1528657
0.9416456, 0.3333117
0.9030291, 0.429533
0.9019627, 0.4318139
0.9019625, 0.4318137
0.9019626, 0.4318141
0.9019626, 0.4318142
0.9019625, 0.4318142
0.9019626, 0.4318142
0.9019626, 0.4318142
0.9019626, 0.4318142
0.9019626, 0.4318142
0.9019626, 0.4318142
0.9019626, 0.4318142
0.9019626, 0.4318142
0.9019626, 0.4318142
0.9019626, 0.4318142
0.9019626, 0.4318142
0.9019626, 0.4318142
0.9019626, 0.4318142
0.9019626, 0.4318142
0.9019626, 0.4318142
0.9019626, 0.4318142
0.9019626, 0.4318142
0.9019626, 0.4318142
0.9019626, 0.4318142
0.9019626, 0.4318142
0.9019626, 0.4318142
0.9019626, 0.4318142
0.9019626, 0.4318142
0.9019626, 0.4318142
0.9019626, 0.4318142
0.9019626, 0.4318142
0.9019626, 0.4318142
0.9019626, 0.4318142
0.9019625, 0.4318142
0.9019626, 0.4318142
0.9019626, 0.4318142
0.9019625, 0.4318142
0.9019626, 0.4318142
0.9019626, 0.4318142
0.9019626, 0.4318142
0.9019626, 0.4318142
0.9019626, 0.4318142
0.9019626, 0.4318142
0.9019626, 0.4318142
0.9197416, 0.3903926
0.9688065, 0.2432661
0.9959085, 0.08015946
0.9959797, -0.07500239
0.9709124, -0.2349656
0.9168578, -0.3967501
0.8458518, -0.5313219
0.7626786, -0.6461892
0.7482115, -0.6634603
0.7482115, -0.6634603
0.7801151, -0.6240948
0.8606461, -0.5088696
0.8667411, -0.4987583
0.8667411, -0.4987583
0.8667411, -0.4987583
0.8667411, -0.4987583
0.8667411, -0.4987583
0.8581139, -0.5129102
0.7783155, -0.6259272
0.6934988, -0.7202808
0.6866837, -0.7269564
0.6866837, -0.7269564
0.6866837, -0.7269564
0.6866837, -0.7269564
0.6866837, -0.7269564
0.6866837, -0.7269564
0.6866837, -0.7269564
0.6866837, -0.7269564
0.6866837, -0.7269564
0.6866837, -0.7269564
0.6866837, -0.7269564
0.6866837, -0.7269564
0.6866837, -0.7269564
0.6866837, -0.7269564
0.6866837, -0.7269564
0.6866837, -0.7269564
0.6866837, -0.7269564
0.6866837, -0.7269564
0.6190957, -0.7840428
0.4812798, -0.8753744
0.3363962, -0.9404362
0.1789145, -0.9826576
0.06879412, -0.997627
0.05978144, -0.9981039
-0.06086123, -0.9970664
-0.227126, -0.9727079
-0.3857675, -0.9213275
-0.4384347, -0.8981715
-0.2983751, -0.9532853
-0.1336857, -0.9898271
0.02192706, -0.9986864
0.1108947, -0.9938323
0.1108947, -0.9938323
0.1108947, -0.9938323
0.1108947, -0.9938323
0.1108947, -0.9938323
0.1108947, -0.9938323
0.1108947, -0.9938323
0.1108947, -0.9938323
0.1108947, -0.9938323
0.1108947, -0.9938323
0.1108947, -0.9938323
0.1108947, -0.9938323
0.1108947, -0.9938323
0.1108947, -0.9938323
0.1108947, -0.9938323
0.1108947, -0.9938323
0.1108947, -0.9938323
0.1108947, -0.9938323
0.1108947, -0.9938323
0.1108947, -0.9938323
0.1108947, -0.9938323
0.1108947, -0.9938323
0.1108947, -0.9938323
0.1108947, -0.9938323
0.1108947, -0.9938323
0.1108947, -0.9938322
0.1108947, -0.9938323
0.1108947, -0.9938323
0.1108947, -0.9938323
0.1108947, -0.9938323
0.1108947, -0.9938323
0.1108947, -0.9938323
0.1108947, -0.9938323
0.1108947, -0.9938323
0.1108947, -0.9938323
0.1108947, -0.9938322
0.1108947, -0.9938322
0.1108947, -0.9938322
0.1108947, -0.9938322
0.1108947, -0.9938322
0.1108947, -0.9938323
0.1108947, -0.9938323
0.1108947, -0.9938323
0.1108947, -0.9938323
0.1108947, -0.9938323
0.1108947, -0.9938323
0.1108947, -0.9938323
0.1108947, -0.9938323
0.1108947, -0.9938323
0.1108947, -0.9938323
0.1108947, -0.9938323
0.1108947, -0.9938323
0.1108947, -0.9938323
0.1108947, -0.9938323
0.1221345, -0.9923409
0.2474938, -0.9678083
0.4072041, -0.9121125
0.5529559, -0.8317952
0.6583391, -0.7523642
0.6727613, -0.7398596
0.6727613, -0.7398596
0.6727613, -0.7398596
0.6727613, -0.7398596
0.6727613, -0.7398596
0.6727613, -0.7398596
0.6727613, -0.7398596
0.6727614, -0.7398596
0.6727614, -0.7398596
0.6727613, -0.7398596
0.6727613, -0.7398596
0.6727613, -0.7398596
0.6727613, -0.7398596
0.6727613, -0.7398596
0.6727613, -0.7398596
0.6727613, -0.7398596
0.6727613, -0.7398596
0.6727613, -0.7398596
0.6727613, -0.7398596
0.6727613, -0.7398596
0.6727613, -0.7398596
0.6727613, -0.7398596
0.6727614, -0.7398596
0.6727614, -0.7398596
0.6727614, -0.7398596
0.6727613, -0.7398596
0.6727613, -0.7398596
0.6727613, -0.7398596
0.6727613, -0.7398596
0.6727613, -0.7398596
