0, 0
0, 0
0, 0
0, 0
-3.717348E-07, 0.008279799
-3.066396E-05, 0.09534808
-9.376441E-05, 0.1941268
-0.0001693046, 0.3019405
-0.0002445822, 0.4089403
-0.0003142408, 0.5076693
-0.0003951486, 0.6165299
-0.0004756901, 0.7234612
-0.0005530714, 0.8255704
-0.0006326264, 0.9305533
-0.0007113929, 1.03647
-0.0007837294, 1.135079
-0.0008614995, 1.237024
-0.0009814799, 1.363749
-0.001056167, 1.445657
-0.001070669, 1.461595
-0.0009897026, 1.373667
-0.0008739068, 1.272866
-0.0007476081, 1.167933
-0.0006133541, 1.057495
-0.000482981, 0.952355
-0.0003519872, 0.8491853
-0.0002165575, 0.7425378
-8.558081E-05, 0.6379411
3.551634E-05, 0.5409655
0.0001653784, 0.4363377
0.0002975223, 0.3306309
0.0004187066, 0.2335804
0.0005508289, 0.1276352
0.0006408083, 0.05555199
0.0006433129, 0.05353983
0.0006433129, 0.05353983
0.0006433129, 0.05353983
0.0006433129, 0.05353983
0.0006433129, 0.05353983
0.0006624649, 0.03622979
0.0007101755, -0.003358014
0.0007101744, -0.003358013
0.0007101744, -0.003358012
0.0007101744, -0.003358012
0.0007101744, -0.003358013
0.0007101744, -0.003358013
0.0007101744, -0.003358013
0.0007518093, -0.03362881
0.0008021444, -0.06767546
0.0008021444, -0.06767546
0.0008021444, -0.06767546
0.0008021444, -0.06767546
0.0008021444, -0.06767546
0.0008021444, -0.06767546
0.0007268669, -0.02022188
0.0005272542, 0.08454684
0.000319301, 0.1856574
9.767711E-05, 0.292028
-0.0001284216, 0.3999516
-0.0003299575, 0.4959907
-0.0005485213, 0.5992848
-0.0007662463, 0.7026183
-0.0009760467, 0.8019407
-0.001199705, 0.9067715
-0.001422428, 1.011859
-0.001629167, 1.109702
-0.001847018, 1.212526
-0.002072224, 1.319299
-0.002287601, 1.42035
-0.002505862, 1.522803
-0.002664513, 1.598373
-0.002628537, 1.58055
-0.002413045, 1.487339
-0.002126336, 1.375426
-0.001847471, 1.268256
-0.001585324, 1.167338
-0.001312541, 1.062419
-0.001040947, 0.9583781
-0.0007792023, 0.8588281
-0.0005088342, 0.7560005
-0.0002350578, 0.6514418
2.807837E-05, 0.5514542
0.0003079749, 0.4457369
0.0005948773, 0.3381893
0.0008571148, 0.2394025
0.001130115, 0.1356799
0.00139798, 0.03338967
0.001652539, -0.06231576
0.001722962, -0.08895624
0.001722962, -0.08895624
0.001722962, -0.08895624
0.001775284, -0.1103205
0.001835734, -0.1344671
0.001835734, -0.1344671
0.001835734, -0.1344671
0.001835734, -0.1344671
0.001835734, -0.1344671
0.001835734, -0.1344671
0.001835734, -0.1344671
0.001835734, -0.1344671
0.001835734, -0.1344671
0.001835734, -0.1344671
0.001835734, -0.1344671
0.001835734, -0.1344671
0.001835734, -0.1344671
0.001835734, -0.1344671
0.001835734, -0.1344671
0.001835734, -0.1344671
0.001835734, -0.1344671
0.001835734, -0.1344671
0.001835734, -0.1344671
0.001835734, -0.1344671
0.001835734, -0.1344671
0.001835734, -0.1344671
0.001835734, -0.1344671
0.001835734, -0.1344671
0.001835734, -0.1344671
0.001835734, -0.1344671
0.001835734, -0.1344671
0.001835734, -0.1344671
0.001835734, -0.1344671
0.001835734, -0.1344671
0.001835734, -0.1344671
0.001835734, -0.1344671
0.001835734, -0.1344671
0.001835734, -0.1344671
0.001835734, -0.1344671
0.001835734, -0.1344671
0.001835734, -0.1344671
0.001835734, -0.1344671
0.001835734, -0.1344671
0.001835734, -0.1344671
0.001835734, -0.1344671
0.001835734, -0.1344671
0.001835734, -0.1344671
0.001835734, -0.1344671
0.001835734, -0.1344671
0.001835734, -0.1344671
0.001835734, -0.1344671
0.001835734, -0.1344671
0.001835734, -0.1344671
0.001835734, -0.1344671
0.001835734, -0.1344671
0.001835734, -0.1344671
0.001835734, -0.1344671
0.001835734, -0.1344671
0.001835734, -0.1344671
0.001835734, -0.1344671
0.001835734, -0.1344671
0.001835734, -0.1344671
0.001835734, -0.1344671
0.001835734, -0.1344671
0.001835734, -0.1344671
0.001835734, -0.1344671
0.001835734, -0.1344671
0.001835734, -0.1344671
0.001835734, -0.1344671
0.001835734, -0.1344671
0.001835734, -0.1344671
0.001835734, -0.1344671
0.001835734, -0.1344671
0.001835734, -0.1344671
0.001835734, -0.1344671
0.001835734, -0.1344671
0.001835734, -0.1344671
0.001835734, -0.1344671
0.001835734, -0.1344671
0.001835734, -0.1344671
0.001835734, -0.1344671
0.001835734, -0.1344671
0.001835734, -0.1344671
0.001835734, -0.1344671
0.001835734, -0.1344671
0.001835734, -0.1344671
0.001835734, -0.1344671
0.001835734, -0.1344671
0.001835734, -0.1344671
0.001835734, -0.1344671
0.001835734, -0.1344671
0.001835734, -0.1344671
0.001835734, -0.1344671
0.001835734, -0.1344671
0.001835734, -0.1344671
0.001835734, -0.1344671
0.001835734, -0.1344671
0.001835734, -0.1344671
0.001835734, -0.1344671
0.001835734, -0.1344671
0.001835734, -0.1344671
0.001835734, -0.1344671
0.001835734, -0.1344671
0.001835734, -0.1344671
0.001835734, -0.1344671
0.001835734, -0.1344671
0.001835734, -0.1344671
0.001835734, -0.1344671
0.001835734, -0.1344671
0.001835734, -0.1344671
0.001835734, -0.1344671
0.001835734, -0.1344671
0.001835734, -0.1344671
0.001835734, -0.1344671
0.001835734, -0.1344671
0.001835734, -0.1344671
0.001835738, -0.1344671
0.001835802, -0.1344672
0.001835749, -0.1344671
0.001835606, -0.134467
0.001835534, -0.1344669
0.001835438, -0.1344668
0.001835221, -0.1344667
0.001835016, -0.1344665
0.001834864, -0.1344665
0.001834799, -0.1344664
0.001834697, -0.1344663
0.001834809, -0.1344664
0.001834854, -0.1344664
0.001834959, -0.1344665
0.001834941, -0.1344665
0.001834832, -0.1344665
0.001834817, -0.1344664
0.001834817, -0.1344664
0.001834817, -0.1344664
0.01892978, -0.1372245
0.1114835, -0.1521298
0.2172892, -0.1691346
0.3226235, -0.1860588
0.4287835, -0.2031206
0.5281881, -0.2190969
0.6318994, -0.2357622
0.7348633, -0.2523085
0.8318284, -0.2678912
0.9338701, -0.2842883
1.039136, -0.3012048
1.139163, -0.3172809
1.241065, -0.3336568
1.345745, -0.3504784
1.443412, -0.366173
1.544225, -0.3823727
1.653206, -0.3998812
1.712531, -0.4094118
1.695548, -0.4066811
1.59525, -0.390584
1.490818, -0.373846
1.390556, -0.3577801
1.28416, -0.3407328
1.179695, -0.3239952
1.07844, -0.3077749
0.973151, -0.290908
0.8693037, -0.2742756
0.7686567, -0.2581547
0.663896, -0.2413721
0.5545339, -0.223855
0.4621105, -0.2090522
0.3583438, -0.1924313
0.2547919, -0.1758434
0.1584315, -0.1604066
0.0666033, -0.1456971
0.05246071, -0.1434316
0.05246071, -0.1434316
0.05246072, -0.1434316
0.05246072, -0.1434316
0.05246072, -0.1434316
0.05246072, -0.1434316
0.05246072, -0.1434316
0.05246072, -0.1434316
0.05246072, -0.1434316
0.05246071, -0.1434316
0.05246072, -0.1434316
0.05246072, -0.1434316
0.04907772, -0.1428888
-0.0183568, -0.1320848
-0.039092, -0.1287666
-0.039092, -0.1287666
-0.039092, -0.1287666
-0.039092, -0.1287666
-0.039092, -0.1287666
-0.039092, -0.1287666
-0.039092, -0.1287666
-0.039092, -0.1287666
-0.039092, -0.1287666
-0.039092, -0.1287666
-0.039092, -0.1287666
-0.039092, -0.1287666
-0.039092, -0.1287666
-0.039092, -0.1287666
-0.039092, -0.1287666
-0.039092, -0.1287666
-0.039092, -0.1287666
-0.039092, -0.1287666
-0.039092, -0.1287666
-0.039092, -0.1287666
-0.039092, -0.1287666
-0.039092, -0.1287666
-0.039092, -0.1287666
-0.039092, -0.1287666
-0.039092, -0.1287666
-0.039092, -0.1287666
-0.039092, -0.1287666
-0.039092, -0.1287666
-0.039092, -0.1287666
-0.039092, -0.1287666
-0.039092, -0.1287666
-0.039092, -0.1287666
-0.039092, -0.1287666
-0.039092, -0.1287666
-0.039092, -0.1287666
-0.039092, -0.1287666
-0.039092, -0.1287666
-0.039092, -0.1287666
-0.039092, -0.1287666
-0.039092, -0.1287666
-0.039092, -0.1287666
-0.039092, -0.1287666
-0.039092, -0.1287666
-0.039092, -0.1287666
-0.039092, -0.1287666
-0.039092, -0.1287666
-0.039092, -0.1287666
-0.039092, -0.1287666
-0.039092, -0.1287666
-0.039092, -0.1287666
-0.039092, -0.1287666
-0.039092, -0.1287666
-0.039092, -0.1287666
-0.039092, -0.1287666
-0.039092, -0.1287666
-0.039092, -0.1287666
-0.039092, -0.1287666
-0.039092, -0.1287666
-0.039092, -0.1287666
-0.039092, -0.1287666
-0.039092, -0.1287666
-0.039092, -0.1287666
-0.039092, -0.1287666
-0.039092, -0.1287666
-0.039092, -0.1287666
-0.039092, -0.1287666
-0.039092, -0.1287666
-0.039092, -0.1287666
-0.039092, -0.1287666
-0.039092, -0.1287666
-0.039092, -0.1287666
-0.039092, -0.1287666
-0.039092, -0.1287666
-0.039092, -0.1287666
-0.039092, -0.1287666
-0.039092, -0.1287666
-0.039092, -0.1287666
-0.039092, -0.1287666
-0.039092, -0.1287666
-0.039092, -0.1287666
-0.039092, -0.1287666
-0.039092, -0.1287666
-0.039092, -0.1287666
-0.039092, -0.1287666
-0.039092, -0.1287666
-0.039092, -0.1287666
-0.039092, -0.1287666
-0.039092, -0.1287666
-0.039092, -0.1287666
-0.039092, -0.1287666
-0.039092, -0.1287666
-0.039092, -0.1287666
-0.039092, -0.1287666
-0.039092, -0.1287666
-0.039092, -0.1287666
-0.039092, -0.1287666
-0.039092, -0.1287666
-0.039092, -0.1287666
-0.039092, -0.1287666
-0.039092, -0.1287666
-0.039092, -0.1287666
-0.039092, -0.1287666
