0, 1
0, 1
0, 1
0, 1
4.491204E-05, 1
0.003841069, 0.9999902
0.01252037, 0.999918
0.02269531, 0.9997379
0.03289429, 0.9994547
0.04239037, 0.9990978
0.0524401, 0.9986194
0.06263191, 0.9980325
0.07246887, 0.9973668
0.08270662, 0.9965693
0.09275332, 0.995685
0.1022765, 0.9947522
0.1110432, 0.9938129
0.1207134, 0.9926826
0.1309089, 0.9913906
0.1344276, 0.9909235
0.1391465, 0.9902688
0.1480077, 0.9889824
0.1579563, 0.9874417
0.1680853, 0.985768
0.1777832, 0.9840657
0.1875346, 0.982254
0.1976625, 0.9802654
0.2074846, 0.9782342
0.2168727, 0.9761963
0.2265398, 0.9739973
0.2362854, 0.9716796
0.2456169, 0.9693633
0.2552772, 0.9668632
0.262931, 0.9648141
0.2635369, 0.9646493
0.2635369, 0.9646493
0.2635369, 0.9646493
0.2635369, 0.9646493
0.2635369, 0.9646493
0.2638099, 0.9645746
0.2657741, 0.9640356
0.2658044, 0.9640272
0.2658041, 0.9640271
0.265804, 0.9640272
0.265804, 0.9640272
0.265804, 0.9640272
0.265804, 0.9640272
0.266534, 0.963825
0.2685471, 0.9632664
0.2685471, 0.9632664
0.2685471, 0.9632664
0.2685471, 0.9632664
0.2685471, 0.9632664
0.2685471, 0.9632664
0.2698497, 0.9629015
0.2768731, 0.9609028
0.2859419, 0.958243
0.2957005, 0.955276
0.3052587, 0.9522654
0.3141481, 0.9493703
0.3235743, 0.9461981
0.332835, 0.942981
0.3417839, 0.9397746
0.3512917, 0.9362613
0.360636, 0.9327024
0.3694974, 0.9292278
0.3787782, 0.9254829
0.3879314, 0.9216837
0.3969537, 0.9178343
0.4061928, 0.9137827
0.412942, 0.9107571
0.4135971, 0.9104599
0.4185937, 0.9081705
0.4274317, 0.9040423
0.4367302, 0.8995878
0.4456031, 0.8952264
0.4544654, 0.8907598
0.4631295, 0.8862863
0.4716309, 0.8817918
0.4804235, 0.8770318
0.4890343, 0.87226
0.4974243, 0.867503
0.5060082, 0.8625239
0.5147494, 0.8573353
0.5232757, 0.8521591
0.5318053, 0.8468614
0.5398289, 0.8417706
0.5478986, 0.8365403
0.5510955, 0.8344421
0.5510955, 0.8344421
0.5510955, 0.8344421
0.5514596, 0.8342014
0.5524235, 0.8335637
0.5524235, 0.8335637
0.5524235, 0.8335637
0.5524235, 0.8335637
0.5524235, 0.8335637
0.5524235, 0.8335637
0.5524235, 0.8335637
0.5524235, 0.8335637
0.5524235, 0.8335637
0.5524235, 0.8335637
0.5524235, 0.8335637
0.5524235, 0.8335637
0.5524235, 0.8335637
0.5524235, 0.8335637
0.5524235, 0.8335637
0.5524235, 0.8335637
0.5524235, 0.8335637
0.5524235, 0.8335637
0.5524235, 0.8335637
0.5524235, 0.8335637
0.5524235, 0.8335637
0.5524235, 0.8335637
0.5524235, 0.8335637
0.5524235, 0.8335637
0.5524235, 0.8335637
0.5524235, 0.8335637
0.5524235, 0.8335637
0.5524235, 0.8335637
0.5524235, 0.8335637
0.5524235, 0.8335637
0.5524235, 0.8335637
0.5524235, 0.8335637
0.5524235, 0.8335637
0.5524235, 0.8335637
0.5524235, 0.8335637
0.5524235, 0.8335637
0.5524235, 0.8335637
0.5524235, 0.8335637
0.5524235, 0.8335637
0.5524235, 0.8335637
0.5524235, 0.8335637
0.5524235, 0.8335637
0.5524235, 0.8335637
0.5524235, 0.8335637
0.5524235, 0.8335637
0.5524235, 0.8335637
0.5524235, 0.8335637
0.5524235, 0.8335637
0.5524235, 0.8335637
0.5524235, 0.8335637
0.5524235, 0.8335637
0.5524235, 0.8335637
0.5524235, 0.8335637
0.5524235, 0.8335637
0.5524235, 0.8335637
0.5524235, 0.8335637
0.5524235, 0.8335637
0.5524235, 0.8335637
0.5524235, 0.8335637
0.5524235, 0.8335637
0.5524235, 0.8335637
0.5524235, 0.8335637
0.5524235, 0.8335637
0.5524235, 0.8335637
0.5524235, 0.8335637
0.5524235, 0.8335637
0.5524235, 0.8335637
0.5524235, 0.8335637
0.5524235, 0.8335637
0.5524235, 0.8335637
0.5524235, 0.8335637
0.5524235, 0.8335637
0.5524235, 0.8335637
0.5524235, 0.8335637
0.5524235, 0.8335637
0.5524235, 0.8335637
0.5524235, 0.8335637
0.5524235, 0.8335637
0.5524235, 0.8335637
0.5524235, 0.8335637
0.5524235, 0.8335637
0.5524235, 0.8335637
0.5524235, 0.8335637
0.5524235, 0.8335637
0.5524235, 0.8335637
0.5524235, 0.8335637
0.5524235, 0.8335637
0.5524235, 0.8335637
0.5524235, 0.8335637
0.5524235, 0.8335637
0.5524235, 0.8335637
0.5524235, 0.8335637
0.5524235, 0.8335637
0.5524235, 0.8335637
0.5524235, 0.8335637
0.5524235, 0.8335637
0.5524235, 0.8335637
0.5524235, 0.8335637
0.5524235, 0.8335637
0.5524235, 0.8335637
0.5524235, 0.8335637
0.5524235, 0.8335637
0.5524235, 0.8335637
0.5524235, 0.8335637
0.5524235, 0.8335637
0.5524235, 0.8335637
0.5524235, 0.8335637
0.5524235, 0.8335637
0.5524235, 0.8335637
0.5524235, 0.8335637
0.5524235, 0.8335637
0.5524235, 0.8335637
0.5747588, 0.8177119
0.6931446, 0.7193538
0.7980679, 0.6006091
0.8837104, 0.4658407
0.9517338, 0.3041744
0.9868471, 0.1536792
0.9987614, -0.009597972
0.9820711, -0.1828694
0.9393535, -0.3389488
0.8730775, -0.4855846
0.782571, -0.6209223
0.6712046, -0.7397298
0.5504376, -0.8335958
0.4002458, -0.9150833
0.2407517, -0.9693214
0.09684945, -0.9947979
0.06621403, -0.9978055
0.06621403, -0.9978055
0.06621403, -0.9978055
0.06592941, -0.9978241
0.06128945, -0.9981179
0.05226012, -0.9986293
0.04154927, -0.9991314
0.03115599, -0.9995103
0.02151577, -0.999765
0.01149768, -0.9999294
0.001568612, -0.9999949
-0.007973416, -0.9999647
-0.01797943, -0.999834
-0.02816214, -0.9995989
-0.03792821, -0.9992768
-0.04787629, -0.9988489
-0.05781955, -0.998323
-0.06741975, -0.997721
-0.0771143, -0.9970185
-0.08724277, -0.9961825
-0.09465278, -0.9955101
-0.09532048, -0.9954464
-0.1012784, -0.9948546
-0.1107066, -0.9938492
-0.1204246, -0.9927187
-0.1305961, -0.9914309
-0.1404101, -0.9900897
-0.1502517, -0.9886435
-0.160115, -0.9870945
-0.1699242, -0.9854527
-0.179962, -0.9836692
-0.1900609, -0.9817678
-0.1997492, -0.9798429
-0.2091324, -0.9778836
-0.2190649, -0.9757057
-0.2287823, -0.9734735
-0.2380481, -0.9712497
-0.2472907, -0.9689386
-0.2495803, -0.9683542
-0.2495803, -0.9683542
-0.2495803, -0.9683542
-0.2495803, -0.9683542
-0.2495803, -0.9683542
-0.2495803, -0.9683542
-0.2495803, -0.9683542
-0.2495803, -0.9683542
-0.2495803, -0.9683542
-0.2495803, -0.9683542
-0.2495803, -0.9683542
-0.2495803, -0.9683542
-0.2495874, -0.9683523
-0.2521993, -0.9676741
-0.2540817, -0.9671829
-0.2540817, -0.9671829
-0.2540817, -0.9671829
-0.2540817, -0.9671828
-0.2540817, -0.9671829
-0.2540817, -0.9671829
-0.2540817, -0.9671829
-0.2540817, -0.9671829
-0.2540817, -0.9671828
-0.2540817, -0.9671828
-0.2540817, -0.9671828
-0.2540817, -0.9671829
-0.2540817, -0.9671829
-0.2540817, -0.9671829
-0.2540817, -0.9671829
-0.2540817, -0.9671829
-0.2540817, -0.9671829
-0.2540817, -0.9671829
-0.2540817, -0.9671829
-0.2540817, -0.9671829
-0.2540817, -0.9671829
-0.2540817, -0.9671829
-0.2540817, -0.9671829
-0.2540817, -0.9671828
-0.2540817, -0.9671828
-0.2540817, -0.9671829
-0.2540817, -0.9671829
-0.2540817, -0.9671829
-0.2540817, -0.9671828
-0.2540817, -0.9671829
-0.2540817, -0.9671829
-0.2540817, -0.9671829
-0.2540817, -0.9671827
-0.2540817, -0.9671828
-0.2540817, -0.9671828
-0.2540817, -0.9671829
-0.2540817, -0.9671829
-0.2540817, -0.9671829
-0.2540817, -0.9671829
-0.2540817, -0.9671828
-0.2540817, -0.9671828
-0.2540817, -0.9671829
-0.2540817, -0.9671829
-0.2540817, -0.9671829
-0.2540817, -0.9671829
-0.2540817, -0.9671828
-0.2540817, -0.9671828
-0.2540817, -0.9671829
-0.2540817, -0.9671829
-0.2540817, -0.9671829
-0.2540817, -0.9671829
-0.2540817, -0.9671829
-0.2540817, -0.9671829
-0.2540817, -0.9671829
-0.2540817, -0.9671829
-0.2540817, -0.9671829
-0.2540817, -0.9671829
-0.2540817, -0.9671829
-0.2540817, -0.9671829
-0.2540817, -0.9671829
-0.2540817, -0.9671829
-0.2540817, -0.9671829
-0.2540817, -0.9671829
-0.2540817, -0.9671829
-0.2540817, -0.9671829
-0.2540817, -0.9671829
-0.2540817, -0.9671829
-0.2540817, -0.9671829
-0.2540817, -0.9671829
-0.2540817, -0.9671829
-0.2540817, -0.9671829
-0.2540817, -0.9671829
-0.2540817, -0.9671829
-0.2540817, -0.9671829
-0.2540817, -0.9671829
-0.2540817, -0.9671829
-0.2540817, -0.9671829
-0.2540817, -0.9671829
-0.2540817, -0.9671829
-0.2540817, -0.9671829
-0.2540817, -0.9671829
-0.2540817, -0.9671829
-0.2540817, -0.9671828
-0.2540817, -0.9671828
-0.2540817, -0.9671828
-0.2540817, -0.9671829
-0.2540817, -0.9671829
-0.2540817, -0.9671829
-0.2540817, -0.9671829
-0.2540817, -0.9671829
-0.2540817, -0.9671829
-0.2540817, -0.9671829
-0.2540817, -0.9671829
-0.2540817, -0.9671829
-0.2540817, -0.9671829
-0.2540817, -0.9671829
-0.2540817, -0.9671829
-0.2540817, -0.9671829
-0.2540817, -0.9671829
-0.2540817, -0.9671828
-0.2540817, -0.9671828
-0.2540817, -0.9671829
