0, 1
0, 1
0, 1
0, 1
0, 1
0, 1
0, 1
0, 1
0, 1
0, 1
0, 1
0, 1
0, 1
0, 1
0, 1
0, 1
0, 1
0, 1
0, 1
0, 1
0, 1
0, 1
0, 1
0, 1
0, 1
0, 1
0, 1
0, 1
0, 1
0, 1
0, 1
0, 1
0, 1
0, 1
0.5000002, 0.8660253
0.5000002, 0.8660253
0.5000002, 0.8660253
0.5722827, 0.8187571
0.701222, 0.7113307
0.8105263, 0.583697
0.8526869, 0.5224223
0.8526869, 0.5224223
0.8526869, 0.5224223
0.8526869, 0.5224223
0.8526869, 0.5224223
0.8526869, 0.5224223
0.8526869, 0.5224223
0.8218136, 0.5681859
0.7178086, 0.6947226
0.6582937, 0.7527612
0.6582937, 0.7527611
0.6582937, 0.7527611
0.6582937, 0.7527612
0.6582937, 0.7527612
0.6582937, 0.7527612
0.6582937, 0.7527612
0.6582937, 0.7527612
0.6582937, 0.7527612
0.6582937, 0.7527612
0.6582937, 0.7527611
0.6582937, 0.7527611
0.6582937, 0.7527611
