0, 0
0, 0
4.318229E-06, 0.02424427
0.0002545979, 0.1185984
0.001363219, 0.2271151
0.003524362, 0.3334296
0.006569256, 0.4340831
0.01091635, 0.5424246
0.0161896, 0.6474164
0.02204749, 0.7449675
0.02933, 0.8493792
0.03759643, 0.9528116
0.04634838, 1.050337
0.05669182, 1.154394
0.06802464, 1.257749
0.07917845, 1.351238
0.09281681, 1.457237
0.1073468, 1.561723
0.1223761, 1.662398
0.1392258, 1.768045
0.1567524, 1.871111
0.1741846, 1.967902
0.1937454, 2.070806
0.2143014, 2.173301
0.2352051, 2.272352
0.2580197, 2.375421
0.2818218, 2.478019
0.3054914, 2.5757
0.3304195, 2.674491
0.3578945, 2.778835
0.3840973, 2.87441
0.4126694, 2.974786
0.4438275, 3.080266
0.4711503, 3.169422
0.5021982, 3.267401
0.5344663, 3.365803
0.5665362, 3.460445
0.5989384, 3.553345
0.6051598, 3.5709
0.6051598, 3.5709
0.6051598, 3.5709
0.6051598, 3.5709
0.6051598, 3.5709
0.6051598, 3.5709
0.6051598, 3.5709
0.6051598, 3.5709
0.6051598, 3.5709
0.6051598, 3.5709
0.6051598, 3.5709
0.6051598, 3.5709
0.6051598, 3.5709
0.6051598, 3.5709
0.6051598, 3.5709
0.6051598, 3.5709
0.6051598, 3.5709
0.6051598, 3.5709
0.6051598, 3.5709
0.6051598, 3.5709
0.6051598, 3.5709
0.6051598, 3.5709
0.6051598, 3.5709
0.6051598, 3.5709
0.6051598, 3.5709
0.6051598, 3.5709
0.6051598, 3.5709
0.6051598, 3.5709
0.6051598, 3.5709
0.6051598, 3.5709
0.6051598, 3.5709
0.6051598, 3.5709
0.6051598, 3.5709
0.6051598, 3.5709
0.6051598, 3.5709
0.6051598, 3.5709
0.6051598, 3.5709
0.6051598, 3.5709
0.6051598, 3.5709
0.6051598, 3.5709
0.6051598, 3.5709
0.6051598, 3.5709
0.6051598, 3.5709
0.6051598, 3.5709
0.6051598, 3.5709
0.6051598, 3.5709
0.6051598, 3.5709
0.6051598, 3.5709
0.6051598, 3.5709
0.6051598, 3.5709
0.6051598, 3.5709
0.6051598, 3.5709
0.6051598, 3.5709
0.6051598, 3.5709
0.6051598, 3.5709
0.6051598, 3.5709
0.6051598, 3.5709
0.6051598, 3.5709
0.6051598, 3.5709
0.6051598, 3.5709
0.6051598, 3.5709
0.6051598, 3.5709
0.6051598, 3.5709
0.6051598, 3.5709
0.6051598, 3.5709
0.6051599, 3.5709
0.6051599, 3.5709
0.6051599, 3.5709
0.6051599, 3.5709
0.6051599, 3.5709
0.6051599, 3.5709
0.6051598, 3.5709
0.6051599, 3.5709
0.6051599, 3.5709
0.6051599, 3.5709
0.60516, 3.5709
0.60516, 3.5709
0.6051599, 3.5709
0.60516, 3.5709
0.6051602, 3.5709
0.6051601, 3.5709
0.6051602, 3.5709
0.6051601, 3.5709
0.6051599, 3.5709
0.6051601, 3.5709
0.6051601, 3.5709
0.6148905, 3.559226
0.675922, 3.485703
0.7403249, 3.406938
0.8076559, 3.322981
0.8751171, 3.237047
0.9359712, 3.157889
0.9984071, 3.075065
1.061956, 2.988972
1.119331, 2.909593
1.179229, 2.825033
1.240725, 2.736321
1.296485, 2.654151
1.352338, 2.570116
1.41336, 2.476359
1.464931, 2.395447
1.519295, 2.308275
1.57429, 2.217965
1.625689, 2.131618
1.678217, 2.041389
1.731259, 1.948087
1.778806, 1.862473
1.828293, 1.771311
1.87737, 1.678698
1.922273, 1.591966
1.969522, 1.498475
2.016563, 1.402983
2.059371, 1.313847
2.104005, 1.218569
2.14779, 1.122558
2.187983, 1.032053
2.229897, 0.9352262
2.273689, 0.8312759
2.313358, 0.7343585
2.352253, 0.6365166
2.392587, 0.5318666
2.427621, 0.4381435
2.462542, 0.341868
2.500587, 0.2334995
2.533881, 0.1352933
2.56444, 0.04240866
2.597178, -0.06067238
2.627708, -0.160474
2.656877, -0.2594034
2.685252, -0.3594449
2.712074, -0.457879
2.73679, -0.5520726
2.76248, -0.6540447
2.786349, -0.7528893
2.809164, -0.8510478
2.832491, -0.9561471
2.85409, -1.058546
2.87355, -1.15558
2.893468, -1.260218
2.91191, -1.362823
2.92845, -1.460235
2.945062, -1.564296
2.960383, -1.666935
2.974195, -1.766052
2.987714, -1.87049
3.000073, -1.974099
3.010683, -2.071186
3.021028, -2.174516
3.022753, -2.192573
3.022753, -2.192573
3.022753, -2.192573
3.022753, -2.192573
3.022753, -2.192573
3.022754, -2.192573
3.022753, -2.192573
3.022754, -2.192573
3.022754, -2.192573
3.022754, -2.192573
3.022754, -2.192573
3.022754, -2.192573
3.022754, -2.192573
3.022754, -2.192573
3.022753, -2.192573
