0, 1
0, 1
0, 1
0, 1
0, 1
0, 1
0, 1
0, 1
0.01653424, 0.9995797
0.07890315, 0.9968824
0.03132397, 0.9986793
-0.1306076, 0.99033
-0.2854834, 0.9571797
-0.421906, 0.9061468
-0.3306829, 0.9426456
-0.1757649, 0.9832177
-0.01154156, 0.9988146
0.1576746, 0.9864587
0.3135353, 0.9481965
0.444079, 0.8955871
0.3489273, 0.9360282
0.1938166, 0.9798309
0.03617031, 0.9982887
-0.1342807, 0.9898046
-0.2942184, 0.9545089
-0.4332894, 0.9004046
-0.4763117, 0.8792766
-0.4763117, 0.8792766
-0.4763117, 0.8792766
-0.4763117, 0.8792765
-0.4763117, 0.8792766
-0.4763117, 0.8792766
-0.4763117, 0.8792766
-0.4763117, 0.8792766
-0.4763117, 0.8792766
-0.4763117, 0.8792766
-0.4763117, 0.8792766
-0.4763117, 0.8792766
-0.4650963, 0.8850451
-0.3422231, 0.9383666
-0.1898955, 0.9807197
-0.02437482, 0.998576
0.1427402, 0.9886026
0.2931689, 0.9550318
0.4476237, 0.8930635
0.5860146, 0.8088493
0.704057, 0.7087046
0.8096358, 0.5852343
0.8931422, 0.4472688
0.9291448, 0.3697163
0.9291448, 0.3697163
0.9291448, 0.3697163
0.9291448, 0.3697163
0.9291448, 0.3697163
0.9291448, 0.3697163
0.9291448, 0.3697163
0.9291448, 0.3697163
0.9291448, 0.3697164
0.9291447, 0.3697164
0.9291448, 0.3697164
0.9291448, 0.3697163
0.9291448, 0.3697163
