0, 1
0, 1
0, 1
0, 1
0, 1
0, 1
0.05135056, 0.9977692
0.2043304, 0.9778547
0.3589255, 0.932171
0.5074522, 0.8603555
0.6413215, 0.7658226
0.7582017, 0.6502441
0.8339721, 0.551639
0.8389076, 0.5442737
0.8434897, 0.5368271
0.9064296, 0.4197745
0.9551923, 0.2949894
0.9585744, 0.2848298
0.9563501, 0.2922191
0.9558154, 0.2939679
0.9558083, 0.2939911
0.9558083, 0.2939911
0.9558084, 0.2939911
0.9522821, 0.3046678
0.9048395, 0.4233198
0.8234664, 0.5653892
0.7195148, 0.6928508
0.6008486, 0.7981139
0.4657559, 0.8837482
0.3167844, 0.9472851
0.1552014, 0.9866973
-0.008874365, 0.9988286
-0.1707235, 0.9842219
-0.3186309, 0.9468737
-0.469872, 0.8815752
-0.6055217, 0.7943512
-0.7250694, 0.6871816
-0.8233323, 0.5657775
-0.9052906, 0.4222188
-0.9613146, 0.2717565
-0.9898494, 0.1401285
-0.9923772, 0.1232382
-0.9923767, 0.1232428
-0.9923116, 0.1237647
-0.986865, 0.1576996
-0.9502348, 0.3079183
-0.8864635, 0.4602776
-0.7977912, 0.6010906
-0.6887298, 0.7234719
-0.5601721, 0.8268819
-0.4132714, 0.9092875
-0.2554949, 0.9656902
-0.09598161, 0.9942159
0.07060903, 0.9963369
0.2321583, 0.9715546
0.3857898, 0.9213502
0.5301507, 0.8466514
0.6612662, 0.7486329
0.7752355, 0.6298521
0.8680221, 0.4942533
0.938115, 0.342933
0.9811125, 0.1880493
0.9985423, 0.04724363
0.9995037, 0.03147412
0.9993842, 0.03491474
0.9897929, 0.1351886
0.979828, 0.1998226
0.9781109, 0.2080751
0.9861619, 0.1605614
0.9973552, 0.07259916
0.9977747, 0.06667637
0.9991485, 0.02706843
0.9999742, -0.007205881
0.9999742, -0.007205881
0.9999742, -0.007205881
0.9999742, -0.007205881
0.9999742, -0.007205881
0.999971, -0.007611433
0.9999654, -0.008323157
0.9999654, -0.008323157
0.9999655, -0.008323157
0.9999711, -0.007574258
0.9999872, -0.00503987
0.9999885, -0.004794434
0.9999885, -0.004794434
0.9999885, -0.004794434
0.9999885, -0.004794434
0.9999885, -0.004794434
0.9999885, -0.004794434
0.9999846, -0.005518521
0.9999574, -0.009131421
0.9999337, -0.01152278
0.9999329, -0.01158737
0.9999274, -0.01204439
0.9999248, -0.01225434
0.9999247, -0.01225443
0.9999247, -0.01225443
0.9993872, 0.01611591
0.9942921, 0.1065109
0.9940548, 0.1088815
0.9940548, 0.1088815
0.9988061, 0.01926473
0.9993697, -0.03549588
0.9993699, -0.03549216
0.9993999, -0.034472
0.997934, 0.05389892
0.9959727, 0.08965708
0.9959727, 0.08965708
0.9959727, 0.08965708
0.9960388, 0.08887027
0.9988371, -0.01194083
0.9834411, -0.1747215
0.9411463, -0.3346196
0.8722051, -0.4868382
0.780734, -0.6230478
0.6673822, -0.7431802
0.5356162, -0.8431093
0.3899465, -0.9196753
0.2360909, -0.9705079
0.07706253, -0.9959695
-0.0862435, -0.995128
-0.2525989, -0.9664203
-0.402882, -0.9139643
-0.5460232, -0.8363493
-0.6829928, -0.728994
-0.789365, -0.6121146
-0.880955, -0.4707704
-0.9449352, -0.3239032
-0.9847518, -0.1680013
-0.9989975, -0.0410173
-0.999548, -0.03005988
-0.9972074, 0.0578733
-0.9879496, 0.1547485
-0.9878235, 0.1555781
-0.9878235, 0.1555781
-0.9878235, 0.1555781
-0.9878155, 0.1556292
-0.9877462, 0.1560684
-0.9876621, 0.1565997
-0.9875966, 0.1570129
-0.9875397, 0.15737
-0.987492, 0.1576695
-0.9874525, 0.157917
-0.9874167, 0.1581405
-0.9873836, 0.1583463
-0.987353, 0.158537
-0.9873275, 0.1586956
-0.9873173, 0.1587589
-0.9873173, 0.1587589
