0, 0
0, 0
0, 0
0, 0
0, 0
0, 0
0, 0
0, 0
0, 0
0, 0
0, 0
0, 0
0.03158489, 0.0208392
0.1146371, 0.07485879
0.2017613, 0.1314147
0.294359, 0.1838861
0.387598, 0.2194081
0.4932472, 0.2506345
0.5858777, 0.2785272
0.6166396, 0.2651285
0.6250249, 0.2378652
0.6312114, 0.217752
0.6316871, 0.2162054
0.6316871, 0.2162054
0.6316871, 0.2162054
0.6316872, 0.2162054
0.6316872, 0.2162054
0.6316872, 0.2162055
0.6316872, 0.2162054
0.6316871, 0.2162055
0.6316872, 0.2162054
0.6316872, 0.2162055
0.6316872, 0.2162054
0.6316873, 0.2162055
0.6316873, 0.2162055
0.6316872, 0.2162055
0.6316872, 0.2162055
0.6316872, 0.2162055
0.6316872, 0.2162054
0.6316872, 0.2162055
0.6316872, 0.2162055
0.6316872, 0.2162055
0.6282896, 0.2166275
0.5529796, 0.2259979
0.4475482, 0.2398321
0.3449353, 0.2634832
0.2477177, 0.3035467
0.1577598, 0.3594977
0.07947002, 0.4285013
0.01875133, 0.4999785
-0.04806378, 0.4832955
-0.1291012, 0.3856877
-0.1982422, 0.2665279
-0.2091533, 0.1588019
-0.2388744, 0.05959611
-0.3418018, -0.01594961
-0.3585723, -0.1187738
-0.3544502, -0.1373935
-0.4269871, -0.06254008
-0.4865313, 0.02345898
-0.5316921, 0.1195427
-0.5560877, 0.2179221
-0.4885125, 0.2645943
-0.3843143, 0.2679909
-0.2820072, 0.2713556
-0.1779416, 0.2786793
-0.07441311, 0.2973199
0.02740356, 0.3185306
0.1428747, 0.29933
0.2575025, 0.2480413
0.3582844, 0.2542005
0.4196694, 0.2583063
0.4202993, 0.2583489
0.4202993, 0.2583489
0.4202993, 0.2583489
0.4202993, 0.2583489
0.4202993, 0.2583489
0.4200709, 0.227241
0.4198584, 0.19893
0.4198584, 0.19893
0.4198584, 0.19893
0.4671858, 0.1985521
0.5443285, 0.1980287
0.5482978, 0.1980064
0.5482978, 0.1980064
0.5482978, 0.1980064
0.5482978, 0.1980064
0.5482978, 0.1980064
0.5482978, 0.1980064
0.5048851, 0.1982301
0.3998418, 0.1989709
0.337481, 0.1995912
0.3368651, 0.1892492
0.3358807, 0.1056428
0.3355352, 0.07692768
0.3355352, 0.07692768
0.3355352, 0.07692768
0.3355352, 0.0769277
0.3355352, 0.07692768
0.3355352, 0.07692768
0.3355352, 0.07692768
0.3355352, 0.07692769
0.3355351, 0.07692768
0.3465454, 0.07653668
0.4355191, 0.07338103
0.5398769, 0.07300635
0.6461633, 0.08164589
0.748758, 0.09088144
0.8101104, 0.09640437
0.8106043, 0.09644885
0.8106048, 0.09644886
0.8106047, 0.09644885
0.8106046, 0.09644885
0.8106048, 0.09644887
0.8106047, 0.09644885
0.8106048, 0.09644885
0.8106048, 0.09644887
0.8106047, 0.09644888
0.8106046, 0.09644885
0.8106047, 0.09644885
0.8106049, 0.09644886
0.8106049, 0.09644886
0.8106046, 0.09644886
0.8106046, 0.09644885
0.8106048, 0.09644884
0.8106048, 0.09644886
0.8106046, 0.09644884
0.8106047, 0.09644885
0.8106048, 0.09644888
0.8106045, 0.09644882
0.8106045, 0.09644882
0.8106047, 0.09644886
0.8106047, 0.09644888
0.8106048, 0.09644888
0.8106048, 0.09644888
0.8106048, 0.09644888
0.7861087, 0.1003077
0.6883194, 0.115734
0.5849684, 0.1320912
0.4843354, 0.1480683
0.3818996, 0.1643723
0.280175, 0.1805982
0.1757867, 0.1972785
0.06781029, 0.2145581
-0.03590585, 0.2311796
-0.1407932, 0.2480103
-0.2454147, 0.2648169
-0.2799096, 0.2703615
-0.2799096, 0.2703615
