0, 0
0, 0
0, 0
-7.528528E-06, 0.04549627
-0.0002002073, 0.1478096
-0.0008880225, 0.2510935
-0.002050858, 0.3492349
-0.003867145, 0.4544347
-0.006274052, 0.5599704
-0.009114651, 0.6607291
-0.01276552, 0.7689294
-0.01695309, 0.875299
-0.02141538, 0.9744978
-0.02688863, 1.082583
-0.03285162, 1.188314
-0.03881938, 1.284854
-0.04616123, 1.394168
-0.0540732, 1.502422
-0.06210848, 1.604338
-0.07087091, 1.708299
-0.08053486, 1.815715
-0.09002912, 1.915174
-0.100761, 2.021553
-0.1118549, 2.12538
-0.1230366, 2.22465
-0.1353849, 2.329191
-0.1482399, 2.433031
-0.1608006, 2.530116
-0.1746059, 2.632601
-0.1890037, 2.735166
-0.2033021, 2.833248
-0.2193653, 2.939529
-0.2356309, 3.043149
-0.2514212, 3.140048
-0.2686582, 3.242365
-0.2877245, 3.351699
-0.3065865, 3.456173
-0.3253315, 3.556888
-0.3452101, 3.660442
-0.3644327, 3.757652
-0.3705824, 3.788319
-0.3705825, 3.788319
-0.3705824, 3.788319
-0.3705824, 3.788319
-0.3705825, 3.788319
-0.3705825, 3.788319
-0.3705825, 3.788319
-0.3705825, 3.788319
-0.3705824, 3.788319
-0.3705825, 3.788319
-0.3705825, 3.788319
-0.3705825, 3.788319
-0.3705825, 3.788319
-0.3705825, 3.788319
-0.3705825, 3.788319
-0.3705825, 3.788319
-0.3705825, 3.788319
-0.3705825, 3.788319
-0.3705825, 3.788319
-0.3705825, 3.788319
-0.3705825, 3.788319
-0.3705825, 3.788319
-0.3705825, 3.788319
-0.3705825, 3.788319
-0.3705825, 3.788319
-0.3705825, 3.788319
-0.3705825, 3.788319
-0.3705824, 3.788319
-0.3705824, 3.788319
-0.3705824, 3.788319
-0.3705824, 3.788319
-0.3705825, 3.788319
-0.3705825, 3.788319
-0.3705825, 3.788319
-0.3705824, 3.788319
-0.3705825, 3.788319
-0.3705825, 3.788319
-0.3705824, 3.788319
-0.3705825, 3.788319
-0.3705825, 3.788319
-0.3705825, 3.788319
-0.3705825, 3.788319
-0.3705825, 3.788319
-0.3705825, 3.788319
-0.3705825, 3.788319
-0.3705825, 3.788319
-0.3705825, 3.788319
-0.3705825, 3.788319
-0.3705825, 3.788319
-0.3705825, 3.788319
-0.3705825, 3.788319
-0.3705825, 3.788319
-0.3705825, 3.788319
-0.3705825, 3.788319
-0.3705825, 3.788319
-0.3705825, 3.788319
-0.3705825, 3.788319
-0.3705825, 3.788319
-0.3705825, 3.788319
-0.3705825, 3.788319
-0.3705824, 3.788319
-0.3705825, 3.788319
-0.3705825, 3.788319
-0.3705825, 3.788319
-0.3705825, 3.788319
-0.3705825, 3.788319
-0.3705825, 3.788319
-0.3705825, 3.788319
-0.3705825, 3.788319
-0.3705825, 3.788319
-0.3705825, 3.788319
-0.3705825, 3.788319
-0.3705825, 3.788319
-0.3705825, 3.788319
-0.3705825, 3.788319
-0.3705824, 3.788319
-0.3705825, 3.788319
-0.3705824, 3.788319
-0.3705825, 3.788319
-0.3705825, 3.788319
-0.3705825, 3.788319
-0.3705825, 3.788319
-0.3705825, 3.788319
-0.3705825, 3.788319
-0.3705824, 3.788319
-0.3705824, 3.788319
-0.3705825, 3.788319
-0.3705825, 3.788319
-0.3705825, 3.788319
-0.3705825, 3.788319
-0.3705825, 3.788319
-0.3705825, 3.788319
-0.3705825, 3.788319
-0.3705825, 3.788319
-0.3705825, 3.788319
-0.3705824, 3.788319
-0.3705825, 3.788319
-0.3705825, 3.788319
-0.3705825, 3.788319
-0.3705825, 3.788319
-0.3705825, 3.788319
-0.3705825, 3.788319
-0.3705825, 3.788319
-0.3705825, 3.788319
-0.3705825, 3.788319
-0.3705825, 3.788319
-0.3705825, 3.788319
-0.3705825, 3.788319
-0.3705825, 3.788319
-0.3705825, 3.788319
-0.3705825, 3.788319
-0.3705824, 3.788319
-0.3705824, 3.788319
-0.3705824, 3.788319
-0.3705824, 3.788319
-0.3705824, 3.788319
-0.3705824, 3.788319
-0.3705825, 3.788319
-0.3705825, 3.788319
-0.3705825, 3.788319
-0.3705825, 3.788319
-0.3705825, 3.788319
-0.3705825, 3.788319
-0.3705824, 3.788319
-0.3705824, 3.788319
-0.3705825, 3.788319
-0.3705825, 3.788319
-0.3705825, 3.788319
-0.3705825, 3.788319
-0.3705825, 3.788319
-0.3705825, 3.788319
-0.3705825, 3.788319
-0.3705825, 3.788319
-0.3705825, 3.788319
-0.3705825, 3.788319
-0.3705825, 3.788319
-0.3705824, 3.788319
-0.3705824, 3.788319
