0, 0
0, 0
0, 0
-2.080826E-05, 0.04756311
-5.047938E-05, 0.1675886
-6.567885E-05, 0.2731271
-7.858061E-05, 0.3721893
-9.214679E-05, 0.4791101
-0.000104381, 0.585638
-0.0001150462, 0.6874094
-0.0001263578, 0.7973379
-0.0001355102, 0.9049565
-0.0001449784, 1.005454
-0.0001567171, 1.115355
-0.0001681255, 1.222372
-0.000178573, 1.319943
-0.000189179, 1.431309
-0.0001994369, 1.540962
-0.0002096771, 1.644168
-0.0002195004, 1.750026
-0.0002293574, 1.859258
-0.0002366317, 1.960161
-0.0002440105, 2.068585
-0.0002526033, 2.174392
-0.0002622914, 2.275124
-0.0002732713, 2.381781
-0.0002844607, 2.487774
-0.0002945627, 2.586539
-0.0003052984, 2.691339
-0.0003153421, 2.796599
-0.0003234235, 2.896911
-0.0003306779, 3.007342
-0.0003362894, 3.114831
-0.0003445645, 3.214161
-0.0003541964, 3.319551
-0.0003647953, 3.432432
-0.0003762773, 3.539574
-0.0003862885, 3.642991
-0.0003971138, 3.750244
-0.0004087389, 3.85024
-0.0004115062, 3.88242
-0.0004114807, 3.88242
-0.0004114807, 3.88242
-0.0004114807, 3.88242
-0.0004114807, 3.88242
-0.0004114807, 3.88242
-0.0004114807, 3.88242
-0.0004114807, 3.88242
-0.0004114807, 3.88242
-0.0004114807, 3.88242
-0.0004114807, 3.88242
-0.0004114807, 3.88242
-0.0004114807, 3.88242
-0.0004114807, 3.88242
-0.0004114807, 3.88242
-0.0004114807, 3.88242
-0.0004114807, 3.88242
-0.0004114807, 3.88242
-0.0004114807, 3.88242
-0.0004114807, 3.88242
-0.0004114807, 3.88242
-0.0004114807, 3.88242
-0.0004114807, 3.88242
-0.0004114807, 3.88242
-0.0004114807, 3.88242
-0.0004114807, 3.88242
-0.0004114807, 3.88242
-0.0004114807, 3.88242
-0.0004114807, 3.88242
-0.0004114807, 3.88242
-0.0004114807, 3.88242
-0.0004114807, 3.88242
-0.0004114807, 3.88242
-0.0004114807, 3.88242
-0.0004114807, 3.88242
-0.0004114807, 3.88242
-0.0004114807, 3.88242
-0.0004114807, 3.88242
-0.0004114807, 3.88242
-0.0004114807, 3.88242
-0.0004114807, 3.88242
-0.0004114807, 3.88242
-0.0004114807, 3.88242
-0.0004114807, 3.88242
-0.0004114807, 3.88242
-0.0004114807, 3.88242
-0.0004114807, 3.88242
-0.0004114807, 3.88242
-0.0004114807, 3.88242
-0.0004114807, 3.88242
-0.0004114807, 3.88242
-0.0004114807, 3.88242
-0.0004114807, 3.88242
-0.0004114807, 3.88242
-0.0004114807, 3.88242
-0.0004114807, 3.88242
-0.0004114807, 3.88242
-0.0004114807, 3.88242
-0.0004114807, 3.88242
-0.0004114807, 3.88242
-0.0004114807, 3.88242
-0.0004114807, 3.88242
-0.0004114807, 3.88242
-0.0004114807, 3.88242
-0.0004114807, 3.88242
-0.0004114807, 3.88242
-0.0004114807, 3.88242
-0.0004114807, 3.88242
-0.0004114807, 3.88242
-0.0004114807, 3.88242
-0.0004114807, 3.88242
-0.0004114807, 3.88242
-0.0004114807, 3.88242
-0.0004114807, 3.88242
-0.0004114807, 3.88242
-0.0004114807, 3.88242
-0.0004114807, 3.88242
-0.0004114807, 3.88242
-0.0004114807, 3.88242
-0.0004114807, 3.88242
-0.0004114807, 3.88242
-0.0004114807, 3.88242
-0.0004114807, 3.88242
-0.0004114807, 3.88242
-0.0004114807, 3.88242
-0.0004114807, 3.88242
-0.0004114807, 3.88242
-0.0004114807, 3.88242
-0.0004114807, 3.88242
-0.0004114807, 3.88242
-0.0004114807, 3.88242
-0.0004114807, 3.88242
-0.0004114807, 3.88242
-0.0004114807, 3.88242
-0.0004114807, 3.88242
-0.0004114807, 3.88242
-0.0004114807, 3.88242
-0.0004114807, 3.88242
-0.0004114807, 3.88242
-0.0004114807, 3.88242
-0.0004114807, 3.88242
-0.0004114807, 3.88242
-0.0004114807, 3.88242
-0.0004114807, 3.88242
-0.0004114807, 3.88242
-0.0004114807, 3.88242
-0.0004114807, 3.88242
-0.0004114807, 3.88242
-0.0004114807, 3.88242
-0.0004114807, 3.88242
-0.0004114807, 3.88242
-0.0004114807, 3.88242
-0.0004114807, 3.88242
-0.0004114807, 3.88242
-0.0004114807, 3.88242
-0.0004114807, 3.88242
-0.0004114807, 3.88242
-0.0004114807, 3.88242
-0.0004114807, 3.88242
-0.0004114807, 3.88242
-0.0004114807, 3.88242
-0.0004114807, 3.88242
-0.0004114807, 3.88242
-0.0004114807, 3.88242
-0.0004114807, 3.88242
-0.0004114807, 3.88242
-0.0004114807, 3.88242
-0.0004114807, 3.88242
-0.0004114807, 3.88242
-0.0004114807, 3.88242
-0.0004114807, 3.88242
-0.0004114807, 3.88242
-0.0004114807, 3.88242
-0.0004114807, 3.88242
-0.0004114807, 3.88242
-0.0004114807, 3.88242
-0.0004114807, 3.88242
-0.0004114807, 3.88242
