0, 1
0, 1
0, 1
0, 1
0, 1
0, 1
0, 1
0, 1
0, 1
0, 1
0, 1
0, 1
0, 1
0, 1
0, 1
0, 1
0, 1
0, 1
0, 1
0, 1
0, 1
0, 1
0, 1
0, 1
0, 1
0, 1
0, 1
0, 1
0, 1
0, 1
0, 1
0, 1
0, 1
0, 1
0, 1
0, 1
0, 1
0, 1
0, 1
0, 1
0, 1
0, 1
0, 1
0, 1
0, 1
0, 1
0, 1
0, 1
0, 1
0, 1
0, 1
0, 1
0, 1
0, 1
0, 1
0, 1
0, 1
0, 1
0, 1
0, 1
0, 1
0, 1
0, 1
0, 1
0, 1
0, 1
0, 1
0, 1
0, 1
0, 1
0.001561692, 0.9999977
0.008861881, 0.9999574
0.01841761, 0.9998264
0.02498932, 0.9996875
0.02515355, 0.9996834
0.02515355, 0.9996834
0.02515355, 0.9996834
0.02515355, 0.9996834
0.02515355, 0.9996834
0.02515355, 0.9996834
0.02515355, 0.9996834
0.02515355, 0.9996834
0.02515355, 0.9996834
0.02515355, 0.9996834
0.02515355, 0.9996834
0.02515355, 0.9996834
0.02515355, 0.9996834
0.02515355, 0.9996834
0.02515355, 0.9996834
0.02515355, 0.9996834
0.02515355, 0.9996834
0.02515355, 0.9996834
0.02515355, 0.9996834
0.02515355, 0.9996834
0.02515355, 0.9996834
0.02515355, 0.9996834
0.02515355, 0.9996834
0.02515355, 0.9996834
0.02515355, 0.9996834
0.02515355, 0.9996834
0.02515355, 0.9996834
0.02515355, 0.9996834
0.02515355, 0.9996834
0.02515355, 0.9996834
0.02515355, 0.9996834
0.02515355, 0.9996834
0.02515355, 0.9996834
0.09285101, 0.9945899
0.2538841, 0.9660222
0.4031772, 0.9139763
0.5489205, 0.834712
0.5951803, 0.8035837
0.515262, 0.8558486
0.3645463, 0.9299591
0.2040656, 0.9779431
0.05241834, 0.9974793
-0.117281, 0.9919329
-0.2822345, 0.9582714
-0.431195, 0.901127
-0.4935898, 0.8696948
-0.4935898, 0.8696948
-0.4935898, 0.8696948
-0.4632072, 0.8855273
-0.3201869, 0.946258
-0.1655496, 0.9850171
-0.00153145, 0.9988886
0.1671771, 0.9849432
0.3218508, 0.9454868
0.4726345, 0.8799712
0.6159066, 0.786409
0.7376066, 0.6734387
0.8358434, 0.5468904
0.9150629, 0.4008197
0.9674495, 0.2485727
0.9944291, 0.09461265
0.9963732, -0.07047415
0.9716586, -0.2318261
0.9233668, -0.3814006
0.8793412, -0.4761132
0.8689705, -0.4948417
0.8658008, -0.5001807
0.9192681, -0.3909247
0.9704967, -0.2364769
0.9848798, -0.1732385
0.9848797, -0.1732385
0.9848797, -0.1732385
0.9848797, -0.1732385
0.9848797, -0.1732385
0.9848797, -0.1732385
0.9848797, -0.1732385
0.9848797, -0.1732385
0.9900221, -0.1361305
0.9995926, -0.02546531
0.9998265, -0.01862442
0.9998265, -0.01862442
0.9997936, -0.02029169
0.9997641, -0.02171966
0.9997642, -0.02171966
0.9997642, -0.02171966
0.9997641, -0.02171966
0.9997596, -0.02192555
0.9997293, -0.02326167
0.9997292, -0.02326177
0.9997292, -0.02326178
0.9997292, -0.02326178
0.9997292, -0.02326178
0.9997286, -0.02328682
0.9997105, -0.0240639
0.99971, -0.02408686
0.9993555, -0.03257849
0.9946509, -0.1031028
0.9944821, -0.1049068
0.9944821, -0.1049068
0.9944821, -0.1049068
0.9944821, -0.1049068
0.9944821, -0.1049068
0.9944821, -0.1049069
0.9944821, -0.1049069
0.9944821, -0.1049069
0.9944821, -0.1049068
0.9944821, -0.1049069
0.9944821, -0.1049068
0.9944821, -0.1049068
0.9944821, -0.1049068
0.9944821, -0.1049068
0.9944821, -0.1049068
0.9944821, -0.1049068
0.9944821, -0.1049068
0.9944821, -0.1049068
0.9944821, -0.1049068
0.9944821, -0.1049068
0.9944821, -0.1049068
0.9944821, -0.1049068
0.9944822, -0.1049069
0.9944821, -0.1049068
0.9944821, -0.1049068
0.9944821, -0.1049068
0.9944822, -0.1049069
0.9944821, -0.1049068
0.9944821, -0.1049068
0.9944821, -0.1049068
0.9944821, -0.1049068
0.9944821, -0.1049068
0.9944821, -0.1049068
0.9944821, -0.1049068
0.9944821, -0.1049068
0.9944821, -0.1049068
0.9944821, -0.1049068
0.9944821, -0.1049068
0.9944821, -0.1049068
0.9944821, -0.1049068
0.9944821, -0.1049068
0.9944821, -0.1049068
0.9944821, -0.1049069
0.9944821, -0.1049068
0.9944821, -0.1049068
0.9944821, -0.1049068
0.9944821, -0.1049068
0.9944821, -0.1049068
0.9944821, -0.1049068
0.9944821, -0.1049068
0.9944821, -0.1049068
0.9944821, -0.1049068
0.9944821, -0.1049068
0.9944821, -0.1049069
0.9944821, -0.1049068
0.9944821, -0.1049068
0.9944821, -0.1049068
0.9944821, -0.1049068
0.9944821, -0.1049069
0.9944821, -0.1049068
0.9944821, -0.1049068
0.9944821, -0.1049068
0.9944821, -0.1049068
0.9944821, -0.1049068
0.9944821, -0.1049068
0.9944821, -0.1049068
0.9944821, -0.1049069
0.9944821, -0.1049068
0.9944821, -0.1049068
0.9944821, -0.1049068
0.9944821, -0.1049068
0.9944821, -0.1049068
0.9944821, -0.1049068
0.9944821, -0.1049068
0.9944821, -0.1049068
0.9944821, -0.1049068
0.9944821, -0.1049068
0.9944821, -0.1049068
0.9944821, -0.1049068
0.9944821, -0.1049068
0.9944821, -0.1049068
0.9944821, -0.1049068
0.9944821, -0.1049068
0.9944821, -0.1049068
0.9944821, -0.1049068
0.9944821, -0.1049068
0.9944821, -0.1049068
0.9944822, -0.1049069
0.9944821, -0.1049068
0.9944821, -0.1049068
0.9944821, -0.1049068
0.9944821, -0.1049068
0.9944821, -0.1049068
0.9944822, -0.1049069
0.9944821, -0.1049068
0.9944821, -0.1049068
0.9944821, -0.1049068
0.9944821, -0.1049068
0.9944821, -0.1049068
0.9944821, -0.1049068
0.9944821, -0.1049068
0.9944821, -0.1049068
0.9944821, -0.1049068
0.9944821, -0.1049068
0.9944821, -0.1049068
0.9944821, -0.1049068
0.9944821, -0.1049068
0.9944821, -0.1049068
0.9944821, -0.1049068
0.9944821, -0.1049068
0.9944821, -0.1049068
0.9944821, -0.1049068
0.9944821, -0.1049068
0.9944821, -0.1049068
0.9944821, -0.1049068
0.9944821, -0.1049068
0.9944821, -0.1049068
0.9944821, -0.1049068
0.9944821, -0.1049068
0.9944821, -0.1049068
0.9944821, -0.1049068
0.9944821, -0.1049068
0.9944821, -0.1049068
0.9944821, -0.1049068
0.9944821, -0.1049068
0.9944821, -0.1049068
0.9944821, -0.1049068
0.9944821, -0.1049068
0.9944821, -0.1049068
0.9944821, -0.1049068
0.9944821, -0.1049068
0.9944821, -0.1049068
0.9944821, -0.1049068
0.9944821, -0.1049068
0.9944821, -0.1049068
0.9944821, -0.1049068
0.9944822, -0.1049069
0.9944821, -0.1049068
0.9944821, -0.1049068
0.9944821, -0.1049068
0.9944821, -0.1049068
0.9944821, -0.1049068
0.9944821, -0.1049068
0.9944821, -0.1049068
0.9944821, -0.1049068
0.9944821, -0.1049068
0.9944821, -0.1049068
0.9944821, -0.1049068
0.9908443, -0.1311414
0.9588806, -0.2791917
0.9036998, -0.4257159
0.8186587, -0.572337
0.7558499, -0.6543668
0.8319369, -0.5528616
0.9126828, -0.4059305
0.9671746, -0.2495782
0.9944513, -0.09400465
0.9965704, 0.06904051
0.9723898, 0.2286473
0.9235667, 0.3809501
0.8473768, 0.5287876
0.747549, 0.6624339
0.6424227, 0.7651529
0.5039305, 0.8624719
0.3532766, 0.9342304
0.1959144, 0.9796223
0.04153829, 0.9980134
-0.07098438, 0.9974555
-0.07357608, 0.9972897
-0.06872654, 0.9976327
-0.05953645, 0.998222
-0.04980352, 0.9987551
-0.03994133, 0.999198
-0.03037811, 0.9995347
-0.02080831, 0.9997798
-0.01062066, 0.999939
-0.0006941765, 0.9999959
0.004579467, 0.9999895
0.005486031, 0.9999844
0.01237144, 0.99992
0.02143366, 0.9997669
0.03146403, 0.9995003
0.04108573, 0.9991522
0.04731927, 0.9988798
0.04747384, 0.9988726
0.04747383, 0.9988726
0.04747383, 0.9988726
0.04747384, 0.9988726
0.04747384, 0.9988726
0.04747384, 0.9988726
0.04747384, 0.9988726
0.04747384, 0.9988726
0.04747384, 0.9988726
0.04747384, 0.9988726
0.04747384, 0.9988726
0.04747384, 0.9988726
0.04747384, 0.9988726
0.04747384, 0.9988726
0.04747384, 0.9988726
0.04747384, 0.9988726
0.04747384, 0.9988726
0.04866767, 0.9988143
0.05535162, 0.9984638
0.06505702, 0.9978772
0.07399271, 0.9972572
0.0754239, 0.9971514
0.07709363, 0.9970226
0.08212913, 0.9966215
0.08298322, 0.9965507
0.08867042, 0.9960597
0.09011523, 0.9959316
0.09011523, 0.9959316
0.09011523, 0.9959316
0.09011523, 0.9959316
0.09011523, 0.9959316
0.09011523, 0.9959316
0.09011523, 0.9959316
0.09011523, 0.9959316
0.09011523, 0.9959316
0.09011523, 0.9959316
0.09011523, 0.9959316
0.09011523, 0.9959316
0.09011523, 0.9959316
0.09011523, 0.9959316
0.09011523, 0.9959316
0.09011523, 0.9959316
0.09011523, 0.9959316
0.09011523, 0.9959316
0.09011523, 0.9959316
0.09011523, 0.9959316
0.09011523, 0.9959316
0.09011523, 0.9959316
0.09011523, 0.9959316
0.09011523, 0.9959316
0.1471286, 0.9881118
0.3131106, 0.9486315
0.4590129, 0.8870841
0.5967346, 0.8010356
0.7234668, 0.6889462
0.8218147, 0.5677315
0.9046784, 0.4229926
0.9595128, 0.2812729
0.9619198, 0.2733313
0.9619198, 0.2733313
0.9734751, 0.2247848
0.9968482, 0.06403264
0.995936, -0.08310412
0.9929233, -0.1187534
0.9919677, -0.1264571
0.9906684, -0.1362644
0.9892173, -0.1464246
0.98768, -0.1564606
0.9861454, -0.1658617
0.9844405, -0.1756928
0.9826202, -0.1856051
0.9808804, -0.1946009
0.9804935, -0.1965517
0.9754195, -0.2182973
0.9302644, -0.3636195
0.8634018, -0.5026097
0.7682832, -0.6383623
0.6503606, -0.7580642
0.5315403, -0.8460464
0.4712812, -0.8819537
0.4563021, -0.8898178
0.4464986, -0.8947797
0.437091, -0.8994111
0.4264895, -0.9044868
0.390789, -0.9198102
0.2545191, -0.9664201
0.2069556, -0.9783379
0.1940953, -0.9809779
0.1835976, -0.9829967
0.1735811, -0.9848152
0.1642047, -0.9864229
0.1536925, -0.9881125
0.1409609, -0.9900086
0.1299303, -0.9915187
0.1196849, -0.9928076
0.1098138, -0.9939479
0.1000489, -0.9949787
0.08986187, -0.9959496
0.08051043, -0.9967518
0.07865335, -0.9969022
0.07858931, -0.9969072
0.07545654, -0.9971482
0.07428356, -0.9972371
0.07428356, -0.9972371
0.07428356, -0.9972371
0.07409737, -0.9972509
0.07033862, -0.9975225
0.06930394, -0.9975957
0.06930394, -0.9975957
0.06930394, -0.9975957
0.06930395, -0.9975957
0.06930394, -0.9975957
0.06930394, -0.9975957
0.06930394, -0.9975957
0.06930394, -0.9975957
0.06930394, -0.9975957
0.06930394, -0.9975957
0.06930394, -0.9975957
0.06930394, -0.9975957
0.06930394, -0.9975957
0.06930394, -0.9975957
0.06930394, -0.9975957
0.06930394, -0.9975957
0.06930394, -0.9975957
0.06930395, -0.9975956
0.06930394, -0.9975957
0.06930394, -0.9975957
0.06930394, -0.9975957
0.06930394, -0.9975957
0.06930394, -0.9975957
0.06930394, -0.9975957
0.06930394, -0.9975957
0.06930394, -0.9975957
0.06930394, -0.9975957
0.06930394, -0.9975957
0.06930394, -0.9975957
0.06930394, -0.9975957
0.06930394, -0.9975957
0.06930394, -0.9975957
0.06930394, -0.9975957
0.06930394, -0.9975957
0.06930394, -0.9975957
0.06930394, -0.9975957
0.06930394, -0.9975957
0.06930394, -0.9975957
0.06930394, -0.9975957
0.06930395, -0.9975957
0.06930394, -0.9975957
0.06930394, -0.9975957
0.06930394, -0.9975957
0.06930394, -0.9975957
0.06930394, -0.9975957
0.06930394, -0.9975957
0.06930394, -0.9975957
0.06930394, -0.9975957
0.06930394, -0.9975957
0.06930394, -0.9975957
0.06930394, -0.9975957
0.06930394, -0.9975957
0.06930394, -0.9975957
0.06930394, -0.9975957
0.06930394, -0.9975957
0.06930394, -0.9975957
0.06930394, -0.9975957
0.06930394, -0.9975957
0.06930394, -0.9975957
0.06930394, -0.9975957
0.06930394, -0.9975957
0.06930394, -0.9975957
0.06930394, -0.9975957
0.06930394, -0.9975957
0.06930394, -0.9975957
0.06930394, -0.9975957
0.06930394, -0.9975957
0.06930394, -0.9975957
0.06930394, -0.9975957
0.06930394, -0.9975957
0.06930394, -0.9975957
0.06930394, -0.9975957
0.06930394, -0.9975957
0.06930394, -0.9975957
0.06930394, -0.9975957
0.06930394, -0.9975957
0.06930394, -0.9975957
0.06930394, -0.9975957
0.06930394, -0.9975957
0.06930394, -0.9975957
0.06930394, -0.9975957
0.06930394, -0.9975957
0.06930394, -0.9975957
0.06930394, -0.9975957
0.06930395, -0.9975957
0.06930394, -0.9975957
0.06930394, -0.9975957
0.06930394, -0.9975957
0.06930394, -0.9975957
0.06930394, -0.9975957
0.06930394, -0.9975957
0.06930394, -0.9975957
0.06930394, -0.9975957
0.06930394, -0.9975957
0.06930394, -0.9975957
0.06930394, -0.9975957
0.06930394, -0.9975957
0.06930394, -0.9975957
0.06930394, -0.9975957
0.06930394, -0.9975957
0.06930394, -0.9975957
0.06930394, -0.9975957
0.06930394, -0.9975957
0.06930394, -0.9975957
0.06930394, -0.9975957
0.06930394, -0.9975957
0.06930394, -0.9975957
0.06930394, -0.9975957
0.06930394, -0.9975957
0.06930394, -0.9975957
0.06930394, -0.9975957
0.06930394, -0.9975957
0.06930394, -0.9975957
0.06930394, -0.9975957
0.06930394, -0.9975957
0.06930394, -0.9975957
0.06930394, -0.9975957
0.06930394, -0.9975957
0.06930394, -0.9975957
0.06930394, -0.9975957
0.06930394, -0.9975957
0.06930394, -0.9975957
0.06930394, -0.9975957
0.06930394, -0.9975957
0.06930394, -0.9975957
0.06930394, -0.9975957
0.06930394, -0.9975957
0.06930394, -0.9975957
0.06930394, -0.9975957
0.06930394, -0.9975957
0.06930394, -0.9975957
0.06930394, -0.9975957
0.06930394, -0.9975957
0.06930394, -0.9975957
0.06930394, -0.9975957
0.06930394, -0.9975957
0.06930394, -0.9975957
0.06930394, -0.9975957
0.06930394, -0.9975957
0.06930394, -0.9975957
0.06930394, -0.9975957
0.06930394, -0.9975957
0.06930394, -0.9975957
0.06930394, -0.9975957
0.06930394, -0.9975957
0.06930394, -0.9975957
0.06930394, -0.9975957
0.06930394, -0.9975957
0.06930394, -0.9975957
0.06930394, -0.9975957
0.06930394, -0.9975957
0.06930394, -0.9975957
0.06930394, -0.9975957
0.06930394, -0.9975957
0.06930394, -0.9975957
0.06930394, -0.9975957
0.06930394, -0.9975957
0.06930394, -0.9975957
0.06930394, -0.9975957
0.06930394, -0.9975957
0.06930394, -0.9975957
0.06930394, -0.9975957
0.06930394, -0.9975957
0.06930394, -0.9975957
0.06930394, -0.9975957
0.06930394, -0.9975957
0.06930394, -0.9975957
0.06930394, -0.9975957
0.06930394, -0.9975957
0.06930394, -0.9975957
0.06930394, -0.9975957
0.06930394, -0.9975957
0.06930394, -0.9975957
0.06930394, -0.9975957
0.06930394, -0.9975957
0.06930394, -0.9975957
0.06930394, -0.9975957
0.06930394, -0.9975957
0.06930394, -0.9975957
0.06930394, -0.9975957
0.06930394, -0.9975957
0.06930394, -0.9975957
0.06930394, -0.9975957
0.06930394, -0.9975957
0.06930394, -0.9975957
0.06930394, -0.9975957
0.06930394, -0.9975957
0.06930394, -0.9975957
0.06930394, -0.9975957
0.06930394, -0.9975957
0.06930394, -0.9975957
0.06930394, -0.9975957
0.06930394, -0.9975957
0.06930394, -0.9975957
0.06930394, -0.9975957
0.06930394, -0.9975957
0.06930394, -0.9975957
0.06930394, -0.9975957
0.06930394, -0.9975957
0.06930394, -0.9975957
0.06930394, -0.9975957
0.06930394, -0.9975957
0.06930394, -0.9975957
0.06930394, -0.9975957
0.06930394, -0.9975957
0.06930394, -0.9975957
0.06930394, -0.9975957
0.06930394, -0.9975957
0.06930394, -0.9975957
0.06930394, -0.9975957
0.06930394, -0.9975957
0.06930394, -0.9975957
0.06930394, -0.9975957
0.06930394, -0.9975957
0.06930394, -0.9975957
0.06930394, -0.9975957
0.06930394, -0.9975957
0.06930394, -0.9975957
0.06930394, -0.9975957
0.06930394, -0.9975957
0.06930394, -0.9975957
0.06930394, -0.9975957
0.06930394, -0.9975957
0.06930394, -0.9975957
0.06930394, -0.9975957
0.06930394, -0.9975957
0.06930394, -0.9975957
0.06930394, -0.9975957
0.06930394, -0.9975957
0.06930394, -0.9975957
0.06930394, -0.9975957
0.06930394, -0.9975957
0.06930394, -0.9975957
0.06930394, -0.9975957
0.06930394, -0.9975957
0.06930394, -0.9975957
0.06930394, -0.9975957
0.06930394, -0.9975957
0.06930394, -0.9975957
0.06930394, -0.9975957
0.06930394, -0.9975957
0.06930394, -0.9975957
0.06930394, -0.9975957
0.06930394, -0.9975957
0.06930394, -0.9975957
0.06930394, -0.9975957
0.06930394, -0.9975957
0.06930394, -0.9975957
0.06930394, -0.9975957
0.06930394, -0.9975957
0.06930394, -0.9975957
0.06930394, -0.9975957
0.06930394, -0.9975957
0.06930394, -0.9975957
0.06930394, -0.9975957
0.06930394, -0.9975957
0.06930394, -0.9975957
0.06930394, -0.9975957
0.06930394, -0.9975957
0.06930394, -0.9975957
0.06930394, -0.9975957
0.06930394, -0.9975957
0.06930394, -0.9975957
0.06930394, -0.9975957
0.06930394, -0.9975957
0.06930394, -0.9975957
0.06930394, -0.9975957
0.06930394, -0.9975957
0.06930394, -0.9975957
0.06930394, -0.9975957
0.06930394, -0.9975957
0.06930394, -0.9975957
0.06930394, -0.9975957
0.06930394, -0.9975957
0.06930394, -0.9975957
0.06930394, -0.9975957
0.06930394, -0.9975957
0.06930394, -0.9975957
0.06930394, -0.9975957
0.06930394, -0.9975957
0.06930394, -0.9975957
0.06930394, -0.9975957
0.06930394, -0.9975957
0.06930394, -0.9975957
0.06930394, -0.9975957
0.06930394, -0.9975957
0.06930394, -0.9975957
0.06930394, -0.9975957
0.06930394, -0.9975957
0.06930394, -0.9975957
0.06930394, -0.9975957
0.06930394, -0.9975957
0.06930394, -0.9975957
0.06930394, -0.9975957
0.06930394, -0.9975957
0.06930394, -0.9975957
0.06930394, -0.9975957
0.06930394, -0.9975957
0.06930394, -0.9975957
0.06930394, -0.9975957
0.06930394, -0.9975957
0.06930394, -0.9975957
0.06930394, -0.9975957
0.06930394, -0.9975957
0.06930394, -0.9975957
0.06930394, -0.9975957
0.06930394, -0.9975957
0.06930394, -0.9975957
0.06930394, -0.9975957
0.06930394, -0.9975957
0.06930394, -0.9975957
0.06930394, -0.9975957
0.06930394, -0.9975957
0.06930394, -0.9975957
0.06930394, -0.9975957
0.06930394, -0.9975957
0.06930394, -0.9975957
0.06930394, -0.9975957
0.06930394, -0.9975957
0.06930394, -0.9975957
0.06930394, -0.9975957
0.06930394, -0.9975957
0.06930394, -0.9975957
0.06930394, -0.9975957
0.06930394, -0.9975957
0.06930394, -0.9975957
0.06930394, -0.9975957
0.06930394, -0.9975957
0.06930394, -0.9975957
0.06930394, -0.9975957
0.06930394, -0.9975957
0.06930394, -0.9975957
0.06930394, -0.9975957
0.06930394, -0.9975957
0.06930394, -0.9975957
0.06930394, -0.9975957
0.06930394, -0.9975957
0.06930394, -0.9975957
0.06930394, -0.9975957
0.06930394, -0.9975957
0.06930394, -0.9975957
0.06930394, -0.9975957
0.06930394, -0.9975957
0.06930394, -0.9975957
0.06930394, -0.9975957
0.06930394, -0.9975957
0.06930394, -0.9975957
0.06930394, -0.9975957
0.06930394, -0.9975957
0.06930394, -0.9975957
0.06930394, -0.9975957
0.06930394, -0.9975957
0.06930394, -0.9975957
0.06930394, -0.9975957
0.06930394, -0.9975957
0.06930394, -0.9975957
0.06930394, -0.9975957
0.06930394, -0.9975957
0.06930394, -0.9975957
0.06930394, -0.9975957
0.06930394, -0.9975957
0.06930394, -0.9975957
0.06930394, -0.9975957
0.06930394, -0.9975957
0.06930394, -0.9975957
0.06930394, -0.9975957
0.06930394, -0.9975957
0.06930394, -0.9975957
0.06930394, -0.9975957
0.06930394, -0.9975957
0.06930394, -0.9975957
0.06930394, -0.9975957
0.06930394, -0.9975957
0.06930394, -0.9975957
0.06930394, -0.9975957
0.06930394, -0.9975957
0.06930394, -0.9975957
0.06930394, -0.9975957
0.06930394, -0.9975957
0.06930394, -0.9975957
0.06930394, -0.9975957
0.06930394, -0.9975957
0.06930394, -0.9975957
0.06930394, -0.9975957
0.06930394, -0.9975957
0.06930394, -0.9975957
0.06930394, -0.9975957
0.06930394, -0.9975957
0.06930394, -0.9975957
0.06930394, -0.9975957
0.06930394, -0.9975957
0.06930394, -0.9975957
0.06930394, -0.9975957
0.06930394, -0.9975957
0.06930394, -0.9975957
0.06930394, -0.9975957
0.06930394, -0.9975957
0.06930394, -0.9975957
0.06930394, -0.9975957
0.06930394, -0.9975957
0.06930394, -0.9975957
0.06930394, -0.9975957
0.06930394, -0.9975957
0.06930394, -0.9975957
0.06930394, -0.9975957
0.06930394, -0.9975957
0.06930394, -0.9975957
0.06930394, -0.9975957
0.06930394, -0.9975957
0.06930394, -0.9975957
0.06930394, -0.9975957
0.06930394, -0.9975957
0.06930394, -0.9975957
0.06930394, -0.9975957
0.06930394, -0.9975957
0.06930394, -0.9975957
0.06930394, -0.9975957
0.06930394, -0.9975957
0.06930394, -0.9975957
0.06930394, -0.9975957
0.06930394, -0.9975957
0.06930394, -0.9975957
0.06930394, -0.9975957
0.06930394, -0.9975957
0.06930394, -0.9975957
0.06930394, -0.9975957
0.06930394, -0.9975957
0.06930394, -0.9975957
0.06930394, -0.9975957
0.06930394, -0.9975957
0.06930394, -0.9975957
0.06930394, -0.9975957
0.06930394, -0.9975957
0.06930394, -0.9975957
0.06930394, -0.9975957
0.06930394, -0.9975957
0.06930394, -0.9975957
0.06930394, -0.9975957
0.06930394, -0.9975957
0.06930394, -0.9975957
0.06930394, -0.9975957
0.06930394, -0.9975957
0.06930394, -0.9975957
0.06930394, -0.9975957
0.06930394, -0.9975957
0.06930394, -0.9975957
0.06930394, -0.9975957
0.06930394, -0.9975957
0.06930394, -0.9975957
0.06930394, -0.9975957
0.06930394, -0.9975957
0.06930394, -0.9975957
0.06930394, -0.9975957
0.06930394, -0.9975957
0.06930394, -0.9975957
0.06930394, -0.9975957
0.06930394, -0.9975957
0.06930394, -0.9975957
0.06930394, -0.9975957
0.06930394, -0.9975957
0.06930394, -0.9975957
0.06930394, -0.9975957
0.06930394, -0.9975957
0.06930394, -0.9975957
0.06930394, -0.9975957
0.06930394, -0.9975957
0.06930394, -0.9975957
0.06930394, -0.9975957
0.06930394, -0.9975957
0.06930394, -0.9975957
0.06930394, -0.9975957
0.06930394, -0.9975957
0.06930394, -0.9975957
0.06930394, -0.9975957
0.06930394, -0.9975957
0.06930394, -0.9975957
0.06930394, -0.9975957
0.06930394, -0.9975957
0.06930394, -0.9975957
0.06930394, -0.9975957
0.06930394, -0.9975957
0.06930394, -0.9975957
0.06930394, -0.9975957
0.06930394, -0.9975957
0.06930394, -0.9975957
0.06930394, -0.9975957
0.06930394, -0.9975957
0.06930394, -0.9975957
0.06930394, -0.9975957
0.06930394, -0.9975957
0.06930394, -0.9975957
0.06930394, -0.9975957
0.06930394, -0.9975957
0.06930394, -0.9975957
0.06930394, -0.9975957
0.06930394, -0.9975957
0.06930394, -0.9975957
0.06930394, -0.9975957
0.06930394, -0.9975957
0.06930394, -0.9975957
0.06930394, -0.9975957
0.06930394, -0.9975957
0.06930394, -0.9975957
0.06930394, -0.9975957
0.06930394, -0.9975957
0.06930394, -0.9975957
0.06930394, -0.9975957
0.06930394, -0.9975957
0.06930394, -0.9975957
0.06930394, -0.9975957
0.06930394, -0.9975957
0.06930394, -0.9975957
0.06930394, -0.9975957
0.06930394, -0.9975957
0.06930394, -0.9975957
0.06930394, -0.9975957
0.06930394, -0.9975957
0.06930394, -0.9975957
0.06930394, -0.9975957
0.06930394, -0.9975957
0.06930394, -0.9975957
0.06930394, -0.9975957
0.06930394, -0.9975957
0.06930394, -0.9975957
0.06930394, -0.9975957
0.06930394, -0.9975957
0.06930394, -0.9975957
0.06930394, -0.9975957
0.06930394, -0.9975957
0.06930394, -0.9975957
0.06930394, -0.9975957
0.06930394, -0.9975957
0.06930394, -0.9975957
0.06930394, -0.9975957
0.06930394, -0.9975957
0.06930394, -0.9975957
0.06930394, -0.9975957
0.06930394, -0.9975957
0.06930394, -0.9975957
0.06930394, -0.9975957
0.06930394, -0.9975957
0.06930394, -0.9975957
0.06930394, -0.9975957
0.06930394, -0.9975957
0.06930394, -0.9975957
0.06930394, -0.9975957
0.06930394, -0.9975957
0.06930394, -0.9975957
0.06930394, -0.9975957
0.06930394, -0.9975957
0.06930394, -0.9975957
0.06930394, -0.9975957
0.06930394, -0.9975957
0.06930394, -0.9975957
0.06930394, -0.9975957
0.06930394, -0.9975957
0.06930394, -0.9975957
0.06930394, -0.9975957
0.06930394, -0.9975957
0.06930394, -0.9975957
0.06930394, -0.9975957
0.06930394, -0.9975957
0.06930394, -0.9975957
0.06930394, -0.9975957
0.06930394, -0.9975957
0.06930394, -0.9975957
0.06930394, -0.9975957
0.06930394, -0.9975957
0.06930394, -0.9975957
0.06930394, -0.9975957
0.06930394, -0.9975957
0.06930394, -0.9975957
0.06930394, -0.9975957
0.06930394, -0.9975957
0.06930394, -0.9975957
0.06930394, -0.9975957
0.06930394, -0.9975957
0.06930394, -0.9975957
0.06930394, -0.9975957
0.06930394, -0.9975957
0.06930394, -0.9975957
0.06930394, -0.9975957
0.06930394, -0.9975957
0.06930394, -0.9975957
0.06930394, -0.9975957
0.06930394, -0.9975957
0.06930394, -0.9975957
0.06930394, -0.9975957
0.06930394, -0.9975957
0.06930394, -0.9975957
0.06930394, -0.9975957
0.06930394, -0.9975957
0.06930394, -0.9975957
0.06930394, -0.9975957
0.06930394, -0.9975957
0.06930394, -0.9975957
0.06930394, -0.9975957
0.06930394, -0.9975957
0.06930394, -0.9975957
0.06930394, -0.9975957
0.06930394, -0.9975957
0.06930394, -0.9975957
0.06930394, -0.9975957
0.06930394, -0.9975957
0.06930394, -0.9975957
0.06930394, -0.9975957
0.06930394, -0.9975957
0.06930394, -0.9975957
0.06930394, -0.9975957
0.06930394, -0.9975957
0.06930394, -0.9975957
0.06930394, -0.9975957
0.06930394, -0.9975957
0.06930394, -0.9975957
0.06930394, -0.9975957
0.06930394, -0.9975957
0.06930394, -0.9975957
0.06930394, -0.9975957
0.06930394, -0.9975957
0.06930394, -0.9975957
0.06930394, -0.9975957
0.06930394, -0.9975957
0.06930394, -0.9975957
0.06930394, -0.9975957
0.06930394, -0.9975957
0.06930394, -0.9975957
0.06930394, -0.9975957
0.06930394, -0.9975957
0.06930394, -0.9975957
0.06930394, -0.9975957
0.06930394, -0.9975957
0.06930394, -0.9975957
0.06930394, -0.9975957
0.06930394, -0.9975957
0.06930394, -0.9975957
0.06930394, -0.9975957
0.06930394, -0.9975957
0.06930394, -0.9975957
0.06930394, -0.9975957
0.06930394, -0.9975957
0.06930394, -0.9975957
0.06930394, -0.9975957
0.06930394, -0.9975957
0.06930394, -0.9975957
0.06930394, -0.9975957
0.06930394, -0.9975957
0.06930394, -0.9975957
0.06930394, -0.9975957
0.06930394, -0.9975957
0.06930394, -0.9975957
0.06930394, -0.9975957
0.06930394, -0.9975957
0.06930394, -0.9975957
0.06930394, -0.9975957
0.06930394, -0.9975957
0.06930394, -0.9975957
0.06930394, -0.9975957
0.06930394, -0.9975957
0.06930395, -0.9975957
0.06930394, -0.9975957
0.06930394, -0.9975957
0.06930394, -0.9975957
0.06930394, -0.9975957
0.06930394, -0.9975957
0.06930394, -0.9975957
0.06930394, -0.9975957
0.06930394, -0.9975957
0.06930394, -0.9975957
0.06930394, -0.9975957
0.06930394, -0.9975957
0.06930394, -0.9975957
0.06930394, -0.9975957
0.06930394, -0.9975957
0.06930394, -0.9975957
0.06930394, -0.9975957
0.06930394, -0.9975957
0.06930394, -0.9975957
0.06930394, -0.9975957
0.06930394, -0.9975957
0.06930394, -0.9975957
0.06930394, -0.9975957
0.06930394, -0.9975957
0.06930394, -0.9975957
0.06930394, -0.9975957
0.06930394, -0.9975957
0.06930394, -0.9975957
0.06930394, -0.9975957
0.06930394, -0.9975957
0.06930394, -0.9975957
0.06930394, -0.9975957
0.06930394, -0.9975957
0.06930394, -0.9975957
0.06930394, -0.9975957
0.06930394, -0.9975957
0.06930394, -0.9975957
0.06930394, -0.9975957
0.06930394, -0.9975957
0.06930394, -0.9975957
0.06930394, -0.9975957
0.06930394, -0.9975957
0.06930394, -0.9975957
0.06930394, -0.9975957
0.06930394, -0.9975957
0.06930394, -0.9975957
0.06930394, -0.9975957
0.06930394, -0.9975957
0.06930394, -0.9975957
0.06930394, -0.9975957
0.06930394, -0.9975957
0.06930394, -0.9975957
0.06930394, -0.9975957
0.06930394, -0.9975957
0.06930394, -0.9975957
0.06930394, -0.9975957
0.06930394, -0.9975957
0.06930394, -0.9975957
0.06930394, -0.9975957
0.06930394, -0.9975957
0.06930394, -0.9975957
0.06930394, -0.9975957
0.06930394, -0.9975957
0.06930394, -0.9975957
0.06930395, -0.9975956
0.06930395, -0.9975957
0.06930394, -0.9975957
0.06930394, -0.9975957
0.06930394, -0.9975957
0.06930394, -0.9975957
0.06930394, -0.9975957
0.06930394, -0.9975957
0.06930394, -0.9975957
0.06930394, -0.9975957
0.06930394, -0.9975957
0.06930394, -0.9975957
0.06930394, -0.9975957
0.06930394, -0.9975957
0.06930394, -0.9975957
0.06930394, -0.9975957
0.06930394, -0.9975957
0.06930394, -0.9975957
0.06930394, -0.9975957
0.06930394, -0.9975957
0.06930394, -0.9975957
0.06930394, -0.9975957
0.06930394, -0.9975957
0.06930394, -0.9975957
0.06930394, -0.9975957
0.06930394, -0.9975957
0.06930394, -0.9975957
0.06930394, -0.9975957
0.06930394, -0.9975957
0.06930394, -0.9975957
0.06930394, -0.9975957
0.06930394, -0.9975957
0.06930394, -0.9975957
0.06930394, -0.9975957
0.06930394, -0.9975957
0.06930394, -0.9975957
0.06930394, -0.9975957
0.06930394, -0.9975957
0.06930394, -0.9975957
0.06930394, -0.9975957
0.06930394, -0.9975957
0.06930394, -0.9975957
0.06930394, -0.9975957
0.06930394, -0.9975957
0.06930394, -0.9975957
0.06930394, -0.9975957
0.06930394, -0.9975957
0.06930394, -0.9975957
0.06930394, -0.9975957
0.06930394, -0.9975957
0.06930394, -0.9975957
0.06930394, -0.9975957
0.06930394, -0.9975957
0.06930394, -0.9975957
0.06930394, -0.9975957
0.06930394, -0.9975957
0.06930394, -0.9975957
0.06930394, -0.9975957
0.06930394, -0.9975957
0.06930394, -0.9975957
0.06930394, -0.9975957
0.06930394, -0.9975957
0.06930394, -0.9975957
0.06930394, -0.9975957
0.06930394, -0.9975957
0.06930394, -0.9975957
0.06930394, -0.9975957
0.06930394, -0.9975957
0.06930394, -0.9975957
0.06930394, -0.9975957
0.06930394, -0.9975957
0.06930394, -0.9975957
0.06930394, -0.9975957
0.06930394, -0.9975957
0.06930394, -0.9975957
0.06930394, -0.9975957
0.06930394, -0.9975957
0.06930394, -0.9975957
0.06930394, -0.9975957
0.06930394, -0.9975957
0.06930394, -0.9975957
0.06930394, -0.9975957
0.06930394, -0.9975957
0.06930394, -0.9975957
0.06930394, -0.9975957
0.06930394, -0.9975957
0.06930394, -0.9975957
0.06930394, -0.9975957
0.06930394, -0.9975957
0.06930394, -0.9975957
0.06930394, -0.9975957
0.06930394, -0.9975957
0.06930394, -0.9975957
0.06930394, -0.9975957
0.06930394, -0.9975957
0.06930394, -0.9975957
0.06930394, -0.9975957
0.06930394, -0.9975957
0.06930394, -0.9975957
0.06930394, -0.9975957
0.06930394, -0.9975957
0.06930394, -0.9975957
0.06930394, -0.9975957
0.06930394, -0.9975957
0.06930394, -0.9975957
0.06930394, -0.9975957
0.06930394, -0.9975957
0.06930394, -0.9975957
0.06930394, -0.9975957
0.06930394, -0.9975957
0.06930394, -0.9975957
0.06930394, -0.9975957
0.06930394, -0.9975957
0.06930394, -0.9975957
0.06930394, -0.9975957
0.06930394, -0.9975957
0.06930394, -0.9975957
0.06930394, -0.9975957
0.06930394, -0.9975957
0.06930394, -0.9975957
0.06930394, -0.9975957
0.06930394, -0.9975957
0.06930394, -0.9975957
0.06930394, -0.9975957
0.06930394, -0.9975957
0.06930394, -0.9975957
0.06930394, -0.9975957
0.06930394, -0.9975957
0.06930394, -0.9975957
0.06930394, -0.9975957
0.06930394, -0.9975957
0.06930394, -0.9975957
0.06930394, -0.9975957
0.06930394, -0.9975957
0.06930394, -0.9975957
0.06930394, -0.9975957
0.06930394, -0.9975957
0.06930394, -0.9975957
0.06930394, -0.9975957
0.06930394, -0.9975957
0.06930394, -0.9975957
0.06930394, -0.9975957
0.06930394, -0.9975957
0.06930394, -0.9975957
0.06930394, -0.9975957
0.06930394, -0.9975957
0.06930394, -0.9975957
0.06930394, -0.9975957
0.06930394, -0.9975957
0.06930394, -0.9975957
0.06930394, -0.9975957
0.06930394, -0.9975957
0.06930394, -0.9975957
0.06930394, -0.9975957
0.06930394, -0.9975957
0.06930394, -0.9975957
0.06930394, -0.9975957
0.06930394, -0.9975957
0.06930394, -0.9975957
0.06930394, -0.9975957
0.06930394, -0.9975957
0.06930394, -0.9975957
0.06930394, -0.9975957
0.06930394, -0.9975957
0.06930394, -0.9975957
0.06930394, -0.9975957
0.06930394, -0.9975957
0.06930394, -0.9975957
0.06930394, -0.9975957
0.06930394, -0.9975957
0.06930394, -0.9975957
0.06930394, -0.9975957
0.06930394, -0.9975957
0.06930394, -0.9975957
0.06930394, -0.9975957
0.06930394, -0.9975957
0.06930394, -0.9975957
0.06930394, -0.9975957
0.06930394, -0.9975957
0.06930394, -0.9975957
0.06930394, -0.9975957
0.06930394, -0.9975957
0.06930394, -0.9975957
0.06930394, -0.9975957
0.06930394, -0.9975957
0.06930394, -0.9975957
0.06930394, -0.9975957
0.06930394, -0.9975957
0.06930394, -0.9975957
0.06930394, -0.9975957
0.06930394, -0.9975957
0.06930394, -0.9975957
0.06930394, -0.9975957
0.06930394, -0.9975957
0.06930394, -0.9975957
0.06930394, -0.9975957
0.06930394, -0.9975957
0.06930394, -0.9975957
0.06930394, -0.9975957
0.06930394, -0.9975957
0.06930394, -0.9975957
0.06930394, -0.9975957
0.06930394, -0.9975957
0.06930394, -0.9975957
0.06930394, -0.9975957
0.06930394, -0.9975957
0.06930394, -0.9975957
0.06930394, -0.9975957
0.06930394, -0.9975957
0.06930394, -0.9975957
0.06930394, -0.9975957
0.06930394, -0.9975957
0.06930394, -0.9975957
0.06930394, -0.9975957
0.06930394, -0.9975957
0.06930394, -0.9975957
0.06930394, -0.9975957
0.06930394, -0.9975957
0.06930394, -0.9975957
0.06930394, -0.9975957
0.06930394, -0.9975957
0.06930394, -0.9975957
0.06930394, -0.9975957
0.06930394, -0.9975957
0.06930395, -0.9975957
0.06930394, -0.9975957
0.06930394, -0.9975957
0.06930394, -0.9975957
0.06930394, -0.9975957
0.06930394, -0.9975957
0.06930394, -0.9975957
0.06930394, -0.9975957
0.06930394, -0.9975957
0.06930394, -0.9975957
0.06930394, -0.9975957
0.06930394, -0.9975957
0.06930394, -0.9975957
0.06930394, -0.9975957
0.06930394, -0.9975957
0.06930394, -0.9975957
0.06930394, -0.9975957
0.06930394, -0.9975957
0.06930394, -0.9975957
0.06930394, -0.9975957
0.06930394, -0.9975957
0.06930394, -0.9975957
0.06930394, -0.9975957
0.06930394, -0.9975957
0.06930394, -0.9975957
0.06930394, -0.9975957
0.06930394, -0.9975957
0.06930394, -0.9975957
0.06930394, -0.9975957
0.06930394, -0.9975957
0.06930394, -0.9975957
0.06930394, -0.9975957
0.06930394, -0.9975957
0.06930394, -0.9975957
0.06930394, -0.9975957
0.06930394, -0.9975957
0.06930394, -0.9975957
0.06930394, -0.9975957
0.06930394, -0.9975957
0.06930394, -0.9975957
0.06930394, -0.9975957
0.06930394, -0.9975957
0.06930394, -0.9975957
0.06930394, -0.9975957
0.06930394, -0.9975957
0.06930394, -0.9975957
0.06930394, -0.9975957
0.06930394, -0.9975957
0.06930394, -0.9975957
0.06930394, -0.9975957
0.06930394, -0.9975957
0.06930394, -0.9975957
0.06930394, -0.9975957
0.06930394, -0.9975957
0.06930394, -0.9975957
0.06930394, -0.9975957
0.06930394, -0.9975957
0.06930394, -0.9975957
0.06930394, -0.9975957
0.06930394, -0.9975957
0.06930394, -0.9975957
0.06930394, -0.9975957
0.06930394, -0.9975957
0.06930394, -0.9975957
0.06930394, -0.9975957
0.06930394, -0.9975957
0.06930394, -0.9975957
0.06930394, -0.9975957
0.06930394, -0.9975957
0.06930394, -0.9975957
0.06930394, -0.9975957
0.06930394, -0.9975957
0.06930394, -0.9975957
0.06930394, -0.9975957
0.06930394, -0.9975957
0.06930394, -0.9975957
0.06930394, -0.9975957
0.06930395, -0.9975957
0.06930394, -0.9975957
0.06930394, -0.9975957
0.06930394, -0.9975957
0.06930394, -0.9975957
0.06930394, -0.9975957
0.06930394, -0.9975957
0.06930394, -0.9975957
0.06930394, -0.9975957
0.06930394, -0.9975957
0.06930394, -0.9975957
0.06930394, -0.9975957
0.06930394, -0.9975957
0.06930394, -0.9975957
0.06930394, -0.9975957
0.06930394, -0.9975957
0.06930394, -0.9975957
0.06930394, -0.9975957
0.06930394, -0.9975957
0.06930394, -0.9975957
0.06930394, -0.9975957
0.06930394, -0.9975957
0.06930394, -0.9975957
0.06930394, -0.9975957
0.06930394, -0.9975957
0.06930395, -0.9975956
0.06930394, -0.9975957
0.06930394, -0.9975957
0.06930394, -0.9975957
0.06930394, -0.9975957
0.06930394, -0.9975957
0.06930394, -0.9975957
0.06930395, -0.9975957
0.06930394, -0.9975957
0.06930395, -0.9975957
0.06930395, -0.9975957
0.06930394, -0.9975957
0.06930394, -0.9975957
0.06930394, -0.9975957
0.06930394, -0.9975957
0.06930394, -0.9975957
0.06930394, -0.9975957
0.06930394, -0.9975957
0.06930394, -0.9975957
0.06930394, -0.9975957
0.06930394, -0.9975957
0.06930394, -0.9975957
0.06930394, -0.9975957
0.06930394, -0.9975957
0.06930394, -0.9975957
0.06930394, -0.9975957
0.06930394, -0.9975957
0.06930394, -0.9975957
0.06930395, -0.9975957
0.06930394, -0.9975957
0.06930395, -0.9975957
0.06930394, -0.9975957
0.06930394, -0.9975957
0.06930394, -0.9975957
0.06930394, -0.9975957
0.06930394, -0.9975957
0.06930394, -0.9975957
0.06930394, -0.9975957
0.06930394, -0.9975957
0.06930394, -0.9975957
0.06930394, -0.9975957
0.06930394, -0.9975957
0.06930394, -0.9975957
0.06930394, -0.9975957
0.06930394, -0.9975957
0.06930394, -0.9975957
0.06930394, -0.9975957
0.06930394, -0.9975957
0.06930394, -0.9975957
0.06930394, -0.9975957
0.06930394, -0.9975957
0.06930394, -0.9975957
0.06930394, -0.9975957
0.06930394, -0.9975957
0.06930394, -0.9975957
0.06930394, -0.9975957
0.06930394, -0.9975957
0.06930394, -0.9975957
0.06930394, -0.9975957
0.06930394, -0.9975957
0.06930394, -0.9975957
0.06930394, -0.9975957
0.06930394, -0.9975957
0.06930394, -0.9975957
0.06930394, -0.9975957
0.06930394, -0.9975957
0.06930394, -0.9975957
0.06930394, -0.9975957
0.06930394, -0.9975957
0.06930394, -0.9975957
0.06930394, -0.9975957
0.06930394, -0.9975957
0.06930394, -0.9975957
0.06930394, -0.9975957
0.06930394, -0.9975957
0.06930394, -0.9975957
0.06930394, -0.9975957
0.06930394, -0.9975957
0.06930394, -0.9975957
0.06930394, -0.9975957
0.06930394, -0.9975957
0.06930394, -0.9975957
0.06930394, -0.9975957
0.06930394, -0.9975957
0.06930394, -0.9975957
0.06930394, -0.9975957
0.06930394, -0.9975957
0.06930394, -0.9975957
0.06930394, -0.9975957
0.06930394, -0.9975957
0.06930394, -0.9975957
0.06930394, -0.9975957
0.06930394, -0.9975957
0.06930394, -0.9975957
0.06930394, -0.9975957
0.06930394, -0.9975957
0.06930394, -0.9975957
0.06930394, -0.9975957
0.06930394, -0.9975957
0.06930394, -0.9975957
0.06930394, -0.9975957
0.06930394, -0.9975957
0.06930394, -0.9975957
0.06930394, -0.9975957
0.06930394, -0.9975957
0.06930394, -0.9975957
0.06930394, -0.9975957
0.06930394, -0.9975957
0.06930394, -0.9975957
0.06930394, -0.9975957
0.06930394, -0.9975957
0.06930394, -0.9975957
0.06930394, -0.9975957
0.06930394, -0.9975957
0.06930394, -0.9975957
0.06930394, -0.9975957
0.06930394, -0.9975957
0.06930394, -0.9975957
0.06930394, -0.9975957
0.06930394, -0.9975957
0.06930394, -0.9975957
0.06930394, -0.9975957
0.06930394, -0.9975957
0.06930394, -0.9975957
0.06930394, -0.9975957
0.06930394, -0.9975957
0.06930394, -0.9975957
0.06930394, -0.9975957
0.06930394, -0.9975957
0.06930394, -0.9975957
0.06930394, -0.9975957
0.06930394, -0.9975957
0.06930394, -0.9975957
0.06930394, -0.9975957
0.06930394, -0.9975957
0.06930394, -0.9975957
0.06930394, -0.9975957
0.06930394, -0.9975957
0.06930394, -0.9975957
0.06930394, -0.9975957
0.06930394, -0.9975957
0.06930394, -0.9975957
0.06930394, -0.9975957
0.06930394, -0.9975957
0.06930394, -0.9975957
0.06930394, -0.9975957
0.06930394, -0.9975957
0.06930394, -0.9975957
0.06930394, -0.9975957
0.06930394, -0.9975957
0.06930394, -0.9975957
0.06930394, -0.9975957
0.06930394, -0.9975957
0.06930394, -0.9975957
0.06930394, -0.9975957
0.06930394, -0.9975957
0.06930394, -0.9975957
0.06930394, -0.9975957
0.06930394, -0.9975957
0.06930394, -0.9975957
0.06930394, -0.9975957
0.06930394, -0.9975957
0.06930394, -0.9975957
0.06930394, -0.9975957
0.06930394, -0.9975957
0.06930394, -0.9975957
0.06930394, -0.9975957
0.06930394, -0.9975957
0.06930394, -0.9975957
0.06930394, -0.9975957
0.06930394, -0.9975957
0.06930394, -0.9975957
0.06930394, -0.9975957
0.06930394, -0.9975957
0.06930394, -0.9975957
0.06930394, -0.9975957
0.06930394, -0.9975957
0.06930394, -0.9975957
0.06930394, -0.9975957
0.06930394, -0.9975957
0.06930394, -0.9975957
0.06930394, -0.9975957
0.06930394, -0.9975957
0.06930394, -0.9975957
0.06930395, -0.9975957
0.06930394, -0.9975957
0.06930394, -0.9975957
0.06930394, -0.9975957
0.06930394, -0.9975957
0.06930394, -0.9975957
0.06930394, -0.9975957
0.06930394, -0.9975957
0.06930394, -0.9975957
0.06930394, -0.9975957
0.06930394, -0.9975957
0.06930394, -0.9975957
0.06930394, -0.9975957
0.06930394, -0.9975957
0.06930394, -0.9975957
0.06930394, -0.9975957
0.06930394, -0.9975957
0.06930394, -0.9975957
0.06930394, -0.9975957
0.06930394, -0.9975957
0.06930394, -0.9975957
0.06930394, -0.9975957
0.06930394, -0.9975957
0.06930394, -0.9975957
0.06930394, -0.9975957
0.06930394, -0.9975957
0.06930394, -0.9975957
0.06930394, -0.9975957
0.06930394, -0.9975957
0.06930394, -0.9975957
0.06930394, -0.9975957
0.06930394, -0.9975957
0.06930394, -0.9975957
0.06930394, -0.9975957
0.06930394, -0.9975957
0.06930394, -0.9975957
0.06930394, -0.9975957
0.06930394, -0.9975957
0.06930394, -0.9975957
0.06930394, -0.9975957
0.06930394, -0.9975957
0.06930394, -0.9975957
0.06930394, -0.9975957
0.06930394, -0.9975957
0.06930394, -0.9975957
0.06930394, -0.9975957
0.06930394, -0.9975957
0.06930394, -0.9975957
0.06930394, -0.9975957
0.06930394, -0.9975957
0.06930394, -0.9975957
0.06930394, -0.9975957
0.06930394, -0.9975957
0.06930394, -0.9975957
0.06930394, -0.9975957
0.06930394, -0.9975957
0.06930394, -0.9975957
0.06930394, -0.9975957
0.06930394, -0.9975957
0.06930394, -0.9975957
0.06930394, -0.9975957
0.06930394, -0.9975957
0.06930394, -0.9975957
0.06930394, -0.9975957
0.06930394, -0.9975957
0.06930394, -0.9975957
0.06930394, -0.9975957
0.06930394, -0.9975957
0.06930394, -0.9975957
0.06930394, -0.9975957
0.06930394, -0.9975957
0.06930394, -0.9975957
0.06930394, -0.9975957
0.06930394, -0.9975957
0.06930394, -0.9975957
0.06930394, -0.9975957
0.06930394, -0.9975957
0.06930394, -0.9975957
0.06930394, -0.9975957
0.06930394, -0.9975957
0.06930394, -0.9975957
0.06930394, -0.9975957
0.06930394, -0.9975957
0.06930394, -0.9975957
0.06930394, -0.9975957
0.06930394, -0.9975957
0.06930394, -0.9975957
0.06930394, -0.9975957
0.06930394, -0.9975957
0.06930394, -0.9975957
0.06930394, -0.9975957
0.06930394, -0.9975957
0.06930394, -0.9975957
0.06930394, -0.9975957
0.06930394, -0.9975957
0.06930394, -0.9975957
0.06930394, -0.9975957
0.06930394, -0.9975957
0.06930394, -0.9975957
0.06930394, -0.9975957
0.06930394, -0.9975957
0.06930394, -0.9975957
0.06930394, -0.9975957
0.06930394, -0.9975957
0.06930394, -0.9975957
0.06930394, -0.9975957
0.06930394, -0.9975957
0.06930394, -0.9975957
0.06930394, -0.9975957
0.06930394, -0.9975957
0.06930394, -0.9975957
0.06930394, -0.9975957
0.06930394, -0.9975957
0.06930394, -0.9975957
0.06930394, -0.9975957
0.06930394, -0.9975957
0.06930394, -0.9975957
0.06930394, -0.9975957
0.06930394, -0.9975957
0.06930394, -0.9975957
0.06930394, -0.9975957
0.06930394, -0.9975957
0.06930394, -0.9975957
0.06930394, -0.9975957
0.06930394, -0.9975957
0.06930394, -0.9975957
0.06930394, -0.9975957
0.06930394, -0.9975957
0.06930394, -0.9975957
0.06930394, -0.9975957
0.06930394, -0.9975957
0.06930394, -0.9975957
0.06930394, -0.9975957
0.06930394, -0.9975957
0.06930394, -0.9975957
0.06930394, -0.9975957
0.06930394, -0.9975957
0.06930394, -0.9975957
0.06930394, -0.9975957
0.06930394, -0.9975957
0.06930394, -0.9975957
0.06930394, -0.9975957
0.06930394, -0.9975957
0.06930394, -0.9975957
0.06930394, -0.9975957
0.06930394, -0.9975957
0.06930394, -0.9975957
0.06930394, -0.9975957
0.06930394, -0.9975957
0.06930394, -0.9975957
0.06930394, -0.9975957
0.06930394, -0.9975957
0.06930394, -0.9975957
0.06930394, -0.9975957
0.06930394, -0.9975957
0.06930394, -0.9975957
0.06930394, -0.9975957
0.06930394, -0.9975957
0.06930394, -0.9975957
0.06930394, -0.9975957
0.06930394, -0.9975957
0.06930394, -0.9975957
0.06930394, -0.9975957
0.06930394, -0.9975957
0.06930394, -0.9975957
0.06930394, -0.9975957
0.06930394, -0.9975957
0.06930394, -0.9975957
0.06930394, -0.9975957
0.06930394, -0.9975957
0.06930394, -0.9975957
0.06930394, -0.9975957
0.06930394, -0.9975957
0.06930394, -0.9975957
0.06930394, -0.9975957
0.06930394, -0.9975957
0.06930394, -0.9975957
0.06930394, -0.9975957
0.06930394, -0.9975957
0.06930394, -0.9975957
0.06930394, -0.9975957
0.06930394, -0.9975957
0.06930394, -0.9975957
0.06930394, -0.9975957
0.06930394, -0.9975957
0.06930394, -0.9975957
0.06930394, -0.9975957
0.06930394, -0.9975957
0.06930394, -0.9975957
0.06930394, -0.9975957
0.06930394, -0.9975957
0.06930394, -0.9975957
0.06930394, -0.9975957
0.06930394, -0.9975957
0.06930394, -0.9975957
0.06930394, -0.9975957
0.06930394, -0.9975957
0.06930394, -0.9975957
0.06930394, -0.9975957
0.06930394, -0.9975957
0.06930394, -0.9975957
0.06930394, -0.9975957
0.06930394, -0.9975957
0.06930394, -0.9975957
0.06930394, -0.9975957
0.06930394, -0.9975957
0.06930394, -0.9975957
0.06930394, -0.9975957
0.06930394, -0.9975957
0.06930394, -0.9975957
0.06930394, -0.9975957
0.06930394, -0.9975957
0.06930394, -0.9975957
0.06930394, -0.9975957
0.06930394, -0.9975957
0.06930394, -0.9975957
0.06930394, -0.9975957
0.06930394, -0.9975957
0.06930394, -0.9975957
0.06930394, -0.9975957
0.06930394, -0.9975957
0.06930394, -0.9975957
0.06930394, -0.9975957
0.06930394, -0.9975957
0.06930394, -0.9975957
0.06930394, -0.9975957
0.06930394, -0.9975957
0.06930394, -0.9975957
0.06930394, -0.9975957
0.06930394, -0.9975957
0.06930394, -0.9975957
0.06930394, -0.9975957
0.06930394, -0.9975957
0.06930394, -0.9975957
0.06930394, -0.9975957
0.06930394, -0.9975957
0.06930394, -0.9975957
0.06930394, -0.9975957
0.06930394, -0.9975957
0.06930394, -0.9975957
0.06930394, -0.9975957
0.06930394, -0.9975957
0.06930394, -0.9975957
0.06930394, -0.9975957
0.06930394, -0.9975957
0.06930394, -0.9975957
0.06930394, -0.9975957
0.06930394, -0.9975957
0.06930394, -0.9975957
0.06930394, -0.9975957
0.06930394, -0.9975957
0.06930394, -0.9975957
0.06930394, -0.9975957
0.06930394, -0.9975957
0.06930394, -0.9975957
0.06930394, -0.9975957
0.06930394, -0.9975957
0.06930394, -0.9975957
0.06930394, -0.9975957
0.06930394, -0.9975957
0.06930394, -0.9975957
0.06930394, -0.9975957
0.06930394, -0.9975957
0.06930394, -0.9975957
0.06930394, -0.9975957
0.06930394, -0.9975957
0.06930394, -0.9975957
0.06930394, -0.9975957
0.06930394, -0.9975957
0.06930394, -0.9975957
0.06930394, -0.9975957
0.06930394, -0.9975957
0.06930394, -0.9975957
0.06930394, -0.9975957
0.06930394, -0.9975957
0.06930394, -0.9975957
0.06930394, -0.9975957
0.06930394, -0.9975957
0.06930394, -0.9975957
0.06930394, -0.9975957
0.06930394, -0.9975957
0.06930394, -0.9975957
0.06930394, -0.9975957
0.06930394, -0.9975957
0.06930394, -0.9975957
0.06930394, -0.9975957
0.06930394, -0.9975957
0.06930394, -0.9975957
0.06930394, -0.9975957
0.06930394, -0.9975957
0.06930394, -0.9975957
0.06930394, -0.9975957
0.06930394, -0.9975957
0.06930394, -0.9975957
0.06930394, -0.9975957
0.06930394, -0.9975957
0.06930394, -0.9975957
0.06930394, -0.9975957
0.06930394, -0.9975957
0.06930394, -0.9975957
0.06930394, -0.9975957
0.06930394, -0.9975957
0.06930394, -0.9975957
0.06930394, -0.9975957
0.06930394, -0.9975957
0.06930394, -0.9975957
0.06930394, -0.9975957
0.06930394, -0.9975957
0.06930394, -0.9975957
0.06930394, -0.9975957
0.06930394, -0.9975957
0.06930394, -0.9975957
0.06930394, -0.9975957
0.06930394, -0.9975957
0.06930394, -0.9975957
0.06930394, -0.9975957
0.06930394, -0.9975957
0.06930394, -0.9975957
0.06930394, -0.9975957
0.06930394, -0.9975957
0.06930394, -0.9975957
0.06930394, -0.9975957
0.06930394, -0.9975957
0.06930394, -0.9975957
0.06930394, -0.9975957
0.06930394, -0.9975957
0.06930394, -0.9975957
0.06930394, -0.9975957
0.06930394, -0.9975957
0.06930394, -0.9975957
0.06930394, -0.9975957
0.06930394, -0.9975957
0.06930394, -0.9975957
0.06930394, -0.9975957
0.06930394, -0.9975957
0.06930394, -0.9975957
0.06930394, -0.9975957
0.06930394, -0.9975957
0.06930394, -0.9975957
0.06930394, -0.9975957
0.06930394, -0.9975957
0.06930394, -0.9975957
0.06930394, -0.9975957
0.06930394, -0.9975957
0.06930394, -0.9975957
0.06930394, -0.9975957
0.06930394, -0.9975957
0.06930394, -0.9975957
0.06930394, -0.9975957
0.06930394, -0.9975957
0.06930394, -0.9975957
0.06930394, -0.9975957
0.06930394, -0.9975957
0.06930394, -0.9975957
0.06930394, -0.9975957
0.06930394, -0.9975957
0.06930394, -0.9975957
0.06930394, -0.9975957
0.06930394, -0.9975957
0.06930394, -0.9975957
0.06930394, -0.9975957
0.06930394, -0.9975957
0.06930394, -0.9975957
0.06930394, -0.9975957
0.06930394, -0.9975957
0.06930394, -0.9975957
0.06930394, -0.9975957
0.06930394, -0.9975957
0.06930394, -0.9975957
0.06930394, -0.9975957
0.06930394, -0.9975957
0.06930394, -0.9975957
0.06930394, -0.9975957
0.06930394, -0.9975957
0.06930394, -0.9975957
0.06930394, -0.9975957
0.06930394, -0.9975957
0.06930394, -0.9975957
0.06930394, -0.9975957
0.06930394, -0.9975957
0.06930394, -0.9975957
0.06930394, -0.9975957
0.06930395, -0.9975956
0.06930395, -0.9975957
0.06930394, -0.9975957
0.06930394, -0.9975957
0.06930395, -0.9975957
0.06930395, -0.9975957
0.06930394, -0.9975957
0.06930394, -0.9975957
0.06930394, -0.9975957
0.06930394, -0.9975957
0.06930394, -0.9975957
0.06930394, -0.9975957
0.06930394, -0.9975957
0.06930395, -0.9975956
0.06930394, -0.9975957
0.06930394, -0.9975957
0.06930394, -0.9975957
0.06930394, -0.9975957
0.06930394, -0.9975957
0.06930394, -0.9975957
0.06930394, -0.9975957
0.06930394, -0.9975957
0.06930395, -0.9975957
0.06930395, -0.9975956
0.06930395, -0.9975956
0.06930394, -0.9975957
0.06930394, -0.9975957
0.06930394, -0.9975957
0.06930394, -0.9975957
0.06930394, -0.9975957
0.06930394, -0.9975957
0.06930394, -0.9975957
0.06930394, -0.9975957
0.06930394, -0.9975957
0.06930394, -0.9975957
0.06930394, -0.9975957
0.06930394, -0.9975957
0.06930394, -0.9975957
0.06930394, -0.9975957
0.06930394, -0.9975957
0.06930394, -0.9975957
0.06930394, -0.9975957
0.06930394, -0.9975957
0.06930394, -0.9975957
0.06930394, -0.9975957
0.06930394, -0.9975957
0.06930394, -0.9975957
0.06930394, -0.9975957
0.06930394, -0.9975957
0.06930395, -0.9975957
0.06930394, -0.9975957
0.06930394, -0.9975957
0.06930394, -0.9975957
0.06930394, -0.9975957
0.06930394, -0.9975957
0.06930394, -0.9975957
0.06930394, -0.9975957
0.06930394, -0.9975957
0.06930394, -0.9975957
0.06930394, -0.9975957
0.06930394, -0.9975957
0.06930394, -0.9975957
0.06930394, -0.9975957
0.06930394, -0.9975957
0.06930394, -0.9975957
0.06930394, -0.9975957
0.06930394, -0.9975957
0.06930394, -0.9975957
0.06930394, -0.9975957
0.06930394, -0.9975957
0.06930394, -0.9975957
0.06930394, -0.9975957
0.06930394, -0.9975957
0.06930394, -0.9975957
0.06930394, -0.9975957
0.06930394, -0.9975957
0.06930394, -0.9975957
0.06930394, -0.9975957
0.06930394, -0.9975957
0.06930394, -0.9975957
0.06930394, -0.9975957
0.06930394, -0.9975957
0.06930394, -0.9975957
0.06930394, -0.9975957
0.06930394, -0.9975957
0.06930394, -0.9975957
0.06930394, -0.9975957
0.06930394, -0.9975957
0.06930394, -0.9975957
0.06930394, -0.9975957
0.06930394, -0.9975957
0.06930395, -0.9975956
0.06930394, -0.9975957
0.06930394, -0.9975957
0.06930394, -0.9975957
0.06930395, -0.9975957
0.06930394, -0.9975957
0.06930394, -0.9975957
0.06930394, -0.9975957
0.06930394, -0.9975957
0.06930394, -0.9975957
0.06930394, -0.9975957
0.06930394, -0.9975957
0.06930394, -0.9975957
0.06930394, -0.9975957
0.06930394, -0.9975957
0.06930394, -0.9975957
0.06930394, -0.9975957
0.06930394, -0.9975957
0.06930394, -0.9975957
0.06930394, -0.9975957
0.06930394, -0.9975957
0.06930394, -0.9975957
0.06930394, -0.9975957
0.06930394, -0.9975957
0.06930394, -0.9975957
0.06930394, -0.9975957
0.06930394, -0.9975957
0.06930394, -0.9975957
0.06930394, -0.9975957
0.06930394, -0.9975957
0.06930395, -0.9975957
0.06930394, -0.9975957
0.06930394, -0.9975957
0.06930394, -0.9975957
0.06930394, -0.9975957
0.06930394, -0.9975957
0.06930394, -0.9975957
0.06930394, -0.9975957
0.06930394, -0.9975957
0.06930394, -0.9975957
0.06930394, -0.9975957
0.06930394, -0.9975957
0.06930394, -0.9975957
0.06930394, -0.9975957
0.06930394, -0.9975957
0.06930394, -0.9975957
0.06930394, -0.9975957
0.06930394, -0.9975957
0.06930394, -0.9975957
0.06930394, -0.9975957
0.06930394, -0.9975957
0.06930394, -0.9975957
0.06930394, -0.9975957
0.06930394, -0.9975957
0.06930394, -0.9975957
0.06930394, -0.9975957
0.06930394, -0.9975957
0.06930394, -0.9975957
0.06930394, -0.9975957
0.06930394, -0.9975957
0.06930394, -0.9975957
0.06930394, -0.9975957
0.06930394, -0.9975957
0.06930394, -0.9975957
0.06930394, -0.9975957
0.06930394, -0.9975957
0.06930394, -0.9975957
0.06930394, -0.9975957
0.06930394, -0.9975957
0.06930394, -0.9975957
0.06930394, -0.9975957
0.06930394, -0.9975957
0.06930394, -0.9975957
0.06930394, -0.9975957
0.06930394, -0.9975957
0.06930394, -0.9975957
0.06930394, -0.9975957
0.06930395, -0.9975957
0.06930395, -0.9975957
0.06930394, -0.9975957
0.06930394, -0.9975957
0.06930395, -0.9975956
0.06930394, -0.9975957
0.06930394, -0.9975957
0.06930394, -0.9975957
0.06930394, -0.9975957
0.06930395, -0.9975957
0.06930394, -0.9975957
0.06930394, -0.9975957
0.06930394, -0.9975957
0.06930394, -0.9975957
0.06930394, -0.9975957
0.06930394, -0.9975957
0.06930394, -0.9975957
0.06930395, -0.9975957
0.06930394, -0.9975957
0.06930394, -0.9975957
0.06930394, -0.9975957
0.06930394, -0.9975957
0.06930394, -0.9975957
0.06930395, -0.9975957
0.06930394, -0.9975957
0.06930394, -0.9975957
0.06930394, -0.9975957
0.06930394, -0.9975957
0.06930394, -0.9975957
0.06930394, -0.9975957
0.06930394, -0.9975957
0.06930394, -0.9975957
0.06930394, -0.9975957
0.06930394, -0.9975957
0.06930394, -0.9975957
0.06930394, -0.9975957
0.06930394, -0.9975957
0.06930394, -0.9975957
0.06930395, -0.9975957
0.06930394, -0.9975957
0.06930394, -0.9975957
0.06930394, -0.9975957
0.06930394, -0.9975957
0.06930394, -0.9975957
0.06930394, -0.9975957
0.06930394, -0.9975957
0.06930394, -0.9975957
0.06930394, -0.9975957
0.06930394, -0.9975957
0.06930394, -0.9975957
0.06930394, -0.9975957
0.06930394, -0.9975957
0.06930395, -0.9975957
0.06930394, -0.9975957
0.06930394, -0.9975957
0.06930394, -0.9975957
0.06930394, -0.9975957
0.06930394, -0.9975957
0.06930394, -0.9975957
0.06930394, -0.9975957
0.06930394, -0.9975957
0.06930394, -0.9975957
0.06930394, -0.9975957
0.06930394, -0.9975957
0.06930394, -0.9975957
0.06930394, -0.9975957
0.06930394, -0.9975957
0.06930394, -0.9975957
0.06930394, -0.9975957
0.06930394, -0.9975957
0.06930394, -0.9975957
0.06930394, -0.9975957
0.06930394, -0.9975957
0.06930394, -0.9975957
0.06930394, -0.9975957
0.06930394, -0.9975957
0.06930394, -0.9975957
0.06930394, -0.9975957
0.06930394, -0.9975957
0.06930395, -0.9975957
0.06930394, -0.9975957
0.06930394, -0.9975957
0.06930394, -0.9975957
0.06930394, -0.9975957
0.06930394, -0.9975957
0.06930394, -0.9975957
0.06930394, -0.9975957
0.06930394, -0.9975957
0.06930394, -0.9975957
0.06930394, -0.9975957
0.06930394, -0.9975957
0.06930394, -0.9975957
0.06930394, -0.9975957
0.06930394, -0.9975957
0.06930394, -0.9975957
0.06930394, -0.9975957
0.06930394, -0.9975957
0.06930394, -0.9975957
0.06930394, -0.9975957
0.06930394, -0.9975957
0.06930394, -0.9975957
0.06930394, -0.9975957
0.06930394, -0.9975957
0.06930394, -0.9975957
0.06930394, -0.9975957
0.06930394, -0.9975957
0.06930394, -0.9975957
0.06930394, -0.9975957
0.06930394, -0.9975957
0.06930394, -0.9975957
0.06930394, -0.9975957
0.06930394, -0.9975957
0.06930394, -0.9975957
0.06930394, -0.9975957
0.06930394, -0.9975957
0.06930394, -0.9975957
0.06930394, -0.9975957
0.06930394, -0.9975957
0.06930394, -0.9975957
0.06930394, -0.9975957
0.06930394, -0.9975957
0.06930394, -0.9975957
0.06930394, -0.9975957
0.06930394, -0.9975957
0.06930394, -0.9975957
0.06930394, -0.9975957
0.06930394, -0.9975957
0.06930394, -0.9975957
0.06930394, -0.9975957
0.06930394, -0.9975957
0.06930394, -0.9975957
0.06930394, -0.9975957
0.06930394, -0.9975957
0.06930394, -0.9975957
0.06930394, -0.9975957
0.06930394, -0.9975957
0.06930394, -0.9975957
0.06930394, -0.9975957
0.06930394, -0.9975957
0.06930394, -0.9975957
0.06930394, -0.9975957
0.06930394, -0.9975957
0.06930394, -0.9975957
0.06930394, -0.9975957
0.06930394, -0.9975957
0.06930394, -0.9975957
0.06930394, -0.9975957
0.06930394, -0.9975957
0.06930394, -0.9975957
0.06930394, -0.9975957
0.06930394, -0.9975957
0.06930394, -0.9975957
0.06930394, -0.9975957
0.06930394, -0.9975957
0.06930394, -0.9975957
0.06930394, -0.9975957
0.06930394, -0.9975957
0.06930394, -0.9975957
0.06930394, -0.9975957
0.06930394, -0.9975957
0.06930394, -0.9975957
0.06930394, -0.9975957
0.06930394, -0.9975957
0.06930394, -0.9975957
0.06930394, -0.9975957
0.06930394, -0.9975957
0.06930394, -0.9975957
0.06930394, -0.9975957
0.06930394, -0.9975957
0.06930394, -0.9975957
0.06930394, -0.9975957
0.06930394, -0.9975957
0.06930394, -0.9975957
0.06930394, -0.9975957
0.06930394, -0.9975957
0.06930394, -0.9975957
0.06930394, -0.9975957
0.06930394, -0.9975957
0.06930394, -0.9975957
0.06930394, -0.9975957
0.06930394, -0.9975957
0.06930394, -0.9975957
0.06930394, -0.9975957
0.06930394, -0.9975957
0.06930394, -0.9975957
0.06930394, -0.9975957
0.06930394, -0.9975957
0.06930394, -0.9975957
0.06930394, -0.9975957
0.06930394, -0.9975957
0.06930394, -0.9975957
0.06930394, -0.9975957
0.06930394, -0.9975957
0.06930394, -0.9975957
0.06930394, -0.9975957
0.06930394, -0.9975957
0.06930394, -0.9975957
0.06930394, -0.9975957
0.06930394, -0.9975957
0.06930394, -0.9975957
0.06930394, -0.9975957
0.06930394, -0.9975957
0.06930394, -0.9975957
0.06930394, -0.9975957
0.06930394, -0.9975957
0.06930394, -0.9975957
0.06930394, -0.9975957
0.06930394, -0.9975957
0.06930394, -0.9975957
0.06930394, -0.9975957
0.06930394, -0.9975957
0.06930394, -0.9975957
0.06930394, -0.9975957
0.06930394, -0.9975957
0.06930394, -0.9975957
0.06930394, -0.9975957
0.06930394, -0.9975957
0.06930394, -0.9975957
0.06930394, -0.9975957
0.06930394, -0.9975957
0.06930394, -0.9975957
0.06930394, -0.9975957
0.06930394, -0.9975957
0.06930394, -0.9975957
0.06930394, -0.9975957
0.06930394, -0.9975957
0.06930394, -0.9975957
0.06930394, -0.9975957
0.06930394, -0.9975957
0.06930394, -0.9975957
0.06930394, -0.9975957
0.06930394, -0.9975957
0.06930394, -0.9975957
0.06930394, -0.9975957
0.06930394, -0.9975957
0.06930394, -0.9975957
0.06930394, -0.9975957
0.06930394, -0.9975957
0.06930394, -0.9975957
0.06930394, -0.9975957
0.06930394, -0.9975957
0.06930394, -0.9975957
0.06930394, -0.9975957
0.06930394, -0.9975957
0.06930394, -0.9975957
0.06930394, -0.9975957
0.06930394, -0.9975957
0.06930394, -0.9975957
0.06930394, -0.9975957
0.06930394, -0.9975957
0.06930394, -0.9975957
0.06930394, -0.9975957
0.06930394, -0.9975957
0.06930394, -0.9975957
0.06930394, -0.9975957
0.06930394, -0.9975957
0.06930394, -0.9975957
0.06930394, -0.9975957
0.06930394, -0.9975957
0.06930394, -0.9975957
0.06930394, -0.9975957
0.06930394, -0.9975957
0.06930394, -0.9975957
0.06930394, -0.9975957
0.06930394, -0.9975957
0.06930394, -0.9975957
0.06930394, -0.9975957
0.06930394, -0.9975957
0.06930394, -0.9975957
0.06930394, -0.9975957
0.06930394, -0.9975957
0.06930394, -0.9975957
0.06930394, -0.9975957
0.06930394, -0.9975957
0.06930394, -0.9975957
0.06930394, -0.9975957
0.06930394, -0.9975957
0.06930394, -0.9975957
0.06930394, -0.9975957
0.06930394, -0.9975957
0.06930394, -0.9975957
0.06930394, -0.9975957
0.06930394, -0.9975957
0.06930394, -0.9975957
0.06930394, -0.9975957
0.06930394, -0.9975957
0.06930394, -0.9975957
0.06930394, -0.9975957
0.06930394, -0.9975957
0.06930394, -0.9975957
0.06930394, -0.9975957
0.06930394, -0.9975957
0.06930394, -0.9975957
0.06930394, -0.9975957
0.06930394, -0.9975957
0.06930394, -0.9975957
0.06930394, -0.9975957
0.06930394, -0.9975957
0.06930394, -0.9975957
0.06930394, -0.9975957
0.06930394, -0.9975957
0.06930394, -0.9975957
0.06930394, -0.9975957
0.06930394, -0.9975957
0.06930394, -0.9975957
0.06930394, -0.9975957
0.06930394, -0.9975957
0.06930394, -0.9975957
0.06930394, -0.9975957
0.06930394, -0.9975957
0.06930394, -0.9975957
0.06930395, -0.9975957
0.06930394, -0.9975957
0.06930394, -0.9975957
0.06930394, -0.9975957
0.06930394, -0.9975957
0.06930394, -0.9975957
0.06930394, -0.9975957
0.06930394, -0.9975957
0.06930394, -0.9975957
0.06930394, -0.9975957
0.06930394, -0.9975957
0.06930394, -0.9975957
0.06930394, -0.9975957
0.06930394, -0.9975957
0.06930394, -0.9975957
0.06930394, -0.9975957
0.06930394, -0.9975957
0.06930394, -0.9975957
0.06930394, -0.9975957
0.06930394, -0.9975957
0.06930394, -0.9975957
0.06930394, -0.9975957
0.06930394, -0.9975957
0.06930394, -0.9975957
0.06930394, -0.9975957
0.06930394, -0.9975957
0.06930394, -0.9975957
0.06930394, -0.9975957
0.06930394, -0.9975957
0.06930394, -0.9975957
0.06930394, -0.9975957
0.06930394, -0.9975957
0.06930394, -0.9975957
0.06930394, -0.9975957
0.06930394, -0.9975957
0.06930394, -0.9975957
0.06930394, -0.9975957
0.06930394, -0.9975957
0.06930394, -0.9975957
0.06930394, -0.9975957
0.06930394, -0.9975957
0.06930394, -0.9975957
0.06930394, -0.9975957
0.06930394, -0.9975957
0.06930394, -0.9975957
0.06930394, -0.9975957
0.06930394, -0.9975957
0.06930394, -0.9975957
0.06930394, -0.9975957
0.06930394, -0.9975957
0.06930395, -0.9975957
0.06930394, -0.9975957
0.06930394, -0.9975957
0.06930394, -0.9975957
0.06930394, -0.9975957
0.06930394, -0.9975957
0.06930394, -0.9975957
0.06930394, -0.9975957
0.06930394, -0.9975957
0.06930394, -0.9975957
0.06930394, -0.9975957
0.06930394, -0.9975957
0.06930394, -0.9975957
0.06930394, -0.9975957
0.06930395, -0.9975957
0.06930394, -0.9975957
0.06930394, -0.9975957
0.06930394, -0.9975957
0.06930394, -0.9975957
0.06930394, -0.9975957
0.06930394, -0.9975957
0.06930394, -0.9975957
0.06930394, -0.9975957
0.06930394, -0.9975957
0.06930394, -0.9975957
0.06930394, -0.9975957
0.06930394, -0.9975957
0.06930394, -0.9975957
0.06930394, -0.9975957
0.06930394, -0.9975957
0.06930394, -0.9975957
0.06930394, -0.9975957
0.06930394, -0.9975957
0.06930394, -0.9975957
0.06930394, -0.9975957
0.06930394, -0.9975957
0.06930394, -0.9975957
0.06930394, -0.9975957
0.06930394, -0.9975957
0.06930394, -0.9975957
0.06930394, -0.9975957
0.06930394, -0.9975957
0.06930394, -0.9975957
0.06930394, -0.9975957
0.06930394, -0.9975957
0.06930394, -0.9975957
0.06930394, -0.9975957
0.06930394, -0.9975957
0.06930394, -0.9975957
0.06930394, -0.9975957
0.06930394, -0.9975957
0.06930394, -0.9975957
0.06930394, -0.9975957
0.06930394, -0.9975957
0.06930394, -0.9975957
0.06930394, -0.9975957
0.06930394, -0.9975957
0.06930394, -0.9975957
0.06930394, -0.9975957
0.06930394, -0.9975957
0.06930394, -0.9975957
0.06930394, -0.9975957
0.06930394, -0.9975957
0.06930394, -0.9975957
0.06930394, -0.9975957
0.06930394, -0.9975957
0.06930394, -0.9975957
0.06930394, -0.9975957
0.06930394, -0.9975957
0.06930394, -0.9975957
0.06930394, -0.9975957
0.06930394, -0.9975957
0.06930394, -0.9975957
0.06930394, -0.9975957
0.06930394, -0.9975957
0.06930394, -0.9975957
0.06930394, -0.9975957
0.06930394, -0.9975957
0.06930394, -0.9975957
0.06930394, -0.9975957
0.06930394, -0.9975957
0.06930394, -0.9975957
0.06930394, -0.9975957
0.06930394, -0.9975957
0.06930394, -0.9975957
0.06930394, -0.9975957
0.06930394, -0.9975957
0.06930394, -0.9975957
0.06930394, -0.9975957
0.06930395, -0.9975957
0.06930394, -0.9975957
0.06930394, -0.9975957
0.06930394, -0.9975957
0.06930394, -0.9975957
0.06930394, -0.9975957
0.06930394, -0.9975957
0.06930394, -0.9975957
0.06930394, -0.9975957
0.06930394, -0.9975957
0.06930394, -0.9975957
0.06930394, -0.9975957
0.06930394, -0.9975957
0.06930394, -0.9975957
0.06930394, -0.9975957
0.06930394, -0.9975957
0.06930394, -0.9975957
0.06930395, -0.9975957
0.06930394, -0.9975957
0.06930394, -0.9975957
0.06930394, -0.9975957
0.06930394, -0.9975957
0.06930394, -0.9975957
0.06930394, -0.9975957
0.06930394, -0.9975957
0.06930394, -0.9975957
0.06930394, -0.9975957
0.06930394, -0.9975957
0.06930394, -0.9975957
0.06930394, -0.9975957
0.06930394, -0.9975957
0.06930394, -0.9975957
0.06930394, -0.9975957
0.06930394, -0.9975957
0.06930394, -0.9975957
0.06930394, -0.9975957
0.06930394, -0.9975957
0.06930394, -0.9975957
0.06930394, -0.9975957
0.06930394, -0.9975957
0.06930395, -0.9975956
0.06930395, -0.9975956
0.06930394, -0.9975957
0.06930395, -0.9975957
0.06930394, -0.9975957
0.06930394, -0.9975957
0.06930394, -0.9975957
0.06930394, -0.9975957
0.06930395, -0.9975957
0.06930394, -0.9975957
