0, 0
0, 0
0, 0
0, 0
0, 0
0, 0
0, 0
0, 0
0, 0
0, 0
0, 0
0, 0
0, 0
0, 0
0, 0
0, 0
0, 0
0, 0
0, 0
0, 0
0, 0
0, 0
0, 0
0, 0
0, 0
0, 0
0, 0
0, 0
0, 0
0, 0
0, 0
0, 0
0, 0
0, 0
0, 0
0, 0
0, 0
0, 0
0, 0
0, 0
0, 0
0, 0
0, 0
0, 0
0, 0
0, 0
0, 0
0, 0
0, 0
0, 0
0, 0
0, 0
0, 0
0, 0
0, 0
0, 0
0, 0
0, 0
0, 0
0, 0
0, 0
0, 0
0, 0
0, 0
0, 0
0, 0
0, 0
0, 0
0, 0
0, 0
-1.088899E-05, 0.05217016
-6.353442E-05, 0.1531768
-0.0001346557, 0.2575156
-0.0001741444, 0.3132922
-0.0001741471, 0.3132922
-0.0001741471, 0.3132922
-0.0001741471, 0.3132922
-0.0001741471, 0.3132922
-0.0001741471, 0.3132922
-0.0001741471, 0.3132922
-0.0001741471, 0.3132922
-0.0001741471, 0.3132922
-0.0001741471, 0.3132922
-0.0001741471, 0.3132922
-0.0001741471, 0.3132922
-0.0001741471, 0.3132922
-0.0001741471, 0.3132922
-0.0001741471, 0.3132922
-0.0001741471, 0.3132922
-0.0001741471, 0.3132922
-0.0001741471, 0.3132922
-0.0001741471, 0.3132922
-0.0001741471, 0.3132922
-0.0001741471, 0.3132922
-0.0001741471, 0.3132922
-0.0001741471, 0.3132922
-0.0001741471, 0.3132922
-0.0001741471, 0.3132922
-0.0001741471, 0.3132922
-0.0001741471, 0.3132922
-0.0001741471, 0.3132922
-0.0001741471, 0.3132922
-0.0001741471, 0.3132922
-0.0001741471, 0.3132922
-0.0001741471, 0.3132922
-0.0001741471, 0.3132922
-0.0001741471, 0.3132922
-0.0001741483, 0.3132921
-0.0001741471, 0.3132922
-0.0001740309, 0.3132921
-0.0001738841, 0.3132922
-0.0001737848, 0.3132922
-0.0001738312, 0.3132922
-0.0001738866, 0.3132922
-0.0001740685, 0.3132921
-0.0001741786, 0.3132921
-0.0001742298, 0.313292
-0.0001743195, 0.313292
-0.0001744156, 0.3132919
-0.0001744628, 0.313292
-0.0001744628, 0.313292
-0.0001744628, 0.313292
-0.0001744241, 0.313292
-0.0001743402, 0.3132919
-0.0001743159, 0.313292
-0.0001743237, 0.313292
-0.0001743606, 0.313292
-0.0001742744, 0.313292
-0.0188552, 0.3075316
-0.1172276, 0.2834176
-0.2222804, 0.2707198
-0.3233087, 0.2831045
-0.4138732, 0.3872607
-0.4203964, 0.4930363
-0.3839804, 0.5857402
-0.3338659, 0.6782398
-0.273265, 0.7627741
-0.2446272, 0.8752686
-0.2346483, 1.02311
-0.2205959, 1.172933
-0.2024956, 1.306422
-0.1449841, 1.384614
-0.1353073, 1.394775
-0.1353076, 1.394775
-0.1353076, 1.394775
-0.1353076, 1.394775
-0.1353076, 1.394775
-0.1353076, 1.394775
-0.1353076, 1.394775
-0.1353076, 1.394775
-0.1353076, 1.394775
-0.1353076, 1.394775
-0.1353076, 1.394775
-0.1353077, 1.394775
-0.1351651, 1.395338
-0.1221783, 1.446605
-0.1173407, 1.465714
-0.1173407, 1.465714
-0.1173407, 1.465714
-0.1173407, 1.465714
-0.1137908, 1.479736
-0.1064822, 1.508612
-0.1064822, 1.508612
-0.1064822, 1.508612
-0.1064822, 1.508612
-0.1064822, 1.508612
-0.1052062, 1.513656
-0.09904502, 1.538015
-0.09904504, 1.538015
-0.09904502, 1.538015
-0.09904489, 1.538015
-0.09904492, 1.538015
-0.09904492, 1.538015
-0.09904492, 1.538015
-0.09904492, 1.538015
-0.09904492, 1.538015
-0.09904492, 1.538015
-0.09904492, 1.538015
-0.09904492, 1.538015
-0.09904492, 1.538015
-0.09904492, 1.538015
-0.09904492, 1.538015
-0.09904492, 1.538015
-0.09904492, 1.538015
-0.09904492, 1.538015
-0.09904492, 1.538015
-0.09904492, 1.538015
-0.09904492, 1.538015
-0.09904492, 1.538015
-0.09904492, 1.538015
-0.09904492, 1.538015
-0.09904492, 1.538015
-0.09904492, 1.538015
-0.09904492, 1.538015
-0.09904492, 1.538015
-0.09904492, 1.538015
-0.09904492, 1.538015
-0.09904492, 1.538015
-0.09904492, 1.538015
-0.09904492, 1.538015
-0.09904492, 1.538015
-0.09904492, 1.538015
-0.09904492, 1.538015
-0.09904492, 1.538015
-0.09904492, 1.538015
-0.09904492, 1.538015
-0.09904492, 1.538015
-0.09904492, 1.538015
-0.09904492, 1.538015
-0.09904492, 1.538015
-0.09904492, 1.538015
-0.09904492, 1.538015
-0.09904492, 1.538015
-0.09904492, 1.538015
-0.09904492, 1.538015
-0.09904492, 1.538015
-0.09904492, 1.538015
-0.09904492, 1.538015
-0.09904492, 1.538015
-0.09904492, 1.538015
-0.09904492, 1.538015
-0.09904492, 1.538015
-0.09904492, 1.538015
-0.09904492, 1.538015
-0.09904492, 1.538015
-0.09904492, 1.538015
-0.09904492, 1.538015
-0.09904492, 1.538015
-0.09904492, 1.538015
-0.09904492, 1.538015
-0.09904492, 1.538015
-0.09904492, 1.538015
-0.09904492, 1.538015
-0.09904492, 1.538015
-0.09904492, 1.538015
-0.09904492, 1.538015
-0.09904492, 1.538015
-0.09904492, 1.538015
-0.09904492, 1.538015
-0.09904492, 1.538015
-0.09904492, 1.538015
-0.09904492, 1.538015
-0.09904492, 1.538015
-0.09904492, 1.538015
-0.09904492, 1.538015
-0.09904492, 1.538015
-0.09904492, 1.538015
-0.09904492, 1.538015
-0.09904492, 1.538015
-0.09904492, 1.538015
-0.09904492, 1.538015
-0.09904492, 1.538015
-0.09904492, 1.538015
-0.09904492, 1.538015
-0.09904492, 1.538015
-0.09904492, 1.538015
-0.09904492, 1.538015
-0.09904492, 1.538015
-0.09904492, 1.538015
-0.09904492, 1.538015
-0.09904492, 1.538015
-0.09904492, 1.538015
-0.09904492, 1.538015
-0.09904492, 1.538015
-0.09904492, 1.538015
-0.09904492, 1.538015
-0.09904492, 1.538015
-0.09904492, 1.538015
-0.09904492, 1.538015
-0.09904492, 1.538015
-0.09904492, 1.538015
-0.09904492, 1.538015
-0.09904492, 1.538015
-0.09904492, 1.538015
-0.09904492, 1.538015
-0.09904492, 1.538015
-0.09904492, 1.538015
-0.09904492, 1.538015
-0.09904492, 1.538015
-0.09904492, 1.538015
-0.09904492, 1.538015
-0.09904492, 1.538015
-0.09904492, 1.538015
-0.09904492, 1.538015
-0.09904492, 1.538015
-0.09904492, 1.538015
-0.09904492, 1.538015
-0.09904492, 1.538015
-0.09904492, 1.538015
-0.09904492, 1.538015
-0.09904492, 1.538015
-0.09904492, 1.538015
-0.09904492, 1.538015
-0.09904492, 1.538015
-0.09904492, 1.538015
-0.09904492, 1.538015
-0.09904492, 1.538015
-0.09904492, 1.538015
-0.09904492, 1.538015
-0.09904492, 1.538015
-0.09904492, 1.538015
-0.09904492, 1.538015
-0.09904492, 1.538015
-0.09904492, 1.538015
-0.09904492, 1.538015
-0.09904492, 1.538015
-0.09904492, 1.538015
-0.09904492, 1.538015
-0.09904492, 1.538015
-0.09904492, 1.538015
-0.09904492, 1.538015
-0.09904492, 1.538015
-0.09904492, 1.538015
-0.09904492, 1.538015
-0.09904492, 1.538015
-0.09904492, 1.538015
-0.09904492, 1.538015
-0.09904492, 1.538015
-0.09904492, 1.538015
-0.09904492, 1.538015
-0.09904522, 1.538015
-0.09904499, 1.538015
-0.09904484, 1.538015
-0.09904477, 1.538015
-0.09904526, 1.538015
-0.09904578, 1.538014
-0.09904592, 1.538014
-0.09904603, 1.538014
-0.09904642, 1.538014
-0.09904625, 1.538014
-0.09904627, 1.538014
-0.099046, 1.538014
-0.09904587, 1.538015
-0.09904612, 1.538015
-0.09904604, 1.538014
-0.09904609, 1.538014
-0.09904567, 1.538015
-0.0990457, 1.538015
-0.09904566, 1.538015
-0.1052788, 1.53354
-0.1738911, 1.484244
-0.2583041, 1.423566
-0.3404473, 1.364516
-0.4238053, 1.304592
-0.5075956, 1.244355
-0.5888164, 1.185962
-0.6749009, 1.124071
-0.7586129, 1.063886
-0.7919272, 1.039934
-0.8180708, 1.021139
-0.9034389, 0.9597284
-0.983915, 0.9018164
-1.068152, 0.8411914
-1.156618, 0.7775257
-1.196323, 0.7489491
-1.196323, 0.7489491
-1.196323, 0.7489491
-1.196323, 0.7489491
-1.196323, 0.7489491
-1.196323, 0.7489491
-1.196323, 0.7489491
-1.196323, 0.7489491
-1.196323, 0.7489491
-1.196323, 0.7489491
-1.196323, 0.7489491
-1.196323, 0.7489491
-1.196323, 0.7489491
-1.196323, 0.7489491
-1.196323, 0.7489491
-1.196323, 0.7489491
-1.196323, 0.7489491
-1.196323, 0.7489491
-1.234796, 0.721266
-1.311191, 0.6662595
-1.397081, 0.6043966
-1.46875, 0.5527734
-1.47593, 0.5476012
-1.517128, 0.5179282
-1.567717, 0.4814753
-1.589102, 0.4660622
-1.657816, 0.4165115
-1.665726, 0.4108057
-1.665726, 0.4108057
-1.665726, 0.4108057
-1.665726, 0.4108057
-1.665726, 0.4108057
-1.665726, 0.4108057
-1.665726, 0.4108057
-1.665726, 0.4108057
-1.665726, 0.4108057
-1.665726, 0.4108057
-1.665726, 0.4108057
-1.665726, 0.4108057
-1.665726, 0.4108057
-1.665726, 0.4108057
-1.665726, 0.4108057
-1.665726, 0.4108057
-1.665726, 0.4108057
-1.665726, 0.4108057
-1.665726, 0.4108057
-1.665726, 0.4108057
-1.665726, 0.4108057
-1.665726, 0.4108057
-1.665726, 0.4108057
-1.665726, 0.4108057
-1.665726, 0.4108062
-1.665727, 0.4108074
-1.665728, 0.4108093
-1.665729, 0.4108097
-1.665729, 0.4108107
-1.66573, 0.4108112
-1.665731, 0.4108126
-1.665732, 0.4108132
-1.665732, 0.4108131
-1.665732, 0.4108131
-1.665732, 0.4108135
-1.665732, 0.4108137
-1.665733, 0.4108144
-1.675498, 0.4159032
-1.755361, 0.4574783
-1.845558, 0.5044244
-1.938869, 0.552996
-2.034664, 0.6028613
-2.123221, 0.6489592
-2.215971, 0.6972352
-2.311963, 0.747197
-2.386573, 0.7860285
-2.396891, 0.7913986
-2.396891, 0.7913986
-2.396892, 0.791399
-2.406403, 0.7998698
-2.473455, 0.8663608
-2.57205, 0.9273449
-2.688889, 0.9663537
-2.745539, 1.058882
-2.790791, 1.151685
-2.835017, 1.242477
-2.911728, 1.323913
-2.982823, 1.406581
-3.026169, 1.496674
-3.064509, 1.595305
-3.095632, 1.698663
-3.124099, 1.795097
-3.153906, 1.896137
-3.184169, 1.99875
-3.208413, 2.094656
-3.166027, 2.215074
-3.135747, 2.335262
-3.162886, 2.429121
-3.192796, 2.530516
-3.221836, 2.628971
-3.250355, 2.725647
-3.280406, 2.827525
-3.306678, 2.9166
-3.309895, 2.927509
-3.312045, 2.934805
-3.332288, 3.003429
-3.334892, 3.012249
-3.334892, 3.012249
-3.334892, 3.012249
-3.338788, 3.025444
-3.358972, 3.093754
-3.361085, 3.1009
-3.361086, 3.1009
-3.361085, 3.1009
-3.361086, 3.1009
-3.361086, 3.1009
-3.361086, 3.1009
-3.361086, 3.1009
-3.361086, 3.1009
-3.361086, 3.1009
-3.361086, 3.1009
-3.361086, 3.1009
-3.361086, 3.1009
-3.361086, 3.1009
-3.361086, 3.1009
-3.361086, 3.1009
-3.361086, 3.1009
-3.361086, 3.1009
-3.361086, 3.1009
-3.361086, 3.1009
-3.361086, 3.1009
-3.361086, 3.1009
-3.361086, 3.1009
-3.361086, 3.1009
-3.361086, 3.1009
-3.361085, 3.1009
-3.361085, 3.1009
-3.361086, 3.1009
-3.361086, 3.1009
-3.361086, 3.1009
-3.361086, 3.1009
-3.361086, 3.1009
-3.361086, 3.1009
-3.361086, 3.1009
-3.361086, 3.1009
-3.361086, 3.1009
-3.361086, 3.1009
-3.361085, 3.1009
-3.361086, 3.1009
-3.361085, 3.1009
-3.361086, 3.1009
-3.361086, 3.1009
-3.361085, 3.1009
-3.361085, 3.1009
-3.361085, 3.1009
-3.361085, 3.1009
-3.361086, 3.1009
-3.361086, 3.1009
-3.361086, 3.1009
-3.361086, 3.1009
-3.361086, 3.1009
-3.361086, 3.1009
-3.361086, 3.1009
-3.361086, 3.1009
-3.361086, 3.1009
-3.361086, 3.1009
-3.361086, 3.1009
-3.361085, 3.1009
-3.361086, 3.1009
-3.361085, 3.1009
-3.361085, 3.1009
-3.361085, 3.1009
-3.361086, 3.1009
-3.361085, 3.1009
-3.361085, 3.1009
-3.361086, 3.1009
-3.361085, 3.1009
-3.361085, 3.1009
-3.361085, 3.1009
-3.361085, 3.1009
-3.361085, 3.1009
-3.361085, 3.1009
-3.361085, 3.1009
-3.361085, 3.1009
-3.361085, 3.1009
-3.361085, 3.1009
-3.361085, 3.1009
-3.361085, 3.1009
-3.361085, 3.1009
-3.361085, 3.1009
-3.361085, 3.1009
-3.361085, 3.1009
-3.361085, 3.1009
-3.361085, 3.1009
-3.361085, 3.1009
-3.361086, 3.1009
-3.361085, 3.1009
-3.361085, 3.1009
-3.361086, 3.1009
-3.361085, 3.1009
-3.361085, 3.1009
-3.361085, 3.1009
-3.361085, 3.1009
-3.361085, 3.1009
-3.361085, 3.1009
-3.361085, 3.1009
-3.361085, 3.1009
-3.361085, 3.1009
-3.361085, 3.1009
-3.361085, 3.1009
-3.361086, 3.1009
-3.361085, 3.1009
-3.361085, 3.1009
-3.361085, 3.1009
-3.361086, 3.1009
-3.361086, 3.1009
-3.361085, 3.1009
-3.361085, 3.1009
-3.361085, 3.1009
-3.361085, 3.1009
-3.361085, 3.1009
-3.361085, 3.1009
-3.361085, 3.1009
-3.361086, 3.1009
-3.361086, 3.1009
-3.361085, 3.1009
-3.361085, 3.1009
-3.361086, 3.1009
-3.361085, 3.1009
-3.361085, 3.1009
-3.361086, 3.1009
-3.361085, 3.1009
-3.361085, 3.1009
-3.361085, 3.1009
-3.361085, 3.1009
-3.361085, 3.1009
-3.361085, 3.1009
-3.361085, 3.1009
-3.361085, 3.1009
-3.361085, 3.1009
-3.361085, 3.1009
-3.361085, 3.1009
-3.361085, 3.1009
-3.361086, 3.1009
-3.361085, 3.1009
-3.361085, 3.1009
-3.361085, 3.1009
-3.361085, 3.1009
-3.361085, 3.1009
-3.361085, 3.1009
-3.361086, 3.1009
-3.361085, 3.1009
-3.361085, 3.1009
-3.361085, 3.1009
-3.361085, 3.1009
-3.361085, 3.1009
-3.361085, 3.1009
-3.361085, 3.1009
-3.361085, 3.1009
-3.361085, 3.1009
-3.361085, 3.1009
-3.361085, 3.1009
-3.361085, 3.1009
-3.361085, 3.1009
-3.361085, 3.1009
-3.361085, 3.1009
-3.361085, 3.1009
-3.361085, 3.1009
-3.361085, 3.1009
-3.361085, 3.1009
-3.361085, 3.1009
-3.361085, 3.1009
-3.361086, 3.1009
-3.361086, 3.1009
-3.361085, 3.1009
-3.361085, 3.1009
-3.361086, 3.1009
-3.361085, 3.1009
-3.361086, 3.1009
-3.361085, 3.1009
-3.361085, 3.1009
-3.361085, 3.1009
-3.361085, 3.1009
-3.361085, 3.1009
-3.361085, 3.1009
-3.361085, 3.1009
-3.361085, 3.1009
-3.361085, 3.1009
-3.361085, 3.1009
-3.361085, 3.1009
-3.361085, 3.1009
-3.361085, 3.1009
-3.361085, 3.1009
-3.361085, 3.1009
-3.361085, 3.1009
-3.361085, 3.1009
-3.361085, 3.1009
-3.361085, 3.1009
-3.361085, 3.1009
-3.361085, 3.1009
-3.361085, 3.1009
-3.361085, 3.1009
-3.361086, 3.1009
-3.361085, 3.1009
-3.361085, 3.1009
-3.361085, 3.1009
-3.361086, 3.1009
-3.361086, 3.1009
-3.361086, 3.1009
-3.361086, 3.1009
-3.361085, 3.1009
-3.361086, 3.1009
-3.361085, 3.1009
-3.361086, 3.1009
-3.361085, 3.1009
-3.361085, 3.1009
-3.361085, 3.1009
-3.361085, 3.1009
-3.361085, 3.1009
-3.361085, 3.1009
-3.361085, 3.1009
-3.361085, 3.1009
-3.361085, 3.1009
-3.361085, 3.1009
-3.361085, 3.1009
-3.361085, 3.1009
-3.361085, 3.1009
-3.361085, 3.1009
-3.361086, 3.1009
-3.361085, 3.1009
-3.361085, 3.1009
-3.361085, 3.1009
-3.361085, 3.1009
-3.361085, 3.1009
-3.361085, 3.1009
-3.361085, 3.1009
-3.361085, 3.1009
-3.361085, 3.1009
-3.361085, 3.1009
-3.361085, 3.1009
-3.361085, 3.1009
-3.361085, 3.1009
-3.361085, 3.1009
-3.361085, 3.1009
-3.361085, 3.1009
-3.361085, 3.1009
-3.361085, 3.1009
-3.361086, 3.1009
-3.361085, 3.1009
-3.361085, 3.1009
-3.361085, 3.1009
-3.361085, 3.1009
-3.361085, 3.1009
-3.361085, 3.1009
-3.361086, 3.1009
-3.361085, 3.1009
-3.361085, 3.1009
-3.361085, 3.1009
-3.361085, 3.1009
-3.361086, 3.1009
-3.361086, 3.1009
-3.361085, 3.1009
-3.361085, 3.1009
-3.361085, 3.1009
-3.361085, 3.1009
-3.361085, 3.1009
-3.361085, 3.1009
-3.361085, 3.1009
-3.361085, 3.1009
-3.361085, 3.1009
-3.361085, 3.1009
-3.361085, 3.1009
-3.361085, 3.1009
-3.361085, 3.1009
-3.361085, 3.1009
-3.361085, 3.1009
-3.361085, 3.1009
-3.361085, 3.1009
-3.361085, 3.1009
-3.361085, 3.1009
-3.361086, 3.1009
-3.361085, 3.1009
-3.361085, 3.1009
-3.361085, 3.1009
-3.361085, 3.1009
-3.361085, 3.1009
-3.361085, 3.1009
-3.361085, 3.1009
-3.361085, 3.1009
-3.361085, 3.1009
-3.361085, 3.1009
-3.361085, 3.1009
-3.361085, 3.1009
-3.361085, 3.1009
-3.361085, 3.1009
-3.361085, 3.1009
-3.361085, 3.1009
-3.361085, 3.1009
-3.361085, 3.1009
-3.361085, 3.1009
-3.361085, 3.1009
-3.361085, 3.1009
-3.361085, 3.1009
-3.361085, 3.1009
-3.361085, 3.1009
-3.361086, 3.1009
-3.361085, 3.1009
-3.361085, 3.1009
-3.361085, 3.1009
-3.361085, 3.1009
-3.361085, 3.1009
-3.361085, 3.1009
-3.361085, 3.1009
-3.361085, 3.1009
-3.361085, 3.1009
-3.361085, 3.1009
-3.361085, 3.1009
-3.361085, 3.1009
-3.361085, 3.1009
-3.361085, 3.1009
-3.361085, 3.1009
-3.361085, 3.1009
-3.361085, 3.1009
-3.361085, 3.1009
-3.361085, 3.1009
-3.361085, 3.1009
-3.361085, 3.1009
-3.361085, 3.1009
-3.361085, 3.1009
-3.361085, 3.1009
-3.361085, 3.1009
-3.361086, 3.1009
-3.361085, 3.1009
-3.361086, 3.1009
-3.361085, 3.1009
-3.361085, 3.1009
-3.361085, 3.1009
-3.361085, 3.1009
-3.361085, 3.1009
-3.361085, 3.1009
-3.361085, 3.1009
-3.361085, 3.1009
-3.361085, 3.1009
-3.361085, 3.1009
-3.361085, 3.1009
-3.361085, 3.1009
-3.361085, 3.1009
-3.361085, 3.1009
-3.361085, 3.1009
-3.361085, 3.1009
-3.361085, 3.1009
-3.361085, 3.1009
-3.361085, 3.1009
-3.361086, 3.1009
-3.361086, 3.1009
-3.361086, 3.1009
-3.361085, 3.1009
-3.361086, 3.1009
-3.361085, 3.1009
-3.361086, 3.1009
-3.361085, 3.1009
-3.361086, 3.1009
-3.361086, 3.1009
-3.361085, 3.1009
-3.361085, 3.1009
-3.361086, 3.1009
-3.361086, 3.1009
-3.361086, 3.1009
-3.361086, 3.1009
-3.361086, 3.1009
-3.361085, 3.1009
-3.361085, 3.1009
-3.361085, 3.1009
-3.361085, 3.1009
-3.361085, 3.1009
-3.361085, 3.1009
-3.361085, 3.1009
-3.361085, 3.1009
-3.361085, 3.1009
-3.361085, 3.1009
-3.361085, 3.1009
-3.361085, 3.1009
-3.361086, 3.1009
-3.361086, 3.1009
-3.361086, 3.1009
-3.361085, 3.1009
-3.361085, 3.1009
-3.361085, 3.1009
-3.361085, 3.1009
-3.361085, 3.1009
-3.361085, 3.1009
-3.361085, 3.1009
-3.361085, 3.1009
-3.361085, 3.1009
-3.361085, 3.1009
-3.361085, 3.1009
-3.361085, 3.1009
-3.361085, 3.1009
-3.361085, 3.1009
-3.361085, 3.1009
-3.361085, 3.1009
-3.361085, 3.1009
-3.361085, 3.1009
-3.361085, 3.1009
-3.361085, 3.1009
-3.361085, 3.1009
-3.361085, 3.1009
-3.361085, 3.1009
-3.361085, 3.1009
-3.361085, 3.1009
-3.361085, 3.1009
-3.361085, 3.1009
-3.361085, 3.1009
-3.361085, 3.1009
-3.361085, 3.1009
-3.361085, 3.1009
-3.361085, 3.1009
-3.361085, 3.1009
-3.361085, 3.1009
-3.361085, 3.1009
-3.361085, 3.1009
-3.361085, 3.1009
-3.361085, 3.1009
-3.361085, 3.1009
-3.361085, 3.1009
-3.361085, 3.1009
-3.361085, 3.1009
-3.361085, 3.1009
-3.361085, 3.1009
-3.361085, 3.1009
-3.361085, 3.1009
-3.361085, 3.1009
-3.361085, 3.1009
-3.361085, 3.1009
-3.361086, 3.1009
-3.361086, 3.1009
-3.361085, 3.1009
-3.361085, 3.1009
-3.361085, 3.1009
-3.361085, 3.1009
-3.361085, 3.1009
-3.361085, 3.1009
-3.361085, 3.1009
-3.361085, 3.1009
-3.361085, 3.1009
-3.361085, 3.1009
-3.361085, 3.1009
-3.361085, 3.1009
-3.361085, 3.1009
-3.361086, 3.1009
-3.361085, 3.1009
-3.361085, 3.1009
-3.361085, 3.1009
-3.361085, 3.1009
-3.361085, 3.1009
-3.361085, 3.1009
-3.361085, 3.1009
-3.361085, 3.1009
-3.361085, 3.1009
-3.361086, 3.1009
-3.361086, 3.1009
-3.361086, 3.1009
-3.361085, 3.1009
-3.361085, 3.1009
-3.361085, 3.1009
-3.361085, 3.1009
-3.361085, 3.1009
-3.361085, 3.1009
-3.361085, 3.1009
-3.361085, 3.1009
-3.361085, 3.1009
-3.361085, 3.1009
-3.361085, 3.1009
-3.361085, 3.1009
-3.361085, 3.1009
-3.361085, 3.1009
-3.361085, 3.1009
-3.361085, 3.1009
-3.361085, 3.1009
-3.361085, 3.1009
-3.361085, 3.1009
-3.361085, 3.1009
-3.361085, 3.1009
-3.361085, 3.1009
-3.361085, 3.1009
-3.361085, 3.1009
-3.361086, 3.1009
-3.361085, 3.1009
-3.361085, 3.1009
-3.361085, 3.1009
-3.361085, 3.1009
-3.361085, 3.1009
-3.361085, 3.1009
-3.361085, 3.1009
-3.361085, 3.1009
-3.361085, 3.1009
-3.361085, 3.1009
-3.361085, 3.1009
-3.361085, 3.1009
-3.361085, 3.1009
-3.361086, 3.1009
-3.361085, 3.1009
-3.361085, 3.1009
-3.361085, 3.1009
-3.361085, 3.1009
-3.361085, 3.1009
-3.361085, 3.1009
-3.361085, 3.1009
-3.361085, 3.1009
-3.361086, 3.1009
-3.361085, 3.1009
-3.361085, 3.1009
-3.361085, 3.1009
-3.361085, 3.1009
-3.361085, 3.1009
-3.361085, 3.1009
-3.361085, 3.1009
-3.361085, 3.1009
-3.361085, 3.1009
-3.361085, 3.1009
-3.361085, 3.1009
-3.361085, 3.1009
-3.361085, 3.1009
-3.361085, 3.1009
-3.361085, 3.1009
-3.361085, 3.1009
-3.361085, 3.1009
-3.361085, 3.1009
-3.361085, 3.1009
-3.361086, 3.1009
-3.361085, 3.1009
-3.361085, 3.1009
-3.361085, 3.1009
-3.361085, 3.1009
-3.361085, 3.1009
-3.361085, 3.1009
-3.361085, 3.1009
-3.361085, 3.1009
-3.361085, 3.1009
-3.361085, 3.1009
-3.361085, 3.1009
-3.361085, 3.1009
-3.361085, 3.1009
-3.361085, 3.1009
-3.361085, 3.1009
-3.361085, 3.1009
-3.361085, 3.1009
-3.361085, 3.1009
-3.361086, 3.1009
-3.361085, 3.1009
-3.361085, 3.1009
-3.361085, 3.1009
-3.361085, 3.1009
-3.361085, 3.1009
-3.361085, 3.1009
-3.361085, 3.1009
-3.361085, 3.1009
-3.361085, 3.1009
-3.361085, 3.1009
-3.361085, 3.1009
-3.361085, 3.1009
-3.361085, 3.1009
-3.361085, 3.1009
-3.361085, 3.1009
-3.361085, 3.1009
-3.361086, 3.1009
-3.361085, 3.1009
-3.361085, 3.1009
-3.361085, 3.1009
-3.361085, 3.1009
-3.361085, 3.1009
-3.361085, 3.1009
-3.361085, 3.1009
-3.361085, 3.1009
-3.361085, 3.1009
-3.361085, 3.1009
-3.361085, 3.1009
-3.361085, 3.1009
-3.361085, 3.1009
-3.361085, 3.1009
-3.361085, 3.1009
-3.361085, 3.1009
-3.361086, 3.1009
-3.361085, 3.1009
-3.361085, 3.1009
-3.361085, 3.1009
-3.361085, 3.1009
-3.361085, 3.1009
-3.361085, 3.1009
-3.361085, 3.1009
-3.361085, 3.1009
-3.361086, 3.1009
-3.361086, 3.1009
-3.361086, 3.1009
-3.361085, 3.1009
-3.361086, 3.1009
-3.361085, 3.1009
-3.361085, 3.1009
-3.361085, 3.1009
-3.361085, 3.1009
-3.361086, 3.1009
-3.361085, 3.1009
-3.361085, 3.1009
-3.361085, 3.1009
-3.361085, 3.1009
-3.361085, 3.1009
-3.361085, 3.1009
-3.361085, 3.1009
-3.361085, 3.1009
-3.361086, 3.1009
-3.361085, 3.1009
-3.361085, 3.1009
-3.361085, 3.1009
-3.361085, 3.1009
-3.361085, 3.1009
-3.361085, 3.1009
-3.361085, 3.1009
-3.361085, 3.1009
-3.361086, 3.1009
-3.361085, 3.1009
-3.361085, 3.1009
-3.361085, 3.1009
-3.361085, 3.1009
-3.361085, 3.1009
-3.361085, 3.1009
-3.361085, 3.1009
-3.361086, 3.1009
-3.361085, 3.1009
-3.361085, 3.1009
-3.361085, 3.1009
-3.361085, 3.1009
-3.361085, 3.1009
-3.361085, 3.1009
-3.361085, 3.1009
-3.361086, 3.1009
-3.361085, 3.1009
-3.361085, 3.1009
-3.361085, 3.1009
-3.361085, 3.1009
-3.361085, 3.1009
-3.361085, 3.1009
-3.361086, 3.1009
-3.361085, 3.1009
-3.361085, 3.1009
-3.361085, 3.1009
-3.361085, 3.1009
-3.361085, 3.1009
-3.361086, 3.1009
-3.361085, 3.1009
-3.361085, 3.1009
-3.361085, 3.1009
-3.361085, 3.1009
-3.361085, 3.1009
-3.361086, 3.1009
-3.361085, 3.1009
-3.361085, 3.1009
-3.361085, 3.1009
-3.361085, 3.1009
-3.361085, 3.1009
-3.361086, 3.1009
-3.361085, 3.1009
-3.361085, 3.1009
-3.361085, 3.1009
-3.361085, 3.1009
-3.361086, 3.1009
-3.361085, 3.1009
-3.361085, 3.1009
-3.361085, 3.1009
-3.361085, 3.1009
-3.361086, 3.1009
-3.361085, 3.1009
-3.361085, 3.1009
-3.361085, 3.1009
-3.361086, 3.1009
-3.361085, 3.1009
-3.361085, 3.1009
-3.361085, 3.1009
-3.361086, 3.1009
-3.361085, 3.1009
-3.361085, 3.1009
-3.361085, 3.1009
-3.361086, 3.1009
-3.361086, 3.1009
-3.361086, 3.1009
-3.361086, 3.1009
-3.361086, 3.1009
-3.361086, 3.1009
-3.361085, 3.1009
-3.361085, 3.1009
-3.361085, 3.1009
-3.361085, 3.1009
-3.361085, 3.1009
-3.361085, 3.1009
-3.361085, 3.1009
-3.361085, 3.1009
-3.361085, 3.1009
-3.361085, 3.1009
-3.361085, 3.1009
-3.361085, 3.1009
-3.361085, 3.1009
-3.361085, 3.1009
-3.361085, 3.1009
-3.361085, 3.1009
-3.361085, 3.1009
-3.361085, 3.1009
-3.361085, 3.1009
-3.361085, 3.1009
-3.361085, 3.1009
-3.361085, 3.1009
-3.361085, 3.1009
-3.361086, 3.1009
-3.361085, 3.1009
-3.361085, 3.1009
-3.361085, 3.1009
-3.361085, 3.1009
-3.361085, 3.1009
-3.361085, 3.1009
-3.361085, 3.1009
-3.361086, 3.1009
-3.361085, 3.1009
-3.361085, 3.1009
-3.361085, 3.1009
-3.361085, 3.1009
-3.361086, 3.1009
-3.361086, 3.1009
-3.361086, 3.1009
-3.361086, 3.1009
-3.361086, 3.1009
-3.361086, 3.1009
-3.361086, 3.1009
-3.361086, 3.1009
-3.361086, 3.1009
-3.361086, 3.1009
-3.361086, 3.1009
-3.361086, 3.1009
-3.361086, 3.1009
-3.361086, 3.1009
-3.361086, 3.1009
-3.361086, 3.1009
-3.361086, 3.1009
-3.361086, 3.1009
-3.361086, 3.1009
-3.361085, 3.1009
-3.361086, 3.1009
-3.361085, 3.1009
-3.361086, 3.1009
-3.361086, 3.1009
-3.361086, 3.1009
-3.361085, 3.1009
-3.361086, 3.1009
-3.361085, 3.1009
-3.361086, 3.1009
-3.361086, 3.1009
-3.361085, 3.1009
-3.361085, 3.1009
-3.361085, 3.1009
-3.361085, 3.1009
-3.361085, 3.1009
-3.361085, 3.1009
-3.361085, 3.1009
-3.361085, 3.1009
-3.361085, 3.1009
-3.361085, 3.1009
-3.361086, 3.1009
-3.361085, 3.1009
-3.361085, 3.1009
-3.361085, 3.1009
-3.361085, 3.1009
-3.361085, 3.1009
-3.361086, 3.1009
-3.361085, 3.1009
-3.361085, 3.1009
-3.361086, 3.1009
-3.361085, 3.1009
-3.361085, 3.1009
-3.361085, 3.1009
-3.361085, 3.1009
-3.361085, 3.1009
-3.361085, 3.1009
-3.361085, 3.1009
-3.361085, 3.1009
-3.361085, 3.1009
-3.361085, 3.1009
-3.361085, 3.1009
-3.361086, 3.1009
-3.361085, 3.1009
-3.361085, 3.1009
-3.361085, 3.1009
-3.361085, 3.1009
-3.361085, 3.1009
-3.361085, 3.1009
-3.361085, 3.1009
-3.361085, 3.1009
-3.361085, 3.1009
-3.361085, 3.1009
-3.361085, 3.1009
-3.361085, 3.1009
-3.361085, 3.1009
-3.361085, 3.1009
-3.361085, 3.1009
-3.361085, 3.1009
-3.361085, 3.1009
-3.361085, 3.1009
-3.361085, 3.1009
-3.361086, 3.1009
-3.361085, 3.1009
-3.361085, 3.1009
-3.361085, 3.1009
-3.361085, 3.1009
-3.361085, 3.1009
-3.361085, 3.1009
-3.361085, 3.1009
-3.361085, 3.1009
-3.361085, 3.1009
-3.361085, 3.1009
-3.361085, 3.1009
-3.361085, 3.1009
-3.361085, 3.1009
-3.361085, 3.1009
-3.361086, 3.1009
-3.361085, 3.1009
-3.361085, 3.1009
-3.361085, 3.1009
-3.361086, 3.1009
-3.361085, 3.1009
-3.361085, 3.1009
-3.361085, 3.1009
-3.361085, 3.1009
-3.361085, 3.1009
-3.361085, 3.1009
-3.361085, 3.1009
-3.361085, 3.1009
-3.361086, 3.1009
-3.361086, 3.1009
-3.361086, 3.1009
-3.361086, 3.1009
-3.361086, 3.1009
-3.361086, 3.1009
-3.361086, 3.1009
-3.361086, 3.1009
-3.361086, 3.1009
-3.361086, 3.1009
-3.361086, 3.1009
-3.361086, 3.1009
-3.361086, 3.1009
-3.361085, 3.1009
-3.361085, 3.1009
-3.361085, 3.1009
-3.361085, 3.1009
-3.361085, 3.1009
-3.361085, 3.1009
-3.361085, 3.1009
-3.361085, 3.1009
-3.361085, 3.1009
-3.361085, 3.1009
-3.361085, 3.1009
-3.361085, 3.1009
-3.361086, 3.1009
-3.361086, 3.1009
-3.361085, 3.1009
-3.361085, 3.1009
-3.361085, 3.1009
-3.361085, 3.1009
-3.361085, 3.1009
-3.361086, 3.1009
-3.361085, 3.1009
-3.361085, 3.1009
-3.361085, 3.1009
-3.361085, 3.1009
-3.361085, 3.1009
-3.361085, 3.1009
-3.361085, 3.1009
-3.361086, 3.1009
-3.361085, 3.1009
-3.361085, 3.1009
-3.361085, 3.1009
-3.361085, 3.1009
-3.361085, 3.1009
-3.361085, 3.1009
-3.361085, 3.1009
-3.361085, 3.1009
-3.361085, 3.1009
-3.361085, 3.1009
-3.361085, 3.1009
-3.361085, 3.1009
-3.361085, 3.1009
-3.361086, 3.1009
-3.361085, 3.1009
-3.361085, 3.1009
-3.361085, 3.1009
-3.361085, 3.1009
-3.361085, 3.1009
-3.361085, 3.1009
-3.361085, 3.1009
-3.361085, 3.1009
-3.361085, 3.1009
-3.361085, 3.1009
-3.361085, 3.1009
-3.361085, 3.1009
-3.361086, 3.1009
-3.361085, 3.1009
-3.361085, 3.1009
-3.361085, 3.1009
-3.361086, 3.1009
-3.361086, 3.1009
-3.361086, 3.1009
-3.361086, 3.1009
-3.361085, 3.1009
-3.361085, 3.1009
-3.361085, 3.1009
-3.361085, 3.1009
-3.361086, 3.1009
-3.361085, 3.1009
-3.361085, 3.1009
-3.361085, 3.1009
-3.361085, 3.1009
-3.361085, 3.1009
-3.361085, 3.1009
-3.361085, 3.1009
-3.361085, 3.1009
-3.361085, 3.1009
-3.361085, 3.1009
-3.361086, 3.1009
-3.361085, 3.1009
-3.361085, 3.1009
-3.361085, 3.1009
-3.361085, 3.1009
-3.361085, 3.1009
-3.361085, 3.1009
-3.361085, 3.1009
-3.361085, 3.1009
-3.361085, 3.1009
-3.361086, 3.1009
-3.361085, 3.1009
-3.361085, 3.1009
-3.361085, 3.1009
-3.361085, 3.1009
-3.361085, 3.1009
-3.361085, 3.1009
-3.361085, 3.1009
-3.361085, 3.1009
-3.361086, 3.1009
-3.361085, 3.1009
-3.361085, 3.1009
-3.361085, 3.1009
-3.361085, 3.1009
-3.361085, 3.1009
-3.361085, 3.1009
-3.361085, 3.1009
-3.361085, 3.1009
-3.361085, 3.1009
-3.361085, 3.1009
-3.361085, 3.1009
-3.361085, 3.1009
-3.361085, 3.1009
-3.361085, 3.1009
-3.361086, 3.1009
-3.361086, 3.1009
-3.361086, 3.1009
-3.361085, 3.1009
-3.361085, 3.1009
-3.361085, 3.1009
-3.361085, 3.1009
-3.361085, 3.1009
-3.361085, 3.1009
-3.361086, 3.1009
-3.361085, 3.1009
-3.361085, 3.1009
-3.361085, 3.1009
-3.361085, 3.1009
-3.361085, 3.1009
-3.361085, 3.1009
-3.361086, 3.1009
-3.361085, 3.1009
-3.361086, 3.1009
-3.361085, 3.1009
-3.361085, 3.1009
-3.361085, 3.1009
-3.361086, 3.1009
-3.361085, 3.1009
-3.361085, 3.1009
-3.361085, 3.1009
-3.361085, 3.1009
-3.361085, 3.1009
-3.361086, 3.1009
-3.361085, 3.1009
-3.361085, 3.1009
-3.361085, 3.1009
-3.361085, 3.1009
-3.361086, 3.1009
-3.361085, 3.1009
-3.361085, 3.1009
-3.361085, 3.1009
-3.361086, 3.1009
-3.361085, 3.1009
-3.361085, 3.1009
-3.361085, 3.1009
-3.361085, 3.1009
-3.361086, 3.1009
-3.361085, 3.1009
-3.361085, 3.1009
-3.361086, 3.1009
-3.361085, 3.1009
-3.361085, 3.1009
-3.361085, 3.1009
-3.361086, 3.1009
-3.361085, 3.1009
-3.361086, 3.1009
-3.361086, 3.1009
-3.361085, 3.1009
-3.361085, 3.1009
-3.361086, 3.1009
-3.361085, 3.1009
-3.361085, 3.1009
-3.361085, 3.1009
-3.361085, 3.1009
-3.361085, 3.1009
-3.361085, 3.1009
-3.361085, 3.1009
-3.361085, 3.1009
-3.361085, 3.1009
-3.361085, 3.1009
-3.361085, 3.1009
-3.361085, 3.1009
-3.361085, 3.1009
-3.361085, 3.1009
-3.361085, 3.1009
-3.361085, 3.1009
-3.361086, 3.1009
-3.361085, 3.1009
-3.361085, 3.1009
-3.361085, 3.1009
-3.361086, 3.1009
-3.361086, 3.1009
-3.361086, 3.1009
-3.361085, 3.1009
-3.361086, 3.1009
-3.361086, 3.1009
-3.361086, 3.1009
-3.361086, 3.1009
-3.361086, 3.1009
-3.361086, 3.1009
-3.361086, 3.1009
-3.361086, 3.1009
-3.361086, 3.1009
-3.361086, 3.1009
-3.361086, 3.1009
-3.361086, 3.1009
-3.361086, 3.1009
-3.361086, 3.1009
-3.361086, 3.1009
-3.361086, 3.1009
-3.361086, 3.1009
-3.361086, 3.1009
-3.361086, 3.1009
-3.361086, 3.1009
-3.361086, 3.1009
-3.361086, 3.1009
-3.361086, 3.1009
-3.361086, 3.1009
-3.361086, 3.1009
-3.361086, 3.1009
-3.361086, 3.1009
-3.361086, 3.1009
-3.361086, 3.1009
-3.361086, 3.1009
-3.361086, 3.1009
-3.361086, 3.1009
-3.361086, 3.1009
-3.361086, 3.1009
-3.361086, 3.1009
-3.361086, 3.1009
-3.361086, 3.1009
-3.361086, 3.1009
-3.361086, 3.1009
-3.361086, 3.1009
-3.361086, 3.1009
-3.361086, 3.1009
-3.361086, 3.1009
-3.361086, 3.1009
-3.361086, 3.1009
-3.361086, 3.1009
-3.361086, 3.1009
-3.361086, 3.1009
-3.361086, 3.1009
-3.361086, 3.1009
-3.361086, 3.1009
-3.361086, 3.1009
-3.361086, 3.1009
-3.361086, 3.1009
-3.361086, 3.1009
-3.361086, 3.1009
-3.361086, 3.1009
-3.361086, 3.1009
-3.361086, 3.1009
-3.361086, 3.1009
-3.361086, 3.1009
-3.361085, 3.1009
-3.361085, 3.1009
-3.361085, 3.1009
-3.361085, 3.1009
-3.361085, 3.1009
-3.361086, 3.1009
-3.361085, 3.1009
-3.361085, 3.1009
-3.361085, 3.1009
-3.361085, 3.1009
-3.361085, 3.1009
-3.361085, 3.1009
-3.361085, 3.1009
-3.361085, 3.1009
-3.361085, 3.1009
-3.361085, 3.1009
-3.361086, 3.1009
-3.361085, 3.1009
-3.361085, 3.1009
-3.361085, 3.1009
-3.361085, 3.1009
-3.361086, 3.1009
-3.361086, 3.1009
-3.361085, 3.1009
-3.361085, 3.1009
-3.361085, 3.1009
-3.361085, 3.1009
-3.361085, 3.1009
-3.361085, 3.1009
-3.361085, 3.1009
-3.361085, 3.1009
-3.361085, 3.1009
-3.361085, 3.1009
-3.361085, 3.1009
-3.361085, 3.1009
-3.361085, 3.1009
-3.361085, 3.1009
-3.361085, 3.1009
-3.361085, 3.1009
-3.361085, 3.1009
-3.361086, 3.1009
-3.361086, 3.1009
-3.361085, 3.1009
-3.361085, 3.1009
-3.361085, 3.1009
-3.361085, 3.1009
-3.361085, 3.1009
-3.361085, 3.1009
-3.361085, 3.1009
-3.361086, 3.1009
-3.361085, 3.1009
-3.361085, 3.1009
-3.361085, 3.1009
-3.361085, 3.1009
-3.361085, 3.1009
-3.361086, 3.1009
-3.361086, 3.1009
-3.361085, 3.1009
-3.361085, 3.1009
-3.361085, 3.1009
-3.361085, 3.1009
-3.361085, 3.1009
-3.361085, 3.1009
-3.361085, 3.1009
-3.361085, 3.1009
-3.361085, 3.1009
-3.361085, 3.1009
-3.361085, 3.1009
-3.361085, 3.1009
-3.361085, 3.1009
-3.361085, 3.1009
-3.361085, 3.1009
-3.361086, 3.1009
-3.361086, 3.1009
-3.361086, 3.1009
-3.361086, 3.1009
-3.361085, 3.1009
-3.361086, 3.1009
-3.361086, 3.1009
-3.361086, 3.1009
-3.361086, 3.1009
-3.361086, 3.1009
-3.361086, 3.1009
-3.361085, 3.1009
-3.361085, 3.1009
-3.361085, 3.1009
-3.361085, 3.1009
-3.361085, 3.1009
-3.361085, 3.1009
-3.361085, 3.1009
-3.361086, 3.1009
-3.361085, 3.1009
-3.361085, 3.1009
-3.361085, 3.1009
-3.361085, 3.1009
-3.361085, 3.1009
-3.361085, 3.1009
-3.361085, 3.1009
-3.361085, 3.1009
-3.361085, 3.1009
-3.361085, 3.1009
-3.361086, 3.1009
-3.361085, 3.1009
-3.361085, 3.1009
-3.361085, 3.1009
-3.361085, 3.1009
-3.361085, 3.1009
-3.361085, 3.1009
-3.361086, 3.1009
-3.361085, 3.1009
-3.361085, 3.1009
-3.361085, 3.1009
-3.361085, 3.1009
-3.361085, 3.1009
-3.361085, 3.1009
-3.361085, 3.1009
-3.361085, 3.1009
-3.361085, 3.1009
-3.361085, 3.1009
-3.361085, 3.1009
-3.361085, 3.1009
-3.361085, 3.1009
-3.361086, 3.1009
-3.361085, 3.1009
-3.361085, 3.1009
-3.361086, 3.1009
-3.361085, 3.1009
-3.361085, 3.1009
-3.361085, 3.1009
-3.361085, 3.1009
-3.361085, 3.1009
-3.361085, 3.1009
-3.361085, 3.1009
-3.361085, 3.1009
-3.361086, 3.1009
-3.361085, 3.1009
-3.361085, 3.1009
-3.361085, 3.1009
-3.361085, 3.1009
-3.361086, 3.1009
-3.361085, 3.1009
-3.361085, 3.1009
-3.361085, 3.1009
-3.361085, 3.1009
-3.361085, 3.1009
-3.361085, 3.1009
-3.361086, 3.1009
-3.361086, 3.1009
-3.361086, 3.1009
-3.361085, 3.1009
-3.361085, 3.1009
-3.361085, 3.1009
-3.361085, 3.1009
-3.361085, 3.1009
-3.361085, 3.1009
-3.361085, 3.1009
-3.361085, 3.1009
-3.361086, 3.1009
-3.361086, 3.1009
-3.361085, 3.1009
-3.361085, 3.1009
-3.361085, 3.1009
-3.361085, 3.1009
-3.361085, 3.1009
-3.361085, 3.1009
-3.361085, 3.1009
-3.361085, 3.1009
-3.361086, 3.1009
-3.361085, 3.1009
-3.361085, 3.1009
-3.361085, 3.1009
-3.361085, 3.1009
-3.361085, 3.1009
-3.361086, 3.1009
-3.361085, 3.1009
-3.361085, 3.1009
-3.361085, 3.1009
-3.361086, 3.1009
-3.361085, 3.1009
-3.361085, 3.1009
-3.361085, 3.1009
-3.361085, 3.1009
-3.361085, 3.1009
-3.361085, 3.1009
-3.361085, 3.1009
-3.361086, 3.1009
-3.361085, 3.1009
-3.361085, 3.1009
-3.361085, 3.1009
-3.361085, 3.1009
-3.361085, 3.1009
-3.361085, 3.1009
-3.361085, 3.1009
-3.361086, 3.1009
-3.361085, 3.1009
-3.361085, 3.1009
-3.361085, 3.1009
-3.361085, 3.1009
-3.361085, 3.1009
-3.361085, 3.1009
-3.361085, 3.1009
-3.361085, 3.1009
-3.361085, 3.1009
-3.361085, 3.1009
-3.361085, 3.1009
-3.361085, 3.1009
-3.361085, 3.1009
-3.361086, 3.1009
-3.361085, 3.1009
-3.361085, 3.1009
-3.361085, 3.1009
-3.361085, 3.1009
-3.361085, 3.1009
-3.361086, 3.1009
-3.361086, 3.1009
-3.361085, 3.1009
-3.361085, 3.1009
-3.361085, 3.1009
-3.361085, 3.1009
-3.361086, 3.1009
-3.361086, 3.1009
-3.361085, 3.1009
-3.361085, 3.1009
-3.361085, 3.1009
-3.361086, 3.1009
-3.361085, 3.1009
-3.361085, 3.1009
-3.361085, 3.1009
-3.361085, 3.1009
-3.361086, 3.1009
-3.361085, 3.1009
-3.361085, 3.1009
-3.361085, 3.1009
-3.361086, 3.1009
-3.361085, 3.1009
-3.361085, 3.1009
-3.361085, 3.1009
-3.361086, 3.1009
-3.361085, 3.1009
-3.361085, 3.1009
-3.361086, 3.1009
-3.361085, 3.1009
-3.361085, 3.1009
-3.361086, 3.1009
-3.361085, 3.1009
-3.361085, 3.1009
-3.361086, 3.1009
-3.361085, 3.1009
-3.361085, 3.1009
-3.361085, 3.1009
-3.361085, 3.1009
-3.361085, 3.1009
-3.361086, 3.1009
-3.361086, 3.1009
-3.361085, 3.1009
-3.361085, 3.1009
-3.361085, 3.1009
-3.361085, 3.1009
-3.361085, 3.1009
-3.361086, 3.1009
-3.361085, 3.1009
-3.361085, 3.1009
-3.361085, 3.1009
-3.361085, 3.1009
-3.361085, 3.1009
-3.361085, 3.1009
-3.361085, 3.1009
-3.361085, 3.1009
-3.361085, 3.1009
-3.361085, 3.1009
-3.361085, 3.1009
-3.361085, 3.1009
-3.361085, 3.1009
-3.361085, 3.1009
-3.361085, 3.1009
-3.361085, 3.1009
-3.361085, 3.1009
-3.361085, 3.1009
-3.361085, 3.1009
-3.361085, 3.1009
-3.361085, 3.1009
-3.361085, 3.1009
-3.361085, 3.1009
-3.361085, 3.1009
-3.361085, 3.1009
-3.361085, 3.1009
-3.361085, 3.1009
-3.361085, 3.1009
-3.361085, 3.1009
-3.361085, 3.1009
-3.361085, 3.1009
-3.361086, 3.1009
-3.361085, 3.1009
-3.361085, 3.1009
-3.361085, 3.1009
-3.361085, 3.1009
-3.361085, 3.1009
-3.361085, 3.1009
-3.361085, 3.1009
-3.361085, 3.1009
-3.361085, 3.1009
-3.361085, 3.1009
-3.361085, 3.1009
-3.361085, 3.1009
-3.361085, 3.1009
-3.361085, 3.1009
-3.361085, 3.1009
-3.361085, 3.1009
-3.361085, 3.1009
-3.361085, 3.1009
-3.361085, 3.1009
-3.361085, 3.1009
-3.361085, 3.1009
-3.361085, 3.1009
-3.361085, 3.1009
-3.361085, 3.1009
-3.361085, 3.1009
-3.361085, 3.1009
-3.361085, 3.1009
-3.361085, 3.1009
-3.361085, 3.1009
-3.361085, 3.1009
-3.361085, 3.1009
-3.361085, 3.1009
-3.361085, 3.1009
-3.361085, 3.1009
-3.361085, 3.1009
-3.361085, 3.1009
-3.361086, 3.1009
-3.361085, 3.1009
-3.361085, 3.1009
-3.361085, 3.1009
-3.361085, 3.1009
-3.361085, 3.1009
-3.361085, 3.1009
-3.361085, 3.1009
-3.361085, 3.1009
-3.361085, 3.1009
-3.361085, 3.1009
-3.361086, 3.1009
-3.361085, 3.1009
-3.361085, 3.1009
-3.361085, 3.1009
-3.361085, 3.1009
-3.361085, 3.1009
-3.361085, 3.1009
-3.361085, 3.1009
-3.361085, 3.1009
-3.361085, 3.1009
-3.361085, 3.1009
-3.361085, 3.1009
-3.361086, 3.1009
-3.361086, 3.1009
-3.361085, 3.1009
-3.361085, 3.1009
-3.361085, 3.1009
-3.361085, 3.1009
-3.361085, 3.1009
-3.361085, 3.1009
-3.361086, 3.1009
-3.361085, 3.1009
-3.361085, 3.1009
-3.361085, 3.1009
-3.361085, 3.1009
-3.361086, 3.1009
-3.361085, 3.1009
-3.361085, 3.1009
-3.361085, 3.1009
-3.361085, 3.1009
-3.361085, 3.1009
-3.361085, 3.1009
-3.361085, 3.1009
-3.361085, 3.1009
-3.361085, 3.1009
-3.361085, 3.1009
-3.361085, 3.1009
-3.361086, 3.1009
-3.361085, 3.1009
-3.361086, 3.1009
-3.361085, 3.1009
-3.361085, 3.1009
-3.361085, 3.1009
-3.361085, 3.1009
-3.361085, 3.1009
-3.361085, 3.1009
-3.361085, 3.1009
-3.361086, 3.1009
-3.361085, 3.1009
-3.361085, 3.1009
-3.361085, 3.1009
-3.361085, 3.1009
-3.361085, 3.1009
-3.361085, 3.1009
-3.361085, 3.1009
-3.361085, 3.1009
-3.361086, 3.1009
-3.361085, 3.1009
-3.361085, 3.1009
-3.361085, 3.1009
-3.361085, 3.1009
-3.361085, 3.1009
-3.361085, 3.1009
-3.361085, 3.1009
-3.361085, 3.1009
-3.361085, 3.1009
-3.361085, 3.1009
-3.361085, 3.1009
-3.361085, 3.1009
-3.361085, 3.1009
-3.361085, 3.1009
-3.361085, 3.1009
-3.361086, 3.1009
-3.361085, 3.1009
-3.361085, 3.1009
-3.361085, 3.1009
-3.361085, 3.1009
-3.361085, 3.1009
-3.361085, 3.1009
-3.361085, 3.1009
-3.361085, 3.1009
-3.361085, 3.1009
-3.361085, 3.1009
-3.361085, 3.1009
-3.361085, 3.1009
-3.361086, 3.1009
-3.361085, 3.1009
-3.361086, 3.1009
-3.361085, 3.1009
-3.361085, 3.1009
-3.361085, 3.1009
-3.361085, 3.1009
-3.361085, 3.1009
-3.361086, 3.1009
-3.361086, 3.1009
-3.361085, 3.1009
-3.361085, 3.1009
-3.361085, 3.1009
-3.361085, 3.1009
-3.361085, 3.1009
-3.361085, 3.1009
-3.361086, 3.1009
-3.361085, 3.1009
-3.361085, 3.1009
-3.361085, 3.1009
-3.361085, 3.1009
-3.361085, 3.1009
-3.361085, 3.1009
-3.361085, 3.1009
-3.361085, 3.1009
-3.361085, 3.1009
-3.361085, 3.1009
-3.361085, 3.1009
-3.361085, 3.1009
-3.361086, 3.1009
-3.361085, 3.1009
-3.361085, 3.1009
-3.361085, 3.1009
-3.361085, 3.1009
-3.361085, 3.1009
-3.361085, 3.1009
-3.361085, 3.1009
-3.361085, 3.1009
-3.361085, 3.1009
-3.361085, 3.1009
-3.361086, 3.1009
-3.361085, 3.1009
-3.361085, 3.1009
-3.361085, 3.1009
-3.361085, 3.1009
-3.361085, 3.1009
-3.361085, 3.1009
-3.361085, 3.1009
-3.361085, 3.1009
-3.361085, 3.1009
-3.361085, 3.1009
-3.361086, 3.1009
-3.361085, 3.1009
-3.361085, 3.1009
-3.361085, 3.1009
-3.361086, 3.1009
-3.361085, 3.1009
-3.361086, 3.1009
-3.361085, 3.1009
-3.361085, 3.1009
-3.361085, 3.1009
-3.361086, 3.1009
-3.361085, 3.1009
-3.361085, 3.1009
-3.361085, 3.1009
-3.361085, 3.1009
-3.361085, 3.1009
-3.361085, 3.1009
-3.361085, 3.1009
-3.361086, 3.1009
-3.361086, 3.1009
-3.361086, 3.1009
-3.361086, 3.1009
-3.361086, 3.1009
-3.361086, 3.1009
-3.361086, 3.1009
-3.361085, 3.1009
-3.361085, 3.1009
-3.361085, 3.1009
-3.361085, 3.1009
-3.361086, 3.1009
-3.361085, 3.1009
-3.361086, 3.1009
-3.361085, 3.1009
-3.361085, 3.1009
-3.361085, 3.1009
-3.361085, 3.1009
-3.361085, 3.1009
-3.361085, 3.1009
-3.361085, 3.1009
-3.361085, 3.1009
-3.361085, 3.1009
-3.361085, 3.1009
-3.361086, 3.1009
-3.361085, 3.1009
-3.361085, 3.1009
-3.361086, 3.1009
-3.361085, 3.1009
-3.361085, 3.1009
-3.361085, 3.1009
-3.361086, 3.1009
-3.361086, 3.1009
-3.361086, 3.1009
-3.361086, 3.1009
-3.361086, 3.1009
-3.361086, 3.1009
-3.361086, 3.1009
-3.361086, 3.1009
-3.361086, 3.1009
-3.361086, 3.1009
-3.361086, 3.1009
-3.361086, 3.1009
-3.361085, 3.1009
-3.361085, 3.1009
-3.361085, 3.1009
-3.361086, 3.1009
-3.361086, 3.1009
-3.361086, 3.1009
-3.361086, 3.1009
-3.361086, 3.1009
-3.361086, 3.1009
-3.361085, 3.1009
-3.361086, 3.1009
-3.361085, 3.1009
-3.361086, 3.1009
-3.361086, 3.1009
-3.361086, 3.1009
-3.361086, 3.1009
-3.361086, 3.1009
-3.361086, 3.1009
-3.361086, 3.1009
-3.361086, 3.1009
-3.361086, 3.1009
-3.361086, 3.1009
-3.361085, 3.1009
-3.361085, 3.1009
-3.361085, 3.1009
-3.361085, 3.1009
-3.361085, 3.1009
-3.361085, 3.1009
-3.361085, 3.1009
-3.361086, 3.1009
-3.361086, 3.1009
-3.361085, 3.1009
-3.361085, 3.1009
-3.361085, 3.1009
-3.361085, 3.1009
-3.361085, 3.1009
-3.361085, 3.1009
-3.361086, 3.1009
-3.361086, 3.1009
-3.361086, 3.1009
-3.361086, 3.1009
-3.361086, 3.1009
-3.361086, 3.1009
-3.361086, 3.1009
-3.361086, 3.1009
-3.361085, 3.1009
-3.361086, 3.1009
-3.361086, 3.1009
-3.361086, 3.1009
-3.361085, 3.1009
-3.361085, 3.1009
-3.361085, 3.1009
-3.361086, 3.1009
-3.361086, 3.1009
-3.361085, 3.1009
-3.361085, 3.1009
-3.361085, 3.1009
-3.361086, 3.1009
-3.361086, 3.1009
-3.361085, 3.1009
-3.361085, 3.1009
-3.361085, 3.1009
-3.361085, 3.1009
-3.361086, 3.1009
-3.361086, 3.1009
-3.361086, 3.1009
-3.361085, 3.1009
-3.361085, 3.1009
-3.361085, 3.1009
-3.361085, 3.1009
-3.361085, 3.1009
-3.361085, 3.1009
-3.361085, 3.1009
-3.361085, 3.1009
-3.361085, 3.1009
-3.361085, 3.1009
-3.361085, 3.1009
-3.361085, 3.1009
-3.361085, 3.1009
-3.361085, 3.1009
-3.361086, 3.1009
-3.361086, 3.1009
-3.361086, 3.1009
-3.361086, 3.1009
-3.361086, 3.1009
-3.361085, 3.1009
-3.361086, 3.1009
-3.361086, 3.1009
-3.361086, 3.1009
-3.361086, 3.1009
-3.361086, 3.1009
-3.361086, 3.1009
-3.361086, 3.1009
-3.361086, 3.1009
-3.361086, 3.1009
-3.361086, 3.1009
-3.361086, 3.1009
-3.361086, 3.1009
-3.361086, 3.1009
-3.361086, 3.1009
-3.361086, 3.1009
-3.361085, 3.1009
-3.361086, 3.1009
-3.361086, 3.1009
-3.361086, 3.1009
-3.361086, 3.1009
-3.361085, 3.1009
-3.361086, 3.1009
-3.361086, 3.1009
-3.361086, 3.1009
-3.361086, 3.1009
-3.361085, 3.1009
-3.361086, 3.1009
-3.361086, 3.1009
-3.361086, 3.1009
-3.361086, 3.1009
-3.361086, 3.1009
-3.361086, 3.1009
-3.361086, 3.1009
-3.361085, 3.1009
-3.361086, 3.1009
-3.361086, 3.1009
-3.361085, 3.1009
-3.361085, 3.1009
-3.361085, 3.1009
-3.361086, 3.1009
-3.361086, 3.1009
-3.361086, 3.1009
-3.361086, 3.1009
-3.361085, 3.1009
-3.361086, 3.1009
-3.361085, 3.1009
-3.361086, 3.1009
-3.361085, 3.1009
-3.361085, 3.1009
-3.361086, 3.1009
-3.361085, 3.1009
-3.361085, 3.1009
-3.361085, 3.1009
-3.361085, 3.1009
-3.361085, 3.1009
-3.361085, 3.1009
-3.361085, 3.1009
-3.361086, 3.1009
-3.361086, 3.1009
-3.361086, 3.1009
-3.361086, 3.1009
-3.361086, 3.1009
-3.361086, 3.1009
-3.361085, 3.1009
-3.361085, 3.1009
-3.361085, 3.1009
-3.361086, 3.1009
-3.361085, 3.1009
-3.361086, 3.1009
-3.361086, 3.1009
-3.361086, 3.1009
-3.361086, 3.1009
-3.361086, 3.1009
-3.361086, 3.1009
-3.361086, 3.1009
-3.361086, 3.1009
-3.361086, 3.1009
-3.361086, 3.1009
-3.361086, 3.1009
-3.361086, 3.1009
-3.361086, 3.1009
-3.361086, 3.1009
-3.361086, 3.1009
-3.361086, 3.1009
-3.361086, 3.1009
-3.361086, 3.1009
-3.361086, 3.1009
-3.361086, 3.1009
-3.361086, 3.1009
-3.361086, 3.1009
-3.361086, 3.1009
-3.361086, 3.1009
-3.361086, 3.1009
-3.361086, 3.1009
-3.361086, 3.1009
-3.361086, 3.1009
-3.361086, 3.1009
-3.361086, 3.1009
-3.361086, 3.1009
-3.361085, 3.1009
-3.361085, 3.1009
-3.361086, 3.1009
-3.361086, 3.1009
-3.361086, 3.1009
-3.361086, 3.1009
-3.361085, 3.1009
-3.361085, 3.1009
-3.361086, 3.1009
-3.361086, 3.1009
-3.361086, 3.1009
-3.361086, 3.1009
-3.361086, 3.1009
-3.361086, 3.1009
-3.361086, 3.1009
-3.361086, 3.1009
-3.361086, 3.1009
-3.361086, 3.1009
-3.361086, 3.1009
-3.361086, 3.1009
-3.361085, 3.1009
-3.361085, 3.1009
-3.361086, 3.1009
-3.361085, 3.1009
-3.361086, 3.1009
-3.361085, 3.1009
-3.361085, 3.1009
-3.361086, 3.1009
-3.361086, 3.1009
-3.361086, 3.1009
-3.361086, 3.1009
-3.361085, 3.1009
-3.361085, 3.1009
-3.361085, 3.1009
-3.361085, 3.1009
-3.361085, 3.1009
-3.361085, 3.1009
-3.361085, 3.1009
-3.361086, 3.1009
-3.361085, 3.1009
-3.361086, 3.1009
-3.361085, 3.1009
-3.361086, 3.1009
-3.361085, 3.1009
-3.361086, 3.1009
-3.361086, 3.1009
-3.361085, 3.1009
-3.361085, 3.1009
-3.361085, 3.1009
-3.361085, 3.1009
-3.361086, 3.1009
-3.361086, 3.1009
-3.361085, 3.1009
-3.361086, 3.1009
-3.361086, 3.1009
-3.361085, 3.1009
-3.361086, 3.1009
-3.361085, 3.1009
-3.361085, 3.1009
-3.361085, 3.1009
-3.361085, 3.1009
-3.361085, 3.1009
-3.361085, 3.1009
-3.361085, 3.1009
-3.361085, 3.1009
-3.361085, 3.1009
-3.361085, 3.1009
-3.361085, 3.1009
-3.361085, 3.1009
-3.361086, 3.1009
-3.361086, 3.1009
-3.361085, 3.1009
-3.361085, 3.1009
-3.361085, 3.1009
-3.361085, 3.1009
-3.361085, 3.1009
-3.361085, 3.1009
-3.361085, 3.1009
-3.361085, 3.1009
-3.361085, 3.1009
-3.361086, 3.1009
-3.361085, 3.1009
-3.361085, 3.1009
-3.361086, 3.1009
-3.361085, 3.1009
-3.361085, 3.1009
-3.361085, 3.1009
-3.361085, 3.1009
-3.361085, 3.1009
-3.361085, 3.1009
-3.361085, 3.1009
-3.361085, 3.1009
-3.361085, 3.1009
-3.361085, 3.1009
-3.361085, 3.1009
-3.361085, 3.1009
-3.361085, 3.1009
-3.361085, 3.1009
-3.361085, 3.1009
-3.361085, 3.1009
-3.361085, 3.1009
-3.361085, 3.1009
-3.361085, 3.1009
-3.361085, 3.1009
-3.361085, 3.1009
-3.361085, 3.1009
-3.361086, 3.1009
-3.361085, 3.1009
-3.361085, 3.1009
-3.361085, 3.1009
-3.361085, 3.1009
-3.361085, 3.1009
-3.361085, 3.1009
-3.361085, 3.1009
-3.361085, 3.1009
-3.361085, 3.1009
-3.361085, 3.1009
-3.361085, 3.1009
-3.361085, 3.1009
-3.361085, 3.1009
-3.361085, 3.1009
-3.361085, 3.1009
-3.361085, 3.1009
-3.361085, 3.1009
-3.361085, 3.1009
-3.361085, 3.1009
-3.361085, 3.1009
-3.361085, 3.1009
-3.361085, 3.1009
-3.361085, 3.1009
-3.361085, 3.1009
-3.361086, 3.1009
-3.361086, 3.1009
-3.361085, 3.1009
-3.361085, 3.1009
-3.361085, 3.1009
-3.361085, 3.1009
-3.361085, 3.1009
-3.361085, 3.1009
-3.361085, 3.1009
-3.361085, 3.1009
-3.361086, 3.1009
-3.361085, 3.1009
-3.361085, 3.1009
-3.361085, 3.1009
-3.361085, 3.1009
-3.361085, 3.1009
-3.361085, 3.1009
-3.361085, 3.1009
-3.361085, 3.1009
-3.361085, 3.1009
-3.361085, 3.1009
-3.361085, 3.1009
-3.361085, 3.1009
-3.361085, 3.1009
-3.361085, 3.1009
-3.361085, 3.1009
-3.361085, 3.1009
-3.361086, 3.1009
-3.361085, 3.1009
-3.361085, 3.1009
-3.361085, 3.1009
-3.361085, 3.1009
-3.361085, 3.1009
-3.361085, 3.1009
-3.361085, 3.1009
-3.361085, 3.1009
-3.361085, 3.1009
-3.361085, 3.1009
-3.361085, 3.1009
-3.361085, 3.1009
-3.361085, 3.1009
-3.361085, 3.1009
-3.361085, 3.1009
-3.361085, 3.1009
-3.361085, 3.1009
-3.361085, 3.1009
-3.361085, 3.1009
-3.361085, 3.1009
-3.361085, 3.1009
-3.361085, 3.1009
-3.361086, 3.1009
-3.361086, 3.1009
-3.361085, 3.1009
-3.361086, 3.1009
-3.361086, 3.1009
-3.361085, 3.1009
-3.361085, 3.1009
-3.361086, 3.1009
-3.361086, 3.1009
-3.361086, 3.1009
-3.361086, 3.1009
-3.361085, 3.1009
-3.361085, 3.1009
-3.361085, 3.1009
-3.361085, 3.1009
-3.361085, 3.1009
-3.361085, 3.1009
-3.361085, 3.1009
-3.361085, 3.1009
-3.361085, 3.1009
-3.361085, 3.1009
-3.361085, 3.1009
-3.361085, 3.1009
-3.361085, 3.1009
-3.361085, 3.1009
-3.361086, 3.1009
-3.361085, 3.1009
-3.361085, 3.1009
-3.361086, 3.1009
-3.361086, 3.1009
-3.361086, 3.1009
-3.361086, 3.1009
-3.361086, 3.1009
-3.361086, 3.1009
-3.361085, 3.1009
-3.361086, 3.1009
-3.361085, 3.1009
-3.361085, 3.1009
-3.361085, 3.1009
-3.361085, 3.1009
-3.361085, 3.1009
-3.361085, 3.1009
-3.361085, 3.1009
-3.361085, 3.1009
-3.361085, 3.1009
-3.361085, 3.1009
-3.361086, 3.1009
-3.361086, 3.1009
-3.361085, 3.1009
-3.361085, 3.1009
-3.361085, 3.1009
-3.361085, 3.1009
-3.361085, 3.1009
-3.361085, 3.1009
-3.361085, 3.1009
-3.361086, 3.1009
-3.361086, 3.1009
-3.361085, 3.1009
-3.361085, 3.1009
-3.361085, 3.1009
-3.361085, 3.1009
-3.361085, 3.1009
-3.361085, 3.1009
-3.361085, 3.1009
-3.361085, 3.1009
-3.361085, 3.1009
-3.361085, 3.1009
-3.361086, 3.1009
-3.361086, 3.1009
-3.361086, 3.1009
-3.361085, 3.1009
-3.361086, 3.1009
-3.361085, 3.1009
-3.361085, 3.1009
-3.361085, 3.1009
-3.361085, 3.1009
-3.361085, 3.1009
-3.361085, 3.1009
-3.361085, 3.1009
-3.361085, 3.1009
-3.361085, 3.1009
-3.361085, 3.1009
-3.361085, 3.1009
-3.361085, 3.1009
-3.361085, 3.1009
-3.361085, 3.1009
-3.361086, 3.1009
-3.361086, 3.1009
-3.361086, 3.1009
-3.361085, 3.1009
-3.361085, 3.1009
-3.361085, 3.1009
-3.361085, 3.1009
-3.361086, 3.1009
-3.361086, 3.1009
-3.361086, 3.1009
-3.361085, 3.1009
-3.361085, 3.1009
-3.361085, 3.1009
-3.361085, 3.1009
-3.361085, 3.1009
-3.361086, 3.1009
-3.361085, 3.1009
-3.361086, 3.1009
-3.361086, 3.1009
-3.361086, 3.1009
-3.361085, 3.1009
-3.361086, 3.1009
-3.361086, 3.1009
-3.361086, 3.1009
-3.361085, 3.1009
-3.361086, 3.1009
-3.361086, 3.1009
-3.361085, 3.1009
-3.361086, 3.1009
-3.361085, 3.1009
-3.361086, 3.1009
-3.361085, 3.1009
-3.361086, 3.1009
-3.361086, 3.1009
-3.361085, 3.1009
-3.361085, 3.1009
-3.361085, 3.1009
-3.361086, 3.1009
-3.361085, 3.1009
-3.361086, 3.1009
-3.361086, 3.1009
-3.361086, 3.1009
-3.361085, 3.1009
-3.361085, 3.1009
-3.361085, 3.1009
-3.361085, 3.1009
-3.361085, 3.1009
-3.361085, 3.1009
-3.361085, 3.1009
-3.361086, 3.1009
-3.361085, 3.1009
-3.361085, 3.1009
-3.361085, 3.1009
-3.361086, 3.1009
-3.361086, 3.1009
-3.361086, 3.1009
-3.361086, 3.1009
-3.361086, 3.1009
-3.361086, 3.1009
-3.361086, 3.1009
-3.361086, 3.1009
-3.361085, 3.1009
-3.361085, 3.1009
-3.361086, 3.1009
-3.361086, 3.1009
-3.361086, 3.1009
-3.361086, 3.1009
-3.361086, 3.1009
-3.361086, 3.1009
-3.361086, 3.1009
-3.361085, 3.1009
-3.361085, 3.1009
-3.361085, 3.1009
-3.361085, 3.1009
-3.361085, 3.1009
-3.361086, 3.1009
-3.361085, 3.1009
-3.361085, 3.1009
-3.361085, 3.1009
-3.361085, 3.1009
-3.361085, 3.1009
-3.361086, 3.1009
-3.361086, 3.1009
-3.361086, 3.1009
-3.361086, 3.1009
-3.361086, 3.1009
-3.361085, 3.1009
-3.361086, 3.1009
-3.361085, 3.1009
-3.361085, 3.1009
-3.361085, 3.1009
-3.361085, 3.1009
-3.361085, 3.1009
-3.361085, 3.1009
-3.361085, 3.1009
-3.361085, 3.1009
-3.361086, 3.1009
-3.361085, 3.1009
-3.361085, 3.1009
-3.361085, 3.1009
-3.361085, 3.1009
-3.361085, 3.1009
-3.361085, 3.1009
-3.361085, 3.1009
-3.361085, 3.1009
-3.361085, 3.1009
-3.361085, 3.1009
-3.361085, 3.1009
-3.361086, 3.1009
-3.361085, 3.1009
-3.361085, 3.1009
-3.361085, 3.1009
-3.361085, 3.1009
-3.361086, 3.1009
-3.361085, 3.1009
-3.361085, 3.1009
-3.361086, 3.1009
-3.361085, 3.1009
-3.361085, 3.1009
-3.361086, 3.1009
-3.361085, 3.1009
-3.361085, 3.1009
-3.361085, 3.1009
-3.361085, 3.1009
-3.361085, 3.1009
-3.361085, 3.1009
-3.361086, 3.1009
-3.361085, 3.1009
-3.361085, 3.1009
-3.361086, 3.1009
-3.361086, 3.1009
-3.361085, 3.1009
-3.361085, 3.1009
-3.361085, 3.1009
-3.361085, 3.1009
-3.361085, 3.1009
-3.361085, 3.1009
-3.361085, 3.1009
-3.361085, 3.1009
-3.361085, 3.1009
-3.361086, 3.1009
-3.361085, 3.1009
-3.361086, 3.1009
-3.361085, 3.1009
-3.361085, 3.1009
-3.361086, 3.1009
-3.361085, 3.1009
-3.361085, 3.1009
-3.361085, 3.1009
-3.361086, 3.1009
-3.361086, 3.1009
-3.361086, 3.1009
-3.361085, 3.1009
-3.361085, 3.1009
-3.361086, 3.1009
-3.361085, 3.1009
-3.361085, 3.1009
-3.361086, 3.1009
-3.361086, 3.1009
-3.361085, 3.1009
-3.361085, 3.1009
-3.361086, 3.1009
-3.361086, 3.1009
-3.361086, 3.1009
-3.361086, 3.1009
-3.361085, 3.1009
-3.361086, 3.1009
-3.361086, 3.1009
-3.361085, 3.1009
-3.361085, 3.1009
-3.361085, 3.1009
-3.361086, 3.1009
-3.361086, 3.1009
-3.361085, 3.1009
-3.361086, 3.1009
-3.361086, 3.1009
-3.361085, 3.1009
-3.361085, 3.1009
-3.361085, 3.1009
-3.361085, 3.1009
-3.361085, 3.1009
-3.361085, 3.1009
-3.361086, 3.1009
-3.361085, 3.1009
-3.361085, 3.1009
-3.361085, 3.1009
-3.361085, 3.1009
-3.361085, 3.1009
-3.361086, 3.1009
-3.361085, 3.1009
-3.361085, 3.1009
-3.361085, 3.1009
-3.361086, 3.1009
-3.361086, 3.1009
-3.361086, 3.1009
-3.361086, 3.1009
-3.361086, 3.1009
-3.361086, 3.1009
-3.361086, 3.1009
-3.361086, 3.1009
-3.361086, 3.1009
-3.361086, 3.1009
-3.361086, 3.1009
-3.361086, 3.1009
-3.361086, 3.1009
-3.361086, 3.1009
-3.361086, 3.1009
-3.361086, 3.1009
