0, 0
0, 0
0, 0
0, 0
0, 0
0, 0
0, 0
0, 0
0, 0
0, 0
0, 0
0, 0
0, 0
0, 0
0, 0
0, 0
0, 0
0, 0
0, 0
0, 0
0, 0
0, 0
0, 0
0, 0
0, 0
0, 0
0, 0
0, 0
0, 0
0, 0
0, 0
0, 0
0, 0
0, 0
0, 0
0, 0
0, 0
0, 0
0, 0
0, 0
0, 0
0, 0
0, 0
0, 0
0, 0
0, 0
0, 0
0, 0
0, 0
0, 0
0, 0
0, 0
0, 0
0, 0
0, 0
0, 0
0, 0
0, 0
0, 0
0, 0
0, 0
0, 0
0, 0
0, 0
0, 0
0, 0
0, 0
0, 0
0, 0
0, 0
3.125902E-05, 0.05217014
0.0005068072, 0.1531752
0.001883072, 0.2575041
0.002993887, 0.3132696
0.002993887, 0.3132696
0.002993887, 0.3132696
0.002993887, 0.3132696
0.002993887, 0.3132696
0.002993887, 0.3132696
0.002993887, 0.3132696
0.002993887, 0.3132696
0.002993887, 0.3132696
0.002993887, 0.3132696
0.002993887, 0.3132696
0.002993887, 0.3132696
0.002993887, 0.3132696
0.002993887, 0.3132696
0.002993887, 0.3132696
0.002993887, 0.3132696
0.002993887, 0.3132696
0.002993887, 0.3132696
0.002993887, 0.3132696
0.002993887, 0.3132696
0.002993887, 0.3132696
0.002993887, 0.3132696
0.002993887, 0.3132696
0.002993887, 0.3132696
0.002993887, 0.3132696
0.002993887, 0.3132696
0.002993887, 0.3132696
0.002993887, 0.3132696
0.002993887, 0.3132696
0.002993887, 0.3132696
0.002993887, 0.3132696
0.002993887, 0.3132696
0.002993887, 0.3132696
0.002993887, 0.3132696
0.002993886, 0.3132695
0.002993886, 0.3132694
0.002993888, 0.3132694
0.002993886, 0.3132695
0.002993883, 0.3132694
0.002993886, 0.3132694
0.002993886, 0.3132695
0.002993887, 0.3132695
0.002993886, 0.3132694
0.002993886, 0.3132695
0.002993889, 0.3132695
0.00299389, 0.3132695
0.002993869, 0.3132694
0.002993869, 0.3132694
0.002993869, 0.3132694
0.002993875, 0.3132695
0.002993888, 0.3132695
0.002993886, 0.3132694
0.002993885, 0.3132695
0.002993885, 0.3132695
0.002993888, 0.3132695
-0.01413662, 0.3226819
-0.09868396, 0.3782984
-0.176595, 0.4497524
-0.2293576, 0.5362943
-0.1985876, 0.670431
-0.1150372, 0.7345651
-0.01712962, 0.7523279
0.08795918, 0.7542244
0.1907797, 0.7391497
0.3052792, 0.7608157
0.4452445, 0.8092196
0.5899375, 0.8505296
0.7213272, 0.8799644
0.8141245, 0.8519236
0.8268732, 0.8460588
0.8268735, 0.8460589
0.8268735, 0.8460589
0.8268735, 0.8460589
0.8268735, 0.8460589
0.8268735, 0.8460589
0.8268735, 0.8460589
0.8268735, 0.8460589
0.8268735, 0.8460589
0.8268734, 0.8460589
0.8268734, 0.8460588
0.8268735, 0.8460589
0.8274537, 0.8460482
0.8803301, 0.8450388
0.9000381, 0.84465
0.900038, 0.84465
0.900038, 0.84465
0.9000381, 0.84465
0.9144997, 0.8443346
0.9442787, 0.8436823
0.9442787, 0.8436823
0.9442787, 0.8436823
0.9442787, 0.8436823
0.9442787, 0.8436823
0.94948, 0.8435614
0.9745995, 0.8429765
0.9745995, 0.8429765
0.9745995, 0.8429765
0.9745996, 0.8429765
0.9745997, 0.8429765
0.9745997, 0.8429765
0.9745997, 0.8429765
0.9745997, 0.8429765
0.9745997, 0.8429765
0.9745996, 0.8429765
0.9745996, 0.8429765
0.9745996, 0.8429765
0.9745996, 0.8429765
0.9745996, 0.8429765
0.9745996, 0.8429765
0.9745997, 0.8429765
0.9745997, 0.8429765
0.9745997, 0.8429765
0.9745997, 0.8429765
0.9745997, 0.8429765
0.9745997, 0.8429765
0.9745997, 0.8429765
0.9745997, 0.8429765
0.9745997, 0.8429765
0.9745997, 0.8429765
0.9745997, 0.8429765
0.9745995, 0.8429765
0.9745997, 0.8429765
0.9745997, 0.8429765
0.9745997, 0.8429765
0.9745995, 0.8429765
0.9745997, 0.8429765
0.9745997, 0.8429765
0.9745997, 0.8429765
0.9745997, 0.8429765
0.9745997, 0.8429765
0.9745997, 0.8429765
0.9745997, 0.8429765
0.9745997, 0.8429765
0.9745997, 0.8429765
0.9745996, 0.8429765
0.9745996, 0.8429765
0.9745997, 0.8429765
0.9745997, 0.8429765
0.9745997, 0.8429765
0.9745996, 0.8429765
0.9745996, 0.8429765
0.9745997, 0.8429765
0.9745997, 0.8429765
0.9745997, 0.8429765
0.9745997, 0.8429765
0.9745997, 0.8429765
0.9745997, 0.8429765
0.9745997, 0.8429765
0.9745997, 0.8429765
0.9745997, 0.8429765
0.9745997, 0.8429765
0.9745996, 0.8429765
0.9745997, 0.8429765
0.9745997, 0.8429765
0.9745997, 0.8429765
0.9745997, 0.8429765
0.9745996, 0.8429765
0.9745997, 0.8429765
0.9745997, 0.8429765
0.9745997, 0.8429765
0.9745997, 0.8429765
0.9745997, 0.8429765
0.9745997, 0.8429765
0.9745997, 0.8429765
0.9745996, 0.8429765
0.9745997, 0.8429765
0.9745997, 0.8429765
0.9745997, 0.8429765
0.9745997, 0.8429765
0.9745997, 0.8429765
0.9745997, 0.8429765
0.9745997, 0.8429765
0.9745997, 0.8429765
0.9745997, 0.8429765
0.9745997, 0.8429765
0.9745997, 0.8429765
0.9745997, 0.8429765
0.9745997, 0.8429765
0.9745997, 0.8429765
0.9745997, 0.8429765
0.9745997, 0.8429765
0.9745997, 0.8429765
0.9745997, 0.8429765
0.9745997, 0.8429765
0.9745996, 0.8429765
0.9745995, 0.8429765
0.9745996, 0.8429765
0.9745997, 0.8429765
0.9745997, 0.8429765
0.9745997, 0.8429765
0.9745997, 0.8429765
0.9745995, 0.8429765
0.9745997, 0.8429765
0.9745997, 0.8429765
0.9745997, 0.8429765
0.9745997, 0.8429765
0.9745997, 0.8429765
0.9745997, 0.8429765
0.9745997, 0.8429765
0.9745997, 0.8429765
0.9745997, 0.8429765
0.9745997, 0.8429765
0.9745997, 0.8429765
0.9745997, 0.8429765
0.9745997, 0.8429765
0.9745997, 0.8429765
0.9745997, 0.8429765
0.9745997, 0.8429765
0.9745997, 0.8429765
0.9745997, 0.8429765
0.9745997, 0.8429765
0.9745997, 0.8429765
0.9745997, 0.8429765
0.9745997, 0.8429765
0.9745997, 0.8429765
0.9745997, 0.8429765
0.9745997, 0.8429765
0.9745997, 0.8429765
0.9745997, 0.8429765
0.9745997, 0.8429765
0.9745997, 0.8429765
0.9745997, 0.8429765
0.9745997, 0.8429765
0.9745997, 0.8429765
0.9745997, 0.8429765
0.9745997, 0.8429765
0.9745997, 0.8429765
0.9745997, 0.8429765
0.9745997, 0.8429765
0.9745997, 0.8429765
0.9745997, 0.8429765
0.9745997, 0.8429765
0.9745997, 0.8429765
0.9745997, 0.8429765
0.9745995, 0.8429765
0.9745996, 0.8429765
0.9745997, 0.8429765
0.9745997, 0.8429765
0.9745997, 0.8429765
0.9745997, 0.8429765
0.9745997, 0.8429765
0.9745997, 0.8429765
0.9745997, 0.8429765
0.9745997, 0.8429765
0.9745997, 0.8429765
0.9745997, 0.8429765
0.9745994, 0.8429765
0.9745995, 0.8429764
0.9745995, 0.8429765
0.9745995, 0.8429764
0.9745995, 0.8429763
0.9745997, 0.8429765
0.9745996, 0.8429765
0.9745994, 0.8429765
0.9745994, 0.8429765
0.9745995, 0.8429765
0.9745995, 0.8429765
0.9745995, 0.8429764
0.9745995, 0.8429763
0.9745995, 0.8429765
0.9745997, 0.8429765
0.9745994, 0.8429765
0.9745995, 0.8429765
0.9745994, 0.8429764
0.9745994, 0.8429765
0.9745995, 0.8429763
0.9740344, 0.8506286
0.9679809, 0.9348968
0.9612747, 1.038638
0.9557154, 1.139649
0.9510635, 1.242205
0.9474069, 1.345335
0.9448172, 1.445333
0.9430979, 1.551343
0.9424842, 1.654442
0.9424755, 1.695473
0.9426383, 1.72767
0.9435079, 1.832827
0.9451546, 1.93196
0.9478509, 2.035709
0.9517754, 2.14463
0.9538403, 2.193506
0.9538402, 2.193506
0.9538402, 2.193506
0.9538402, 2.193506
0.9538402, 2.193506
0.9538402, 2.193506
0.9538402, 2.193506
0.9538402, 2.193506
0.9538402, 2.193506
0.9538402, 2.193506
0.9538402, 2.193506
0.9538402, 2.193506
0.9538402, 2.193506
0.9538402, 2.193506
0.9538402, 2.193506
0.9538402, 2.193506
0.9538402, 2.193506
0.9538402, 2.193506
0.9561102, 2.240849
0.9609616, 2.334861
0.9672868, 2.440521
0.9733409, 2.528638
0.97398, 2.537464
0.9778468, 2.588088
0.9827232, 2.650251
0.9849021, 2.676521
0.9920725, 2.760934
0.992924, 2.770649
0.992924, 2.770649
0.992924, 2.770649
0.992924, 2.770649
0.992924, 2.770649
0.992924, 2.770649
0.992924, 2.770649
0.992924, 2.770649
0.992924, 2.770649
0.992924, 2.770649
0.992924, 2.770649
0.992924, 2.770649
0.992924, 2.770649
0.992924, 2.770649
0.992924, 2.770649
0.992924, 2.770649
0.992924, 2.770649
0.992924, 2.770649
0.992924, 2.770649
0.992924, 2.770649
0.992924, 2.770649
0.992924, 2.770649
0.992924, 2.770649
0.992924, 2.770649
0.992924, 2.770649
0.9929243, 2.770649
0.9929242, 2.770649
0.9929243, 2.77065
0.9929239, 2.770649
0.9929243, 2.770649
0.9929241, 2.770649
0.9929241, 2.770649
0.992924, 2.770649
0.992924, 2.770649
0.9929241, 2.770649
0.9929242, 2.770649
0.9929241, 2.770649
1.003858, 2.769344
1.093219, 2.758346
1.194026, 2.745024
1.298173, 2.73021
1.404929, 2.713902
1.503464, 2.697838
1.606498, 2.68004
1.712941, 2.66054
1.795536, 2.644646
1.806949, 2.642399
1.806949, 2.642399
1.806949, 2.642399
1.817835, 2.635791
1.894752, 2.581131
2.000529, 2.532519
2.120076, 2.504207
2.181351, 2.414982
2.229192, 2.323488
2.274817, 2.233393
2.351989, 2.152214
2.422484, 2.069239
2.464246, 1.978406
2.499062, 1.878551
2.523252, 1.773373
2.543419, 1.67487
2.563361, 1.57143
2.582508, 1.466174
2.595411, 1.368128
2.538133, 1.254171
2.491585, 1.139102
2.504309, 1.042224
2.517565, 0.9373439
2.529375, 0.8353783
2.539992, 0.7351446
2.550135, 0.6294141
2.558142, 0.5368909
2.559077, 0.5255557
2.559675, 0.5179731
2.565249, 0.4466441
2.565956, 0.4374748
2.565956, 0.4374748
2.565956, 0.4374748
2.566978, 0.423755
2.572196, 0.3527155
2.57273, 0.3452831
2.57273, 0.3452831
2.57273, 0.3452831
2.57273, 0.3452832
2.57273, 0.3452831
2.57273, 0.3452831
2.57273, 0.3452831
2.57273, 0.3452831
2.57273, 0.3452831
2.57273, 0.3452831
2.57273, 0.3452831
2.57273, 0.3452831
2.57273, 0.3452831
2.57273, 0.3452831
2.57273, 0.3452831
2.57273, 0.3452831
2.57273, 0.3452831
2.57273, 0.3452832
2.57273, 0.3452831
2.57273, 0.3452831
2.57273, 0.3452831
2.57273, 0.3452831
2.57273, 0.3452831
2.57273, 0.3452831
2.57273, 0.3452831
2.57273, 0.3452831
2.57273, 0.3452831
2.57273, 0.3452831
2.57273, 0.3452831
2.57273, 0.3452831
2.57273, 0.3452831
2.57273, 0.3452831
2.57273, 0.3452831
2.57273, 0.3452831
2.57273, 0.3452831
2.57273, 0.3452831
2.57273, 0.3452831
2.57273, 0.3452831
2.57273, 0.3452831
2.57273, 0.3452832
2.57273, 0.3452831
2.57273, 0.3452831
2.57273, 0.3452831
2.57273, 0.3452831
2.57273, 0.3452831
2.57273, 0.3452831
2.57273, 0.3452831
2.57273, 0.3452831
2.57273, 0.3452831
2.57273, 0.3452831
2.57273, 0.3452831
2.57273, 0.3452831
2.57273, 0.3452831
2.57273, 0.3452831
2.57273, 0.3452831
2.57273, 0.3452831
2.57273, 0.3452831
2.57273, 0.3452831
2.57273, 0.3452831
2.57273, 0.3452831
2.57273, 0.3452831
2.57273, 0.3452831
2.57273, 0.3452831
2.57273, 0.3452831
2.57273, 0.3452831
2.57273, 0.3452831
2.57273, 0.3452831
2.57273, 0.3452831
2.57273, 0.3452831
2.57273, 0.3452831
2.57273, 0.3452831
2.57273, 0.3452831
2.57273, 0.3452831
2.57273, 0.3452831
2.57273, 0.3452831
2.57273, 0.3452831
2.57273, 0.3452831
2.57273, 0.3452831
2.57273, 0.3452831
2.57273, 0.3452831
2.57273, 0.3452831
2.57273, 0.3452831
2.57273, 0.3452831
2.57273, 0.3452831
2.57273, 0.3452832
2.57273, 0.3452831
2.57273, 0.3452831
2.57273, 0.3452831
2.57273, 0.3452831
2.57273, 0.3452831
2.57273, 0.3452831
2.57273, 0.3452831
2.57273, 0.3452831
2.57273, 0.3452831
2.57273, 0.3452831
2.57273, 0.3452831
2.57273, 0.3452831
2.57273, 0.3452831
2.57273, 0.3452831
2.57273, 0.3452831
2.57273, 0.3452831
2.57273, 0.3452831
2.57273, 0.3452831
2.57273, 0.3452831
2.57273, 0.3452831
2.57273, 0.3452831
2.57273, 0.3452831
2.57273, 0.3452831
2.57273, 0.3452831
2.57273, 0.3452831
2.57273, 0.3452831
2.57273, 0.3452831
2.57273, 0.3452831
2.57273, 0.3452831
2.57273, 0.3452831
2.57273, 0.3452831
2.57273, 0.3452831
2.57273, 0.3452831
2.57273, 0.3452831
2.57273, 0.3452831
2.57273, 0.3452831
2.57273, 0.3452831
2.57273, 0.3452831
2.57273, 0.3452831
2.57273, 0.3452831
2.57273, 0.3452831
2.57273, 0.3452831
2.57273, 0.3452831
2.57273, 0.3452831
2.57273, 0.3452831
2.57273, 0.3452831
2.57273, 0.3452831
2.57273, 0.3452831
2.57273, 0.3452831
2.57273, 0.3452831
2.57273, 0.3452831
2.57273, 0.3452831
2.57273, 0.3452831
2.57273, 0.3452831
2.57273, 0.3452831
2.57273, 0.3452831
2.57273, 0.3452831
2.57273, 0.3452831
2.57273, 0.3452831
2.57273, 0.3452831
2.57273, 0.3452831
2.57273, 0.3452831
2.57273, 0.3452831
2.57273, 0.3452831
2.57273, 0.3452831
2.57273, 0.3452831
2.57273, 0.3452831
2.57273, 0.3452831
2.57273, 0.3452831
2.57273, 0.3452831
2.57273, 0.3452831
2.57273, 0.3452831
2.57273, 0.3452831
2.57273, 0.3452831
2.57273, 0.3452831
2.57273, 0.3452831
2.57273, 0.3452831
2.57273, 0.3452831
2.57273, 0.3452831
2.57273, 0.3452831
2.57273, 0.3452831
2.57273, 0.3452831
2.57273, 0.3452831
2.57273, 0.3452831
2.57273, 0.3452831
2.57273, 0.3452831
2.57273, 0.3452831
2.57273, 0.3452831
2.57273, 0.3452831
2.57273, 0.3452831
2.57273, 0.3452831
2.57273, 0.3452831
2.57273, 0.3452831
2.57273, 0.3452831
2.57273, 0.3452831
2.57273, 0.3452831
2.57273, 0.3452831
2.57273, 0.3452831
2.57273, 0.3452831
2.57273, 0.3452831
2.57273, 0.3452831
2.57273, 0.3452831
2.57273, 0.3452831
2.57273, 0.3452831
2.57273, 0.3452831
2.57273, 0.3452831
2.57273, 0.3452831
2.57273, 0.3452831
2.57273, 0.3452831
2.57273, 0.3452831
2.57273, 0.3452831
2.57273, 0.3452831
2.57273, 0.3452831
2.57273, 0.3452831
2.57273, 0.3452831
2.57273, 0.3452831
2.57273, 0.3452831
2.57273, 0.3452831
2.57273, 0.3452831
2.57273, 0.3452831
2.57273, 0.3452831
2.57273, 0.3452831
2.57273, 0.3452831
2.57273, 0.3452831
2.57273, 0.3452831
2.57273, 0.3452831
2.57273, 0.3452831
2.57273, 0.3452831
2.57273, 0.3452831
2.57273, 0.3452831
2.57273, 0.3452831
2.57273, 0.3452831
2.57273, 0.3452831
2.57273, 0.3452831
2.57273, 0.3452831
2.57273, 0.3452831
2.57273, 0.3452831
2.57273, 0.3452831
2.57273, 0.3452831
2.57273, 0.3452831
2.57273, 0.3452831
2.57273, 0.3452831
2.57273, 0.3452831
2.57273, 0.3452831
2.57273, 0.3452831
2.57273, 0.3452831
2.57273, 0.3452831
2.57273, 0.3452831
2.57273, 0.3452831
2.57273, 0.3452831
2.57273, 0.3452831
2.57273, 0.3452831
2.57273, 0.3452831
2.57273, 0.3452831
2.57273, 0.3452831
2.57273, 0.3452831
2.57273, 0.3452831
2.57273, 0.3452831
2.57273, 0.3452831
2.57273, 0.3452831
2.57273, 0.3452831
2.57273, 0.3452831
2.57273, 0.3452831
2.57273, 0.3452831
2.57273, 0.3452831
2.57273, 0.3452831
2.57273, 0.3452831
2.57273, 0.3452831
2.57273, 0.3452831
2.57273, 0.3452831
2.57273, 0.3452831
2.57273, 0.3452831
2.57273, 0.3452831
2.57273, 0.3452831
2.57273, 0.3452831
2.57273, 0.3452831
2.57273, 0.3452831
2.57273, 0.3452831
2.57273, 0.3452831
2.57273, 0.3452831
2.57273, 0.3452831
2.57273, 0.3452831
2.57273, 0.3452831
2.57273, 0.3452831
2.57273, 0.3452831
2.57273, 0.3452831
2.57273, 0.3452831
2.57273, 0.3452831
2.57273, 0.3452831
2.57273, 0.3452831
2.57273, 0.3452831
2.57273, 0.3452831
2.57273, 0.3452831
2.57273, 0.3452831
2.57273, 0.3452831
2.57273, 0.3452831
2.57273, 0.3452831
2.57273, 0.3452831
2.57273, 0.3452831
2.57273, 0.3452831
2.57273, 0.3452831
2.57273, 0.3452831
2.57273, 0.3452831
2.57273, 0.3452831
2.57273, 0.3452831
2.57273, 0.3452831
2.57273, 0.3452831
2.57273, 0.3452831
2.57273, 0.3452831
2.57273, 0.3452831
2.57273, 0.3452831
2.57273, 0.3452831
2.57273, 0.3452831
2.57273, 0.3452831
2.57273, 0.3452831
2.57273, 0.3452831
2.57273, 0.3452831
2.57273, 0.3452831
2.57273, 0.3452831
2.57273, 0.3452831
2.57273, 0.3452831
2.57273, 0.3452831
2.57273, 0.3452831
2.57273, 0.3452831
2.57273, 0.3452831
2.57273, 0.3452831
2.57273, 0.3452831
2.57273, 0.3452831
2.57273, 0.3452831
2.57273, 0.3452831
2.57273, 0.3452831
2.57273, 0.3452831
2.57273, 0.3452831
2.57273, 0.3452831
2.57273, 0.3452831
2.57273, 0.3452831
2.57273, 0.3452831
2.57273, 0.3452831
2.57273, 0.3452831
2.57273, 0.3452831
2.57273, 0.3452831
2.57273, 0.3452831
2.57273, 0.3452831
2.57273, 0.3452831
2.57273, 0.3452831
2.57273, 0.3452831
2.57273, 0.3452831
2.57273, 0.3452831
2.57273, 0.3452831
2.57273, 0.3452831
2.57273, 0.3452831
2.57273, 0.3452831
2.57273, 0.3452831
2.57273, 0.3452831
2.57273, 0.3452831
2.57273, 0.3452831
2.57273, 0.3452831
2.57273, 0.3452831
2.57273, 0.3452831
2.57273, 0.3452831
2.57273, 0.3452831
2.57273, 0.3452831
2.57273, 0.3452831
2.57273, 0.3452831
2.57273, 0.3452831
2.57273, 0.3452831
2.57273, 0.3452831
2.57273, 0.3452831
2.57273, 0.3452831
2.57273, 0.3452831
2.57273, 0.3452831
2.57273, 0.3452831
2.57273, 0.3452831
2.57273, 0.3452831
2.57273, 0.3452831
2.57273, 0.3452831
2.57273, 0.3452831
2.57273, 0.3452831
2.57273, 0.3452831
2.57273, 0.3452831
2.57273, 0.3452831
2.57273, 0.3452831
2.57273, 0.3452831
2.57273, 0.3452831
2.57273, 0.3452831
2.57273, 0.3452831
2.57273, 0.3452831
2.57273, 0.3452831
2.57273, 0.3452831
2.57273, 0.3452831
2.57273, 0.3452831
2.57273, 0.3452831
2.57273, 0.3452831
2.57273, 0.3452831
2.57273, 0.3452831
2.57273, 0.3452831
2.57273, 0.3452831
2.57273, 0.3452831
2.57273, 0.3452831
2.57273, 0.3452831
2.57273, 0.3452831
2.57273, 0.3452831
2.57273, 0.3452831
2.57273, 0.3452831
2.57273, 0.3452831
2.57273, 0.3452831
2.57273, 0.3452831
2.57273, 0.3452831
2.57273, 0.3452831
2.57273, 0.3452831
2.57273, 0.3452831
2.57273, 0.3452831
2.57273, 0.3452831
2.57273, 0.3452831
2.57273, 0.3452831
2.57273, 0.3452831
2.57273, 0.3452831
2.57273, 0.3452831
2.57273, 0.3452831
2.57273, 0.3452831
2.57273, 0.3452831
2.57273, 0.3452831
2.57273, 0.3452831
2.57273, 0.3452831
2.57273, 0.3452831
2.57273, 0.3452831
2.57273, 0.3452831
2.57273, 0.3452831
2.57273, 0.3452831
2.57273, 0.3452831
2.57273, 0.3452831
2.57273, 0.3452831
2.57273, 0.3452831
2.57273, 0.3452831
2.57273, 0.3452831
2.57273, 0.3452831
2.57273, 0.3452831
2.57273, 0.3452831
2.57273, 0.3452831
2.57273, 0.3452831
2.57273, 0.3452831
2.57273, 0.3452831
2.57273, 0.3452831
2.57273, 0.3452831
2.57273, 0.3452831
2.57273, 0.3452831
2.57273, 0.3452831
2.57273, 0.3452831
2.57273, 0.3452831
2.57273, 0.3452831
2.57273, 0.3452831
2.57273, 0.3452831
2.57273, 0.3452831
2.57273, 0.3452831
2.57273, 0.3452831
2.57273, 0.3452831
2.57273, 0.3452831
2.57273, 0.3452831
2.57273, 0.3452831
2.57273, 0.3452831
2.57273, 0.3452831
2.57273, 0.3452831
2.57273, 0.3452831
2.57273, 0.3452831
2.57273, 0.3452831
2.57273, 0.3452831
2.57273, 0.3452831
2.57273, 0.3452831
2.57273, 0.3452831
2.57273, 0.3452831
2.57273, 0.3452831
2.57273, 0.3452831
2.57273, 0.3452831
2.57273, 0.3452831
2.57273, 0.3452831
2.57273, 0.3452831
2.57273, 0.3452831
2.57273, 0.3452831
2.57273, 0.3452831
2.57273, 0.3452831
2.57273, 0.3452831
2.57273, 0.3452831
2.57273, 0.3452831
2.57273, 0.3452831
2.57273, 0.3452831
2.57273, 0.3452831
2.57273, 0.3452831
2.57273, 0.3452831
2.57273, 0.3452831
2.57273, 0.3452831
2.57273, 0.3452831
2.57273, 0.3452831
2.57273, 0.3452831
2.57273, 0.3452831
2.57273, 0.3452831
2.57273, 0.3452831
2.57273, 0.3452831
2.57273, 0.3452831
2.57273, 0.3452831
2.57273, 0.3452831
2.57273, 0.3452831
2.57273, 0.3452831
2.57273, 0.3452831
2.57273, 0.3452831
2.57273, 0.3452831
2.57273, 0.3452831
2.57273, 0.3452831
2.57273, 0.3452831
2.57273, 0.3452831
2.57273, 0.3452831
2.57273, 0.3452831
2.57273, 0.3452831
2.57273, 0.3452831
2.57273, 0.3452831
2.57273, 0.3452831
2.57273, 0.3452831
2.57273, 0.3452831
2.57273, 0.3452831
2.57273, 0.3452831
2.57273, 0.3452831
2.57273, 0.3452831
2.57273, 0.3452831
2.57273, 0.3452831
2.57273, 0.3452831
2.57273, 0.3452831
2.57273, 0.3452831
2.57273, 0.3452831
2.57273, 0.3452831
2.57273, 0.3452831
2.57273, 0.3452831
2.57273, 0.3452831
2.57273, 0.3452831
2.57273, 0.3452831
2.57273, 0.3452831
2.57273, 0.3452831
2.57273, 0.3452831
2.57273, 0.3452831
2.57273, 0.3452831
2.57273, 0.3452831
2.57273, 0.3452831
2.57273, 0.3452831
2.57273, 0.3452831
2.57273, 0.3452831
2.57273, 0.3452831
2.57273, 0.3452831
2.57273, 0.3452831
2.57273, 0.3452831
2.57273, 0.3452831
2.57273, 0.3452831
2.57273, 0.3452831
2.57273, 0.3452831
2.57273, 0.3452831
2.57273, 0.3452831
2.57273, 0.3452831
2.57273, 0.3452831
2.57273, 0.3452831
2.57273, 0.3452831
2.57273, 0.3452831
2.57273, 0.3452831
2.57273, 0.3452831
2.57273, 0.3452831
2.57273, 0.3452831
2.57273, 0.3452831
2.57273, 0.3452831
2.57273, 0.3452831
2.57273, 0.3452831
2.57273, 0.3452831
2.57273, 0.3452831
2.57273, 0.3452831
2.57273, 0.3452831
2.57273, 0.3452831
2.57273, 0.3452831
2.57273, 0.3452831
2.57273, 0.3452831
2.57273, 0.3452831
2.57273, 0.3452831
2.57273, 0.3452831
2.57273, 0.3452831
2.57273, 0.3452831
2.57273, 0.3452831
2.57273, 0.3452831
2.57273, 0.3452831
2.57273, 0.3452831
2.57273, 0.3452831
2.57273, 0.3452831
2.57273, 0.3452831
2.57273, 0.3452831
2.57273, 0.3452831
2.57273, 0.3452831
2.57273, 0.3452831
2.57273, 0.3452831
2.57273, 0.3452831
2.57273, 0.3452831
2.57273, 0.3452831
2.57273, 0.3452831
2.57273, 0.3452831
2.57273, 0.3452831
2.57273, 0.3452831
2.57273, 0.3452831
2.57273, 0.3452831
2.57273, 0.3452831
2.57273, 0.3452831
2.57273, 0.3452831
2.57273, 0.3452831
2.57273, 0.3452831
2.57273, 0.3452831
2.57273, 0.3452831
2.57273, 0.3452831
2.57273, 0.3452831
2.57273, 0.3452831
2.57273, 0.3452831
2.57273, 0.3452831
2.57273, 0.3452831
2.57273, 0.3452831
2.57273, 0.3452831
2.57273, 0.3452831
2.57273, 0.3452831
2.57273, 0.3452831
2.57273, 0.3452831
2.57273, 0.3452831
2.57273, 0.3452831
2.57273, 0.3452831
2.57273, 0.3452831
2.57273, 0.3452831
2.57273, 0.3452831
2.57273, 0.3452831
2.57273, 0.3452831
2.57273, 0.3452831
2.57273, 0.3452831
2.57273, 0.3452831
2.57273, 0.3452831
2.57273, 0.3452831
2.57273, 0.3452831
2.57273, 0.3452831
2.57273, 0.3452831
2.57273, 0.3452831
2.57273, 0.3452831
2.57273, 0.3452831
2.57273, 0.3452831
2.57273, 0.3452831
2.57273, 0.3452831
2.57273, 0.3452831
2.57273, 0.3452831
2.57273, 0.3452831
2.57273, 0.3452831
2.57273, 0.3452831
2.57273, 0.3452831
2.57273, 0.3452831
2.57273, 0.3452831
2.57273, 0.3452831
2.57273, 0.3452831
2.57273, 0.3452831
2.57273, 0.3452831
2.57273, 0.3452831
2.57273, 0.3452831
2.57273, 0.3452831
2.57273, 0.3452831
2.57273, 0.3452831
2.57273, 0.3452831
2.57273, 0.3452831
2.57273, 0.3452831
2.57273, 0.3452831
2.57273, 0.3452831
2.57273, 0.3452831
2.57273, 0.3452831
2.57273, 0.3452831
2.57273, 0.3452831
2.57273, 0.3452831
2.57273, 0.3452831
2.57273, 0.3452831
2.57273, 0.3452831
2.57273, 0.3452831
2.57273, 0.3452831
2.57273, 0.3452832
2.57273, 0.3452831
2.57273, 0.3452831
2.57273, 0.3452831
2.57273, 0.3452831
2.57273, 0.3452831
2.57273, 0.3452831
2.57273, 0.3452831
2.57273, 0.3452831
2.57273, 0.3452831
2.57273, 0.3452831
2.57273, 0.3452831
2.57273, 0.3452831
2.57273, 0.3452831
2.57273, 0.3452831
2.57273, 0.3452831
2.57273, 0.3452831
2.57273, 0.3452831
2.57273, 0.3452831
2.57273, 0.3452831
2.57273, 0.3452831
2.57273, 0.3452831
2.57273, 0.3452831
2.57273, 0.3452831
2.57273, 0.3452831
2.57273, 0.3452831
2.57273, 0.3452831
2.57273, 0.3452831
2.57273, 0.3452831
2.57273, 0.3452831
2.57273, 0.3452831
2.57273, 0.3452831
2.57273, 0.3452831
2.57273, 0.3452831
2.57273, 0.3452831
2.57273, 0.3452831
2.57273, 0.3452831
2.57273, 0.3452831
2.57273, 0.3452831
2.57273, 0.3452831
2.57273, 0.3452831
2.57273, 0.3452831
2.57273, 0.3452831
2.57273, 0.3452831
2.57273, 0.3452831
2.57273, 0.3452831
2.57273, 0.3452831
2.57273, 0.3452831
2.57273, 0.3452831
2.57273, 0.3452831
2.57273, 0.3452831
2.57273, 0.3452831
2.57273, 0.3452831
2.57273, 0.3452831
2.57273, 0.3452831
2.57273, 0.3452831
2.57273, 0.3452831
2.57273, 0.3452831
2.57273, 0.3452831
2.57273, 0.3452831
2.57273, 0.3452831
2.57273, 0.3452831
2.57273, 0.3452831
2.57273, 0.3452831
2.57273, 0.3452832
2.57273, 0.3452832
2.57273, 0.3452831
2.57273, 0.3452831
2.57273, 0.3452831
2.57273, 0.3452831
2.57273, 0.3452831
2.57273, 0.3452831
2.57273, 0.3452831
2.57273, 0.3452831
2.57273, 0.3452831
2.57273, 0.3452831
2.57273, 0.3452831
2.57273, 0.3452831
2.57273, 0.3452831
2.57273, 0.3452831
2.57273, 0.3452831
2.57273, 0.3452831
2.57273, 0.3452831
2.57273, 0.3452831
2.57273, 0.3452831
2.57273, 0.3452831
2.57273, 0.3452831
2.57273, 0.3452831
2.57273, 0.3452831
2.57273, 0.3452831
2.57273, 0.3452831
2.57273, 0.3452831
2.57273, 0.3452831
2.57273, 0.3452831
2.57273, 0.3452831
2.57273, 0.3452831
2.57273, 0.3452831
2.57273, 0.3452831
2.57273, 0.3452831
2.57273, 0.3452831
2.57273, 0.3452831
2.57273, 0.3452831
2.57273, 0.3452831
2.57273, 0.3452831
2.57273, 0.3452831
2.57273, 0.3452831
2.57273, 0.3452831
2.57273, 0.3452831
2.57273, 0.3452831
2.57273, 0.3452831
2.57273, 0.3452831
2.57273, 0.3452831
2.57273, 0.3452831
2.57273, 0.3452831
2.57273, 0.3452831
2.57273, 0.3452831
2.57273, 0.3452831
2.57273, 0.3452831
2.57273, 0.3452831
2.57273, 0.3452831
2.57273, 0.3452831
2.57273, 0.3452831
2.57273, 0.3452831
2.57273, 0.3452831
2.57273, 0.3452831
2.57273, 0.3452831
2.57273, 0.3452831
2.57273, 0.3452831
2.57273, 0.3452831
2.57273, 0.3452831
2.57273, 0.3452831
2.57273, 0.3452831
2.57273, 0.3452831
2.57273, 0.3452831
2.57273, 0.3452831
2.57273, 0.3452831
2.57273, 0.3452831
2.57273, 0.3452831
2.57273, 0.3452831
2.57273, 0.3452831
2.57273, 0.3452831
2.57273, 0.3452831
2.57273, 0.3452831
2.57273, 0.3452831
2.57273, 0.3452831
2.57273, 0.3452831
2.57273, 0.3452831
2.57273, 0.3452831
2.57273, 0.3452831
2.57273, 0.3452831
2.57273, 0.3452831
2.57273, 0.3452831
2.57273, 0.3452831
2.57273, 0.3452831
2.57273, 0.3452831
2.57273, 0.3452831
2.57273, 0.3452831
2.57273, 0.3452831
2.57273, 0.3452831
2.57273, 0.3452831
2.57273, 0.3452831
2.57273, 0.3452831
2.57273, 0.3452831
2.57273, 0.3452831
2.57273, 0.3452831
2.57273, 0.3452831
2.57273, 0.3452831
2.57273, 0.3452831
2.57273, 0.3452831
2.57273, 0.3452831
2.57273, 0.3452831
2.57273, 0.3452831
2.57273, 0.3452831
2.57273, 0.3452831
2.57273, 0.3452831
2.57273, 0.3452831
2.57273, 0.3452831
2.57273, 0.3452831
2.57273, 0.3452831
2.57273, 0.3452831
2.57273, 0.3452831
2.57273, 0.3452831
2.57273, 0.3452831
2.57273, 0.3452831
2.57273, 0.3452831
2.57273, 0.3452831
2.57273, 0.3452831
2.57273, 0.3452831
2.57273, 0.3452831
2.57273, 0.3452831
2.57273, 0.3452831
2.57273, 0.3452831
2.57273, 0.3452831
2.57273, 0.3452831
2.57273, 0.3452831
2.57273, 0.3452831
2.57273, 0.3452831
2.57273, 0.3452831
2.57273, 0.3452831
2.57273, 0.3452831
2.57273, 0.3452831
2.57273, 0.3452831
2.57273, 0.3452831
2.57273, 0.3452831
2.57273, 0.3452831
2.57273, 0.3452831
2.57273, 0.3452831
2.57273, 0.3452831
2.57273, 0.3452831
2.57273, 0.3452831
2.57273, 0.3452831
2.57273, 0.3452831
2.57273, 0.3452831
2.57273, 0.3452831
2.57273, 0.3452831
2.57273, 0.3452831
2.57273, 0.3452831
2.57273, 0.3452831
2.57273, 0.3452831
2.57273, 0.3452831
2.57273, 0.3452831
2.57273, 0.3452831
2.57273, 0.3452831
2.57273, 0.3452831
2.57273, 0.3452831
2.57273, 0.3452831
2.57273, 0.3452831
2.57273, 0.3452831
2.57273, 0.3452831
2.57273, 0.3452831
2.57273, 0.3452831
2.57273, 0.3452831
2.57273, 0.3452831
2.57273, 0.3452831
2.57273, 0.3452831
2.57273, 0.3452831
2.57273, 0.3452831
2.57273, 0.3452831
2.57273, 0.3452831
2.57273, 0.3452831
2.57273, 0.3452831
2.57273, 0.3452831
2.57273, 0.3452831
2.57273, 0.3452831
2.57273, 0.3452831
2.57273, 0.3452831
2.57273, 0.3452831
2.57273, 0.3452831
2.57273, 0.3452831
2.57273, 0.3452831
2.57273, 0.3452831
2.57273, 0.3452831
2.57273, 0.3452831
2.57273, 0.3452831
2.57273, 0.3452831
2.57273, 0.3452831
2.57273, 0.3452831
2.57273, 0.3452831
2.57273, 0.3452831
2.57273, 0.3452831
2.57273, 0.3452831
2.57273, 0.3452831
2.57273, 0.3452831
2.57273, 0.3452831
2.57273, 0.3452831
2.57273, 0.3452831
2.57273, 0.3452831
2.57273, 0.3452831
2.57273, 0.3452831
2.57273, 0.3452831
2.57273, 0.3452831
2.57273, 0.3452831
2.57273, 0.3452831
2.57273, 0.3452831
2.57273, 0.3452831
2.57273, 0.3452831
2.57273, 0.3452831
2.57273, 0.3452831
2.57273, 0.3452831
2.57273, 0.3452831
2.57273, 0.3452831
2.57273, 0.3452831
2.57273, 0.3452831
2.57273, 0.3452831
2.57273, 0.3452831
2.57273, 0.3452831
2.57273, 0.3452831
2.57273, 0.3452831
2.57273, 0.3452832
2.57273, 0.3452831
2.57273, 0.3452831
2.57273, 0.3452831
2.57273, 0.3452831
2.57273, 0.3452831
2.57273, 0.3452831
2.57273, 0.3452831
2.57273, 0.3452831
2.57273, 0.3452831
2.57273, 0.3452831
2.57273, 0.3452831
2.57273, 0.3452831
2.57273, 0.3452831
2.57273, 0.3452831
2.57273, 0.3452831
2.57273, 0.3452831
2.57273, 0.3452831
2.57273, 0.3452831
2.57273, 0.3452831
2.57273, 0.3452831
2.57273, 0.3452831
2.57273, 0.3452831
2.57273, 0.3452831
2.57273, 0.3452831
2.57273, 0.3452831
2.57273, 0.3452831
2.57273, 0.3452831
2.57273, 0.3452831
2.57273, 0.3452831
2.57273, 0.3452831
2.57273, 0.3452831
2.57273, 0.3452831
2.57273, 0.3452831
2.57273, 0.3452831
2.57273, 0.3452831
2.57273, 0.3452831
2.57273, 0.3452831
2.57273, 0.3452831
2.57273, 0.3452831
2.57273, 0.3452831
2.57273, 0.3452831
2.57273, 0.3452831
2.57273, 0.3452831
2.57273, 0.3452831
2.57273, 0.3452831
2.57273, 0.3452831
2.57273, 0.3452831
2.57273, 0.3452831
2.57273, 0.3452831
2.57273, 0.3452831
2.57273, 0.3452831
2.57273, 0.3452831
2.57273, 0.3452831
2.57273, 0.3452831
2.57273, 0.3452831
2.57273, 0.3452831
2.57273, 0.3452831
2.57273, 0.3452831
2.57273, 0.3452831
2.57273, 0.3452831
2.57273, 0.3452831
2.57273, 0.3452831
2.57273, 0.3452831
2.57273, 0.3452831
2.57273, 0.3452831
2.57273, 0.3452831
2.57273, 0.3452831
2.57273, 0.3452831
2.57273, 0.3452831
2.57273, 0.3452831
2.57273, 0.3452831
2.57273, 0.3452831
2.57273, 0.3452831
2.57273, 0.3452831
2.57273, 0.3452831
2.57273, 0.3452831
2.57273, 0.3452832
2.57273, 0.3452831
2.57273, 0.3452831
2.57273, 0.3452831
2.57273, 0.3452831
2.57273, 0.3452831
2.57273, 0.3452831
2.57273, 0.3452831
2.57273, 0.3452831
2.57273, 0.3452831
2.57273, 0.3452831
2.57273, 0.3452831
2.57273, 0.3452831
2.57273, 0.3452831
2.57273, 0.3452831
2.57273, 0.3452831
2.57273, 0.3452831
2.57273, 0.3452831
2.57273, 0.3452831
2.57273, 0.3452831
2.57273, 0.3452831
2.57273, 0.3452831
2.57273, 0.3452831
2.57273, 0.3452831
2.57273, 0.3452831
2.57273, 0.3452832
2.57273, 0.3452831
2.57273, 0.3452831
2.57273, 0.3452831
2.57273, 0.3452831
2.57273, 0.3452831
2.57273, 0.3452831
2.57273, 0.3452832
2.57273, 0.3452831
2.57273, 0.3452832
2.57273, 0.3452832
2.57273, 0.3452831
2.57273, 0.3452831
2.57273, 0.3452831
2.57273, 0.3452831
2.57273, 0.3452831
2.57273, 0.3452831
2.57273, 0.3452831
2.57273, 0.3452831
2.57273, 0.3452831
2.57273, 0.3452831
2.57273, 0.3452831
2.57273, 0.3452831
2.57273, 0.3452831
2.57273, 0.3452831
2.57273, 0.3452831
2.57273, 0.3452831
2.57273, 0.3452831
2.57273, 0.3452832
2.57273, 0.3452831
2.57273, 0.3452832
2.57273, 0.3452831
2.57273, 0.3452831
2.57273, 0.3452831
2.57273, 0.3452831
2.57273, 0.3452831
2.57273, 0.3452831
2.57273, 0.3452831
2.57273, 0.3452831
2.57273, 0.3452831
2.57273, 0.3452831
2.57273, 0.3452831
2.57273, 0.3452831
2.57273, 0.3452831
2.57273, 0.3452831
2.57273, 0.3452831
2.57273, 0.3452831
2.57273, 0.3452831
2.57273, 0.3452831
2.57273, 0.3452831
2.57273, 0.3452831
2.57273, 0.3452831
2.57273, 0.3452831
2.57273, 0.3452831
2.57273, 0.3452831
2.57273, 0.3452831
2.57273, 0.3452831
2.57273, 0.3452831
2.57273, 0.3452831
2.57273, 0.3452831
2.57273, 0.3452831
2.57273, 0.3452831
2.57273, 0.3452831
2.57273, 0.3452831
2.57273, 0.3452831
2.57273, 0.3452831
2.57273, 0.3452831
2.57273, 0.3452831
2.57273, 0.3452831
2.57273, 0.3452831
2.57273, 0.3452831
2.57273, 0.3452831
2.57273, 0.3452831
2.57273, 0.3452831
2.57273, 0.3452831
2.57273, 0.3452831
2.57273, 0.3452831
2.57273, 0.3452831
2.57273, 0.3452831
2.57273, 0.3452831
2.57273, 0.3452831
2.57273, 0.3452831
2.57273, 0.3452831
2.57273, 0.3452831
2.57273, 0.3452831
2.57273, 0.3452831
2.57273, 0.3452831
2.57273, 0.3452831
2.57273, 0.3452831
2.57273, 0.3452831
2.57273, 0.3452831
2.57273, 0.3452831
2.57273, 0.3452831
2.57273, 0.3452831
2.57273, 0.3452831
2.57273, 0.3452831
2.57273, 0.3452831
2.57273, 0.3452831
2.57273, 0.3452831
2.57273, 0.3452831
2.57273, 0.3452831
2.57273, 0.3452831
2.57273, 0.3452831
2.57273, 0.3452831
2.57273, 0.3452831
2.57273, 0.3452831
2.57273, 0.3452831
2.57273, 0.3452831
2.57273, 0.3452831
2.57273, 0.3452831
2.57273, 0.3452831
2.57273, 0.3452831
2.57273, 0.3452831
2.57273, 0.3452831
2.57273, 0.3452831
2.57273, 0.3452831
2.57273, 0.3452831
2.57273, 0.3452831
2.57273, 0.3452831
2.57273, 0.3452831
2.57273, 0.3452831
2.57273, 0.3452831
2.57273, 0.3452831
2.57273, 0.3452831
2.57273, 0.3452831
2.57273, 0.3452831
2.57273, 0.3452831
2.57273, 0.3452831
2.57273, 0.3452831
2.57273, 0.3452831
2.57273, 0.3452831
2.57273, 0.3452831
2.57273, 0.3452831
2.57273, 0.3452831
2.57273, 0.3452831
2.57273, 0.3452831
2.57273, 0.3452831
2.57273, 0.3452831
2.57273, 0.3452831
2.57273, 0.3452831
2.57273, 0.3452831
2.57273, 0.3452831
2.57273, 0.3452831
2.57273, 0.3452831
2.57273, 0.3452831
2.57273, 0.3452831
2.57273, 0.3452831
2.57273, 0.3452831
2.57273, 0.3452831
2.57273, 0.3452831
2.57273, 0.3452831
2.57273, 0.3452831
2.57273, 0.3452831
2.57273, 0.3452831
2.57273, 0.3452831
2.57273, 0.3452831
2.57273, 0.3452831
2.57273, 0.3452831
2.57273, 0.3452831
2.57273, 0.3452831
2.57273, 0.3452831
2.57273, 0.3452831
2.57273, 0.3452831
2.57273, 0.3452831
2.57273, 0.3452831
2.57273, 0.3452831
2.57273, 0.3452831
2.57273, 0.3452831
2.57273, 0.3452831
2.57273, 0.3452831
2.57273, 0.3452831
2.57273, 0.3452831
2.57273, 0.3452831
2.57273, 0.3452831
2.57273, 0.3452831
2.57273, 0.3452831
2.57273, 0.3452831
2.57273, 0.3452831
2.57273, 0.3452831
2.57273, 0.3452831
2.57273, 0.3452831
2.57273, 0.3452831
2.57273, 0.3452831
2.57273, 0.3452831
2.57273, 0.3452832
2.57273, 0.3452831
2.57273, 0.3452831
2.57273, 0.3452831
2.57273, 0.3452831
2.57273, 0.3452831
2.57273, 0.3452831
2.57273, 0.3452831
2.57273, 0.3452831
2.57273, 0.3452831
2.57273, 0.3452831
2.57273, 0.3452831
2.57273, 0.3452831
2.57273, 0.3452831
2.57273, 0.3452831
2.57273, 0.3452831
2.57273, 0.3452831
2.57273, 0.3452831
2.57273, 0.3452831
2.57273, 0.3452831
2.57273, 0.3452831
2.57273, 0.3452831
2.57273, 0.3452831
2.57273, 0.3452831
2.57273, 0.3452831
2.57273, 0.3452831
2.57273, 0.3452831
2.57273, 0.3452831
2.57273, 0.3452831
2.57273, 0.3452831
2.57273, 0.3452831
2.57273, 0.3452831
2.57273, 0.3452831
2.57273, 0.3452831
2.57273, 0.3452831
2.57273, 0.3452831
2.57273, 0.3452831
2.57273, 0.3452831
2.57273, 0.3452831
2.57273, 0.3452831
2.57273, 0.3452831
2.57273, 0.3452831
2.57273, 0.3452831
2.57273, 0.3452831
2.57273, 0.3452831
2.57273, 0.3452831
2.57273, 0.3452831
2.57273, 0.3452831
2.57273, 0.3452831
2.57273, 0.3452831
2.57273, 0.3452831
2.57273, 0.3452831
2.57273, 0.3452831
2.57273, 0.3452831
2.57273, 0.3452831
2.57273, 0.3452831
2.57273, 0.3452831
2.57273, 0.3452831
2.57273, 0.3452831
2.57273, 0.3452831
2.57273, 0.3452831
2.57273, 0.3452831
2.57273, 0.3452831
2.57273, 0.3452831
2.57273, 0.3452831
2.57273, 0.3452831
2.57273, 0.3452831
2.57273, 0.3452831
2.57273, 0.3452831
2.57273, 0.3452831
2.57273, 0.3452831
2.57273, 0.3452831
2.57273, 0.3452831
2.57273, 0.3452831
2.57273, 0.3452831
2.57273, 0.3452831
2.57273, 0.3452831
2.57273, 0.3452831
2.57273, 0.3452831
2.57273, 0.3452831
2.57273, 0.3452831
2.57273, 0.3452831
2.57273, 0.3452831
2.57273, 0.3452831
2.57273, 0.3452831
2.57273, 0.3452831
2.57273, 0.3452831
2.57273, 0.3452831
2.57273, 0.3452831
2.57273, 0.3452831
2.57273, 0.3452831
2.57273, 0.3452831
2.57273, 0.3452831
2.57273, 0.3452831
2.57273, 0.3452831
2.57273, 0.3452831
2.57273, 0.3452831
2.57273, 0.3452831
2.57273, 0.3452831
2.57273, 0.3452831
2.57273, 0.3452831
2.57273, 0.3452831
2.57273, 0.3452831
2.57273, 0.3452831
2.57273, 0.3452831
2.57273, 0.3452831
2.57273, 0.3452831
2.57273, 0.3452831
2.57273, 0.3452831
2.57273, 0.3452831
2.57273, 0.3452831
2.57273, 0.3452831
2.57273, 0.3452831
2.57273, 0.3452831
2.57273, 0.3452831
2.57273, 0.3452831
2.57273, 0.3452831
2.57273, 0.3452831
2.57273, 0.3452831
2.57273, 0.3452831
2.57273, 0.3452831
2.57273, 0.3452831
2.57273, 0.3452831
2.57273, 0.3452831
2.57273, 0.3452831
2.57273, 0.3452831
2.57273, 0.3452831
2.57273, 0.3452831
2.57273, 0.3452831
2.57273, 0.3452831
2.57273, 0.3452831
2.57273, 0.3452831
2.57273, 0.3452831
2.57273, 0.3452831
2.57273, 0.3452831
2.57273, 0.3452831
2.57273, 0.3452831
2.57273, 0.3452831
2.57273, 0.3452831
2.57273, 0.3452831
2.57273, 0.3452831
2.57273, 0.3452831
2.57273, 0.3452831
2.57273, 0.3452831
2.57273, 0.3452831
2.57273, 0.3452831
2.57273, 0.3452831
2.57273, 0.3452831
2.57273, 0.3452831
2.57273, 0.3452831
2.57273, 0.3452831
2.57273, 0.3452831
2.57273, 0.3452831
2.57273, 0.3452831
2.57273, 0.3452831
2.57273, 0.3452831
2.57273, 0.3452831
2.57273, 0.3452831
2.57273, 0.3452831
2.57273, 0.3452831
2.57273, 0.3452831
2.57273, 0.3452831
2.57273, 0.3452831
2.57273, 0.3452831
2.57273, 0.3452831
2.57273, 0.3452831
2.57273, 0.3452831
2.57273, 0.3452831
2.57273, 0.3452831
2.57273, 0.3452831
2.57273, 0.3452831
2.57273, 0.3452831
2.57273, 0.3452831
2.57273, 0.3452831
2.57273, 0.3452831
2.57273, 0.3452831
2.57273, 0.3452831
2.57273, 0.3452831
2.57273, 0.3452831
2.57273, 0.3452831
2.57273, 0.3452831
2.57273, 0.3452831
2.57273, 0.3452831
2.57273, 0.3452831
2.57273, 0.3452831
2.57273, 0.3452831
2.57273, 0.3452831
2.57273, 0.3452831
2.57273, 0.3452831
2.57273, 0.3452831
2.57273, 0.3452831
2.57273, 0.3452831
2.57273, 0.3452831
2.57273, 0.3452831
2.57273, 0.3452831
2.57273, 0.3452831
2.57273, 0.3452831
2.57273, 0.3452831
2.57273, 0.3452831
2.57273, 0.3452831
2.57273, 0.3452831
2.57273, 0.3452831
2.57273, 0.3452831
2.57273, 0.3452831
2.57273, 0.3452831
2.57273, 0.3452831
2.57273, 0.3452831
2.57273, 0.3452831
2.57273, 0.3452831
2.57273, 0.3452831
2.57273, 0.3452831
2.57273, 0.3452831
2.57273, 0.3452831
2.57273, 0.3452831
2.57273, 0.3452831
2.57273, 0.3452831
2.57273, 0.3452831
2.57273, 0.3452831
2.57273, 0.3452831
2.57273, 0.3452831
2.57273, 0.3452831
2.57273, 0.3452831
2.57273, 0.3452831
2.57273, 0.3452831
2.57273, 0.3452831
2.57273, 0.3452831
2.57273, 0.3452831
2.57273, 0.3452831
2.57273, 0.3452831
2.57273, 0.3452831
2.57273, 0.3452831
2.57273, 0.3452831
2.57273, 0.3452831
2.57273, 0.3452831
2.57273, 0.3452831
2.57273, 0.3452831
2.57273, 0.3452831
2.57273, 0.3452831
2.57273, 0.3452831
2.57273, 0.3452831
2.57273, 0.3452831
2.57273, 0.3452831
2.57273, 0.3452831
2.57273, 0.3452831
2.57273, 0.3452831
2.57273, 0.3452831
2.57273, 0.3452831
2.57273, 0.3452831
2.57273, 0.3452831
2.57273, 0.3452831
2.57273, 0.3452831
2.57273, 0.3452831
2.57273, 0.3452831
2.57273, 0.3452831
2.57273, 0.3452831
2.57273, 0.3452831
2.57273, 0.3452831
2.57273, 0.3452831
2.57273, 0.3452831
2.57273, 0.3452831
2.57273, 0.3452831
2.57273, 0.3452831
2.57273, 0.3452831
2.57273, 0.3452831
2.57273, 0.3452831
2.57273, 0.3452831
2.57273, 0.3452831
2.57273, 0.3452831
2.57273, 0.3452831
2.57273, 0.3452831
2.57273, 0.3452831
2.57273, 0.3452831
2.57273, 0.3452831
2.57273, 0.3452831
2.57273, 0.3452831
2.57273, 0.3452831
2.57273, 0.3452831
2.57273, 0.3452831
2.57273, 0.3452831
2.57273, 0.3452831
2.57273, 0.3452831
2.57273, 0.3452831
2.57273, 0.3452831
2.57273, 0.3452831
2.57273, 0.3452831
2.57273, 0.3452831
2.57273, 0.3452831
2.57273, 0.3452831
2.57273, 0.3452831
2.57273, 0.3452831
2.57273, 0.3452831
2.57273, 0.3452831
2.57273, 0.3452831
2.57273, 0.3452831
2.57273, 0.3452831
2.57273, 0.3452831
2.57273, 0.3452831
2.57273, 0.3452831
2.57273, 0.3452831
2.57273, 0.3452831
2.57273, 0.3452831
2.57273, 0.3452831
2.57273, 0.3452831
2.57273, 0.3452831
2.57273, 0.3452831
2.57273, 0.3452831
2.57273, 0.3452831
2.57273, 0.3452831
2.57273, 0.3452831
2.57273, 0.3452831
2.57273, 0.3452831
2.57273, 0.3452831
2.57273, 0.3452831
2.57273, 0.3452831
2.57273, 0.3452831
2.57273, 0.3452831
2.57273, 0.3452831
2.57273, 0.3452831
2.57273, 0.3452831
2.57273, 0.3452831
2.57273, 0.3452831
2.57273, 0.3452831
2.57273, 0.3452831
2.57273, 0.3452831
2.57273, 0.3452831
2.57273, 0.3452831
2.57273, 0.3452831
2.57273, 0.3452831
2.57273, 0.3452831
2.57273, 0.3452831
2.57273, 0.3452831
2.57273, 0.3452831
2.57273, 0.3452831
2.57273, 0.3452831
2.57273, 0.3452831
2.57273, 0.3452831
2.57273, 0.3452831
2.57273, 0.3452831
2.57273, 0.3452831
2.57273, 0.3452831
2.57273, 0.3452831
2.57273, 0.3452831
2.57273, 0.3452831
2.57273, 0.3452831
2.57273, 0.3452831
2.57273, 0.3452831
2.57273, 0.3452831
2.57273, 0.3452831
2.57273, 0.3452831
2.57273, 0.3452831
2.57273, 0.3452831
2.57273, 0.3452831
2.57273, 0.3452831
2.57273, 0.3452831
2.57273, 0.3452831
2.57273, 0.3452831
2.57273, 0.3452831
2.57273, 0.3452831
2.57273, 0.3452831
2.57273, 0.3452831
2.57273, 0.3452831
2.57273, 0.3452831
2.57273, 0.3452831
2.57273, 0.3452831
2.57273, 0.3452831
2.57273, 0.3452831
2.57273, 0.3452831
2.57273, 0.3452831
2.57273, 0.3452831
2.57273, 0.3452831
2.57273, 0.3452831
2.57273, 0.3452831
2.57273, 0.3452831
2.57273, 0.3452831
2.57273, 0.3452831
2.57273, 0.3452831
2.57273, 0.3452831
2.57273, 0.3452831
2.57273, 0.3452831
2.57273, 0.3452831
2.57273, 0.3452831
2.57273, 0.3452831
2.57273, 0.3452832
2.57273, 0.3452832
2.57273, 0.3452831
2.57273, 0.3452831
2.57273, 0.3452832
2.57273, 0.3452832
2.57273, 0.3452831
2.57273, 0.3452831
2.57273, 0.3452831
2.57273, 0.3452831
2.57273, 0.3452831
2.57273, 0.3452831
2.57273, 0.3452831
2.57273, 0.3452832
2.57273, 0.3452831
2.57273, 0.3452831
2.57273, 0.3452831
2.57273, 0.3452831
2.57273, 0.3452831
2.57273, 0.3452831
2.57273, 0.3452831
2.57273, 0.3452831
2.57273, 0.3452832
2.57273, 0.3452832
2.57273, 0.3452832
2.57273, 0.3452831
2.57273, 0.3452831
2.57273, 0.3452831
2.57273, 0.3452831
2.57273, 0.3452831
2.57273, 0.3452831
2.57273, 0.3452831
2.57273, 0.3452831
2.57273, 0.3452831
2.57273, 0.3452831
2.57273, 0.3452831
2.57273, 0.3452831
2.57273, 0.3452831
2.57273, 0.3452831
2.57273, 0.3452831
2.57273, 0.3452831
2.57273, 0.3452831
2.57273, 0.3452831
2.57273, 0.3452831
2.57273, 0.3452831
2.57273, 0.3452831
2.57273, 0.3452831
2.57273, 0.3452831
2.57273, 0.3452831
2.57273, 0.3452832
2.57273, 0.3452831
2.57273, 0.3452831
2.57273, 0.3452831
2.57273, 0.3452831
2.57273, 0.3452831
2.57273, 0.3452831
2.57273, 0.3452831
2.57273, 0.3452831
2.57273, 0.3452831
2.57273, 0.3452831
2.57273, 0.3452831
2.57273, 0.3452831
2.57273, 0.3452831
2.57273, 0.3452831
2.57273, 0.3452831
2.57273, 0.3452831
2.57273, 0.3452831
2.57273, 0.3452831
2.57273, 0.3452831
2.57273, 0.3452831
2.57273, 0.3452831
2.57273, 0.3452831
2.57273, 0.3452831
2.57273, 0.3452831
2.57273, 0.3452831
2.57273, 0.3452831
2.57273, 0.3452831
2.57273, 0.3452831
2.57273, 0.3452831
2.57273, 0.3452831
2.57273, 0.3452831
2.57273, 0.3452831
2.57273, 0.3452831
2.57273, 0.3452831
2.57273, 0.3452831
2.57273, 0.3452831
2.57273, 0.3452831
2.57273, 0.3452831
2.57273, 0.3452831
2.57273, 0.3452831
2.57273, 0.3452831
2.57273, 0.3452832
2.57273, 0.3452831
2.57273, 0.3452831
2.57273, 0.3452831
2.57273, 0.3452832
2.57273, 0.3452831
2.57273, 0.3452831
2.57273, 0.3452831
2.57273, 0.3452831
2.57273, 0.3452831
2.57273, 0.3452831
2.57273, 0.3452831
2.57273, 0.3452831
2.57273, 0.3452831
2.57273, 0.3452831
2.57273, 0.3452831
2.57273, 0.3452831
2.57273, 0.3452831
2.57273, 0.3452831
2.57273, 0.3452831
2.57273, 0.3452831
2.57273, 0.3452831
2.57273, 0.3452831
2.57273, 0.3452831
2.57273, 0.3452831
2.57273, 0.3452831
2.57273, 0.3452831
2.57273, 0.3452831
2.57273, 0.3452831
2.57273, 0.3452831
2.57273, 0.3452832
2.57273, 0.3452831
2.57273, 0.3452831
2.57273, 0.3452831
2.57273, 0.3452831
2.57273, 0.3452831
2.57273, 0.3452831
2.57273, 0.3452831
2.57273, 0.3452831
2.57273, 0.3452831
2.57273, 0.3452831
2.57273, 0.3452831
2.57273, 0.3452831
2.57273, 0.3452831
2.57273, 0.3452831
2.57273, 0.3452831
2.57273, 0.3452831
2.57273, 0.3452831
2.57273, 0.3452831
2.57273, 0.3452831
2.57273, 0.3452831
2.57273, 0.3452831
2.57273, 0.3452831
2.57273, 0.3452831
2.57273, 0.3452831
2.57273, 0.3452831
2.57273, 0.3452831
2.57273, 0.3452831
2.57273, 0.3452831
2.57273, 0.3452831
2.57273, 0.3452831
2.57273, 0.3452831
2.57273, 0.3452831
2.57273, 0.3452831
2.57273, 0.3452831
2.57273, 0.3452831
2.57273, 0.3452831
2.57273, 0.3452831
2.57273, 0.3452831
2.57273, 0.3452831
2.57273, 0.3452831
2.57273, 0.3452831
2.57273, 0.3452831
2.57273, 0.3452831
2.57273, 0.3452831
2.57273, 0.3452831
2.57273, 0.3452831
2.57273, 0.3452832
2.57273, 0.3452832
2.57273, 0.3452831
2.57273, 0.3452831
2.57273, 0.3452832
2.57273, 0.3452831
2.57273, 0.3452831
2.57273, 0.3452831
2.57273, 0.3452831
2.57273, 0.3452832
2.57273, 0.3452831
2.57273, 0.3452831
2.57273, 0.3452831
2.57273, 0.3452831
2.57273, 0.3452831
2.57273, 0.3452831
2.57273, 0.3452831
2.57273, 0.3452832
2.57273, 0.3452831
2.57273, 0.3452831
2.57273, 0.3452831
2.57273, 0.3452831
2.57273, 0.3452831
2.57273, 0.3452832
2.57273, 0.3452831
2.57273, 0.3452831
2.57273, 0.3452831
2.57273, 0.3452831
2.57273, 0.3452831
2.57273, 0.3452831
2.57273, 0.3452831
2.57273, 0.3452831
2.57273, 0.3452831
2.57273, 0.3452831
2.57273, 0.3452831
2.57273, 0.3452831
2.57273, 0.3452831
2.57273, 0.3452831
2.57273, 0.3452832
2.57273, 0.3452831
2.57273, 0.3452831
2.57273, 0.3452831
2.57273, 0.3452831
2.57273, 0.3452831
2.57273, 0.3452831
2.57273, 0.3452831
2.57273, 0.3452831
2.57273, 0.3452831
2.57273, 0.3452831
2.57273, 0.3452831
2.57273, 0.3452831
2.57273, 0.3452831
2.57273, 0.3452832
2.57273, 0.3452831
2.57273, 0.3452831
2.57273, 0.3452831
2.57273, 0.3452831
2.57273, 0.3452831
2.57273, 0.3452831
2.57273, 0.3452831
2.57273, 0.3452831
2.57273, 0.3452831
2.57273, 0.3452831
2.57273, 0.3452831
2.57273, 0.3452831
2.57273, 0.3452831
2.57273, 0.3452831
2.57273, 0.3452831
2.57273, 0.3452831
2.57273, 0.3452831
2.57273, 0.3452831
2.57273, 0.3452831
2.57273, 0.3452831
2.57273, 0.3452831
2.57273, 0.3452831
2.57273, 0.3452831
2.57273, 0.3452831
2.57273, 0.3452831
2.57273, 0.3452831
2.57273, 0.3452832
2.57273, 0.3452831
2.57273, 0.3452831
2.57273, 0.3452831
2.57273, 0.3452831
2.57273, 0.3452831
2.57273, 0.3452831
2.57273, 0.3452831
2.57273, 0.3452831
2.57273, 0.3452831
2.57273, 0.3452831
2.57273, 0.3452831
2.57273, 0.3452831
2.57273, 0.3452831
2.57273, 0.3452831
2.57273, 0.3452831
2.57273, 0.3452831
2.57273, 0.3452831
2.57273, 0.3452831
2.57273, 0.3452831
2.57273, 0.3452831
2.57273, 0.3452831
2.57273, 0.3452831
2.57273, 0.3452831
2.57273, 0.3452831
2.57273, 0.3452831
2.57273, 0.3452831
2.57273, 0.3452831
2.57273, 0.3452831
2.57273, 0.3452831
2.57273, 0.3452831
2.57273, 0.3452831
2.57273, 0.3452831
2.57273, 0.3452831
2.57273, 0.3452831
2.57273, 0.3452831
2.57273, 0.3452831
2.57273, 0.3452831
2.57273, 0.3452831
2.57273, 0.3452831
2.57273, 0.3452831
2.57273, 0.3452831
2.57273, 0.3452831
2.57273, 0.3452831
2.57273, 0.3452831
2.57273, 0.3452831
2.57273, 0.3452831
2.57273, 0.3452831
2.57273, 0.3452831
2.57273, 0.3452831
2.57273, 0.3452831
2.57273, 0.3452831
2.57273, 0.3452831
2.57273, 0.3452831
2.57273, 0.3452831
2.57273, 0.3452831
2.57273, 0.3452831
2.57273, 0.3452831
2.57273, 0.3452831
2.57273, 0.3452831
2.57273, 0.3452831
2.57273, 0.3452831
2.57273, 0.3452831
2.57273, 0.3452831
2.57273, 0.3452831
2.57273, 0.3452831
2.57273, 0.3452831
2.57273, 0.3452831
2.57273, 0.3452831
2.57273, 0.3452831
2.57273, 0.3452831
2.57273, 0.3452831
2.57273, 0.3452831
2.57273, 0.3452831
2.57273, 0.3452831
2.57273, 0.3452831
2.57273, 0.3452831
2.57273, 0.3452831
2.57273, 0.3452831
2.57273, 0.3452831
2.57273, 0.3452831
2.57273, 0.3452831
2.57273, 0.3452831
2.57273, 0.3452831
2.57273, 0.3452831
2.57273, 0.3452831
2.57273, 0.3452831
2.57273, 0.3452831
2.57273, 0.3452831
2.57273, 0.3452831
2.57273, 0.3452831
2.57273, 0.3452831
2.57273, 0.3452831
2.57273, 0.3452831
2.57273, 0.3452831
2.57273, 0.3452831
2.57273, 0.3452831
2.57273, 0.3452831
2.57273, 0.3452831
2.57273, 0.3452831
2.57273, 0.3452831
2.57273, 0.3452831
2.57273, 0.3452831
2.57273, 0.3452831
2.57273, 0.3452831
2.57273, 0.3452831
2.57273, 0.3452831
2.57273, 0.3452831
2.57273, 0.3452831
2.57273, 0.3452831
2.57273, 0.3452831
2.57273, 0.3452831
2.57273, 0.3452831
2.57273, 0.3452831
2.57273, 0.3452831
2.57273, 0.3452831
2.57273, 0.3452831
2.57273, 0.3452831
2.57273, 0.3452831
2.57273, 0.3452831
2.57273, 0.3452831
2.57273, 0.3452831
2.57273, 0.3452831
2.57273, 0.3452831
2.57273, 0.3452831
2.57273, 0.3452831
2.57273, 0.3452831
2.57273, 0.3452831
2.57273, 0.3452831
2.57273, 0.3452831
2.57273, 0.3452831
2.57273, 0.3452831
2.57273, 0.3452831
2.57273, 0.3452831
2.57273, 0.3452831
2.57273, 0.3452831
2.57273, 0.3452831
2.57273, 0.3452831
2.57273, 0.3452831
2.57273, 0.3452831
2.57273, 0.3452831
2.57273, 0.3452831
2.57273, 0.3452831
2.57273, 0.3452831
2.57273, 0.3452831
2.57273, 0.3452831
2.57273, 0.3452831
2.57273, 0.3452831
2.57273, 0.3452831
2.57273, 0.3452831
2.57273, 0.3452831
2.57273, 0.3452831
2.57273, 0.3452831
2.57273, 0.3452831
2.57273, 0.3452831
2.57273, 0.3452831
2.57273, 0.3452831
2.57273, 0.3452831
2.57273, 0.3452831
2.57273, 0.3452831
2.57273, 0.3452831
2.57273, 0.3452831
2.57273, 0.3452831
2.57273, 0.3452831
2.57273, 0.3452831
2.57273, 0.3452831
2.57273, 0.3452831
2.57273, 0.3452831
2.57273, 0.3452831
2.57273, 0.3452831
2.57273, 0.3452831
2.57273, 0.3452831
2.57273, 0.3452831
2.57273, 0.3452831
2.57273, 0.3452831
2.57273, 0.3452831
2.57273, 0.3452831
2.57273, 0.3452831
2.57273, 0.3452831
2.57273, 0.3452831
2.57273, 0.3452831
2.57273, 0.3452831
2.57273, 0.3452831
2.57273, 0.3452831
2.57273, 0.3452831
2.57273, 0.3452831
2.57273, 0.3452831
2.57273, 0.3452831
2.57273, 0.3452831
2.57273, 0.3452831
2.57273, 0.3452831
2.57273, 0.3452831
2.57273, 0.3452831
2.57273, 0.3452831
2.57273, 0.3452831
2.57273, 0.3452831
2.57273, 0.3452831
2.57273, 0.3452831
2.57273, 0.3452831
2.57273, 0.3452831
2.57273, 0.3452831
2.57273, 0.3452831
2.57273, 0.3452831
2.57273, 0.3452831
2.57273, 0.3452831
2.57273, 0.3452831
2.57273, 0.3452831
2.57273, 0.3452831
2.57273, 0.3452831
2.57273, 0.3452831
2.57273, 0.3452831
2.57273, 0.3452831
2.57273, 0.3452831
2.57273, 0.3452831
2.57273, 0.3452831
2.57273, 0.3452831
2.57273, 0.3452831
2.57273, 0.3452831
2.57273, 0.3452831
2.57273, 0.3452831
2.57273, 0.3452831
2.57273, 0.3452831
2.57273, 0.3452831
2.57273, 0.3452831
2.57273, 0.3452831
2.57273, 0.3452831
2.57273, 0.3452831
2.57273, 0.3452831
2.57273, 0.3452831
2.57273, 0.3452831
2.57273, 0.3452831
2.57273, 0.3452831
2.57273, 0.3452832
2.57273, 0.3452831
2.57273, 0.3452831
2.57273, 0.3452831
2.57273, 0.3452831
2.57273, 0.3452831
2.57273, 0.3452831
2.57273, 0.3452831
2.57273, 0.3452831
2.57273, 0.3452831
2.57273, 0.3452831
2.57273, 0.3452831
2.57273, 0.3452831
2.57273, 0.3452831
2.57273, 0.3452831
2.57273, 0.3452831
2.57273, 0.3452831
2.57273, 0.3452831
2.57273, 0.3452831
2.57273, 0.3452831
2.57273, 0.3452831
2.57273, 0.3452831
2.57273, 0.3452831
2.57273, 0.3452831
2.57273, 0.3452831
2.57273, 0.3452831
2.57273, 0.3452831
2.57273, 0.3452831
2.57273, 0.3452831
2.57273, 0.3452831
2.57273, 0.3452831
2.57273, 0.3452831
2.57273, 0.3452831
2.57273, 0.3452831
2.57273, 0.3452831
2.57273, 0.3452831
2.57273, 0.3452831
2.57273, 0.3452831
2.57273, 0.3452831
2.57273, 0.3452831
2.57273, 0.3452831
2.57273, 0.3452831
2.57273, 0.3452831
2.57273, 0.3452831
2.57273, 0.3452831
2.57273, 0.3452831
2.57273, 0.3452831
2.57273, 0.3452831
2.57273, 0.3452831
2.57273, 0.3452831
2.57273, 0.3452832
2.57273, 0.3452831
2.57273, 0.3452831
2.57273, 0.3452831
2.57273, 0.3452831
2.57273, 0.3452831
2.57273, 0.3452831
2.57273, 0.3452831
2.57273, 0.3452831
2.57273, 0.3452831
2.57273, 0.3452831
2.57273, 0.3452831
2.57273, 0.3452831
2.57273, 0.3452831
2.57273, 0.3452832
2.57273, 0.3452831
2.57273, 0.3452831
2.57273, 0.3452831
2.57273, 0.3452831
2.57273, 0.3452831
2.57273, 0.3452831
2.57273, 0.3452831
2.57273, 0.3452831
2.57273, 0.3452831
2.57273, 0.3452831
2.57273, 0.3452831
2.57273, 0.3452831
2.57273, 0.3452831
2.57273, 0.3452831
2.57273, 0.3452831
2.57273, 0.3452831
2.57273, 0.3452831
2.57273, 0.3452831
2.57273, 0.3452831
2.57273, 0.3452831
2.57273, 0.3452831
2.57273, 0.3452831
2.57273, 0.3452831
2.57273, 0.3452831
2.57273, 0.3452831
2.57273, 0.3452831
2.57273, 0.3452831
2.57273, 0.3452831
2.57273, 0.3452831
2.57273, 0.3452831
2.57273, 0.3452831
2.57273, 0.3452831
2.57273, 0.3452831
2.57273, 0.3452831
2.57273, 0.3452831
2.57273, 0.3452831
2.57273, 0.3452831
2.57273, 0.3452831
2.57273, 0.3452831
2.57273, 0.3452831
2.57273, 0.3452831
2.57273, 0.3452831
2.57273, 0.3452831
2.57273, 0.3452831
2.57273, 0.3452831
2.57273, 0.3452831
2.57273, 0.3452831
2.57273, 0.3452831
2.57273, 0.3452831
2.57273, 0.3452831
2.57273, 0.3452831
2.57273, 0.3452831
2.57273, 0.3452831
2.57273, 0.3452831
2.57273, 0.3452831
2.57273, 0.3452831
2.57273, 0.3452831
2.57273, 0.3452831
2.57273, 0.3452831
2.57273, 0.3452831
2.57273, 0.3452831
2.57273, 0.3452831
2.57273, 0.3452831
2.57273, 0.3452831
2.57273, 0.3452831
2.57273, 0.3452831
2.57273, 0.3452831
2.57273, 0.3452831
2.57273, 0.3452831
2.57273, 0.3452831
2.57273, 0.3452831
2.57273, 0.3452831
2.57273, 0.3452831
2.57273, 0.3452831
2.57273, 0.3452832
2.57273, 0.3452831
2.57273, 0.3452831
2.57273, 0.3452831
2.57273, 0.3452831
2.57273, 0.3452831
2.57273, 0.3452831
2.57273, 0.3452831
2.57273, 0.3452831
2.57273, 0.3452831
2.57273, 0.3452831
2.57273, 0.3452831
2.57273, 0.3452831
2.57273, 0.3452831
2.57273, 0.3452831
2.57273, 0.3452831
2.57273, 0.3452831
2.57273, 0.3452832
2.57273, 0.3452831
2.57273, 0.3452831
2.57273, 0.3452831
2.57273, 0.3452831
2.57273, 0.3452831
2.57273, 0.3452831
2.57273, 0.3452831
2.57273, 0.3452831
2.57273, 0.3452831
2.57273, 0.3452831
2.57273, 0.3452831
2.57273, 0.3452831
2.57273, 0.3452831
2.57273, 0.3452831
2.57273, 0.3452831
2.57273, 0.3452831
2.57273, 0.3452831
2.57273, 0.3452831
2.57273, 0.3452831
2.57273, 0.3452831
2.57273, 0.3452831
2.57273, 0.3452831
2.57273, 0.3452832
2.57273, 0.3452832
2.57273, 0.3452831
2.57273, 0.3452832
2.57273, 0.3452831
2.57273, 0.3452831
2.57273, 0.3452831
2.57273, 0.3452831
2.57273, 0.3452832
2.57273, 0.3452831
