0, 0.1111111
-5.405655E-05, 0.486388
-0.0001610707, 0.598322
-0.0002580688, 0.7326187
-0.0003510929, 0.8674588
-0.0004490193, 1.00424
-0.000543035, 1.135563
-0.0006349263, 1.266594
-0.000727525, 1.398314
-0.0008193781, 1.529144
-0.0009135465, 1.662773
-0.001010953, 1.798116
-0.001105222, 1.929678
-0.001198062, 2.060827
-0.001293181, 2.193525
-0.001390629, 2.32573
-0.001486552, 2.45902
-0.001570075, 2.577153
-0.001583651, 2.596823
-0.001583623, 2.596823
-0.001583499, 2.596823
-0.001583352, 2.596823
-0.001583252, 2.596823
-0.00158275, 2.596823
-0.001581745, 2.596823
-0.0003593862, 2.598221
0.0489975, 2.650104
0.1287973, 2.719427
0.2139708, 2.776792
0.3048275, 2.823076
0.4029608, 2.858832
0.503783, 2.882112
0.6047238, 2.892769
0.7050053, 2.891331
0.8054018, 2.877741
0.9031602, 2.852394
1.002909, 2.814041
1.123249, 2.76268
1.245359, 2.710464
1.365053, 2.659264
1.484723, 2.608071
1.59947, 2.558982
1.720268, 2.507306
1.842544, 2.454997
1.9648, 2.4027
2.087923, 2.350034
2.205798, 2.299612
2.327672, 2.247476
2.448006, 2.195999
2.569429, 2.144055
2.69598, 2.089925
2.821041, 2.036448
2.94654, 1.982794
3.065111, 1.932105
3.192207, 1.877771
3.310125, 1.827364
3.431184, 1.775612
3.550659, 1.724532
3.679767, 1.669325
3.802498, 1.616847
3.920635, 1.566324
4.048413, 1.511679
4.17073, 1.459369
4.292092, 1.407465
4.413958, 1.355342
4.535606, 1.303305
4.657544, 1.251143
4.778036, 1.1996
4.897479, 1.148503
5.023376, 1.094646
5.145276, 1.042501
5.265175, 0.9912111
5.385656, 0.939671
5.501694, 0.8900341
5.624024, 0.8377054
5.745538, 0.7857261
5.862782, 0.7355711
5.985222, 0.6831915
6.109409, 0.6300649
6.231796, 0.5777084
6.351669, 0.5264292
6.471083, 0.4753458
6.593653, 0.4229169
6.691751, 0.3809528
6.701638, 0.3767222
6.701638, 0.3767212
6.701638, 0.37672
6.701639, 0.3767191
6.701641, 0.3767167
6.701643, 0.376715
6.701643, 0.3767133
6.701643, 0.3767135
6.701643, 0.3767131
6.701644, 0.3767111
6.701644, 0.376711
6.701645, 0.3767104
6.701645, 0.3767101
6.701645, 0.3767103
6.701645, 0.3767098
6.701645, 0.3767095
6.701645, 0.3767092
6.698288, 0.3719247
6.643277, 0.2939419
6.57508, 0.2090351
6.492876, 0.1223922
6.400786, 0.0263864
6.310748, -0.06743418
6.217508, -0.1645954
6.126842, -0.2591009
6.031815, -0.3581561
5.938665, -0.4552439
5.845535, -0.5523016
5.758873, -0.6426131
5.661698, -0.7438892
5.5693, -0.8401886
5.472663, -0.9409027
5.381592, -1.035812
5.294962, -1.126091
5.20591, -1.218899
5.109978, -1.318877
5.012938, -1.420013
4.920485, -1.516375
4.827684, -1.613092
4.736248, -1.708381
4.64555, -1.802886
4.550018, -1.902434
4.461892, -1.994266
4.368255, -2.091834
4.293154, -2.170086
4.286446, -2.177074
