0, 0
0, 0.08664495
0, 0.1570427
0, 0.2547792
0, 0.3615049
0, 0.4687169
0, 0.5683671
0, 0.6717802
0, 0.7459932
0, 0.7166971
0, 0.6126763
-0.0006650308, 0.5031531
-0.06259762, 0.4032681
-0.1691088, 0.2967569
-0.2735569, 0.1923088
-0.3744902, 0.0913754
-0.4633353, -0.014911
-0.4730582, -0.1231874
-0.4730582, -0.2082771
-0.4730582, -0.2194953
-0.4730582, -0.2194953
-0.4730582, -0.2194953
-0.471993, -0.2159941
-0.4474733, -0.1364545
-0.4174341, -0.03925398
-0.3860938, 0.06215708
-0.3531588, 0.1687281
-0.3222713, 0.2686733
-0.2926878, 0.3643994
-0.2615071, 0.4652938
-0.2303155, 0.5662231
-0.2019038, 0.6581572
-0.1692821, 0.7637139
-0.1373844, 0.8669282
-0.1085201, 0.9603264
-0.08293455, 1.043116
-0.08905304, 1.023317
-0.1176369, 0.9308261
-0.1479293, 0.8328067
-0.180141, 0.7285761
-0.2097255, 0.6328468
-0.2394979, 0.5365101
-0.270204, 0.4371515
-0.2991565, 0.3434676
-0.3302402, 0.242887
-0.3621165, 0.139742
-0.39253, 0.0413301
-0.4225959, -0.05595724
-0.4548663, -0.1603776
-0.484302, -0.2556255
-0.5145896, -0.3536301
-0.5452396, -0.4528065
-0.5741718, -0.5464244
-0.5995432, -0.6285197
-0.6011857, -0.6338342
-0.6011857, -0.6338343
-0.6011857, -0.6338342
-0.6011857, -0.6338343
-0.6011857, -0.6338342
-0.6011857, -0.6338342
-0.6011857, -0.6338342
-0.6011857, -0.6338342
-0.6011857, -0.6338342
-0.6011857, -0.6338342
