0, 0
0, -0.08055186
0, -0.1588296
0, -0.2573741
0, -0.3574001
0, -0.376522
0, -0.376522
0, -0.376522
0, -0.376522
0, -0.376522
0, -0.376522
0, -0.376522
0, -0.376522
0, -0.376522
0, -0.376522
0, -0.376522
0, -0.376522
0, -0.376522
0, -0.376522
0, -0.376522
0, -0.376522
0, -0.376522
0, -0.376522
0, -0.376522
0, -0.376522
0, -0.376522
0, -0.376522
0, -0.376522
0, -0.376522
0, -0.376522
0, -0.376522
0, -0.376522
0, -0.376522
0, -0.376522
0, -0.376522
0, -0.376522
0, -0.376522
0, -0.376522
0, -0.376522
0, -0.376522
0, -0.376522
0, -0.376522
0, -0.376522
0, -0.376522
0, -0.376522
0, -0.376522
0, -0.376522
0, -0.376522
0, -0.376522
0, -0.376522
0, -0.376522
0, -0.376522
0, -0.376522
0, -0.376522
0, -0.376522
0, -0.376522
0, -0.376522
0, -0.376522
0, -0.376522
0, -0.376522
0, -0.376522
0, -0.376522
0, -0.376522
0, -0.376522
0, -0.376522
0, -0.376522
0, -0.376522
0, -0.376522
0, -0.376522
0, -0.376522
0, -0.376522
0, -0.376522
0, -0.376522
