0, 1
0, 1
0, 1
0, 1
0, 1
0, 1
0, 1
0, 1
0, 1
0, 1
0.00228018, 0.9999959
0.0106308, 0.9999394
0.02047369, 0.9997863
0.0306872, 0.9995245
0.04058949, 0.9991722
0.04744739, 0.9988737
0.04779623, 0.9988573
0.04779623, 0.9988573
0.04779623, 0.9988573
0.04779623, 0.9988573
0.04779623, 0.9988573
0.04779623, 0.9988573
0.04779623, 0.9988573
0.04779623, 0.9988573
0.04779622, 0.9988572
0.04779623, 0.9988573
0.0486963, 0.9988131
0.05132703, 0.998682
0.05132703, 0.998682
0.05132703, 0.998682
0.05132703, 0.998682
0.05132703, 0.998682
0.05132703, 0.998682
0.05132703, 0.998682
0.05132703, 0.998682
0.05132703, 0.998682
0.05132703, 0.998682
0.05132703, 0.998682
0.05132703, 0.998682
0.05132703, 0.998682
0.05132703, 0.998682
0.05132703, 0.998682
0.05132703, 0.998682
0.05132703, 0.998682
0.05132703, 0.998682
0.05179232, 0.9986577
0.05796562, 0.9983148
0.06750681, 0.9977151
0.07754164, 0.9969847
0.08759464, 0.996152
0.09726501, 0.9952546
0.1070276, 0.9942521
0.1164549, 0.9931925
0.1200511, 0.9927676
0.1200511, 0.9927676
0.1200511, 0.9927676
0.1200511, 0.9927676
0.1200511, 0.9927676
0.1200511, 0.9927678
0.1200511, 0.9927677
0.1200511, 0.9927676
0.1200511, 0.9927678
0.1200511, 0.9927677
0.1200511, 0.9927677
0.1200511, 0.9927676
0.1200511, 0.9927676
0.1200511, 0.9927676
0.1200511, 0.9927676
0.1200511, 0.9927676
0.1200511, 0.9927677
0.1200511, 0.9927677
0.1200511, 0.9927678
0.1200511, 0.9927678
0.1200511, 0.9927678
