0, 0
0, 0
0, 0
0, 0
0, 0
0, 0
0, 0
0, 0
0, 0
0, 0
0, 0
0, 0
0, 0
0, 0
0, 0
0, 0
0, 0
0, 0
0, 0
0, 0
0, 0
0, 0
0, 0
0, 0
0, 0
0, 0
0, 0
0, 0
0, 0
0, 0
0, 0
0, 0
0, 0
0, 0.001171393
0, 0.07096409
0, 0.1745694
0, 0.2812052
0, 0.383172
0, 0.4888827
0, 0.5755532
0, 0.582728
0, 0.5182461
-0.0005923643, 0.4118403
-0.06354934, 0.3092564
-0.1718838, 0.2048074
-0.2962551, 0.1125458
-0.428371, 0.04571813
-0.5705563, 0.001018114
-0.7072062, -0.03679353
-0.7800114, -0.1083114
-0.8489185, -0.1821435
-0.9197584, -0.2580466
-0.9329184, -0.2721471
-0.8737918, -0.2087947
-0.8009889, -0.1307884
-0.7279163, -0.05249313
-0.654498, 0.02617265
-0.582963, 0.1028203
-0.5252683, 0.1646387
-0.522873, 0.1672052
-0.522873, 0.1672052
-0.522873, 0.1672052
-0.522873, 0.1672052
-0.522873, 0.1672052
-0.522873, 0.1672052
-0.522873, 0.1672052
-0.522873, 0.1672052
-0.522873, 0.1672052
-0.522873, 0.1672052
-0.522873, 0.1672052
-0.522873, 0.1672052
-0.522873, 0.1672052
