sep=;
timestamp;reset_count;virtual_distance_between_resets_median;time_elapsed_between_resets_median;sum_injected_translation;sum_injected_rotation_g_r;sum_injected_rotation_g_c;sum_real_distance_travelled;sum_virtual_distance_travelled;min_g_t;max_g_t;min_g_r;max_g_r;min_g_c;max_g_c;g_t_average;injected_translation_average;g_r_average;injected_rotation_from_rotation_gain_average;g_c_average;injected_rotation_from_curvature_gain_average;injected_rotation_average;real_position_average;virtual_position_average;distance_to_boundary_average;distance_to_center_average;normalized_distance_to_boundary_average;experiment_duration;average_sampling_interval;normalized_distance_to_center_average;
0;0;0;0;0;0;0;0;0;N/A;N/A;N/A;N/A;N/A;N/A;0;0;0;0;0;0;0;(NaN, NaN);(NaN, NaN);0;0;0;0;0;0;
0.02;0;0;0;0;0;0;0;0;N/A;N/A;N/A;N/A;N/A;N/A;0;0;0;0;0;0;0;(NaN, NaN);(NaN, NaN);0;0;0;0;0;0;
0.3533334;0;0;0;0;0;0;0;0;N/A;N/A;N/A;N/A;N/A;N/A;0;0;0;0;0;0;0;(0.0, 0.0);(0.0, 0.0);4.73;0;0.7071068;0;0.3533334;0;
0.3960634;0;0;0;0;0;0;0;0;N/A;N/A;N/A;N/A;N/A;N/A;0;0;0;0;0;0;0;(0.0, 0.0);(0.0, 0.0);4.73;0;0.7071068;0;0.3533334;0;
0.4104609;0;0;0;0;0;0;0;0;N/A;N/A;N/A;N/A;N/A;N/A;0;0;0;0;0;0;0;(0.0, 0.0);(0.0, 0.0);4.73;0;0.7071068;0;0.3533334;0;
0.4174067;0;0;0;0;0;0;0;0;N/A;N/A;N/A;N/A;N/A;N/A;0;0;0;0;0;0;0;(0.0, 0.0);(0.0, 0.0);4.73;0;0.7071068;0;0.3533334;0;
0.4245929;0;0;0;0;0;0;0;0;N/A;N/A;N/A;N/A;N/A;N/A;0;0;0;0;0;0;0;(0.0, 0.0);(0.0, 0.0);4.73;0;0.7071068;0;0.3533334;0;
0.4315375;0;0;0;0;0;0;0;0;N/A;N/A;N/A;N/A;N/A;N/A;0;0;0;0;0;0;0;(0.0, 0.0);(0.0, 0.0);4.73;0;0.7071068;0;0.3533334;0;
0.4384826;0;0;0;0;0;0;0;0;N/A;N/A;N/A;N/A;N/A;N/A;0;0;0;0;0;0;0;(0.0, 0.0);(0.0, 0.0);4.73;0;0.7071068;0;0.3533334;0;
0.4457584;0;0;0;0;0;0;0;0;N/A;N/A;N/A;N/A;N/A;N/A;0;0;0;0;0;0;0;(0.0, 0.0);(0.0, 0.0);4.73;0;0.7071068;0;0.3533334;0;
0.4527926;0;0;0;0;0;0;0;0;N/A;N/A;N/A;N/A;N/A;N/A;0;0;0;0;0;0;0;(0.0, 0.0);(0.0, 0.0);4.73;0;0.7071068;0;0.3533334;0;
0.4597446;0;0;0;0;0;0;0;0;N/A;N/A;N/A;N/A;N/A;N/A;0;0;0;0;0;0;0;(0.0, 0.0);(0.0, 0.0);4.73;0;0.7071068;0;0.2298723;0;
0.4667283;0;0;0;0;0;0;0;0;N/A;N/A;N/A;N/A;N/A;N/A;0;0;0;0;0;0;0;(0.0, 0.0);(0.0, 0.0);4.73;0;0.7071068;0;0.2298723;0;
0.4738564;0;0;0;0;0;0;0;0;N/A;N/A;N/A;N/A;N/A;N/A;0;0;0;0;0;0;0;(0.0, 0.0);(0.0, 0.0);4.73;0;0.7071068;0;0.2298723;0;
0.480801;0;0;0;0;0;0;0;0;N/A;N/A;N/A;N/A;N/A;N/A;0;0;0;0;0;0;0;(0.0, 0.0);(0.0, 0.0);4.73;0;0.7071068;0;0.2298723;0;
0.4877957;0;0;0;0;0;0;0;0;N/A;N/A;N/A;N/A;N/A;N/A;0;0;0;0;0;0;0;(0.0, 0.0);(0.0, 0.0);4.73;0;0.7071068;0;0.2298723;0;
0.4947423;0;0;0;0;0;0;0;0;N/A;N/A;N/A;N/A;N/A;N/A;0;0;0;0;0;0;0;(0.0, 0.0);(0.0, 0.0);4.73;0;0.7071068;0;0.2298723;0;
0.5019153;0;0;0;0;0;0;0;0;N/A;N/A;N/A;N/A;N/A;N/A;0;0;0;0;0;0;0;(0.0, 0.0);(0.0, 0.0);4.73;0;0.7071068;0;0.2298723;0;
0.5088593;0;0;0;0;0;0;0;0;N/A;N/A;N/A;N/A;N/A;N/A;0;0;0;0;0;0;0;(0.0, 0.0);(0.0, 0.0);4.73;0;0.7071068;0;0.2298723;0;
0.5168877;0;0;0;0;0;0;0;0;N/A;N/A;N/A;N/A;N/A;N/A;0;0;0;0;0;0;0;(0.0, 0.0);(0.0, 0.0);4.73;0;0.7071068;0;0.2298723;0;
0.5238317;0;0;0;0;0;0;0;0;N/A;N/A;N/A;N/A;N/A;N/A;0;0;0;0;0;0;0;(0.0, 0.0);(0.0, 0.0);4.73;0;0.7071068;0;0.2298723;0;
0.5308192;0;0;0;0;0;0;0;0;N/A;N/A;N/A;N/A;N/A;N/A;0;0;0;0;0;0;0;(0.0, 0.0);(0.0, 0.0);4.73;0;0.7071068;0;0.2298723;0;
0.5377656;0;0;0;0;0;0;0;0;N/A;N/A;N/A;N/A;N/A;N/A;0;0;0;0;0;0;0;(0.0, 0.0);(0.0, 0.0);4.73;0;0.7071068;0;0.2298723;0;
0.5453992;0;0;0;0;0;0;0;0;N/A;N/A;N/A;N/A;N/A;N/A;0;0;0;0;0;0;0;(0.0, 0.0);(0.0, 0.0);4.73;0;0.7071068;0;0.2298723;0;
0.5523856;0;0;0;0;0;0;0;0;N/A;N/A;N/A;N/A;N/A;N/A;0;0;0;0;0;0;0;(0.0, 0.0);(0.0, 0.0);4.73;0;0.7071068;0;0.2298723;0;
0.5593625;0;0;0;0;0;0;0;0;N/A;N/A;N/A;N/A;N/A;N/A;0;0;0;0;0;0;0;(0.0, 0.0);(0.0, 0.0);4.73;0;0.7071068;0;0.2298723;0;
0.5664799;0;0;0;0;0;0;0;0;N/A;N/A;N/A;N/A;N/A;N/A;0;0;0;0;0;0;0;(0.0, 0.0);(0.0, 0.0);4.73;0;0.7071068;0;0.1888266;0;
0.5773653;0;0;0;0;0;0;0;0;N/A;N/A;N/A;N/A;N/A;N/A;0;0;0;0;0;0;0;(0.0, 0.0);(0.0, 0.0);4.73;0;0.7071068;0;0.1888266;0;
0.5907127;0;0;0;0;0;0;0;0;N/A;N/A;N/A;N/A;N/A;N/A;0;0;0;0;0;0;0;(0.0, 0.0);(0.0, 0.0);4.73;0;0.7071068;0;0.1888266;0;
0.5979156;0;0;0;0;0;0;0;0;N/A;N/A;N/A;N/A;N/A;N/A;0;0;0;0;0;0;0;(0.0, 0.0);(0.0, 0.0);4.73;0;0.7071068;0;0.1888266;0;
0.6048601;0;0;0;0;0;0;0;0;N/A;N/A;N/A;N/A;N/A;N/A;0;0;0;0;0;0;0;(0.0, 0.0);(0.0, 0.0);4.73;0;0.7071068;0;0.1888266;0;
0.6124308;0;0;0;0;0;0;0;0;N/A;N/A;N/A;N/A;N/A;N/A;0;0;0;0;0;0;0;(0.0, 0.0);(0.0, 0.0);4.73;0;0.7071068;0;0.1888266;0;
0.6193759;0;0;0;0;0;0;0;0;N/A;N/A;N/A;N/A;N/A;N/A;0;0;0;0;0;0;0;(0.0, 0.0);(0.0, 0.0);4.73;0;0.7071068;0;0.1888266;0;
0.6268712;0;0;0;0;0;0;0;0;N/A;N/A;N/A;N/A;N/A;N/A;0;0;0;0;0;0;0;(0.0, 0.0);(0.0, 0.0);4.73;0;0.7071068;0;0.1888266;0;
0.6438708;0;0;0;0;0;0;0;0;N/A;N/A;N/A;N/A;N/A;N/A;0;0;0;0;0;0;0;(0.0, 0.0);(0.0, 0.0);4.73;0;0.7071068;0;0.1888266;0;
0.6512157;0;0;0;0;0;0;0;0;N/A;N/A;N/A;N/A;N/A;N/A;0;0;0;0;0;0;0;(0.0, 0.0);(0.0, 0.0);4.73;0;0.7071068;0;0.1888266;0;
0.6581591;0;0;0;0;0;0;0;0;N/A;N/A;N/A;N/A;N/A;N/A;0;0;0;0;0;0;0;(0.0, 0.0);(0.0, 0.0);4.73;0;0.7071068;0;0.1888266;0;
0.6740531;0;0;0;0;0;0;0;0;N/A;N/A;N/A;N/A;N/A;N/A;0;0;0;0;0;0;0;(0.0, 0.0);(0.0, 0.0);4.73;0;0.7071068;0;0.1685133;0;
0.6809978;0;0;0;0;0;0;0;0;N/A;N/A;N/A;N/A;N/A;N/A;0;0;0;0;0;0;0;(0.0, 0.0);(0.0, 0.0);4.73;0;0.7071068;0;0.1685133;0;
0.6881064;0;0;0;0;0;0;0;0;N/A;N/A;N/A;N/A;N/A;N/A;0;0;0;0;0;0;0;(0.0, 0.0);(0.0, 0.0);4.73;0;0.7071068;0;0.1685133;0;
0.6950477;0;0;0;0;0;0;0;0;N/A;N/A;N/A;N/A;N/A;N/A;0;0;0;0;0;0;0;(0.0, 0.0);(0.0, 0.0);4.73;0;0.7071068;0;0.1685133;0;
0.701992;0;0;0;0;0;0;0;0;N/A;N/A;N/A;N/A;N/A;N/A;0;0;0;0;0;0;0;(0.0, 0.0);(0.0, 0.0);4.73;0;0.7071068;0;0.1685133;0;
0.7089365;0;0;0;0;0;0;0;0;N/A;N/A;N/A;N/A;N/A;N/A;0;0;0;0;0;0;0;(0.0, 0.0);(0.0, 0.0);4.73;0;0.7071068;0;0.1685133;0;
0.7158816;0;0;0;0;0;0;0;0;N/A;N/A;N/A;N/A;N/A;N/A;0;0;0;0;0;0;0;(0.0, 0.0);(0.0, 0.0);4.73;0;0.7071068;0;0.1685133;0;
0.7228262;0;0;0;0;0;0;0;0;N/A;N/A;N/A;N/A;N/A;N/A;0;0;0;0;0;0;0;(0.0, 0.0);(0.0, 0.0);4.73;0;0.7071068;0;0.1685133;0;
0.7299144;0;0;0;0;0;0;0;0;N/A;N/A;N/A;N/A;N/A;N/A;0;0;0;0;0;0;0;(0.0, 0.0);(0.0, 0.0);4.73;0;0.7071068;0;0.1685133;0;
0.7368599;0;0;0;0;0;0;0;0;N/A;N/A;N/A;N/A;N/A;N/A;0;0;0;0;0;0;0;(0.0, 0.0);(0.0, 0.0);4.73;0;0.7071068;0;0.1685133;0;
0.7438033;0;0;0;0;0;0;0;0;N/A;N/A;N/A;N/A;N/A;N/A;0;0;0;0;0;0;0;(0.0, 0.0);(0.0, 0.0);4.73;0;0.7071068;0;0.1685133;0;
0.7513294;0;0;0;0;0;0;0;0;N/A;N/A;N/A;N/A;N/A;N/A;0;0;0;0;0;0;0;(0.0, 0.0);(0.0, 0.0);4.73;0;0.7071068;0;0.1685133;0;
0.7582747;0;0;0;0;0;0;0;0;N/A;N/A;N/A;N/A;N/A;N/A;0;0;0;0;0;0;0;(0.0, 0.0);(0.0, 0.0);4.73;0;0.7071068;0;0.1685133;0;
0.7660161;0;0;0;0;0;0;0;0;N/A;N/A;N/A;N/A;N/A;N/A;0;0;0;0;0;0;0;(0.0, 0.0);(0.0, 0.0);4.73;0;0.7071068;0;0.1685133;0;
0.7732313;0;0;0;0;0;0;0;0;N/A;N/A;N/A;N/A;N/A;N/A;0;0;0;0;0;0;0;(0.0, 0.0);(0.0, 0.0);4.73;0;0.7071068;0;0.1685133;0;
0.7820069;0;0;0;0;0;0;0;0;N/A;N/A;N/A;N/A;N/A;N/A;0;0;0;0;0;0;0;(0.0, 0.0);(0.0, 0.0);4.73;0;0.7071069;0;0.1564014;0;
0.7895774;0;0;0;0;0;0;0;0;N/A;N/A;N/A;N/A;N/A;N/A;0;0;0;0;0;0;0;(0.0, 0.0);(0.0, 0.0);4.73;0;0.7071069;0;0.1564014;0;
0.7971236;0;0;0;0;0;0;0;0;N/A;N/A;N/A;N/A;N/A;N/A;0;0;0;0;0;0;0;(0.0, 0.0);(0.0, 0.0);4.73;0;0.7071069;0;0.1564014;0;
0.8040739;0;0;0;0;0;0;0;0;N/A;N/A;N/A;N/A;N/A;N/A;0;0;0;0;0;0;0;(0.0, 0.0);(0.0, 0.0);4.73;0;0.7071069;0;0.1564014;0;
0.8110144;0;0;0;0;0;0;0;0;N/A;N/A;N/A;N/A;N/A;N/A;0;0;0;0;0;0;0;(0.0, 0.0);(0.0, 0.0);4.73;0;0.7071069;0;0.1564014;0;
0.8179598;0;0;0;0;0;0;0;0;N/A;N/A;N/A;N/A;N/A;N/A;0;0;0;0;0;0;0;(0.0, 0.0);(0.0, 0.0);4.73;0;0.7071069;0;0.1564014;0;
0.8249071;0;0;0;0;0;0;0;0;N/A;N/A;N/A;N/A;N/A;N/A;0;0;0;0;0;0;0;(0.0, 0.0);(0.0, 0.0);4.73;0;0.7071069;0;0.1564014;0;
0.831848;0;0;0;0;0;0;0;0;N/A;N/A;N/A;N/A;N/A;N/A;0;0;0;0;0;0;0;(0.0, 0.0);(0.0, 0.0);4.73;0;0.7071069;0;0.1564014;0;
0.8387913;0;0;0;0;0;0;0;0;N/A;N/A;N/A;N/A;N/A;N/A;0;0;0;0;0;0;0;(0.0, 0.0);(0.0, 0.0);4.73;0;0.7071069;0;0.1564014;0;
0.8457419;0;0;0;0;0;0;0;0;N/A;N/A;N/A;N/A;N/A;N/A;0;0;0;0;0;0;0;(0.0, 0.0);(0.0, 0.0);4.73;0;0.7071069;0;0.1564014;0;
0.8526835;0;0;0;0;0;0;0;0;N/A;N/A;N/A;N/A;N/A;N/A;0;0;0;0;0;0;0;(0.0, 0.0);(0.0, 0.0);4.73;0;0.7071069;0;0.1564014;0;
0.8598915;0;0;0;0;0;0;0;0;N/A;N/A;N/A;N/A;N/A;N/A;0;0;0;0;0;0;0;(0.0, 0.0);(0.0, 0.0);4.73;0;0.7071069;0;0.1564014;0;
0.8668354;0;0;0;0;0;0;0;0;N/A;N/A;N/A;N/A;N/A;N/A;0;0;0;0;0;0;0;(0.0, 0.0);(0.0, 0.0);4.73;0;0.7071069;0;0.1564014;0;
0.87378;0;0;0;0;0;0;0;0;N/A;N/A;N/A;N/A;N/A;N/A;0;0;0;0;0;0;0;(0.0, 0.0);(0.0, 0.0);4.73;0;0.7071069;0;0.1564014;0;
0.8813239;0;0;0;0;0;0;0;0;N/A;N/A;N/A;N/A;N/A;N/A;0;0;0;0;0;0;0;(0.0, 0.0);(0.0, 0.0);4.73;0;0.7071069;0;0.1564014;0;
0.8885397;0;0;0;0;0;0;0;0;N/A;N/A;N/A;N/A;N/A;N/A;0;0;0;0;0;0;0;(0.0, 0.0);(0.0, 0.0);4.73;0;0.7071068;0;0.1480899;0;
0.8954834;0;0;0;0;0;0;0;0;N/A;N/A;N/A;N/A;N/A;N/A;0;0;0;0;0;0;0;(0.0, 0.0);(0.0, 0.0);4.73;0;0.7071068;0;0.1480899;0;
0.9024308;0;0;0;0;0;0;0;0;N/A;N/A;N/A;N/A;N/A;N/A;0;0;0;0;0;0;0;(0.0, 0.0);(0.0, 0.0);4.73;0;0.7071068;0;0.1480899;0;
0.9100437;0;0;0;0;0;0;0;0;N/A;N/A;N/A;N/A;N/A;N/A;0;0;0;0;0;0;0;(0.0, 0.0);(0.0, 0.0);4.73;0;0.7071068;0;0.1480899;0;
0.9169863;0;0;0;0;0;0;0;0;N/A;N/A;N/A;N/A;N/A;N/A;0;0;0;0;0;0;0;(0.0, 0.0);(0.0, 0.0);4.73;0;0.7071068;0;0.1480899;0;
0.9239355;0;0;0;0;0;0;0;0;N/A;N/A;N/A;N/A;N/A;N/A;0;0;0;0;0;0;0;(0.0, 0.0);(0.0, 0.0);4.73;0;0.7071068;0;0.1480899;0;
0.9308791;0;0;0;0;0;0;0;0;N/A;N/A;N/A;N/A;N/A;N/A;0;0;0;0;0;0;0;(0.0, 0.0);(0.0, 0.0);4.73;0;0.7071068;0;0.1480899;0;
0.937821;0;0;0;0;0;0;0;0;N/A;N/A;N/A;N/A;N/A;N/A;0;0;0;0;0;0;0;(0.0, 0.0);(0.0, 0.0);4.73;0;0.7071068;0;0.1480899;0;
0.9450333;0;0;0;0;0;0;0;0;N/A;N/A;N/A;N/A;N/A;N/A;0;0;0;0;0;0;0;(0.0, 0.0);(0.0, 0.0);4.73;0;0.7071068;0;0.1480899;0;
0.9520763;0;0;0;0;0;0;0;0;N/A;N/A;N/A;N/A;N/A;N/A;0;0;0;0;0;0;0;(0.0, 0.0);(0.0, 0.0);4.73;0;0.7071068;0;0.1480899;0;
0.9590216;0;0;0;0;0;0;0;0;N/A;N/A;N/A;N/A;N/A;N/A;0;0;0;0;0;0;0;(0.0, 0.0);(0.0, 0.0);4.73;0;0.7071068;0;0.1480899;0;
0.9659668;0;0;0;0;0;0;0;0;N/A;N/A;N/A;N/A;N/A;N/A;0;0;0;0;0;0;0;(0.0, 0.0);(0.0, 0.0);4.73;0;0.7071068;0;0.1480899;0;
0.9729105;0;0;0;0;0;0;0;0;N/A;N/A;N/A;N/A;N/A;N/A;0;0;0;0;0;0;0;(0.0, 0.0);(0.0, 0.0);4.73;0;0.7071068;0;0.1480899;0;
0.9798771;0;0;0;0;0;0;0;0;N/A;N/A;N/A;N/A;N/A;N/A;0;0;0;0;0;0;0;(0.0, 0.0);(0.0, 0.0);4.73;0;0.7071068;0;0.1480899;0;
0.9870089;0;0;0;0;0;0;0;0;N/A;N/A;N/A;N/A;N/A;N/A;0;0;0;0;0;0;0;(0.0, 0.0);(0.0, 0.0);4.73;0;0.7071068;0;0.1480899;0;
0.9939544;0;0;0;0;0;0;0;0;N/A;N/A;N/A;N/A;N/A;N/A;0;0;0;0;0;0;0;(0.0, 0.0);(0.0, 0.0);4.73;0;0.7071068;0;0.1419935;0;
1.000898;0;0;0;0;0;0;0;0;N/A;N/A;N/A;N/A;N/A;N/A;0;0;0;0;0;0;0;(0.0, 0.0);(0.0, 0.0);4.73;0;0.7071068;0;0.1419935;0;
1.007843;0;0;0;0;0;0;0;0;N/A;N/A;N/A;N/A;N/A;N/A;0;0;0;0;0;0;0;(0.0, 0.0);(0.0, 0.0);4.73;0;0.7071068;0;0.1419935;0;
1.014789;0;0;0;0;0;0;0;0;N/A;N/A;N/A;N/A;N/A;N/A;0;0;0;0;0;0;0;(0.0, 0.0);(0.0, 0.0);4.73;0;0.7071068;0;0.1419935;0;
1.021732;0;0;0;0;0;0;0;0;N/A;N/A;N/A;N/A;N/A;N/A;0;0;0;0;0;0;0;(0.0, 0.0);(0.0, 0.0);4.73;0;0.7071068;0;0.1419935;0;
1.028677;0;0;0;0;0;0;0;0;N/A;N/A;N/A;N/A;N/A;N/A;0;0;0;0;0;0;0;(0.0, 0.0);(0.0, 0.0);4.73;0;0.7071068;0;0.1419935;0;
1.035622;0;0;0;0;0;0;0;0;N/A;N/A;N/A;N/A;N/A;N/A;0;0;0;0;0;0;0;(0.0, 0.0);(0.0, 0.0);4.73;0;0.7071068;0;0.1419935;0;
1.042566;0;0;0;0;0;0;0;0;N/A;N/A;N/A;N/A;N/A;N/A;0;0;0;0;0;0;0;(0.0, 0.0);(0.0, 0.0);4.73;0;0.7071068;0;0.1419935;0;
1.049511;0;0;0;0;0;0;0;0;N/A;N/A;N/A;N/A;N/A;N/A;0;0;0;0;0;0;0;(0.0, 0.0);(0.0, 0.0);4.73;0;0.7071068;0;0.1419935;0;
1.056691;0;0;0;0;0;0;0;0;N/A;N/A;N/A;N/A;N/A;N/A;0;0;0;0;0;0;0;(0.0, 0.0);(0.0, 0.0);4.73;0;0.7071068;0;0.1419935;0;
1.063642;0;0;0;0;0;0;0;0;N/A;N/A;N/A;N/A;N/A;N/A;0;0;0;0;0;0;0;(0.0, 0.0);(0.0, 0.0);4.73;0;0.7071068;0;0.1419935;0;
1.075426;0;0;0;0;0;0;0;0;N/A;N/A;N/A;N/A;N/A;N/A;0;0;0;0;0;0;0;(0.0, 0.0);(0.0, 0.0);4.73;0;0.7071068;0;0.1419935;0;
1.408759;0;0;0;0;0;0;0;0;N/A;N/A;N/A;N/A;N/A;N/A;0;0;0;0;0;0;0;(0.0, 0.0);(0.0, 0.0);4.73;0;0.7071068;0;0.1760949;0;
1.419568;0;0;0;0;0;0;0;0;N/A;N/A;N/A;N/A;N/A;N/A;0;0;0;0;0;0;0;(0.0, 0.0);(0.0, 0.0);4.73;0;0.7071068;0;0.1760949;0;
1.426955;0;0;0;0;0;0;0;0;N/A;N/A;N/A;N/A;N/A;N/A;0;0;0;0;0;0;0;(0.0, 0.0);(0.0, 0.0);4.73;0;0.7071068;0;0.1760949;0;
1.43668;0;0;0;0;0;0;0;0;N/A;N/A;N/A;N/A;N/A;N/A;0;0;0;0;0;0;0;(0.0, 0.0);(0.0, 0.0);4.73;0;0.7071068;0;0.1760949;0;
1.447512;0;0;0;0;0;0;0;0;N/A;N/A;N/A;N/A;N/A;N/A;0;0;0;0;0;0;0;(0.0, 0.0);(0.0, 0.0);4.73;0;0.7071068;0;0.1760949;0;
1.458552;0;0;0;0;0;0;0;0;N/A;N/A;N/A;N/A;N/A;N/A;0;0;0;0;0;0;0;(0.0, 0.0);(0.0, 0.0);4.73;0;0.7071068;0;0.1760949;0;
1.469279;0;0;0;0;0;0;0;0;N/A;N/A;N/A;N/A;N/A;N/A;0;0;0;0;0;0;0;(0.0, 0.0);(0.0, 0.0);4.73;0;0.7071068;0;0.1760949;0;
1.482778;0;0;0;0;0;0;0;0;N/A;N/A;N/A;N/A;N/A;N/A;0;0;0;0;0;0;0;(0.0, 0.0);(0.0, 0.0);4.73;0;0.7071068;0;0.1760949;0;
1.493287;0;0;0;0;0;0;0;0;N/A;N/A;N/A;N/A;N/A;N/A;0;0;0;0;0;0;0;(0.0, 0.0);(0.0, 0.0);4.73;0;0.7071068;0;0.1760949;0;
1.503851;0;0;0;0;0;0;0;0;N/A;N/A;N/A;N/A;N/A;N/A;0;0;0;0;0;0;0;(0.0, 0.0);(0.0, 0.0);4.73;0;0.7071068;0;0.1760949;0;
1.513998;0;0;0;0;0;0;0;0;N/A;N/A;N/A;N/A;N/A;N/A;0;0;0;0;0;0;0;(0.0, 0.0);(0.0, 0.0);4.73;0;0.7071068;0;0.168222;0;
1.527608;0;0;0;0;0;0;0;0;N/A;N/A;N/A;N/A;N/A;N/A;0;0;0;0;0;0;0;(0.0, 0.0);(0.0, 0.0);4.73;0;0.7071068;0;0.168222;0;
1.538579;0;0;0;0;0;0;0;0;N/A;N/A;N/A;N/A;N/A;N/A;0;0;0;0;0;0;0;(0.0, 0.0);(0.0, 0.0);4.73;0;0.7071068;0;0.168222;0;
1.561197;0;0;0;0;0;0;0;0;N/A;N/A;N/A;N/A;N/A;N/A;0;0;0;0;0;0;0;(0.0, 0.0);(0.0, 0.0);4.73;0;0.7071068;0;0.168222;0;
1.573155;0;0;0;0;0;0;0;0;N/A;N/A;N/A;N/A;N/A;N/A;0;0;0;0;0;0;0;(0.0, 0.0);(0.0, 0.0);4.73;0;0.7071068;0;0.168222;0;
1.580099;0;0;0;0;0;0;0;0;N/A;N/A;N/A;N/A;N/A;N/A;0;0;0;0;0;0;0;(0.0, 0.0);(0.0, 0.0);4.73;0;0.7071068;0;0.168222;0;
1.588497;0;0;0;0;0;0;0;0;N/A;N/A;N/A;N/A;N/A;N/A;0;0;0;0;0;0;0;(0.0, 0.0);(0.0, 0.0);4.73;0;0.7071068;0;0.168222;0;
1.600706;0;0;0;0;0;0;0;0;N/A;N/A;N/A;N/A;N/A;N/A;0;0;0;0;0;0;0;(0.0, 0.0);(0.0, 0.0);4.73;0;0.7071068;0;0.168222;0;
1.610832;0;0;0;0;0;0;0;0;N/A;N/A;N/A;N/A;N/A;N/A;0;0;0;0;0;0;0;(0.0, 0.0);(0.0, 0.0);4.73;0;0.7071068;0;0.168222;0;
1.619079;0;0;0;0;0;0;0;0;N/A;N/A;N/A;N/A;N/A;N/A;0;0;0;0;0;0;0;(0.0, 0.0);(0.0, 0.0);4.73;0;0.7071068;0;0.1619079;0;
1.628081;0;0;0;0;0;0;0;0;N/A;N/A;N/A;N/A;N/A;N/A;0;0;0;0;0;0;0;(0.0, 0.0);(0.0, 0.0);4.73;0;0.7071068;0;0.1619079;0;
1.63593;0;0;0;0;0;0;0;0;N/A;N/A;N/A;N/A;N/A;N/A;0;0;0;0;0;0;0;(0.0, 0.0);(0.0, 0.0);4.73;0;0.7071068;0;0.1619079;0;
1.642883;0;0;0;0;0;0;0;0;N/A;N/A;N/A;N/A;N/A;N/A;0;0;0;0;0;0;0;(0.0, 0.0);(0.0, 0.0);4.73;0;0.7071068;0;0.1619079;0;
1.650665;0;0;0;0;0;0;0;0;N/A;N/A;N/A;N/A;N/A;N/A;0;0;0;0;0;0;0;(0.0, 0.0);(0.0, 0.0);4.73;0;0.7071068;0;0.1619079;0;
1.657632;0;0;0;0;0;0;0;0;N/A;N/A;N/A;N/A;N/A;N/A;0;0;0;0;0;0;0;(0.0, 0.0);(0.0, 0.0);4.73;0;0.7071068;0;0.1619079;0;
1.664632;0;0;0;0;0;0;0;0;N/A;N/A;N/A;N/A;N/A;N/A;0;0;0;0;0;0;0;(0.0, 0.0);(0.0, 0.0);4.73;0;0.7071068;0;0.1619079;0;
1.672734;0;0;0;0;0;0;0;0;N/A;N/A;N/A;N/A;N/A;N/A;0;0;0;0;0;0;0;(0.0, 0.0);(0.0, 0.0);4.73;0;0.7071068;0;0.1619079;0;
1.684318;0;0;0;0;0;0;0;0;N/A;N/A;N/A;N/A;N/A;N/A;0;0;0;0;0;0;0;(0.0, 0.0);(0.0, 0.0);4.73;0;0.7071068;0;0.1619079;0;
1.69387;0;0;0;0;0;0;0;0;N/A;N/A;N/A;N/A;N/A;N/A;0;0;0;0;0;0;0;(0.0, 0.0);(0.0, 0.0);4.73;0;0.7071068;0;0.1619079;0;
1.703748;0;0;0;0;0;0;0;0;N/A;N/A;N/A;N/A;N/A;N/A;0;0;0;0;0;0;0;(0.0, 0.0);(0.0, 0.0);4.73;0;0.7071068;0;0.1619079;0;
1.715381;0;0;0;0;0;0;0;0;N/A;N/A;N/A;N/A;N/A;N/A;0;0;0;0;0;0;0;(0.0, 0.0);(0.0, 0.0);4.73;0;0.7071068;0;0.1619079;0;
1.7237;0;0;0;0;0;0;0;0;N/A;N/A;N/A;N/A;N/A;N/A;0;0;0;0;0;0;0;(0.0, 0.0);(0.0, 0.0);4.73;0;0.7071068;0;0.1567;0;
1.732336;0;0;0;0;0;0;0;0;N/A;N/A;N/A;N/A;N/A;N/A;0;0;0;0;0;0;0;(0.0, 0.0);(0.0, 0.0);4.73;0;0.7071068;0;0.1567;0;
1.741176;0;0;0;0;0;0;0;0;N/A;N/A;N/A;N/A;N/A;N/A;0;0;0;0;0;0;0;(0.0, 0.0);(0.0, 0.0);4.73;0;0.7071068;0;0.1567;0;
1.749539;0;0;0;0;0;0;0;0;N/A;N/A;N/A;N/A;N/A;N/A;0;0;0;0;0;0;0;(0.0, 0.0);(0.0, 0.0);4.73;0;0.7071068;0;0.1567;0;
1.757894;0;0;0;0;0;0;0;0;N/A;N/A;N/A;N/A;N/A;N/A;0;0;0;0;0;0;0;(0.0, 0.0);(0.0, 0.0);4.73;0;0.7071068;0;0.1567;0;
1.768113;0;0;0;0;0;0;0;0;N/A;N/A;N/A;N/A;N/A;N/A;0;0;0;0;0;0;0;(0.0, 0.0);(0.0, 0.0);4.73;0;0.7071068;0;0.1567;0;
1.777383;0;0;0;0;0;0;0;0;N/A;N/A;N/A;N/A;N/A;N/A;0;0;0;0;0;0;0;(0.0, 0.0);(0.0, 0.0);4.73;0;0.7071068;0;0.1567;0;
1.785848;0;0;0;0;0;0;0;0;N/A;N/A;N/A;N/A;N/A;N/A;0;0;0;0;0;0;0;(0.0, 0.0);(0.0, 0.0);4.73;0;0.7071068;0;0.1567;0;
1.79581;0;0;0;0;0;0;0;0;N/A;N/A;N/A;N/A;N/A;N/A;0;0;0;0;0;0;0;(0.0, 0.0);(0.0, 0.0);4.73;0;0.7071068;0;0.1567;0;
1.803967;0;0;0;0;0;0;0;0;N/A;N/A;N/A;N/A;N/A;N/A;0;0;0;0;0;0;0;(0.0, 0.0);(0.0, 0.0);4.73;0;0.7071068;0;0.1567;0;
1.813994;0;0;0;0;0;0;0;0;N/A;N/A;N/A;N/A;N/A;N/A;0;0;0;0;0;0;0;(0.0, 0.0);(0.0, 0.0);4.73;0;0.7071068;0;0.1567;0;
1.866783;0;0;0;0;0;0;0;0;N/A;N/A;N/A;N/A;N/A;N/A;0;0;0;0;0;0;0;(0.0, 0.0);(0.0, 0.0);4.73;0;0.7071068;0;0.1555652;0;
1.904858;0;0;0;0;0;0;0;0;N/A;N/A;N/A;N/A;N/A;N/A;0;0;0;0;0;0;0;(0.0, 0.0);(0.0, 0.0);4.73;0;0.7071068;0;0.1555652;0;
1.927786;0;0;0;0;0;0;0;0;N/A;N/A;N/A;N/A;N/A;N/A;0;0;0;0;0;0;0;(0.0, 0.0);(0.0, 0.0);4.73;0;0.7071068;0;0.1555652;0;
1.942335;0;0;0;0;0;0;0;0;N/A;N/A;N/A;N/A;N/A;N/A;0;0;0;0;0;0;0;(0.0, 0.0);(0.0, 0.0);4.73;0;0.7071068;0;0.1555652;0;
1.956311;0;0;0;0;0;0;0;0;N/A;N/A;N/A;N/A;N/A;N/A;0;0;0;0;0;0;0;(0.0, 0.0);(0.0, 0.0);4.73;0;0.7071068;0;0.1555652;0;
1.96996;0;0;0;0;0;0;0;0;N/A;N/A;N/A;N/A;N/A;N/A;0;0;0;0;0;0;0;(0.0, 0.0);(0.0, 0.0);4.73;0;0.7071068;0;0.1515354;0;
1.987057;0;0;0;0;0;0;0;0;N/A;N/A;N/A;N/A;N/A;N/A;0;0;0;0;0;0;0;(0.0, 0.0);(0.0, 0.0);4.73;0;0.7071068;0;0.1515354;0;
2.004375;0;0;0;0;0;0;0;0;N/A;N/A;N/A;N/A;N/A;N/A;0;0;0;0;0;0;0;(0.0, 0.0);(0.0, 0.0);4.73;0;0.7071068;0;0.1515354;0;
2.016806;0;0;0;0;0;0;0;0;N/A;N/A;N/A;N/A;N/A;N/A;0;0;0;0;0;0;0;(0.0, 0.0);(0.0, 0.0);4.73;0;0.7071068;0;0.1515354;0;
2.02761;0;0;0;0;0;0;0;0;N/A;N/A;N/A;N/A;N/A;N/A;0;0;0;0;0;0;0;(0.0, 0.0);(0.0, 0.0);4.73;0;0.7071068;0;0.1515354;0;
2.039651;0;0;0;0;0;0;0;0;N/A;N/A;N/A;N/A;N/A;N/A;0;0;0;0;0;0;0;(0.0, 0.0);(0.0, 0.0);4.73;0;0.7071068;0;0.1515354;0;
2.051239;0;0;0;0;0;0;0;0;N/A;N/A;N/A;N/A;N/A;N/A;0;0;0;0;0;0;0;(0.0, 0.0);(0.0, 0.0);4.73;0;0.7071068;0;0.1515354;0;
2.062852;0;0;0;0;0;0;0;0;N/A;N/A;N/A;N/A;N/A;N/A;0;0;0;0;0;0;0;(0.0, 0.0);(0.0, 0.0);4.73;0;0.7071068;0;0.1515354;0;
2.075987;0;0;0;0;0;0;0;0;N/A;N/A;N/A;N/A;N/A;N/A;0;0;0;0;0;0;0;(0.0, 0.0);(0.0, 0.0);4.73;0;0.7071068;0;0.1482848;0;
2.086425;0;0;0;0;0;0;0;0;N/A;N/A;N/A;N/A;N/A;N/A;0;0;0;0;0;0;0;(0.0, 0.0);(0.0, 0.0);4.73;0;0.7071068;0;0.1482848;0;
2.095989;0;0;0;0;0;0;0;0;N/A;N/A;N/A;N/A;N/A;N/A;0;0;0;0;0;0;0;(0.0, 0.0);(0.0, 0.0);4.73;0;0.7071068;0;0.1482848;0;
2.109908;0;0;0;0;0;0;0;0;N/A;N/A;N/A;N/A;N/A;N/A;0;0;0;0;0;0;0;(0.0, 0.0);(0.0, 0.0);4.73;0;0.7071068;0;0.1482848;0;
2.13236;0;0;0;0;0;0;0;0;N/A;N/A;N/A;N/A;N/A;N/A;0;0;0;0;0;0;0;(0.0, 0.0);(0.0, 0.0);4.73;0;0.7071068;0;0.1482848;0;
2.150661;0;0;0;0;0;0;0;0;N/A;N/A;N/A;N/A;N/A;N/A;0;0;0;0;0;0;0;(0.0, 0.0);(0.0, 0.0);4.73;0;0.7071068;0;0.1482848;0;
2.180504;0;0;0;0;0;0;0;0;N/A;N/A;N/A;N/A;N/A;N/A;0;0;0;0;0;0;0;(0.0, 0.0);(0.0, 0.0);4.73;0;0.7071069;0;0.1453669;0;
2.201419;0;0;0;0;0;0;0;0;N/A;N/A;N/A;N/A;N/A;N/A;0;0;0;0;0;0;0;(0.0, 0.0);(0.0, 0.0);4.73;0;0.7071069;0;0.1453669;0;
2.225821;0;0;0;0;0;0;0;0;N/A;N/A;N/A;N/A;N/A;N/A;0;0;0;0;0;0;0;(0.0, 0.0);(0.0, 0.0);4.73;0;0.7071069;0;0.1453669;0;
2.24867;0;0;0;0;0;0;0;0;N/A;N/A;N/A;N/A;N/A;N/A;0;0;0;0;0;0;0;(0.0, 0.0);(0.0, 0.0);4.73;0;0.7071069;0;0.1453669;0;
2.27186;0;0;0;0;0;0;0;0;N/A;N/A;N/A;N/A;N/A;N/A;0;0;0;0;0;0;0;(0.0, 0.0);(0.0, 0.0);4.73;0;0.7071069;0;0.1453669;0;
2.283769;0;0;0;0;0;0;0;0;N/A;N/A;N/A;N/A;N/A;N/A;0;0;0;0;0;0;0;(0.0, 0.0);(0.0, 0.0);4.73;0;0.7071069;0;0.1427356;0;
2.294006;0;0;0;0;0;0;0;0;N/A;N/A;N/A;N/A;N/A;N/A;0;0;0;0;0;0;0;(0.0, 0.0);(0.0, 0.0);4.73;0;0.7071069;0;0.1427356;0;
2.310375;0;0;0;0;0;0;0;0;N/A;N/A;N/A;N/A;N/A;N/A;0;0;0;0;0;0;0;(0.0, 0.0);(0.0, 0.0);4.73;0;0.7071069;0;0.1427356;0;
2.326988;0;0;0;0;0;0;0;0;N/A;N/A;N/A;N/A;N/A;N/A;0;0;0;0;0;0;0;(0.0, 0.0);(0.0, 0.0);4.73;0;0.7071069;0;0.1427356;0;
2.349912;0;0;0;0;0;0;0;0;N/A;N/A;N/A;N/A;N/A;N/A;0;0;0;0;0;0;0;(0.0, 0.0);(0.0, 0.0);4.73;0;0.7071069;0;0.1427356;0;
2.364754;0;0;0;0;0;0;0;0;N/A;N/A;N/A;N/A;N/A;N/A;0;0;0;0;0;0;0;(0.0, 0.0);(0.0, 0.0);4.73;0;0.7071069;0;0.1427356;0;
2.37443;0;0;0;0;0;0;0;0;N/A;N/A;N/A;N/A;N/A;N/A;0;0;0;0;0;0;0;(0.0, 0.0);(0.0, 0.0);4.73;0;0.7071069;0;0.1427356;0;
2.385152;0;0;0;0;0;0;0;0;N/A;N/A;N/A;N/A;N/A;N/A;0;0;0;0;0;0;0;(0.0, 0.0);(0.0, 0.0);4.73;0;0.7071069;0;0.140303;0;
2.401624;0;0;0;0;0;0;0;0;N/A;N/A;N/A;N/A;N/A;N/A;0;0;0;0;0;0;0;(0.0, 0.0);(0.0, 0.0);4.73;0;0.7071069;0;0.140303;0;
2.41021;0;0;0;0;0;0;0;0;N/A;N/A;N/A;N/A;N/A;N/A;0;0;0;0;0;0;0;(0.0, 0.0);(0.0, 0.0);4.73;0;0.7071069;0;0.140303;0;
2.417864;0;0;0;0;0;0;0;0;N/A;N/A;N/A;N/A;N/A;N/A;0;0;0;0;0;0;0;(0.0, 0.0);(0.0, 0.0);4.73;0;0.7071069;0;0.140303;0;
2.430492;0;0;0;0;0;0;0;0;N/A;N/A;N/A;N/A;N/A;N/A;0;0;0;0;0;0;0;(0.0, 0.0);(0.0, 0.0);4.73;0;0.7071069;0;0.140303;0;
2.444413;0;0;0;0;0;0;0;0;N/A;N/A;N/A;N/A;N/A;N/A;0;0;0;0;0;0;0;(0.0, 0.0);(0.0, 0.0);4.73;0;0.7071069;0;0.140303;0;
2.458449;0;0;0;0;0;0;0;0;N/A;N/A;N/A;N/A;N/A;N/A;0;0;0;0;0;0;0;(0.0, 0.0);(0.0, 0.0);4.73;0;0.7071069;0;0.140303;0;
2.469386;0;0;0;0;0;0;0;0;N/A;N/A;N/A;N/A;N/A;N/A;0;0;0;0;0;0;0;(0.0, 0.0);(0.0, 0.0);4.73;0;0.7071069;0;0.140303;0;
2.479116;0;0;0;0;0;0;0;0;N/A;N/A;N/A;N/A;N/A;N/A;0;0;0;0;0;0;0;(0.0, 0.0);(0.0, 0.0);4.73;0;0.7071069;0;0.140303;0;
2.488934;0;0;0;0;0;0;0;0;N/A;N/A;N/A;N/A;N/A;N/A;0;0;0;0;0;0;0;(0.0, 0.0);(0.0, 0.0);4.730001;0;0.7071069;0;0.1382741;0;
2.498573;0;0;0;0;0;0;0;0;N/A;N/A;N/A;N/A;N/A;N/A;0;0;0;0;0;0;0;(0.0, 0.0);(0.0, 0.0);4.730001;0;0.7071069;0;0.1382741;0;
2.508407;0;0;0;0;0;0;0;0;N/A;N/A;N/A;N/A;N/A;N/A;0;0;0;0;0;0;0;(0.0, 0.0);(0.0, 0.0);4.730001;0;0.7071069;0;0.1382741;0;
2.519179;0;0;0;0;0;0;0;0;N/A;N/A;N/A;N/A;N/A;N/A;0;0;0;0;0;0;0;(0.0, 0.0);(0.0, 0.0);4.730001;0;0.7071069;0;0.1382741;0;
2.532241;0;0;0;0;0;0;0;0;N/A;N/A;N/A;N/A;N/A;N/A;0;0;0;0;0;0;0;(0.0, 0.0);(0.0, 0.0);4.730001;0;0.7071069;0;0.1382741;0;
2.545266;0;0;0;0;0;0;0;0;N/A;N/A;N/A;N/A;N/A;N/A;0;0;0;0;0;0;0;(0.0, 0.0);(0.0, 0.0);4.730001;0;0.7071069;0;0.1382741;0;
2.561625;0;0;0;0;0;0;0;0;N/A;N/A;N/A;N/A;N/A;N/A;0;0;0;0;0;0;0;(0.0, 0.0);(0.0, 0.0);4.730001;0;0.7071069;0;0.1382741;0;
2.584178;0;0;0;0;0;0;0;0;N/A;N/A;N/A;N/A;N/A;N/A;0;0;0;0;0;0;0;(0.0, 0.0);(0.0, 0.0);4.730001;0;0.7071069;0;0.1382741;0;
2.597953;0;0;0;0;0;0;0;0;N/A;N/A;N/A;N/A;N/A;N/A;0;0;0;0;0;0;0;(0.0, 0.0);(0.0, 0.0);4.730001;0;0.7071069;0;0.1367344;0;
2.617934;0;0;0;0;0;0;0;0;N/A;N/A;N/A;N/A;N/A;N/A;0;0;0;0;0;0;0;(0.0, 0.0);(0.0, 0.0);4.730001;0;0.7071069;0;0.1367344;0;
2.635852;0;0;0;0;0;0;0;0;N/A;N/A;N/A;N/A;N/A;N/A;0;0;0;0;0;0;0;(0.0, 0.0);(0.0, 0.0);4.730001;0;0.7071069;0;0.1367344;0;
2.649255;0;0;0;0;0;0;0;0;N/A;N/A;N/A;N/A;N/A;N/A;0;0;0;0;0;0;0;(0.0, 0.0);(0.0, 0.0);4.730001;0;0.7071069;0;0.1367344;0;
2.66288;0;0;0;0;0;0;0;0;N/A;N/A;N/A;N/A;N/A;N/A;0;0;0;0;0;0;0;(0.0, 0.0);(0.0, 0.0);4.730001;0;0.7071069;0;0.1367344;0;
2.675369;0;0;0;0;0;0;0;0;N/A;N/A;N/A;N/A;N/A;N/A;0;0;0;0;0;0;0;(0.0, 0.0);(0.0, 0.0);4.730001;0;0.7071069;0;0.1367344;0;
2.690694;0;0;0;0;0;0;0;0;N/A;N/A;N/A;N/A;N/A;N/A;0;0;0;0;0;0;0;(0.0, 0.0);(0.0, 0.0);4.730001;0;0.7071069;0;0.1367344;0;
2.705265;0;0;0;0;0;0;0;0;N/A;N/A;N/A;N/A;N/A;N/A;0;0;0;0;0;0;0;(0.0, 0.0);(0.0, 0.0);4.730001;0;0.7071069;0;0.1352632;0;
2.720028;0;0;0;0;0;0;0;0;N/A;N/A;N/A;N/A;N/A;N/A;0;0;0;0;0;0;0;(0.0, 0.0);(0.0, 0.0);4.730001;0;0.7071069;0;0.1352632;0;
2.733997;0;0;0;0;0;0;0;0;N/A;N/A;N/A;N/A;N/A;N/A;0;0;0;0;0;0;0;(0.0, 0.0);(0.0, 0.0);4.730001;0;0.7071069;0;0.1352632;0;
2.745699;0;0;0;0;0;0;0;0;N/A;N/A;N/A;N/A;N/A;N/A;0;0;0;0;0;0;0;(0.0, 0.0);(0.0, 0.0);4.730001;0;0.7071069;0;0.1352632;0;
2.759687;0;0;0;0;0;0;0;0;N/A;N/A;N/A;N/A;N/A;N/A;0;0;0;0;0;0;0;(0.0, 0.0);(0.0, 0.0);4.730001;0;0.7071069;0;0.1352632;0;
2.775027;0;0;0;0;0;0;0;0;N/A;N/A;N/A;N/A;N/A;N/A;0;0;0;0;0;0;0;(0.0, 0.0);(0.0, 0.0);4.730001;0;0.7071069;0;0.1352632;0;
2.794359;0;0;0;0;0;0;0;0;N/A;N/A;N/A;N/A;N/A;N/A;0;0;0;0;0;0;0;(0.0, 0.0);(0.0, 0.0);4.730001;0;0.7071069;0;0.1352632;0;
2.8145;0;0;0;0;0;0;0;0;N/A;N/A;N/A;N/A;N/A;N/A;0;0;0;0;0;0;0;(0.0, 0.0);(0.0, 0.0);4.730001;0;0.7071069;0;0.1340238;0;
2.836462;0;0;0;0;0;0;0;0;N/A;N/A;N/A;N/A;N/A;N/A;0;0;0;0;0;0;0;(0.0, 0.0);(0.0, 0.0);4.730001;0;0.7071069;0;0.1340238;0;
2.856416;0;0;0;0;0;0;0;0;N/A;N/A;N/A;N/A;N/A;N/A;0;0;0;0;0;0;0;(0.0, 0.0);(0.0, 0.0);4.730001;0;0.7071069;0;0.1340238;0;
2.873866;0;0;0;0;0;0;0;0;N/A;N/A;N/A;N/A;N/A;N/A;0;0;0;0;0;0;0;(0.0, 0.0);(0.0, 0.0);4.730001;0;0.7071069;0;0.1340238;0;
2.893579;0;0;0;0;0;0;0;0;N/A;N/A;N/A;N/A;N/A;N/A;0;0;0;0;0;0;0;(0.0, 0.0);(0.0, 0.0);4.730001;0;0.7071069;0;0.1340238;0;
2.911438;0;0;0;0;0;0;0;0;N/A;N/A;N/A;N/A;N/A;N/A;0;0;0;0;0;0;0;(0.0, 0.0);(0.0, 0.0);4.730001;0;0.7071069;0;0.1340238;0;
2.92955;0;0;0;0;0;0;0;0;N/A;N/A;N/A;N/A;N/A;N/A;0;0;0;0;0;0;0;(0.0, 0.0);(0.0, 0.0);4.730001;0;0.707107;0;0.1331614;0;
2.948726;0;0;0;0;0;0;0;0;N/A;N/A;N/A;N/A;N/A;N/A;0;0;0;0;0;0;0;(0.0, 0.0);(0.0, 0.0);4.730001;0;0.707107;0;0.1331614;0;
2.968892;0;0;0;0;0;0;0;0;N/A;N/A;N/A;N/A;N/A;N/A;0;0;0;0;0;0;0;(0.0, 0.0);(0.0, 0.0);4.730001;0;0.707107;0;0.1331614;0;
2.992753;0;0;0;0;0;0;0;0;N/A;N/A;N/A;N/A;N/A;N/A;0;0;0;0;0;0;0;(0.0, 0.0);(0.0, 0.0);4.730001;0;0.707107;0;0.1331614;0;
3.015234;0;0;0;0;0;0;0;0;N/A;N/A;N/A;N/A;N/A;N/A;0;0;0;0;0;0;0;(0.0, 0.0);(0.0, 0.0);4.730001;0;0.707107;0;0.1331614;0;
3.042562;0;0;0;0;0;0;0;0;N/A;N/A;N/A;N/A;N/A;N/A;0;0;0;0;0;0;0;(0.0, 0.0);(0.0, 0.0);4.730001;0;0.707107;0;0.1322853;0;
3.069468;0;0;0;0;0;0;0;0;N/A;N/A;N/A;N/A;N/A;N/A;0;0;0;0;0;0;0;(0.0, 0.0);(0.0, 0.0);4.730001;0;0.707107;0;0.1322853;0;
3.088628;0;0;0;0;0;0;0;0;N/A;N/A;N/A;N/A;N/A;N/A;0;0;0;0;0;0;0;(0.0, 0.0);(0.0, 0.0);4.730001;0;0.707107;0;0.1322853;0;
3.103639;0;0;0;0;0;0;0;0;N/A;N/A;N/A;N/A;N/A;N/A;0;0;0;0;0;0;0;(0.0, 0.0);(0.0, 0.0);4.730001;0;0.707107;0;0.1322853;0;
3.117781;0;0;0;0;0;0;0;0;N/A;N/A;N/A;N/A;N/A;N/A;0;0;0;0;0;0;0;(0.0, 0.0);(0.0, 0.0);4.730001;0;0.707107;0;0.1322853;0;
3.131416;0;0;0;0;0;0;0;0;N/A;N/A;N/A;N/A;N/A;N/A;0;0;0;0;0;0;0;(0.0, 0.0);(0.0, 0.0);4.730001;0;0.707107;0;0.1322853;0;
3.157772;0;0;0;0;0;0;0;0;N/A;N/A;N/A;N/A;N/A;N/A;0;0;0;0;0;0;0;(0.0, 0.0);(0.0, 0.0);4.730001;0;0.707107;0;0.1315738;0;
3.17422;0;0;0;0;0;0;0;0;N/A;N/A;N/A;N/A;N/A;N/A;0;0;0;0;0;0;0;(0.0, 0.0);(0.0, 0.0);4.730001;0;0.707107;0;0.1315738;0;
3.189391;0;0;0;0;0;0;0;0;N/A;N/A;N/A;N/A;N/A;N/A;0;0;0;0;0;0;0;(0.0, 0.0);(0.0, 0.0);4.730001;0;0.707107;0;0.1315738;0;
3.201302;0;0;0;0;0;0;0;0;N/A;N/A;N/A;N/A;N/A;N/A;0;0;0;0;0;0;0;(0.0, 0.0);(0.0, 0.0);4.730001;0;0.707107;0;0.1315738;0;
3.21528;0;0;0;0;0;0;0;0;N/A;N/A;N/A;N/A;N/A;N/A;0;0;0;0;0;0;0;(0.0, 0.0);(0.0, 0.0);4.730001;0;0.707107;0;0.1315738;0;
3.228595;0;0;0;0;0;0;0;0;N/A;N/A;N/A;N/A;N/A;N/A;0;0;0;0;0;0;0;(0.0, 0.0);(0.0, 0.0);4.730001;0;0.707107;0;0.1315738;0;
3.241681;0;0;0;0;0;0;0;0;N/A;N/A;N/A;N/A;N/A;N/A;0;0;0;0;0;0;0;(0.0, 0.0);(0.0, 0.0);4.730001;0;0.707107;0;0.1315738;0;
3.253414;0;0;0;0;0;0;0;0;N/A;N/A;N/A;N/A;N/A;N/A;0;0;0;0;0;0;0;(0.0, 0.0);(0.0, 0.0);4.730001;0;0.707107;0;0.1315738;0;
3.269238;0;0;0;0;0;0;0;0;N/A;N/A;N/A;N/A;N/A;N/A;0;0;0;0;0;0;0;(0.0, 0.0);(0.0, 0.0);4.730001;0;0.707107;0;0.1307695;0;
3.278509;0;0;0;0;0;0;0;0;N/A;N/A;N/A;N/A;N/A;N/A;0;0;0;0;0;0;0;(0.0, 0.0);(0.0, 0.0);4.730001;0;0.707107;0;0.1307695;0;
3.287902;0;0;0;0;0;0;0;0;N/A;N/A;N/A;N/A;N/A;N/A;0;0;0;0;0;0;0;(0.0, 0.0);(0.0, 0.0);4.730001;0;0.707107;0;0.1307695;0;
3.298403;0;0;0;0;0;0;0;0;N/A;N/A;N/A;N/A;N/A;N/A;0;0;0;0;0;0;0;(0.0, 0.0);(0.0, 0.0);4.730001;0;0.707107;0;0.1307695;0;
3.310011;0;0;0;0;0;0;0;0;N/A;N/A;N/A;N/A;N/A;N/A;0;0;0;0;0;0;0;(0.0, 0.0);(0.0, 0.0);4.730001;0;0.707107;0;0.1307695;0;
3.318064;0;0;0;0;0;0;0;0;N/A;N/A;N/A;N/A;N/A;N/A;0;0;0;0;0;0;0;(0.0, 0.0);(0.0, 0.0);4.730001;0;0.707107;0;0.1307695;0;
3.32573;0;0;0;0;0;0;0;0;N/A;N/A;N/A;N/A;N/A;N/A;0;0;0;0;0;0;0;(0.0, 0.0);(0.0, 0.0);4.730001;0;0.707107;0;0.1307695;0;
3.334466;0;0;0;0;0;0;0;0;N/A;N/A;N/A;N/A;N/A;N/A;0;0;0;0;0;0;0;(0.0, 0.0);(0.0, 0.0);4.730001;0;0.707107;0;0.1307695;0;
3.343807;0;0;0;0;0;0;0;0;N/A;N/A;N/A;N/A;N/A;N/A;0;0;0;0;0;0;0;(0.0, 0.0);(0.0, 0.0);4.730001;0;0.707107;0;0.1307695;0;
3.351393;0;0;0;0;0;0;0;0;N/A;N/A;N/A;N/A;N/A;N/A;0;0;0;0;0;0;0;(0.0, 0.0);(0.0, 0.0);4.730001;0;0.707107;0;0.1307695;0;
3.361002;0;0;0;0;0;0;0;0;N/A;N/A;N/A;N/A;N/A;N/A;0;0;0;0;0;0;0;(0.0, 0.0);(0.0, 0.0);4.730001;0;0.707107;0;0.1307695;0;
3.370208;0;0;0;0;0;0;0;0;N/A;N/A;N/A;N/A;N/A;N/A;0;0;0;0;0;0;0;(0.0, 0.0);(0.0, 0.0);4.730001;0;0.707107;0;0.1296234;0;
3.381547;0;0;0;0;0;0;0;0;N/A;N/A;N/A;N/A;N/A;N/A;0;0;0;0;0;0;0;(0.0, 0.0);(0.0, 0.0);4.730001;0;0.707107;0;0.1296234;0;
3.399986;0;0;0;0;0;0;0;0;N/A;N/A;N/A;N/A;N/A;N/A;0;0;0;0;0;0;0;(0.0, 0.0);(0.0, 0.0);4.730001;0;0.707107;0;0.1296234;0;
3.412204;0;0;0;0;0;0;0;0;N/A;N/A;N/A;N/A;N/A;N/A;0;0;0;0;0;0;0;(0.0, 0.0);(0.0, 0.0);4.730001;0;0.707107;0;0.1296234;0;
3.427568;0;0;0;0;0;0;0;0;N/A;N/A;N/A;N/A;N/A;N/A;0;0;0;0;0;0;0;(0.0, 0.0);(0.0, 0.0);4.730001;0;0.707107;0;0.1296234;0;
3.436373;0;0;0;0;0;0;0;0;N/A;N/A;N/A;N/A;N/A;N/A;0;0;0;0;0;0;0;(0.0, 0.0);(0.0, 0.0);4.730001;0;0.707107;0;0.1296234;0;
3.444274;0;0;0;0;0;0;0;0;N/A;N/A;N/A;N/A;N/A;N/A;0;0;0;0;0;0;0;(0.0, 0.0);(0.0, 0.0);4.730001;0;0.707107;0;0.1296234;0;
3.453622;0;0;0;0;0;0;0;0;N/A;N/A;N/A;N/A;N/A;N/A;0;0;0;0;0;0;0;(0.0, 0.0);(0.0, 0.0);4.730001;0;0.707107;0;0.1296234;0;
3.461614;0;0;0;0;0;0;0;0;N/A;N/A;N/A;N/A;N/A;N/A;0;0;0;0;0;0;0;(0.0, 0.0);(0.0, 0.0);4.730001;0;0.707107;0;0.1296234;0;
3.470399;0;0;0;0;0;0;0;0;N/A;N/A;N/A;N/A;N/A;N/A;0;0;0;0;0;0;0;(0.0, 0.0);(0.0, 0.0);4.730001;0;0.707107;0;0.1285333;0;
3.480689;0;0;0;0;0;0;0;0;N/A;N/A;N/A;N/A;N/A;N/A;0;0;0;0;0;0;0;(0.0, 0.0);(0.0, 0.0);4.730001;0;0.707107;0;0.1285333;0;
3.499509;0;0;0;0;0;0;0;0;N/A;N/A;N/A;N/A;N/A;N/A;0;0;0;0;0;0;0;(0.0, 0.0);(0.0, 0.0);4.730001;0;0.707107;0;0.1285333;0;
3.511446;0;0;0;0;0;0;0;0;N/A;N/A;N/A;N/A;N/A;N/A;0;0;0;0;0;0;0;(0.0, 0.0);(0.0, 0.0);4.730001;0;0.707107;0;0.1285333;0;
3.526888;0;0;0;0;0;0;0;0;N/A;N/A;N/A;N/A;N/A;N/A;0;0;0;0;0;0;0;(0.0, 0.0);(0.0, 0.0);4.730001;0;0.707107;0;0.1285333;0;
3.542022;0;0;0;0;0;0;0;0;N/A;N/A;N/A;N/A;N/A;N/A;0;0;0;0;0;0;0;(0.0, 0.0);(0.0, 0.0);4.730001;0;0.707107;0;0.1285333;0;
3.556718;0;0;0;0;0;0;0;0;N/A;N/A;N/A;N/A;N/A;N/A;0;0;0;0;0;0;0;(0.0, 0.0);(0.0, 0.0);4.730001;0;0.707107;0;0.1285333;0;
3.576233;0;0;0;0;0;0;0;0;N/A;N/A;N/A;N/A;N/A;N/A;0;0;0;0;0;0;0;(0.0, 0.0);(0.0, 0.0);4.730002;0;0.7071071;0;0.1277226;0;
3.598095;0;0;0;0;0;0;0;0;N/A;N/A;N/A;N/A;N/A;N/A;0;0;0;0;0;0;0;(0.0, 0.0);(0.0, 0.0);4.730002;0;0.7071071;0;0.1277226;0;
3.620782;0;0;0;0;0;0;0;0;N/A;N/A;N/A;N/A;N/A;N/A;0;0;0;0;0;0;0;(0.0, 0.0);(0.0, 0.0);4.730002;0;0.7071071;0;0.1277226;0;
3.634785;0;0;0;0;0;0;0;0;N/A;N/A;N/A;N/A;N/A;N/A;0;0;0;0;0;0;0;(0.0, 0.0);(0.0, 0.0);4.730002;0;0.7071071;0;0.1277226;0;
3.644251;0;0;0;0;0;0;0;0;N/A;N/A;N/A;N/A;N/A;N/A;0;0;0;0;0;0;0;(0.0, 0.0);(0.0, 0.0);4.730002;0;0.7071071;0;0.1277226;0;
3.657708;0;0;0;0;0;0;0;0;N/A;N/A;N/A;N/A;N/A;N/A;0;0;0;0;0;0;0;(0.0, 0.0);(0.0, 0.0);4.730002;0;0.7071071;0;0.1277226;0;
3.665627;0;0;0;0;0;0;0;0;N/A;N/A;N/A;N/A;N/A;N/A;0;0;0;0;0;0;0;(0.0, 0.0);(0.0, 0.0);4.730002;0;0.7071071;0;0.1277226;0;
3.677117;0;0;0;0;0;0;0;0;N/A;N/A;N/A;N/A;N/A;N/A;0;0;0;0;0;0;0;(0.0, 0.0);(0.0, 0.0);4.730001;0;0.707107;0;0.1267971;0;
3.684067;0;0;0;0;0;0;0;0;N/A;N/A;N/A;N/A;N/A;N/A;0;0;0;0;0;0;0;(0.0, 0.0);(0.0, 0.0);4.730001;0;0.707107;0;0.1267971;0;
3.691012;0;0;0;0;0;0;0;0;N/A;N/A;N/A;N/A;N/A;N/A;0;0;0;0;0;0;0;(0.0, 0.0);(0.0, 0.0);4.730001;0;0.707107;0;0.1267971;0;
3.69866;0;0;0;0;0;0;0;0;N/A;N/A;N/A;N/A;N/A;N/A;0;0;0;0;0;0;0;(0.0, 0.0);(0.0, 0.0);4.730001;0;0.707107;0;0.1267971;0;
3.705604;0;0;0;0;0;0;0;0;N/A;N/A;N/A;N/A;N/A;N/A;0;0;0;0;0;0;0;(0.0, 0.0);(0.0, 0.0);4.730001;0;0.707107;0;0.1267971;0;
3.712548;0;0;0;0;0;0;0;0;N/A;N/A;N/A;N/A;N/A;N/A;0;0;0;0;0;0;0;(0.0, 0.0);(0.0, 0.0);4.730001;0;0.707107;0;0.1267971;0;
3.719492;0;0;0;0;0;0;0;0;N/A;N/A;N/A;N/A;N/A;N/A;0;0;0;0;0;0;0;(0.0, 0.0);(0.0, 0.0);4.730001;0;0.707107;0;0.1267971;0;
3.72658;0;0;0;0;0;0;0;0;N/A;N/A;N/A;N/A;N/A;N/A;0;0;0;0;0;0;0;(0.0, 0.0);(0.0, 0.0);4.730001;0;0.707107;0;0.1267971;0;
3.733525;0;0;0;0;0;0;0;0;N/A;N/A;N/A;N/A;N/A;N/A;0;0;0;0;0;0;0;(0.0, 0.0);(0.0, 0.0);4.730001;0;0.707107;0;0.1267971;0;
3.740469;0;0;0;0;0;0;0;0;N/A;N/A;N/A;N/A;N/A;N/A;0;0;0;0;0;0;0;(0.0, 0.0);(0.0, 0.0);4.730001;0;0.707107;0;0.1267971;0;
3.747413;0;0;0;0;0;0;0;0;N/A;N/A;N/A;N/A;N/A;N/A;0;0;0;0;0;0;0;(0.0, 0.0);(0.0, 0.0);4.730001;0;0.707107;0;0.1267971;0;
3.75436;0;0;0;0;0;0;0;0;N/A;N/A;N/A;N/A;N/A;N/A;0;0;0;0;0;0;0;(0.0, 0.0);(0.0, 0.0);4.730001;0;0.707107;0;0.1267971;0;
3.761531;0;0;0;0;0;0;0;0;N/A;N/A;N/A;N/A;N/A;N/A;0;0;0;0;0;0;0;(0.0, 0.0);(0.0, 0.0);4.730001;0;0.707107;0;0.1267971;0;
3.768473;0;0;0;0;0;0;0;0;N/A;N/A;N/A;N/A;N/A;N/A;0;0;0;0;0;0;0;(0.0, 0.0);(0.0, 0.0);4.730001;0;0.707107;0;0.1267971;0;
3.775418;0;0;0;0;0;0;0;0;N/A;N/A;N/A;N/A;N/A;N/A;0;0;0;0;0;0;0;(0.0, 0.0);(0.0, 0.0);4.730001;0;0.707107;0;0.1267971;0;
3.782472;0;0;0;0;0;0;0;0;N/A;N/A;N/A;N/A;N/A;N/A;0;0;0;0;0;0;0;(0.0, 0.0);(0.0, 0.0);4.730001;0;0.707107;0;0.1260824;0;
3.789454;0;0;0;0;0;0;0;0;N/A;N/A;N/A;N/A;N/A;N/A;0;0;0;0;0;0;0;(0.0, 0.0);(0.0, 0.0);4.730001;0;0.707107;0;0.1260824;0;
3.796399;0;0;0;0;0;0;0;0;N/A;N/A;N/A;N/A;N/A;N/A;0;0;0;0;0;0;0;(0.0, 0.0);(0.0, 0.0);4.730001;0;0.707107;0;0.1260824;0;
3.803432;0;0;0;0;0;0;0;0;N/A;N/A;N/A;N/A;N/A;N/A;0;0;0;0;0;0;0;(0.0, 0.0);(0.0, 0.0);4.730001;0;0.707107;0;0.1260824;0;
3.81036;0;0;0;0;0;0;0;0;N/A;N/A;N/A;N/A;N/A;N/A;0;0;0;0;0;0;0;(0.0, 0.0);(0.0, 0.0);4.730001;0;0.707107;0;0.1260824;0;
3.817304;0;0;0;0;0;0;0;0;N/A;N/A;N/A;N/A;N/A;N/A;0;0;0;0;0;0;0;(0.0, 0.0);(0.0, 0.0);4.730001;0;0.707107;0;0.1260824;0;
3.82425;0;0;0;0;0;0;0;0;N/A;N/A;N/A;N/A;N/A;N/A;0;0;0;0;0;0;0;(0.0, 0.0);(0.0, 0.0);4.730001;0;0.707107;0;0.1260824;0;
3.831193;0;0;0;0;0;0;0;0;N/A;N/A;N/A;N/A;N/A;N/A;0;0;0;0;0;0;0;(0.0, 0.0);(0.0, 0.0);4.730001;0;0.707107;0;0.1260824;0;
3.838138;0;0;0;0;0;0;0;0;N/A;N/A;N/A;N/A;N/A;N/A;0;0;0;0;0;0;0;(0.0, 0.0);(0.0, 0.0);4.730001;0;0.707107;0;0.1260824;0;
3.845083;0;0;0;0;0;0;0;0;N/A;N/A;N/A;N/A;N/A;N/A;0;0;0;0;0;0;0;(0.0, 0.0);(0.0, 0.0);4.730001;0;0.707107;0;0.1260824;0;
3.853666;0;0;0;0;0;0;0;0;N/A;N/A;N/A;N/A;N/A;N/A;0;0;0;0;0;0;0;(0.0, 0.0);(0.0, 0.0);4.730001;0;0.707107;0;0.1260824;0;
3.863063;0;0;0;0;0;0;0;0;N/A;N/A;N/A;N/A;N/A;N/A;0;0;0;0;0;0;0;(0.0, 0.0);(0.0, 0.0);4.730001;0;0.707107;0;0.1260824;0;
3.871669;0;0;0;0;0;0;0;0;N/A;N/A;N/A;N/A;N/A;N/A;0;0;0;0;0;0;0;(0.0, 0.0);(0.0, 0.0);4.730001;0;0.707107;0;0.1260824;0;
3.879751;0;0;0;0;0;0;0;0;N/A;N/A;N/A;N/A;N/A;N/A;0;0;0;0;0;0;0;(0.0, 0.0);(0.0, 0.0);4.730001;0;0.707107;0;0.1260824;0;
3.888259;0;0;0;0;0;0;0;0;N/A;N/A;N/A;N/A;N/A;N/A;0;0;0;0;0;0;0;(0.0, 0.0);(0.0, 0.0);4.730001;0;0.7071069;0;0.1254277;0;
3.902133;0;0;0;0;0;0;0;0;N/A;N/A;N/A;N/A;N/A;N/A;0;0;0;0;0;0;0;(0.0, 0.0);(0.0, 0.0);4.730001;0;0.7071069;0;0.1254277;0;
3.909997;0;0;0;0;0;0;0;0;N/A;N/A;N/A;N/A;N/A;N/A;0;0;0;0;0;0;0;(0.0, 0.0);(0.0, 0.0);4.730001;0;0.7071069;0;0.1254277;0;
3.916941;0;0;0;0;0;0;0;0;N/A;N/A;N/A;N/A;N/A;N/A;0;0;0;0;0;0;0;(0.0, 0.0);(0.0, 0.0);4.730001;0;0.7071069;0;0.1254277;0;
3.923886;0;0;0;0;0;0;0;0;N/A;N/A;N/A;N/A;N/A;N/A;0;0;0;0;0;0;0;(0.0, 0.0);(0.0, 0.0);4.730001;0;0.7071069;0;0.1254277;0;
3.931981;0;0;0;0;0;0;0;0;N/A;N/A;N/A;N/A;N/A;N/A;0;0;0;0;0;0;0;(0.0, 0.0);(0.0, 0.0);4.730001;0;0.7071069;0;0.1254277;0;
3.93892;0;0;0;0;0;0;0;0;N/A;N/A;N/A;N/A;N/A;N/A;0;0;0;0;0;0;0;(0.0, 0.0);(0.0, 0.0);4.730001;0;0.7071069;0;0.1254277;0;
3.946323;0;0;0;0;0;0;0;0;N/A;N/A;N/A;N/A;N/A;N/A;0;0;0;0;0;0;0;(0.0, 0.0);(0.0, 0.0);4.730001;0;0.7071069;0;0.1254277;0;
3.970289;0;0;0;0;0;0;0;0;N/A;N/A;N/A;N/A;N/A;N/A;0;0;0;0;0;0;0;(0.0, 0.0);(0.0, 0.0);4.730001;0;0.7071069;0;0.1254277;0;
3.999064;0;0;0;0;0;0;0;0;N/A;N/A;N/A;N/A;N/A;N/A;0;0;0;0;0;0;0;(0.0, 0.0);(0.0, 0.0);4.730001;0;0.7071069;0;0.1249707;0;
4.029019;0;0;0;0;0;0;0;0;N/A;N/A;N/A;N/A;N/A;N/A;0;0;0;0;0;0;0;(0.0, 0.0);(0.0, 0.0);4.730001;0;0.7071069;0;0.1249707;0;
4.035966;0;0;0;0;0;0;0;0;N/A;N/A;N/A;N/A;N/A;N/A;0;0;0;0;0;0;0;(0.0, 0.0);(0.0, 0.0);4.730001;0;0.7071069;0;0.1249707;0;
4.043475;0;0;0;0;0;0;0;0;N/A;N/A;N/A;N/A;N/A;N/A;0;0;0;0;0;0;0;(0.0, 0.0);(0.0, 0.0);4.730001;0;0.7071069;0;0.1249707;0;
4.05317;0;0;0;0;0;0;0;0;N/A;N/A;N/A;N/A;N/A;N/A;0;0;0;0;0;0;0;(0.0, 0.0);(0.0, 0.0);4.730001;0;0.7071069;0;0.1249707;0;
4.060397;0;0;0;0;0;0;0;0;N/A;N/A;N/A;N/A;N/A;N/A;0;0;0;0;0;0;0;(0.0, 0.0);(0.0, 0.0);4.730001;0;0.7071069;0;0.1249707;0;
4.067341;0;0;0;0;0;0;0;0;N/A;N/A;N/A;N/A;N/A;N/A;0;0;0;0;0;0;0;(0.0, 0.0);(0.0, 0.0);4.730001;0;0.7071069;0;0.1249707;0;
4.074287;0;0;0;0;0;0;0;0;N/A;N/A;N/A;N/A;N/A;N/A;0;0;0;0;0;0;0;(0.0, 0.0);(0.0, 0.0);4.730001;0;0.7071069;0;0.1249707;0;
4.08123;0;0;0;0;0;0;0;0;N/A;N/A;N/A;N/A;N/A;N/A;0;0;0;0;0;0;0;(0.0, 0.0);(0.0, 0.0);4.730001;0;0.7071069;0;0.1249707;0;
4.088175;0;0;0;0;0;0;0;0;N/A;N/A;N/A;N/A;N/A;N/A;0;0;0;0;0;0;0;(0.0, 0.0);(0.0, 0.0);4.730001;0;0.7071069;0;0.1249707;0;
4.095227;0;0;0;0;0;0;0;0;N/A;N/A;N/A;N/A;N/A;N/A;0;0;0;0;0;0;0;(0.0, 0.0);(0.0, 0.0);4.730001;0;0.7071069;0;0.1249707;0;
4.102171;0;0;0;0;0;0;0;0;N/A;N/A;N/A;N/A;N/A;N/A;0;0;0;0;0;0;0;(0.0, 0.0);(0.0, 0.0);4.730001;0;0.7071069;0;0.1243082;0;
4.109116;0;0;0;0;0;0;0;0;N/A;N/A;N/A;N/A;N/A;N/A;0;0;0;0;0;0;0;(0.0, 0.0);(0.0, 0.0);4.730001;0;0.7071069;0;0.1243082;0;
4.116061;0;0;0;0;0;0;0;0;N/A;N/A;N/A;N/A;N/A;N/A;0;0;0;0;0;0;0;(0.0, 0.0);(0.0, 0.0);4.730001;0;0.7071069;0;0.1243082;0;
4.123005;0;0;0;0;0;0;0;0;N/A;N/A;N/A;N/A;N/A;N/A;0;0;0;0;0;0;0;(0.0, 0.0);(0.0, 0.0);4.730001;0;0.7071069;0;0.1243082;0;
4.130072;0;0;0;0;0;0;0;0;N/A;N/A;N/A;N/A;N/A;N/A;0;0;0;0;0;0;0;(0.0, 0.0);(0.0, 0.0);4.730001;0;0.7071069;0;0.1243082;0;
4.137052;0;0;0;0;0;0;0;0;N/A;N/A;N/A;N/A;N/A;N/A;0;0;0;0;0;0;0;(0.0, 0.0);(0.0, 0.0);4.730001;0;0.7071069;0;0.1243082;0;
4.144067;0;0;0;0;0;0;0;0;N/A;N/A;N/A;N/A;N/A;N/A;0;0;0;0;0;0;0;(0.0, 0.0);(0.0, 0.0);4.730001;0;0.7071069;0;0.1243082;0;
4.151012;0;0;0;0;0;0;0;0;N/A;N/A;N/A;N/A;N/A;N/A;0;0;0;0;0;0;0;(0.0, 0.0);(0.0, 0.0);4.730001;0;0.7071069;0;0.1243082;0;
4.157957;0;0;0;0;0;0;0;0;N/A;N/A;N/A;N/A;N/A;N/A;0;0;0;0;0;0;0;(0.0, 0.0);(0.0, 0.0);4.730001;0;0.7071069;0;0.1243082;0;
4.164901;0;0;0;0;0;0;0;0;N/A;N/A;N/A;N/A;N/A;N/A;0;0;0;0;0;0;0;(0.0, 0.0);(0.0, 0.0);4.730001;0;0.7071069;0;0.1243082;0;
4.171845;0;0;0;0;0;0;0;0;N/A;N/A;N/A;N/A;N/A;N/A;0;0;0;0;0;0;0;(0.0, 0.0);(0.0, 0.0);4.730001;0;0.7071069;0;0.1243082;0;
4.17879;0;0;0;0;0;0;0;0;N/A;N/A;N/A;N/A;N/A;N/A;0;0;0;0;0;0;0;(0.0, 0.0);(0.0, 0.0);4.730001;0;0.7071069;0;0.1243082;0;
4.185734;0;0;0;0;0;0;0;0;N/A;N/A;N/A;N/A;N/A;N/A;0;0;0;0;0;0;0;(0.0, 0.0);(0.0, 0.0);4.730001;0;0.7071069;0;0.1243082;0;
4.192679;0;0;0;0;0;0;0;0;N/A;N/A;N/A;N/A;N/A;N/A;0;0;0;0;0;0;0;(0.0, 0.0);(0.0, 0.0);4.730001;0;0.7071069;0;0.1243082;0;
4.199624;0;0;0;0;0;0;0;0;N/A;N/A;N/A;N/A;N/A;N/A;0;0;0;0;0;0;0;(0.0, 0.0);(0.0, 0.0);4.730001;0;0.7071069;0;0.1243082;0;
4.207133;0;0;0;0;0;0;0;0;N/A;N/A;N/A;N/A;N/A;N/A;0;0;0;0;0;0;0;(0.0, 0.0);(0.0, 0.0);4.73;0;0.7071069;0;0.1237392;0;
4.216536;0;0;0;0;0;0;0;0;N/A;N/A;N/A;N/A;N/A;N/A;0;0;0;0;0;0;0;(0.0, 0.0);(0.0, 0.0);4.73;0;0.7071069;0;0.1237392;0;
4.223481;0;0;0;0;0;0;0;0;N/A;N/A;N/A;N/A;N/A;N/A;0;0;0;0;0;0;0;(0.0, 0.0);(0.0, 0.0);4.73;0;0.7071069;0;0.1237392;0;
4.23084;0;0;0;0;0;0;0;0;N/A;N/A;N/A;N/A;N/A;N/A;0;0;0;0;0;0;0;(0.0, 0.0);(0.0, 0.0);4.73;0;0.7071069;0;0.1237392;0;
4.237888;0;0;0;0;0;0;0;0;N/A;N/A;N/A;N/A;N/A;N/A;0;0;0;0;0;0;0;(0.0, 0.0);(0.0, 0.0);4.73;0;0.7071069;0;0.1237392;0;
4.244832;0;0;0;0;0;0;0;0;N/A;N/A;N/A;N/A;N/A;N/A;0;0;0;0;0;0;0;(0.0, 0.0);(0.0, 0.0);4.73;0;0.7071069;0;0.1237392;0;
4.251814;0;0;0;0;0;0;0;0;N/A;N/A;N/A;N/A;N/A;N/A;0;0;0;0;0;0;0;(0.0, 0.0);(0.0, 0.0);4.73;0;0.7071069;0;0.1237392;0;
4.258766;0;0;0;0;0;0;0;0;N/A;N/A;N/A;N/A;N/A;N/A;0;0;0;0;0;0;0;(0.0, 0.0);(0.0, 0.0);4.73;0;0.7071069;0;0.1237392;0;
4.265751;0;0;0;0;0;0;0;0;N/A;N/A;N/A;N/A;N/A;N/A;0;0;0;0;0;0;0;(0.0, 0.0);(0.0, 0.0);4.73;0;0.7071069;0;0.1237392;0;
4.272693;0;0;0;0;0;0;0;0;N/A;N/A;N/A;N/A;N/A;N/A;0;0;0;0;0;0;0;(0.0, 0.0);(0.0, 0.0);4.73;0;0.7071069;0;0.1237392;0;
4.279637;0;0;0;0;0;0;0;0;N/A;N/A;N/A;N/A;N/A;N/A;0;0;0;0;0;0;0;(0.0, 0.0);(0.0, 0.0);4.73;0;0.7071069;0;0.1237392;0;
4.286651;0;0;0;0;0;0;0;0;N/A;N/A;N/A;N/A;N/A;N/A;0;0;0;0;0;0;0;(0.0, 0.0);(0.0, 0.0);4.73;0;0.7071069;0;0.1237392;0;
4.293596;0;0;0;0;0;0;0;0;N/A;N/A;N/A;N/A;N/A;N/A;0;0;0;0;0;0;0;(0.0, 0.0);(0.0, 0.0);4.73;0;0.7071069;0;0.1237392;0;
4.30054;0;0;0;0;0;0;0;0;N/A;N/A;N/A;N/A;N/A;N/A;0;0;0;0;0;0;0;(0.0, 0.0);(0.0, 0.0);4.73;0;0.7071069;0;0.1237392;0;
4.307628;0;0;0;0;0;0;0;0;N/A;N/A;N/A;N/A;N/A;N/A;0;0;0;0;0;0;0;(0.0, 0.0);(0.0, 0.0);4.73;0;0.7071069;0;0.1230751;0;
4.314647;0;0;0;0;0;0;0;0;N/A;N/A;N/A;N/A;N/A;N/A;0;0;0;0;0;0;0;(0.0, 0.0);(0.0, 0.0);4.73;0;0.7071069;0;0.1230751;0;
4.32161;0;0;0;0;0;0;0;0;N/A;N/A;N/A;N/A;N/A;N/A;0;0;0;0;0;0;0;(0.0, 0.0);(0.0, 0.0);4.73;0;0.7071069;0;0.1230751;0;
4.328554;0;0;0;0;0;0;0;0;N/A;N/A;N/A;N/A;N/A;N/A;0;0;0;0;0;0;0;(0.0, 0.0);(0.0, 0.0);4.73;0;0.7071069;0;0.1230751;0;
4.335558;0;0;0;0;0;0;0;0;N/A;N/A;N/A;N/A;N/A;N/A;0;0;0;0;0;0;0;(0.0, 0.0);(0.0, 0.0);4.73;0;0.7071069;0;0.1230751;0;
4.342507;0;0;0;0;0;0;0;0;N/A;N/A;N/A;N/A;N/A;N/A;0;0;0;0;0;0;0;(0.0, 0.0);(0.0, 0.0);4.73;0;0.7071069;0;0.1230751;0;
4.349541;0;0;0;0;0;0;0;0;N/A;N/A;N/A;N/A;N/A;N/A;0;0;0;0;0;0;0;(0.0, 0.0);(0.0, 0.0);4.73;0;0.7071069;0;0.1230751;0;
4.356528;0;0;0;0;0;0;0;0;N/A;N/A;N/A;N/A;N/A;N/A;0;0;0;0;0;0;0;(0.0, 0.0);(0.0, 0.0);4.73;0;0.7071069;0;0.1230751;0;
4.363484;0;0;0;0;0;0;0;0;N/A;N/A;N/A;N/A;N/A;N/A;0;0;0;0;0;0;0;(0.0, 0.0);(0.0, 0.0);4.73;0;0.7071069;0;0.1230751;0;
4.370428;0;0;0;0;0;0;0;0;N/A;N/A;N/A;N/A;N/A;N/A;0;0;0;0;0;0;0;(0.0, 0.0);(0.0, 0.0);4.73;0;0.7071069;0;0.1230751;0;
4.377565;0;0;0;0;0;0;0;0;N/A;N/A;N/A;N/A;N/A;N/A;0;0;0;0;0;0;0;(0.0, 0.0);(0.0, 0.0);4.73;0;0.7071069;0;0.1230751;0;
4.384511;0;0;0;0;0;0;0;0;N/A;N/A;N/A;N/A;N/A;N/A;0;0;0;0;0;0;0;(0.0, 0.0);(0.0, 0.0);4.73;0;0.7071069;0;0.1230751;0;
4.391462;0;0;0;0;0;0;0;0;N/A;N/A;N/A;N/A;N/A;N/A;0;0;0;0;0;0;0;(0.0, 0.0);(0.0, 0.0);4.73;0;0.7071069;0;0.1230751;0;
4.3984;0;0;0;0;0;0;0;0;N/A;N/A;N/A;N/A;N/A;N/A;0;0;0;0;0;0;0;(0.0, 0.0);(0.0, 0.0);4.73;0;0.7071069;0;0.1230751;0;
4.405344;0;0;0;0;0;0;0;0;N/A;N/A;N/A;N/A;N/A;N/A;0;0;0;0;0;0;0;(0.0, 0.0);(0.0, 0.0);4.73;0;0.7071069;0;0.1230751;0;
4.412289;0;0;0;0;0;0;0;0;N/A;N/A;N/A;N/A;N/A;N/A;0;0;0;0;0;0;0;(0.0, 0.0);(0.0, 0.0);4.73;0;0.7071069;0;0.1225636;0;
4.419634;0;0;0;0;0;0;0;0;N/A;N/A;N/A;N/A;N/A;N/A;0;0;0;0;0;0;0;(0.0, 0.0);(0.0, 0.0);4.73;0;0.7071069;0;0.1225636;0;
4.426579;0;0;0;0;0;0;0;0;N/A;N/A;N/A;N/A;N/A;N/A;0;0;0;0;0;0;0;(0.0, 0.0);(0.0, 0.0);4.73;0;0.7071069;0;0.1225636;0;
4.433524;0;0;0;0;0;0;0;0;N/A;N/A;N/A;N/A;N/A;N/A;0;0;0;0;0;0;0;(0.0, 0.0);(0.0, 0.0);4.73;0;0.7071069;0;0.1225636;0;
4.440469;0;0;0;0;0;0;0;0;N/A;N/A;N/A;N/A;N/A;N/A;0;0;0;0;0;0;0;(0.0, 0.0);(0.0, 0.0);4.73;0;0.7071069;0;0.1225636;0;
4.447414;0;0;0;0;0;0;0;0;N/A;N/A;N/A;N/A;N/A;N/A;0;0;0;0;0;0;0;(0.0, 0.0);(0.0, 0.0);4.73;0;0.7071069;0;0.1225636;0;
4.45436;0;0;0;0;0;0;0;0;N/A;N/A;N/A;N/A;N/A;N/A;0;0;0;0;0;0;0;(0.0, 0.0);(0.0, 0.0);4.73;0;0.7071069;0;0.1225636;0;
4.461321;0;0;0;0;0;0;0;0;N/A;N/A;N/A;N/A;N/A;N/A;0;0;0;0;0;0;0;(0.0, 0.0);(0.0, 0.0);4.73;0;0.7071069;0;0.1225636;0;
4.468266;0;0;0;0;0;0;0;0;N/A;N/A;N/A;N/A;N/A;N/A;0;0;0;0;0;0;0;(0.0, 0.0);(0.0, 0.0);4.73;0;0.7071069;0;0.1225636;0;
4.475211;0;0;0;0;0;0;0;0;N/A;N/A;N/A;N/A;N/A;N/A;0;0;0;0;0;0;0;(0.0, 0.0);(0.0, 0.0);4.73;0;0.7071069;0;0.1225636;0;
4.482155;0;0;0;0;0;0;0;0;N/A;N/A;N/A;N/A;N/A;N/A;0;0;0;0;0;0;0;(0.0, 0.0);(0.0, 0.0);4.73;0;0.7071069;0;0.1225636;0;
4.4891;0;0;0;0;0;0;0;0;N/A;N/A;N/A;N/A;N/A;N/A;0;0;0;0;0;0;0;(0.0, 0.0);(0.0, 0.0);4.73;0;0.7071069;0;0.1225636;0;
4.496801;0;0;0;0;0;0;0;0;N/A;N/A;N/A;N/A;N/A;N/A;0;0;0;0;0;0;0;(0.0, 0.0);(0.0, 0.0);4.73;0;0.7071069;0;0.1225636;0;
4.50376;0;0;0;0;0;0;0;0;N/A;N/A;N/A;N/A;N/A;N/A;0;0;0;0;0;0;0;(0.0, 0.0);(0.0, 0.0);4.73;0;0.7071069;0;0.1225636;0;
4.511539;0;0;0;0;0;0;0;0;N/A;N/A;N/A;N/A;N/A;N/A;0;0;0;0;0;0;0;(0.0, 0.0);(0.0, 0.0);4.73;0;0.7071069;0;0.1225636;0;
4.521041;0;0;0;0;0;0;0;0;N/A;N/A;N/A;N/A;N/A;N/A;0;0;0;0;0;0;0;(0.0, 0.0);(0.0, 0.0);4.73;0;0.7071069;0;0.1221903;0;
4.529351;0;0;0;0;0;0;0;0;N/A;N/A;N/A;N/A;N/A;N/A;0;0;0;0;0;0;0;(0.0, 0.0);(0.0, 0.0);4.73;0;0.7071069;0;0.1221903;0;
4.536296;0;0;0;0;0;0;0;0;N/A;N/A;N/A;N/A;N/A;N/A;0;0;0;0;0;0;0;(0.0, 0.0);(0.0, 0.0);4.73;0;0.7071069;0;0.1221903;0;
4.543655;0;0;0;0;0;0;0;0;N/A;N/A;N/A;N/A;N/A;N/A;0;0;0;0;0;0;0;(0.0, 0.0);(0.0, 0.0);4.73;0;0.7071069;0;0.1221903;0;
4.550647;0;0;0;0;0;0;0;0;N/A;N/A;N/A;N/A;N/A;N/A;0;0;0;0;0;0;0;(0.0, 0.0);(0.0, 0.0);4.73;0;0.7071069;0;0.1221903;0;
4.55759;0;0;0;0;0;0;0;0;N/A;N/A;N/A;N/A;N/A;N/A;0;0;0;0;0;0;0;(0.0, 0.0);(0.0, 0.0);4.73;0;0.7071069;0;0.1221903;0;
4.564538;0;0;0;0;0;0;0;0;N/A;N/A;N/A;N/A;N/A;N/A;0;0;0;0;0;0;0;(0.0, 0.0);(0.0, 0.0);4.73;0;0.7071069;0;0.1221903;0;
4.571482;0;0;0;0;0;0;0;0;N/A;N/A;N/A;N/A;N/A;N/A;0;0;0;0;0;0;0;(0.0, 0.0);(0.0, 0.0);4.73;0;0.7071069;0;0.1221903;0;
4.578427;0;0;0;0;0;0;0;0;N/A;N/A;N/A;N/A;N/A;N/A;0;0;0;0;0;0;0;(0.0, 0.0);(0.0, 0.0);4.73;0;0.7071069;0;0.1221903;0;
4.585373;0;0;0;0;0;0;0;0;N/A;N/A;N/A;N/A;N/A;N/A;0;0;0;0;0;0;0;(0.0, 0.0);(0.0, 0.0);4.73;0;0.7071069;0;0.1221903;0;
4.592876;0;0;0;0;0;0;0;0;N/A;N/A;N/A;N/A;N/A;N/A;0;0;0;0;0;0;0;(0.0, 0.0);(0.0, 0.0);4.73;0;0.7071069;0;0.1221903;0;
4.600768;0;0;0;0;0;0;0;0;N/A;N/A;N/A;N/A;N/A;N/A;0;0;0;0;0;0;0;(0.0, 0.0);(0.0, 0.0);4.73;0;0.7071069;0;0.1221903;0;
4.609004;0;0;0;0;0;0;0;0;N/A;N/A;N/A;N/A;N/A;N/A;0;0;0;0;0;0;0;(0.0, 0.0);(0.0, 0.0);4.73;0;0.7071069;0;0.1221903;0;
4.61595;0;0;0;0;0;0;0;0;N/A;N/A;N/A;N/A;N/A;N/A;0;0;0;0;0;0;0;(0.0, 0.0);(0.0, 0.0);4.73;0;0.7071069;0;0.1221903;0;
4.622894;0;0;0;0;0;0;0;0;N/A;N/A;N/A;N/A;N/A;N/A;0;0;0;0;0;0;0;(0.0, 0.0);(0.0, 0.0);4.73;0;0.7071068;0;0.1216551;0;
4.629838;0;0;0;0;0;0;0;0;N/A;N/A;N/A;N/A;N/A;N/A;0;0;0;0;0;0;0;(0.0, 0.0);(0.0, 0.0);4.73;0;0.7071068;0;0.1216551;0;
4.636782;0;0;0;0;0;0;0;0;N/A;N/A;N/A;N/A;N/A;N/A;0;0;0;0;0;0;0;(0.0, 0.0);(0.0, 0.0);4.73;0;0.7071068;0;0.1216551;0;
4.643727;0;0;0;0;0;0;0;0;N/A;N/A;N/A;N/A;N/A;N/A;0;0;0;0;0;0;0;(0.0, 0.0);(0.0, 0.0);4.73;0;0.7071068;0;0.1216551;0;
4.650671;0;0;0;0;0;0;0;0;N/A;N/A;N/A;N/A;N/A;N/A;0;0;0;0;0;0;0;(0.0, 0.0);(0.0, 0.0);4.73;0;0.7071068;0;0.1216551;0;
4.657617;0;0;0;0;0;0;0;0;N/A;N/A;N/A;N/A;N/A;N/A;0;0;0;0;0;0;0;(0.0, 0.0);(0.0, 0.0);4.73;0;0.7071068;0;0.1216551;0;
4.664561;0;0;0;0;0;0;0;0;N/A;N/A;N/A;N/A;N/A;N/A;0;0;0;0;0;0;0;(0.0, 0.0);(0.0, 0.0);4.73;0;0.7071068;0;0.1216551;0;
4.671506;0;0;0;0;0;0;0;0;N/A;N/A;N/A;N/A;N/A;N/A;0;0;0;0;0;0;0;(0.0, 0.0);(0.0, 0.0);4.73;0;0.7071068;0;0.1216551;0;
4.67845;0;0;0;0;0;0;0;0;N/A;N/A;N/A;N/A;N/A;N/A;0;0;0;0;0;0;0;(0.0, 0.0);(0.0, 0.0);4.73;0;0.7071068;0;0.1216551;0;
4.685395;0;0;0;0;0;0;0;0;N/A;N/A;N/A;N/A;N/A;N/A;0;0;0;0;0;0;0;(0.0, 0.0);(0.0, 0.0);4.73;0;0.7071068;0;0.1216551;0;
4.692339;0;0;0;0;0;0;0;0;N/A;N/A;N/A;N/A;N/A;N/A;0;0;0;0;0;0;0;(0.0, 0.0);(0.0, 0.0);4.73;0;0.7071068;0;0.1216551;0;
4.699285;0;0;0;0;0;0;0;0;N/A;N/A;N/A;N/A;N/A;N/A;0;0;0;0;0;0;0;(0.0, 0.0);(0.0, 0.0);4.73;0;0.7071068;0;0.1216551;0;
4.70623;0;0;0;0;0;0;0;0;N/A;N/A;N/A;N/A;N/A;N/A;0;0;0;0;0;0;0;(0.0, 0.0);(0.0, 0.0);4.73;0;0.7071068;0;0.1216551;0;
4.713954;0;0;0;0;0;0;0;0;N/A;N/A;N/A;N/A;N/A;N/A;0;0;0;0;0;0;0;(0.0, 0.0);(0.0, 0.0);4.73;0;0.7071068;0;0.1216551;0;
4.720902;0;0;0;0;0;0;0;0;N/A;N/A;N/A;N/A;N/A;N/A;0;0;0;0;0;0;0;(0.0, 0.0);(0.0, 0.0);4.73;0;0.7071068;0;0.1216551;0;
4.727867;0;0;0;0;0;0;0;0;N/A;N/A;N/A;N/A;N/A;N/A;0;0;0;0;0;0;0;(0.0, 0.0);(0.0, 0.0);4.73;0;0.7071068;0;0.1212274;0;
4.734855;0;0;0;0;0;0;0;0;N/A;N/A;N/A;N/A;N/A;N/A;0;0;0;0;0;0;0;(0.0, 0.0);(0.0, 0.0);4.73;0;0.7071068;0;0.1212274;0;
4.741826;0;0;0;0;0;0;0;0;N/A;N/A;N/A;N/A;N/A;N/A;0;0;0;0;0;0;0;(0.0, 0.0);(0.0, 0.0);4.73;0;0.7071068;0;0.1212274;0;
4.748776;0;0;0;0;0;0;0;0;N/A;N/A;N/A;N/A;N/A;N/A;0;0;0;0;0;0;0;(0.0, 0.0);(0.0, 0.0);4.73;0;0.7071068;0;0.1212274;0;
4.755801;0;0;0;0;0;0;0;0;N/A;N/A;N/A;N/A;N/A;N/A;0;0;0;0;0;0;0;(0.0, 0.0);(0.0, 0.0);4.73;0;0.7071068;0;0.1212274;0;
4.762741;0;0;0;0;0;0;0;0;N/A;N/A;N/A;N/A;N/A;N/A;0;0;0;0;0;0;0;(0.0, 0.0);(0.0, 0.0);4.73;0;0.7071068;0;0.1212274;0;
4.769686;0;0;0;0;0;0;0;0;N/A;N/A;N/A;N/A;N/A;N/A;0;0;0;0;0;0;0;(0.0, 0.0);(0.0, 0.0);4.73;0;0.7071068;0;0.1212274;0;
4.776629;0;0;0;0;0;0;0;0;N/A;N/A;N/A;N/A;N/A;N/A;0;0;0;0;0;0;0;(0.0, 0.0);(0.0, 0.0);4.73;0;0.7071068;0;0.1212274;0;
4.783575;0;0;0;0;0;0;0;0;N/A;N/A;N/A;N/A;N/A;N/A;0;0;0;0;0;0;0;(0.0, 0.0);(0.0, 0.0);4.73;0;0.7071068;0;0.1212274;0;
4.79052;0;0;0;0;0;0;0;0;N/A;N/A;N/A;N/A;N/A;N/A;0;0;0;0;0;0;0;(0.0, 0.0);(0.0, 0.0);4.73;0;0.7071068;0;0.1212274;0;
4.797465;0;0;0;0;0;0;0;0;N/A;N/A;N/A;N/A;N/A;N/A;0;0;0;0;0;0;0;(0.0, 0.0);(0.0, 0.0);4.73;0;0.7071068;0;0.1212274;0;
4.804409;0;0;0;0;0;0;0;0;N/A;N/A;N/A;N/A;N/A;N/A;0;0;0;0;0;0;0;(0.0, 0.0);(0.0, 0.0);4.73;0;0.7071068;0;0.1212274;0;
4.811353;0;0;0;0;0;0;0;0;N/A;N/A;N/A;N/A;N/A;N/A;0;0;0;0;0;0;0;(0.0, 0.0);(0.0, 0.0);4.73;0;0.7071068;0;0.1212274;0;
4.818386;0;0;0;0;0;0;0;0;N/A;N/A;N/A;N/A;N/A;N/A;0;0;0;0;0;0;0;(0.0, 0.0);(0.0, 0.0);4.73;0;0.7071068;0;0.1212274;0;
4.825327;0;0;0;0;0;0;0;0;N/A;N/A;N/A;N/A;N/A;N/A;0;0;0;0;0;0;0;(0.0, 0.0);(0.0, 0.0);4.73;0;0.7071068;0;0.1212274;0;
4.832272;0;0;0;0;0;0;0;0;N/A;N/A;N/A;N/A;N/A;N/A;0;0;0;0;0;0;0;(0.0, 0.0);(0.0, 0.0);4.73;0;0.7071068;0;0.1208068;0;
4.839216;0;0;0;0;0;0;0;0;N/A;N/A;N/A;N/A;N/A;N/A;0;0;0;0;0;0;0;(0.0, 0.0);(0.0, 0.0);4.73;0;0.7071068;0;0.1208068;0;
4.84624;0;0;0;0;0;0;0;0;N/A;N/A;N/A;N/A;N/A;N/A;0;0;0;0;0;0;0;(0.0, 0.0);(0.0, 0.0);4.73;0;0.7071068;0;0.1208068;0;
4.853203;0;0;0;0;0;0;0;0;N/A;N/A;N/A;N/A;N/A;N/A;0;0;0;0;0;0;0;(0.0, 0.0);(0.0, 0.0);4.73;0;0.7071068;0;0.1208068;0;
4.860147;0;0;0;0;0;0;0;0;N/A;N/A;N/A;N/A;N/A;N/A;0;0;0;0;0;0;0;(0.0, 0.0);(0.0, 0.0);4.73;0;0.7071068;0;0.1208068;0;
4.867092;0;0;0;0;0;0;0;0;N/A;N/A;N/A;N/A;N/A;N/A;0;0;0;0;0;0;0;(0.0, 0.0);(0.0, 0.0);4.73;0;0.7071068;0;0.1208068;0;
4.874208;0;0;0;0;0;0;0;0;N/A;N/A;N/A;N/A;N/A;N/A;0;0;0;0;0;0;0;(0.0, 0.0);(0.0, 0.0);4.73;0;0.7071068;0;0.1208068;0;
4.881153;0;0;0;0;0;0;0;0;N/A;N/A;N/A;N/A;N/A;N/A;0;0;0;0;0;0;0;(0.0, 0.0);(0.0, 0.0);4.73;0;0.7071068;0;0.1208068;0;
4.888097;0;0;0;0;0;0;0;0;N/A;N/A;N/A;N/A;N/A;N/A;0;0;0;0;0;0;0;(0.0, 0.0);(0.0, 0.0);4.73;0;0.7071068;0;0.1208068;0;
4.895042;0;0;0;0;0;0;0;0;N/A;N/A;N/A;N/A;N/A;N/A;0;0;0;0;0;0;0;(0.0, 0.0);(0.0, 0.0);4.73;0;0.7071068;0;0.1208068;0;
4.901987;0;0;0;0;0;0;0;0;N/A;N/A;N/A;N/A;N/A;N/A;0;0;0;0;0;0;0;(0.0, 0.0);(0.0, 0.0);4.73;0;0.7071068;0;0.1208068;0;
4.908932;0;0;0;0;0;0;0;0;N/A;N/A;N/A;N/A;N/A;N/A;0;0;0;0;0;0;0;(0.0, 0.0);(0.0, 0.0);4.73;0;0.7071068;0;0.1208068;0;
4.915876;0;0;0;0;0;0;0;0;N/A;N/A;N/A;N/A;N/A;N/A;0;0;0;0;0;0;0;(0.0, 0.0);(0.0, 0.0);4.73;0;0.7071068;0;0.1208068;0;
4.922822;0;0;0;0;0;0;0;0;N/A;N/A;N/A;N/A;N/A;N/A;0;0;0;0;0;0;0;(0.0, 0.0);(0.0, 0.0);4.73;0;0.7071068;0;0.1208068;0;
4.929766;0;0;0;0;0;0;0;0;N/A;N/A;N/A;N/A;N/A;N/A;0;0;0;0;0;0;0;(0.0, 0.0);(0.0, 0.0);4.73;0;0.7071068;0;0.1208068;0;
4.936843;0;0;0;0;0;0;0;0;N/A;N/A;N/A;N/A;N/A;N/A;0;0;0;0;0;0;0;(0.0, 0.0);(0.0, 0.0);4.73;0;0.7071068;0;0.1204108;0;
4.943787;0;0;0;0;0;0;0;0;N/A;N/A;N/A;N/A;N/A;N/A;0;0;0;0;0;0;0;(0.0, 0.0);(0.0, 0.0);4.73;0;0.7071068;0;0.1204108;0;
4.951729;0;0;0;0;0;0;0;0;N/A;N/A;N/A;N/A;N/A;N/A;0;0;0;0;0;0;0;(0.0, 0.0);(0.0, 0.0);4.73;0;0.7071068;0;0.1204108;0;
4.95902;0;0;0;0;0;0;0;0;N/A;N/A;N/A;N/A;N/A;N/A;0;0;0;0;0;0;0;(0.0, 0.0);(0.0, 0.0);4.73;0;0.7071068;0;0.1204108;0;
4.966902;0;0;0;0;0;0;0;0;N/A;N/A;N/A;N/A;N/A;N/A;0;0;0;0;0;0;0;(0.0, 0.0);(0.0, 0.0);4.73;0;0.7071068;0;0.1204108;0;
4.974127;0;0;0;0;0;0;0;0;N/A;N/A;N/A;N/A;N/A;N/A;0;0;0;0;0;0;0;(0.0, 0.0);(0.0, 0.0);4.73;0;0.7071068;0;0.1204108;0;
4.981809;0;0;0;0;0;0;0;0;N/A;N/A;N/A;N/A;N/A;N/A;0;0;0;0;0;0;0;(0.0, 0.0);(0.0, 0.0);4.73;0;0.7071068;0;0.1204108;0;
4.988754;0;0;0;0;0;0;0;0;N/A;N/A;N/A;N/A;N/A;N/A;0;0;0;0;0;0;0;(0.0, 0.0);(0.0, 0.0);4.73;0;0.7071068;0;0.1204108;0;
4.996716;0;0;0;0;0;0;0;0;N/A;N/A;N/A;N/A;N/A;N/A;0;0;0;0;0;0;0;(0.0, 0.0);(0.0, 0.0);4.73;0;0.7071068;0;0.1204108;0;
5.004011;0;0;0;0;0;0;0;0;N/A;N/A;N/A;N/A;N/A;N/A;0;0;0;0;0;0;0;(0.0, 0.0);(0.0, 0.0);4.73;0;0.7071068;0;0.1204108;0;
5.01201;0;0;0;0;0;0;0;0;N/A;N/A;N/A;N/A;N/A;N/A;0;0;0;0;0;0;0;(0.0, 0.0);(0.0, 0.0);4.73;0;0.7071068;0;0.1204108;0;
5.021209;0;0;0;0;0;0;0;0;N/A;N/A;N/A;N/A;N/A;N/A;0;0;0;0;0;0;0;(0.0, 0.0);(0.0, 0.0);4.73;0;0.7071068;0;0.1204108;0;
5.0302;0;0;0;0;0;0;0;0;N/A;N/A;N/A;N/A;N/A;N/A;0;0;0;0;0;0;0;(0.0, 0.0);(0.0, 0.0);4.73;0;0.7071068;0;0.1204108;0;
5.038278;0;0;0;0;0;0;0;0;N/A;N/A;N/A;N/A;N/A;N/A;0;0;0;0;0;0;0;(0.0, 0.0);(0.0, 0.0);4.73;0;0.7071067;0;0.119959;0;
5.047075;0;0;0;0;0;0;0;0;N/A;N/A;N/A;N/A;N/A;N/A;0;0;0;0;0;0;0;(0.0, 0.0);(0.0, 0.0);4.73;0;0.7071067;0;0.119959;0;
5.055347;0;0;0;0;0;0;0;0;N/A;N/A;N/A;N/A;N/A;N/A;0;0;0;0;0;0;0;(0.0, 0.0);(0.0, 0.0);4.73;0;0.7071067;0;0.119959;0;
5.062957;0;0;0;0;0;0;0;0;N/A;N/A;N/A;N/A;N/A;N/A;0;0;0;0;0;0;0;(0.0, 0.0);(0.0, 0.0);4.73;0;0.7071067;0;0.119959;0;
5.071314;0;0;0;0;0;0;0;0;N/A;N/A;N/A;N/A;N/A;N/A;0;0;0;0;0;0;0;(0.0, 0.0);(0.0, 0.0);4.73;0;0.7071067;0;0.119959;0;
5.078416;0;0;0;0;0;0;0;0;N/A;N/A;N/A;N/A;N/A;N/A;0;0;0;0;0;0;0;(0.0, 0.0);(0.0, 0.0);4.73;0;0.7071067;0;0.119959;0;
5.085361;0;0;0;0;0;0;0;0;N/A;N/A;N/A;N/A;N/A;N/A;0;0;0;0;0;0;0;(0.0, 0.0);(0.0, 0.0);4.73;0;0.7071067;0;0.119959;0;
5.093227;0;0;0;0;0;0;0;0;N/A;N/A;N/A;N/A;N/A;N/A;0;0;0;0;0;0;0;(0.0, 0.0);(0.0, 0.0);4.73;0;0.7071067;0;0.119959;0;
5.100884;0;0;0;0;0;0;0;0;N/A;N/A;N/A;N/A;N/A;N/A;0;0;0;0;0;0;0;(0.0, 0.0);(0.0, 0.0);4.73;0;0.7071067;0;0.119959;0;
5.108362;0;0;0;0;0;0;0;0;N/A;N/A;N/A;N/A;N/A;N/A;0;0;0;0;0;0;0;(0.0, 0.0);(0.0, 0.0);4.73;0;0.7071067;0;0.119959;0;
5.115306;0;0;0;0;0;0;0;0;N/A;N/A;N/A;N/A;N/A;N/A;0;0;0;0;0;0;0;(0.0, 0.0);(0.0, 0.0);4.73;0;0.7071067;0;0.119959;0;
5.122339;0;0;0;0;0;0;0;0;N/A;N/A;N/A;N/A;N/A;N/A;0;0;0;0;0;0;0;(0.0, 0.0);(0.0, 0.0);4.73;0;0.7071067;0;0.119959;0;
5.129911;0;0;0;0;0;0;0;0;N/A;N/A;N/A;N/A;N/A;N/A;0;0;0;0;0;0;0;(0.0, 0.0);(0.0, 0.0);4.73;0;0.7071067;0;0.119959;0;
5.137015;0;0;0;0;0;0;0;0;N/A;N/A;N/A;N/A;N/A;N/A;0;0;0;0;0;0;0;(0.0, 0.0);(0.0, 0.0);4.73;0;0.7071067;0;0.119959;0;
5.14396;0;0;0;0;0;0;0;0;N/A;N/A;N/A;N/A;N/A;N/A;0;0;0;0;0;0;0;(0.0, 0.0);(0.0, 0.0);4.73;0;0.7071067;0;0.119627;0;
5.150905;0;0;0;0;0;0;0;0;N/A;N/A;N/A;N/A;N/A;N/A;0;0;0;0;0;0;0;(0.0, 0.0);(0.0, 0.0);4.73;0;0.7071067;0;0.119627;0;
5.157849;0;0;0;0;0;0;0;0;N/A;N/A;N/A;N/A;N/A;N/A;0;0;0;0;0;0;0;(0.0, 0.0);(0.0, 0.0);4.73;0;0.7071067;0;0.119627;0;
5.164795;0;0;0;0;0;0;0;0;N/A;N/A;N/A;N/A;N/A;N/A;0;0;0;0;0;0;0;(0.0, 0.0);(0.0, 0.0);4.73;0;0.7071067;0;0.119627;0;
5.17174;0;0;0;0;0;0;0;0;N/A;N/A;N/A;N/A;N/A;N/A;0;0;0;0;0;0;0;(0.0, 0.0);(0.0, 0.0);4.73;0;0.7071067;0;0.119627;0;
5.178685;0;0;0;0;0;0;0;0;N/A;N/A;N/A;N/A;N/A;N/A;0;0;0;0;0;0;0;(0.0, 0.0);(0.0, 0.0);4.73;0;0.7071067;0;0.119627;0;
5.185627;0;0;0;0;0;0;0;0;N/A;N/A;N/A;N/A;N/A;N/A;0;0;0;0;0;0;0;(0.0, 0.0);(0.0, 0.0);4.73;0;0.7071067;0;0.119627;0;
5.193129;0;0;0;0;0;0;0;0;N/A;N/A;N/A;N/A;N/A;N/A;0;0;0;0;0;0;0;(0.0, 0.0);(0.0, 0.0);4.73;0;0.7071067;0;0.119627;0;
5.200193;0;0;0;0;0;0;0;0;N/A;N/A;N/A;N/A;N/A;N/A;0;0;0;0;0;0;0;(0.0, 0.0);(0.0, 0.0);4.73;0;0.7071067;0;0.119627;0;
5.207135;0;0;0;0;0;0;0;0;N/A;N/A;N/A;N/A;N/A;N/A;0;0;0;0;0;0;0;(0.0, 0.0);(0.0, 0.0);4.73;0;0.7071067;0;0.119627;0;
5.214079;0;0;0;0;0;0;0;0;N/A;N/A;N/A;N/A;N/A;N/A;0;0;0;0;0;0;0;(0.0, 0.0);(0.0, 0.0);4.73;0;0.7071067;0;0.119627;0;
5.221061;0;0;0;0;0;0;0;0;N/A;N/A;N/A;N/A;N/A;N/A;0;0;0;0;0;0;0;(0.0, 0.0);(0.0, 0.0);4.73;0;0.7071067;0;0.119627;0;
5.228081;0;0;0;0;0;0;0;0;N/A;N/A;N/A;N/A;N/A;N/A;0;0;0;0;0;0;0;(0.0, 0.0);(0.0, 0.0);4.73;0;0.7071067;0;0.119627;0;
5.235026;0;0;0;0;0;0;0;0;N/A;N/A;N/A;N/A;N/A;N/A;0;0;0;0;0;0;0;(0.0, 0.0);(0.0, 0.0);4.73;0;0.7071067;0;0.119627;0;
5.245002;0;0;0;0;0;0;0;0;N/A;N/A;N/A;N/A;N/A;N/A;0;0;0;0;0;0;0;(0.0, 0.0);(0.0, 0.0);4.73;0;0.7071067;0;0.1192046;0;
5.260105;0;0;0;0;0;0;0;0;N/A;N/A;N/A;N/A;N/A;N/A;0;0;0;0;0;0;0;(0.0, 0.0);(0.0, 0.0);4.73;0;0.7071067;0;0.1192046;0;
5.276794;0;0;0;0;0;0;0;0;N/A;N/A;N/A;N/A;N/A;N/A;0;0;0;0;0;0;0;(0.0, 0.0);(0.0, 0.0);4.73;0;0.7071067;0;0.1192046;0;
5.2863;0;0;0;0;0;0;0;0;N/A;N/A;N/A;N/A;N/A;N/A;0;0;0;0;0;0;0;(0.0, 0.0);(0.0, 0.0);4.73;0;0.7071067;0;0.1192046;0;
5.294749;0;0;0;0;0;0;0;0;N/A;N/A;N/A;N/A;N/A;N/A;0;0;0;0;0;0;0;(0.0, 0.0);(0.0, 0.0);4.73;0;0.7071067;0;0.1192046;0;
5.301693;0;0;0;0;0;0;0;0;N/A;N/A;N/A;N/A;N/A;N/A;0;0;0;0;0;0;0;(0.0, 0.0);(0.0, 0.0);4.73;0;0.7071067;0;0.1192046;0;
5.308932;0;0;0;0;0;0;0;0;N/A;N/A;N/A;N/A;N/A;N/A;0;0;0;0;0;0;0;(0.0, 0.0);(0.0, 0.0);4.73;0;0.7071067;0;0.1192046;0;
5.315877;0;0;0;0;0;0;0;0;N/A;N/A;N/A;N/A;N/A;N/A;0;0;0;0;0;0;0;(0.0, 0.0);(0.0, 0.0);4.73;0;0.7071067;0;0.1192046;0;
5.322867;0;0;0;0;0;0;0;0;N/A;N/A;N/A;N/A;N/A;N/A;0;0;0;0;0;0;0;(0.0, 0.0);(0.0, 0.0);4.73;0;0.7071067;0;0.1192046;0;
5.33014;0;0;0;0;0;0;0;0;N/A;N/A;N/A;N/A;N/A;N/A;0;0;0;0;0;0;0;(0.0, 0.0);(0.0, 0.0);4.73;0;0.7071067;0;0.1192046;0;
5.33832;0;0;0;0;0;0;0;0;N/A;N/A;N/A;N/A;N/A;N/A;0;0;0;0;0;0;0;(0.0, 0.0);(0.0, 0.0);4.73;0;0.7071067;0;0.1192046;0;
5.345265;0;0;0;0;0;0;0;0;N/A;N/A;N/A;N/A;N/A;N/A;0;0;0;0;0;0;0;(0.0, 0.0);(0.0, 0.0);4.73;0;0.7071067;0;0.1187837;0;
5.35221;0;0;0;0;0;0;0;0;N/A;N/A;N/A;N/A;N/A;N/A;0;0;0;0;0;0;0;(0.0, 0.0);(0.0, 0.0);4.73;0;0.7071067;0;0.1187837;0;
5.359285;0;0;0;0;0;0;0;0;N/A;N/A;N/A;N/A;N/A;N/A;0;0;0;0;0;0;0;(0.0, 0.0);(0.0, 0.0);4.73;0;0.7071067;0;0.1187837;0;
5.366881;0;0;0;0;0;0;0;0;N/A;N/A;N/A;N/A;N/A;N/A;0;0;0;0;0;0;0;(0.0, 0.0);(0.0, 0.0);4.73;0;0.7071067;0;0.1187837;0;
5.374669;0;0;0;0;0;0;0;0;N/A;N/A;N/A;N/A;N/A;N/A;0;0;0;0;0;0;0;(0.0, 0.0);(0.0, 0.0);4.73;0;0.7071067;0;0.1187837;0;
5.382409;0;0;0;0;0;0;0;0;N/A;N/A;N/A;N/A;N/A;N/A;0;0;0;0;0;0;0;(0.0, 0.0);(0.0, 0.0);4.73;0;0.7071067;0;0.1187837;0;
5.395945;0;0;0;0;0;0;0;0;N/A;N/A;N/A;N/A;N/A;N/A;0;0;0;0;0;0;0;(0.0, 0.0);(0.0, 0.0);4.73;0;0.7071067;0;0.1187837;0;
5.415469;0;0;0;0;0;0;0;0;N/A;N/A;N/A;N/A;N/A;N/A;0;0;0;0;0;0;0;(0.0, 0.0);(0.0, 0.0);4.73;0;0.7071067;0;0.1187837;0;
5.429233;0;0;0;0;0;0;0;0;N/A;N/A;N/A;N/A;N/A;N/A;0;0;0;0;0;0;0;(0.0, 0.0);(0.0, 0.0);4.73;0;0.7071067;0;0.1187837;0;
5.442018;0;0;0;0;0;0;0;0;N/A;N/A;N/A;N/A;N/A;N/A;0;0;0;0;0;0;0;(0.0, 0.0);(0.0, 0.0);4.73;0;0.7071067;0;0.1187837;0;
5.451924;0;0;0;0;0;0;0;0;N/A;N/A;N/A;N/A;N/A;N/A;0;0;0;0;0;0;0;(0.0, 0.0);(0.0, 0.0);4.73;0;0.7071067;0;0.1185201;0;
5.462801;0;0;0;0;0;0;0;0;N/A;N/A;N/A;N/A;N/A;N/A;0;0;0;0;0;0;0;(0.0, 0.0);(0.0, 0.0);4.73;0;0.7071067;0;0.1185201;0;
5.482971;0;0;0;0;0;0;0;0;N/A;N/A;N/A;N/A;N/A;N/A;0;0;0;0;0;0;0;(0.0, 0.0);(0.0, 0.0);4.73;0;0.7071067;0;0.1185201;0;
5.50094;0;0;0;0;0;0;0;0;N/A;N/A;N/A;N/A;N/A;N/A;0;0;0;0;0;0;0;(0.0, 0.0);(0.0, 0.0);4.73;0;0.7071067;0;0.1185201;0;
5.521847;0;0;0;0;0;0;0;0;N/A;N/A;N/A;N/A;N/A;N/A;0;0;0;0;0;0;0;(0.0, 0.0);(0.0, 0.0);4.73;0;0.7071067;0;0.1185201;0;
5.549801;0;0;0;0;0;0;0;0;N/A;N/A;N/A;N/A;N/A;N/A;0;0;0;0;0;0;0;(0.0, 0.0);(0.0, 0.0);4.73;0;0.7071067;0;0.1185201;0;
5.574834;0;0;0;0;0;0;0;0;N/A;N/A;N/A;N/A;N/A;N/A;0;0;0;0;0;0;0;(0.0, 0.0);(0.0, 0.0);4.729999;0;0.7071066;0;0.1186135;0;
5.594549;0;0;0;0;0;0;0;0;N/A;N/A;N/A;N/A;N/A;N/A;0;0;0;0;0;0;0;(0.0, 0.0);(0.0, 0.0);4.729999;0;0.7071066;0;0.1186135;0;
5.61733;0;0;0;0;0;0;0;0;N/A;N/A;N/A;N/A;N/A;N/A;0;0;0;0;0;0;0;(0.0, 0.0);(0.0, 0.0);4.729999;0;0.7071066;0;0.1186135;0;
5.644628;0;0;0;0;0;0;0;0;N/A;N/A;N/A;N/A;N/A;N/A;0;0;0;0;0;0;0;(0.0, 0.0);(0.0, 0.0);4.729999;0;0.7071066;0;0.1186135;0;
5.661587;0;0;0;0;0;0;0;0;N/A;N/A;N/A;N/A;N/A;N/A;0;0;0;0;0;0;0;(0.0, 0.0);(0.0, 0.0);4.729999;0;0.7071066;0;0.1186135;0;
5.683601;0;0;0;0;0;0;0;0;N/A;N/A;N/A;N/A;N/A;N/A;0;0;0;0;0;0;0;(0.0, 0.0);(0.0, 0.0);4.729999;0;0.7071066;0;0.1184084;0;
5.704163;0;0;0;0;0;0;0;0;N/A;N/A;N/A;N/A;N/A;N/A;0;0;0;0;0;0;0;(0.0, 0.0);(0.0, 0.0);4.729999;0;0.7071066;0;0.1184084;0;
5.719804;0;0;0;0;0;0;0;0;N/A;N/A;N/A;N/A;N/A;N/A;0;0;0;0;0;0;0;(0.0, 0.0);(0.0, 0.0);4.729999;0;0.7071066;0;0.1184084;0;
5.732483;0;0;0;0;0;0;0;0;N/A;N/A;N/A;N/A;N/A;N/A;0;0;0;0;0;0;0;(0.0, 0.0);(0.0, 0.0);4.729999;0;0.7071066;0;0.1184084;0;
5.748986;0;0;0;0;0;0;0;0;N/A;N/A;N/A;N/A;N/A;N/A;0;0;0;0;0;0;0;(0.0, 0.0);(0.0, 0.0);4.729999;0;0.7071066;0;0.1184084;0;
5.770223;0;0;0;0;0;0;0;0;N/A;N/A;N/A;N/A;N/A;N/A;0;0;0;0;0;0;0;(0.0, 0.0);(0.0, 0.0);4.729999;0;0.7071066;0;0.1184084;0;
5.780616;0;0;0;0;0;0;0;0;N/A;N/A;N/A;N/A;N/A;N/A;0;0;0;0;0;0;0;(0.0, 0.0);(0.0, 0.0);4.729999;0;0.7071066;0;0.1184084;0;
5.792141;0;0;0;0;0;0;0;0;N/A;N/A;N/A;N/A;N/A;N/A;0;0;0;0;0;0;0;(0.0, 0.0);(0.0, 0.0);4.729999;0;0.7071066;0;0.118207;0;
5.80374;0;0;0;0;0;0;0;0;N/A;N/A;N/A;N/A;N/A;N/A;0;0;0;0;0;0;0;(0.0, 0.0);(0.0, 0.0);4.729999;0;0.7071066;0;0.118207;0;
5.821598;0;0;0;0;0;0;0;0;N/A;N/A;N/A;N/A;N/A;N/A;0;0;0;0;0;0;0;(0.0, 0.0);(0.0, 0.0);4.729999;0;0.7071066;0;0.118207;0;
5.837366;0;0;0;0;0;0;0;0;N/A;N/A;N/A;N/A;N/A;N/A;0;0;0;0;0;0;0;(0.0, 0.0);(0.0, 0.0);4.729999;0;0.7071066;0;0.118207;0;
5.845701;0;0;0;0;0;0;0;0;N/A;N/A;N/A;N/A;N/A;N/A;0;0;0;0;0;0;0;(0.0, 0.0);(0.0, 0.0);4.729999;0;0.7071066;0;0.118207;0;
5.856843;0;0;0;0;0;0;0;0;N/A;N/A;N/A;N/A;N/A;N/A;0;0;0;0;0;0;0;(0.0, 0.0);(0.0, 0.0);4.729999;0;0.7071066;0;0.118207;0;
5.868239;0;0;0;0;0;0;0;0;N/A;N/A;N/A;N/A;N/A;N/A;0;0;0;0;0;0;0;(0.0, 0.0);(0.0, 0.0);4.729999;0;0.7071066;0;0.118207;0;
5.881657;0;0;0;0;0;0;0;0;N/A;N/A;N/A;N/A;N/A;N/A;0;0;0;0;0;0;0;(0.0, 0.0);(0.0, 0.0);4.729999;0;0.7071066;0;0.118207;0;
5.896433;0;0;0;0;0;0;0;0;N/A;N/A;N/A;N/A;N/A;N/A;0;0;0;0;0;0;0;(0.0, 0.0);(0.0, 0.0);4.729999;0;0.7071066;0;0.1179287;0;
5.914364;0;0;0;0;0;0;0;0;N/A;N/A;N/A;N/A;N/A;N/A;0;0;0;0;0;0;0;(0.0, 0.0);(0.0, 0.0);4.729999;0;0.7071066;0;0.1179287;0;
5.937002;0;0;0;0;0;0;0;0;N/A;N/A;N/A;N/A;N/A;N/A;0;0;0;0;0;0;0;(0.0, 0.0);(0.0, 0.0);4.729999;0;0.7071066;0;0.1179287;0;
5.953232;0;0;0;0;0;0;0;0;N/A;N/A;N/A;N/A;N/A;N/A;0;0;0;0;0;0;0;(0.0, 0.0);(0.0, 0.0);4.729999;0;0.7071066;0;0.1179287;0;
5.967314;0;0;0;0;0;0;0;0;N/A;N/A;N/A;N/A;N/A;N/A;0;0;0;0;0;0;0;(0.0, 0.0);(0.0, 0.0);4.729999;0;0.7071066;0;0.1179287;0;
5.979926;0;0;0;0;0;0;0;0;N/A;N/A;N/A;N/A;N/A;N/A;0;0;0;0;0;0;0;(0.0, 0.0);(0.0, 0.0);4.729999;0;0.7071066;0;0.1179287;0;
5.993474;0;0;0;0;0;0;0;0;N/A;N/A;N/A;N/A;N/A;N/A;0;0;0;0;0;0;0;(0.0, 0.0);(0.0, 0.0);4.729999;0;0.7071066;0;0.1179287;0;
6.007432;0;0;0;0;0;0;0;0;N/A;N/A;N/A;N/A;N/A;N/A;0;0;0;0;0;0;0;(0.0, 0.0);(0.0, 0.0);4.729999;0;0.7071066;0;0.1177928;0;
6.021567;0;0;0;0;0;0;0;0;N/A;N/A;N/A;N/A;N/A;N/A;0;0;0;0;0;0;0;(0.0, 0.0);(0.0, 0.0);4.729999;0;0.7071066;0;0.1177928;0;
6.038149;0;0;0;0;0;0;0;0;N/A;N/A;N/A;N/A;N/A;N/A;0;0;0;0;0;0;0;(0.0, 0.0);(0.0, 0.0);4.729999;0;0.7071066;0;0.1177928;0;
6.055498;0;0;0;0;0;0;0;0;N/A;N/A;N/A;N/A;N/A;N/A;0;0;0;0;0;0;0;(0.0, 0.0);(0.0, 0.0);4.729999;0;0.7071066;0;0.1177928;0;
6.082881;0;0;0;0;0;0;0;0;N/A;N/A;N/A;N/A;N/A;N/A;0;0;0;0;0;0;0;(0.0, 0.0);(0.0, 0.0);4.729999;0;0.7071066;0;0.1177928;0;
6.107823;0;0;0;0;0;0;0;0;N/A;N/A;N/A;N/A;N/A;N/A;0;0;0;0;0;0;0;(0.0, 0.0);(0.0, 0.0);4.729999;0;0.7071066;0;0.1174581;0;
6.123796;0;0;0;0;0;0;0;0;N/A;N/A;N/A;N/A;N/A;N/A;0;0;0;0;0;0;0;(0.0, 0.0);(0.0, 0.0);4.729999;0;0.7071066;0;0.1174581;0;
6.136133;0;0;0;0;0;0;0;0;N/A;N/A;N/A;N/A;N/A;N/A;0;0;0;0;0;0;0;(0.0, 0.0);(0.0, 0.0);4.729999;0;0.7071066;0;0.1174581;0;
6.166419;0;0;0;0;0;0;0;0;N/A;N/A;N/A;N/A;N/A;N/A;0;0;0;0;0;0;0;(0.0, 0.0);(0.0, 0.0);4.729999;0;0.7071066;0;0.1174581;0;
6.194611;0;0;0;0;0;0;0;0;N/A;N/A;N/A;N/A;N/A;N/A;0;0;0;0;0;0;0;(0.0, 0.0);(0.0, 0.0);4.729999;0;0.7071066;0;0.1174581;0;
6.214979;0;0;0;0;0;0;0;0;N/A;N/A;N/A;N/A;N/A;N/A;0;0;0;0;0;0;0;(0.0, 0.0);(0.0, 0.0);4.729999;0;0.7071066;0;0.1172638;0;
6.23713;0;0;0;0;0;0;0;0;N/A;N/A;N/A;N/A;N/A;N/A;0;0;0;0;0;0;0;(0.0, 0.0);(0.0, 0.0);4.729999;0;0.7071066;0;0.1172638;0;
6.267478;0;0;0;0;0;0;0;0;N/A;N/A;N/A;N/A;N/A;N/A;0;0;0;0;0;0;0;(0.0, 0.0);(0.0, 0.0);4.729999;0;0.7071066;0;0.1172638;0;
6.29357;0;0;0;0;0;0;0;0;N/A;N/A;N/A;N/A;N/A;N/A;0;0;0;0;0;0;0;(0.0, 0.0);(0.0, 0.0);4.729999;0;0.7071066;0;0.1172638;0;
6.307664;0;0;0;0;0;0;0;0;N/A;N/A;N/A;N/A;N/A;N/A;0;0;0;0;0;0;0;(0.0, 0.0);(0.0, 0.0);4.729999;0;0.7071066;0;0.1172638;0;
6.331773;0;0;0;0;0;0;0;0;N/A;N/A;N/A;N/A;N/A;N/A;0;0;0;0;0;0;0;(0.0, 0.0);(0.0, 0.0);4.729999;0;0.7071066;0;0.1172551;0;
6.346856;0;0;0;0;0;0;0;0;N/A;N/A;N/A;N/A;N/A;N/A;0;0;0;0;0;0;0;(0.0, 0.0);(0.0, 0.0);4.729999;0;0.7071066;0;0.1172551;0;
6.364908;0;0;0;0;0;0;0;0;N/A;N/A;N/A;N/A;N/A;N/A;0;0;0;0;0;0;0;(0.0, 0.0);(0.0, 0.0);4.729999;0;0.7071066;0;0.1172551;0;
6.376004;0;0;0;0;0;0;0;0;N/A;N/A;N/A;N/A;N/A;N/A;0;0;0;0;0;0;0;(0.0, 0.0);(0.0, 0.0);4.729999;0;0.7071066;0;0.1172551;0;
6.401352;0;0;0;0;0;0;0;0;N/A;N/A;N/A;N/A;N/A;N/A;0;0;0;0;0;0;0;(0.0, 0.0);(0.0, 0.0);4.729999;0;0.7071066;0;0.1172551;0;
6.433867;0;0;0;0;0;0;0;0;N/A;N/A;N/A;N/A;N/A;N/A;0;0;0;0;0;0;0;(0.0, 0.0);(0.0, 0.0);4.729999;0;0.7071066;0;0.1169794;0;
6.644786;0;0;0;0;0;0;0;0;N/A;N/A;N/A;N/A;N/A;N/A;0;0;0;0;0;0;0;(0.0, 0.0);(0.0, 0.0);4.729999;0;0.7071066;0;0.1186569;0;
6.711697;0;0;0;0;0;0;0;0;N/A;N/A;N/A;N/A;N/A;N/A;0;0;0;0;0;0;0;(0.0, 0.0);(0.0, 0.0);4.729999;0;0.7071066;0;0.1186569;0;
6.747268;0;0;0;0;0;0;0;0;N/A;N/A;N/A;N/A;N/A;N/A;0;0;0;0;0;0;0;(0.0, 0.0);(0.0, 0.0);4.729999;0;0.7071066;0;0.1183731;0;
6.764219;0;0;0;0;0;0;0;0;N/A;N/A;N/A;N/A;N/A;N/A;0;0;0;0;0;0;0;(0.0, 0.0);(0.0, 0.0);4.729999;0;0.7071066;0;0.1183731;0;
6.781399;0;0;0;0;0;0;0;0;N/A;N/A;N/A;N/A;N/A;N/A;0;0;0;0;0;0;0;(0.0, 0.0);(0.0, 0.0);4.729999;0;0.7071066;0;0.1183731;0;
6.79694;0;0;0;0;0;0;0;0;N/A;N/A;N/A;N/A;N/A;N/A;0;0;0;0;0;0;0;(0.0, 0.0);(0.0, 0.0);4.729999;0;0.7071066;0;0.1183731;0;
6.811127;0;0;0;0;0;0;0;0;N/A;N/A;N/A;N/A;N/A;N/A;0;0;0;0;0;0;0;(0.0, 0.0);(0.0, 0.0);4.729999;0;0.7071066;0;0.1183731;0;
6.824304;0;0;0;0;0;0;0;0;N/A;N/A;N/A;N/A;N/A;N/A;0;0;0;0;0;0;0;(0.0, 0.0);(0.0, 0.0);4.729999;0;0.7071066;0;0.1183731;0;
6.840197;0;0;0;0;0;0;0;0;N/A;N/A;N/A;N/A;N/A;N/A;0;0;0;0;0;0;0;(0.0, 0.0);(0.0, 0.0);4.729999;0;0.7071066;0;0.1183731;0;
6.853422;0;0;0;0;0;0;0;0;N/A;N/A;N/A;N/A;N/A;N/A;0;0;0;0;0;0;0;(0.0, 0.0);(0.0, 0.0);4.73;0;0.7071067;0;0.1181625;0;
6.868537;0;0;0;0;0;0;0;0;N/A;N/A;N/A;N/A;N/A;N/A;0;0;0;0;0;0;0;(0.0, 0.0);(0.0, 0.0);4.73;0;0.7071067;0;0.1181625;0;
6.879982;0;0;0;0;0;0;0;0;N/A;N/A;N/A;N/A;N/A;N/A;0;0;0;0;0;0;0;(0.0, 0.0);(0.0, 0.0);4.73;0;0.7071067;0;0.1181625;0;
6.887718;0;0;0;0;0;0;0;0;N/A;N/A;N/A;N/A;N/A;N/A;0;0;0;0;0;0;0;(0.0, 0.0);(0.0, 0.0);4.73;0;0.7071067;0;0.1181625;0;
6.89771;0;0;0;0;0;0;0;0;N/A;N/A;N/A;N/A;N/A;N/A;0;0;0;0;0;0;0;(0.0, 0.0);(0.0, 0.0);4.73;0;0.7071067;0;0.1181625;0;
6.908268;0;0;0;0;0;0;0;0;N/A;N/A;N/A;N/A;N/A;N/A;0;0;0;0;0;0;0;(0.0, 0.0);(0.0, 0.0);4.73;0;0.7071067;0;0.1181625;0;
6.919531;0;0;0;0;0;0;0;0;N/A;N/A;N/A;N/A;N/A;N/A;0;0;0;0;0;0;0;(0.0, 0.0);(0.0, 0.0);4.73;0;0.7071067;0;0.1181625;0;
6.92974;0;0;0;0;0;0;0;0;N/A;N/A;N/A;N/A;N/A;N/A;0;0;0;0;0;0;0;(0.0, 0.0);(0.0, 0.0);4.73;0;0.7071067;0;0.1181625;0;
6.93819;0;0;0;0;0;0;0;0;N/A;N/A;N/A;N/A;N/A;N/A;0;0;0;0;0;0;0;(0.0, 0.0);(0.0, 0.0);4.73;0;0.7071067;0;0.1181625;0;
6.949472;0;0;0;0;0;0;0;0;N/A;N/A;N/A;N/A;N/A;N/A;0;0;0;0;0;0;0;(0.0, 0.0);(0.0, 0.0);4.73;0;0.7071067;0;0.1181625;0;
6.958092;0;0;0;0;0;0;0;0;N/A;N/A;N/A;N/A;N/A;N/A;0;0;0;0;0;0;0;(0.0, 0.0);(0.0, 0.0);4.73;0;0.7071067;0;0.1179338;0;
6.968908;0;0;0;0;0;0;0;0;N/A;N/A;N/A;N/A;N/A;N/A;0;0;0;0;0;0;0;(0.0, 0.0);(0.0, 0.0);4.73;0;0.7071067;0;0.1179338;0;
6.984293;0;0;0;0;0;0;0;0;N/A;N/A;N/A;N/A;N/A;N/A;0;0;0;0;0;0;0;(0.0, 0.0);(0.0, 0.0);4.73;0;0.7071067;0;0.1179338;0;
7.010052;0;0;0;0;0;0;0;0;N/A;N/A;N/A;N/A;N/A;N/A;0;0;0;0;0;0;0;(0.0, 0.0);(0.0, 0.0);4.73;0;0.7071067;0;0.1179338;0;
7.018459;0;0;0;0;0;0;0;0;N/A;N/A;N/A;N/A;N/A;N/A;0;0;0;0;0;0;0;(0.0, 0.0);(0.0, 0.0);4.73;0;0.7071067;0;0.1179338;0;
7.028026;0;0;0;0;0;0;0;0;N/A;N/A;N/A;N/A;N/A;N/A;0;0;0;0;0;0;0;(0.0, 0.0);(0.0, 0.0);4.73;0;0.7071067;0;0.1179338;0;
7.045234;0;0;0;0;0;0;0;0;N/A;N/A;N/A;N/A;N/A;N/A;0;0;0;0;0;0;0;(0.0, 0.0);(0.0, 0.0);4.73;0;0.7071067;0;0.1179338;0;
