sep=;
timestamp;reset_count;virtual_distance_between_resets_median;time_elapsed_between_resets_median;sum_injected_translation;sum_injected_rotation_g_r;sum_injected_rotation_g_c;sum_real_distance_travelled;sum_virtual_distance_travelled;min_g_t;max_g_t;min_g_r;max_g_r;min_g_c;max_g_c;g_t_average;injected_translation_average;g_r_average;injected_rotation_from_rotation_gain_average;g_c_average;injected_rotation_from_curvature_gain_average;injected_rotation_average;real_position_average;virtual_position_average;distance_to_boundary_average;distance_to_center_average;normalized_distance_to_boundary_average;experiment_duration;average_sampling_interval;normalized_distance_to_center_average;
0;0;0;0;0;0;0;0;0;N/A;N/A;N/A;N/A;N/A;N/A;0;0;0;0;0;0;0;(NaN, NaN);(NaN, NaN);0;0;0;0;0;0;
0.02;0;0;0;0;0;0;0;0;N/A;N/A;N/A;N/A;N/A;N/A;0;0;0;0;0;0;0;(NaN, NaN);(NaN, NaN);0;0;0;0;0;0;
0.04;0;0;0;0;0;0;0;0;N/A;N/A;N/A;N/A;N/A;N/A;0;0;0;0;0;0;0;(NaN, NaN);(NaN, NaN);0;0;0;0;0;0;
0.06;0;0;0;0;0;0;0;0;N/A;N/A;N/A;N/A;N/A;N/A;0;0;0;0;0;0;0;(NaN, NaN);(NaN, NaN);0;0;0;0;0;0;
0.08;0;0;0;0;0;0;0;0;N/A;N/A;N/A;N/A;N/A;N/A;0;0;0;0;0;0;0;(NaN, NaN);(NaN, NaN);0;0;0;0;0;0;
0.09999999;0;0;0;0;0;0;0;0;N/A;N/A;N/A;N/A;N/A;N/A;0;0;0;0;0;0;0;(NaN, NaN);(NaN, NaN);0;0;0;0;0;0;
0.12;0;0;0;0;0;0;0;0;N/A;N/A;N/A;N/A;N/A;N/A;0;0;0;0;0;0;0;(0.0, 0.0);(0.0, 0.0);4.73;0;0.7071068;0;0.12;0;
0.14;0;0;0;0;0;0;0;0;N/A;N/A;N/A;N/A;N/A;N/A;0;0;0;0;0;0;0;(0.0, 0.0);(0.0, 0.0);4.73;0;0.7071068;0;0.12;0;
