sep=;
timestamp;reset_count;virtual_distance_between_resets_median;time_elapsed_between_resets_median;sum_injected_translation;sum_injected_rotation_g_r;sum_injected_rotation_g_c;sum_real_distance_travelled;sum_virtual_distance_travelled;min_g_t;max_g_t;min_g_r;max_g_r;min_g_c;max_g_c;g_t_average;injected_translation_average;g_r_average;injected_rotation_from_rotation_gain_average;g_c_average;injected_rotation_from_curvature_gain_average;injected_rotation_average;real_position_average;virtual_position_average;distance_to_boundary_average;distance_to_center_average;normalized_distance_to_boundary_average;experiment_duration;average_sampling_interval;normalized_distance_to_center_average;
0;0;0;0;0;0;0;0;0;N/A;N/A;N/A;N/A;N/A;N/A;0;0;0;0;0;0;0;(NaN, NaN);(NaN, NaN);0;0;0;0;0;0;
0.02;0;0;0;0;0;0;0;0;N/A;N/A;N/A;N/A;N/A;N/A;0;0;0;0;0;0;0;(NaN, NaN);(NaN, NaN);0;0;0;0;0;0;
0.3533334;0;0;0;0;0;0;0;0;N/A;N/A;N/A;N/A;N/A;N/A;0;0;0;0;0;0;0;(0.0, 0.0);(0.0, 0.0);4.73;0;0.7071068;0;0.3533334;0;
0.3969094;0;0;0;0;0;0;0;0;N/A;N/A;N/A;N/A;N/A;N/A;0;0;0;0;0;0;0;(0.0, 0.0);(0.0, 0.0);4.73;0;0.7071068;0;0.3533334;0;
0.4065395;0;0;0;0;0;0;0;0;N/A;N/A;N/A;N/A;N/A;N/A;0;0;0;0;0;0;0;(0.0, 0.0);(0.0, 0.0);4.73;0;0.7071068;0;0.3533334;0;
0.4134845;0;0;0;0;0;0;0;0;N/A;N/A;N/A;N/A;N/A;N/A;0;0;0;0;0;0;0;(0.0, 0.0);(0.0, 0.0);4.73;0;0.7071068;0;0.3533334;0;
0.421391;0;0;0;0;0;0;0;0;N/A;N/A;N/A;N/A;N/A;N/A;0;0;0;0;0;0;0;(0.0, 0.0);(0.0, 0.0);4.73;0;0.7071068;0;0.3533334;0;
0.4293216;0;0;0;0;0;0;0;0;N/A;N/A;N/A;N/A;N/A;N/A;0;0;0;0;0;0;0;(0.0, 0.0);(0.0, 0.0);4.73;0;0.7071068;0;0.3533334;0;
0.436277;0;0;0;0;0;0;0;0;N/A;N/A;N/A;N/A;N/A;N/A;0;0;0;0;0;0;0;(0.0, 0.0);(0.0, 0.0);4.73;0;0.7071068;0;0.3533334;0;
0.4432215;0;0;0;0;0;0;0;0;N/A;N/A;N/A;N/A;N/A;N/A;0;0;0;0;0;0;0;(0.0, 0.0);(0.0, 0.0);4.73;0;0.7071068;0;0.3533334;0;
0.4510987;0;0;0;0;0;0;0;0;N/A;N/A;N/A;N/A;N/A;N/A;0;0;0;0;0;0;0;(0.0, 0.0);(0.0, 0.0);4.73;0;0.7071068;0;0.3533334;0;
0.4644742;0;0;0;0;0;0;0;0;N/A;N/A;N/A;N/A;N/A;N/A;0;0;0;0;0;0;0;(0.0, 0.0);(0.0, 0.0);4.73;0;0.7071068;0;0.2322371;0;
0.4752804;0;0;0;0;0;0;0;0;N/A;N/A;N/A;N/A;N/A;N/A;0;0;0;0;0;0;0;(0.0, 0.0);(0.0, 0.0);4.73;0;0.7071068;0;0.2322371;0;
0.4873984;0;0;0;0;0;0;0;0;N/A;N/A;N/A;N/A;N/A;N/A;0;0;0;0;0;0;0;(0.0, 0.0);(0.0, 0.0);4.73;0;0.7071068;0;0.2322371;0;
0.4985411;0;0;0;0;0;0;0;0;N/A;N/A;N/A;N/A;N/A;N/A;0;0;0;0;0;0;0;(0.0, 0.0);(0.0, 0.0);4.73;0;0.7071068;0;0.2322371;0;
0.507782;0;0;0;0;0;0;0;0;N/A;N/A;N/A;N/A;N/A;N/A;0;0;0;0;0;0;0;(0.0, 0.0);(0.0, 0.0);4.73;0;0.7071068;0;0.2322371;0;
0.5250735;0;0;0;0;0;0;0;0;N/A;N/A;N/A;N/A;N/A;N/A;0;0;0;0;0;0;0;(0.0, 0.0);(0.0, 0.0);4.73;0;0.7071068;0;0.2322371;0;
0.532021;0;0;0;0;0;0;0;0;N/A;N/A;N/A;N/A;N/A;N/A;0;0;0;0;0;0;0;(0.0, 0.0);(0.0, 0.0);4.73;0;0.7071068;0;0.2322371;0;
0.5390452;0;0;0;0;0;0;0;0;N/A;N/A;N/A;N/A;N/A;N/A;0;0;0;0;0;0;0;(0.0, 0.0);(0.0, 0.0);4.73;0;0.7071068;0;0.2322371;0;
0.546016;0;0;0;0;0;0;0;0;N/A;N/A;N/A;N/A;N/A;N/A;0;0;0;0;0;0;0;(0.0, 0.0);(0.0, 0.0);4.73;0;0.7071068;0;0.2322371;0;
0.5529625;0;0;0;0;0;0;0;0;N/A;N/A;N/A;N/A;N/A;N/A;0;0;0;0;0;0;0;(0.0, 0.0);(0.0, 0.0);4.73;0;0.7071068;0;0.2322371;0;
0.5600237;0;0;0;0;0;0;0;0;N/A;N/A;N/A;N/A;N/A;N/A;0;0;0;0;0;0;0;(0.0, 0.0);(0.0, 0.0);4.73;0;0.7071068;0;0.2322371;0;
0.5669498;0;0;0;0;0;0;0;0;N/A;N/A;N/A;N/A;N/A;N/A;0;0;0;0;0;0;0;(0.0, 0.0);(0.0, 0.0);4.73;0;0.7071068;0;0.1889833;0;
0.5755231;0;0;0;0;0;0;0;0;N/A;N/A;N/A;N/A;N/A;N/A;0;0;0;0;0;0;0;(0.0, 0.0);(0.0, 0.0);4.73;0;0.7071068;0;0.1889833;0;
0.5824683;0;0;0;0;0;0;0;0;N/A;N/A;N/A;N/A;N/A;N/A;0;0;0;0;0;0;0;(0.0, 0.0);(0.0, 0.0);4.73;0;0.7071068;0;0.1889833;0;
0.5899757;0;0;0;0;0;0;0;0;N/A;N/A;N/A;N/A;N/A;N/A;0;0;0;0;0;0;0;(0.0, 0.0);(0.0, 0.0);4.73;0;0.7071068;0;0.1889833;0;
0.596922;0;0;0;0;0;0;0;0;N/A;N/A;N/A;N/A;N/A;N/A;0;0;0;0;0;0;0;(0.0, 0.0);(0.0, 0.0);4.73;0;0.7071068;0;0.1889833;0;
0.6038609;0;0;0;0;0;0;0;0;N/A;N/A;N/A;N/A;N/A;N/A;0;0;0;0;0;0;0;(0.0, 0.0);(0.0, 0.0);4.73;0;0.7071068;0;0.1889833;0;
0.6108066;0;0;0;0;0;0;0;0;N/A;N/A;N/A;N/A;N/A;N/A;0;0;0;0;0;0;0;(0.0, 0.0);(0.0, 0.0);4.73;0;0.7071068;0;0.1889833;0;
0.617753;0;0;0;0;0;0;0;0;N/A;N/A;N/A;N/A;N/A;N/A;0;0;0;0;0;0;0;(0.0, 0.0);(0.0, 0.0);4.73;0;0.7071068;0;0.1889833;0;
0.6248658;0;0;0;0;0;0;0;0;N/A;N/A;N/A;N/A;N/A;N/A;0;0;0;0;0;0;0;(0.0, 0.0);(0.0, 0.0);4.73;0;0.7071068;0;0.1889833;0;
0.6318181;0;0;0;0;0;0;0;0;N/A;N/A;N/A;N/A;N/A;N/A;0;0;0;0;0;0;0;(0.0, 0.0);(0.0, 0.0);4.73;0;0.7071068;0;0.1889833;0;
0.6387696;0;0;0;0;0;0;0;0;N/A;N/A;N/A;N/A;N/A;N/A;0;0;0;0;0;0;0;(0.0, 0.0);(0.0, 0.0);4.73;0;0.7071068;0;0.1889833;0;
0.6457021;0;0;0;0;0;0;0;0;N/A;N/A;N/A;N/A;N/A;N/A;0;0;0;0;0;0;0;(0.0, 0.0);(0.0, 0.0);4.73;0;0.7071068;0;0.1889833;0;
0.6526487;0;0;0;0;0;0;0;0;N/A;N/A;N/A;N/A;N/A;N/A;0;0;0;0;0;0;0;(0.0, 0.0);(0.0, 0.0);4.73;0;0.7071068;0;0.1889833;0;
0.6595991;0;0;0;0;0;0;0;0;N/A;N/A;N/A;N/A;N/A;N/A;0;0;0;0;0;0;0;(0.0, 0.0);(0.0, 0.0);4.73;0;0.7071068;0;0.1889833;0;
0.6682084;0;0;0;0;0;0;0;0;N/A;N/A;N/A;N/A;N/A;N/A;0;0;0;0;0;0;0;(0.0, 0.0);(0.0, 0.0);4.73;0;0.7071068;0;0.1670521;0;
0.6754491;0;0;0;0;0;0;0;0;N/A;N/A;N/A;N/A;N/A;N/A;0;0;0;0;0;0;0;(0.0, 0.0);(0.0, 0.0);4.73;0;0.7071068;0;0.1670521;0;
0.6823941;0;0;0;0;0;0;0;0;N/A;N/A;N/A;N/A;N/A;N/A;0;0;0;0;0;0;0;(0.0, 0.0);(0.0, 0.0);4.73;0;0.7071068;0;0.1670521;0;
0.6895834;0;0;0;0;0;0;0;0;N/A;N/A;N/A;N/A;N/A;N/A;0;0;0;0;0;0;0;(0.0, 0.0);(0.0, 0.0);4.73;0;0.7071068;0;0.1670521;0;
0.6965302;0;0;0;0;0;0;0;0;N/A;N/A;N/A;N/A;N/A;N/A;0;0;0;0;0;0;0;(0.0, 0.0);(0.0, 0.0);4.73;0;0.7071068;0;0.1670521;0;
0.7034839;0;0;0;0;0;0;0;0;N/A;N/A;N/A;N/A;N/A;N/A;0;0;0;0;0;0;0;(0.0, 0.0);(0.0, 0.0);4.73;0;0.7071068;0;0.1670521;0;
0.7104191;0;0;0;0;0;0;0;0;N/A;N/A;N/A;N/A;N/A;N/A;0;0;0;0;0;0;0;(0.0, 0.0);(0.0, 0.0);4.73;0;0.7071068;0;0.1670521;0;
0.7173653;0;0;0;0;0;0;0;0;N/A;N/A;N/A;N/A;N/A;N/A;0;0;0;0;0;0;0;(0.0, 0.0);(0.0, 0.0);4.73;0;0.7071068;0;0.1670521;0;
0.7243093;0;0;0;0;0;0;0;0;N/A;N/A;N/A;N/A;N/A;N/A;0;0;0;0;0;0;0;(0.0, 0.0);(0.0, 0.0);4.73;0;0.7071068;0;0.1670521;0;
0.7312543;0;0;0;0;0;0;0;0;N/A;N/A;N/A;N/A;N/A;N/A;0;0;0;0;0;0;0;(0.0, 0.0);(0.0, 0.0);4.73;0;0.7071068;0;0.1670521;0;
0.7381995;0;0;0;0;0;0;0;0;N/A;N/A;N/A;N/A;N/A;N/A;0;0;0;0;0;0;0;(0.0, 0.0);(0.0, 0.0);4.73;0;0.7071068;0;0.1670521;0;
0.7451425;0;0;0;0;0;0;0;0;N/A;N/A;N/A;N/A;N/A;N/A;0;0;0;0;0;0;0;(0.0, 0.0);(0.0, 0.0);4.73;0;0.7071068;0;0.1670521;0;
0.7520871;0;0;0;0;0;0;0;0;N/A;N/A;N/A;N/A;N/A;N/A;0;0;0;0;0;0;0;(0.0, 0.0);(0.0, 0.0);4.73;0;0.7071068;0;0.1670521;0;
0.7595271;0;0;0;0;0;0;0;0;N/A;N/A;N/A;N/A;N/A;N/A;0;0;0;0;0;0;0;(0.0, 0.0);(0.0, 0.0);4.73;0;0.7071068;0;0.1670521;0;
0.7664505;0;0;0;0;0;0;0;0;N/A;N/A;N/A;N/A;N/A;N/A;0;0;0;0;0;0;0;(0.0, 0.0);(0.0, 0.0);4.73;0;0.7071068;0;0.1670521;0;
0.7734559;0;0;0;0;0;0;0;0;N/A;N/A;N/A;N/A;N/A;N/A;0;0;0;0;0;0;0;(0.0, 0.0);(0.0, 0.0);4.73;0;0.7071069;0;0.1546912;0;
0.7804002;0;0;0;0;0;0;0;0;N/A;N/A;N/A;N/A;N/A;N/A;0;0;0;0;0;0;0;(0.0, 0.0);(0.0, 0.0);4.73;0;0.7071069;0;0.1546912;0;
0.7873712;0;0;0;0;0;0;0;0;N/A;N/A;N/A;N/A;N/A;N/A;0;0;0;0;0;0;0;(0.0, 0.0);(0.0, 0.0);4.73;0;0.7071069;0;0.1546912;0;
0.7943158;0;0;0;0;0;0;0;0;N/A;N/A;N/A;N/A;N/A;N/A;0;0;0;0;0;0;0;(0.0, 0.0);(0.0, 0.0);4.73;0;0.7071069;0;0.1546912;0;
0.8013365;0;0;0;0;0;0;0;0;N/A;N/A;N/A;N/A;N/A;N/A;0;0;0;0;0;0;0;(0.0, 0.0);(0.0, 0.0);4.73;0;0.7071069;0;0.1546912;0;
0.8083155;0;0;0;0;0;0;0;0;N/A;N/A;N/A;N/A;N/A;N/A;0;0;0;0;0;0;0;(0.0, 0.0);(0.0, 0.0);4.73;0;0.7071069;0;0.1546912;0;
0.8153338;0;0;0;0;0;0;0;0;N/A;N/A;N/A;N/A;N/A;N/A;0;0;0;0;0;0;0;(0.0, 0.0);(0.0, 0.0);4.73;0;0.7071069;0;0.1546912;0;
0.8223075;0;0;0;0;0;0;0;0;N/A;N/A;N/A;N/A;N/A;N/A;0;0;0;0;0;0;0;(0.0, 0.0);(0.0, 0.0);4.73;0;0.7071069;0;0.1546912;0;
0.8292518;0;0;0;0;0;0;0;0;N/A;N/A;N/A;N/A;N/A;N/A;0;0;0;0;0;0;0;(0.0, 0.0);(0.0, 0.0);4.73;0;0.7071069;0;0.1546912;0;
0.8363218;0;0;0;0;0;0;0;0;N/A;N/A;N/A;N/A;N/A;N/A;0;0;0;0;0;0;0;(0.0, 0.0);(0.0, 0.0);4.73;0;0.7071069;0;0.1546912;0;
0.8433493;0;0;0;0;0;0;0;0;N/A;N/A;N/A;N/A;N/A;N/A;0;0;0;0;0;0;0;(0.0, 0.0);(0.0, 0.0);4.73;0;0.7071069;0;0.1546912;0;
0.8502969;0;0;0;0;0;0;0;0;N/A;N/A;N/A;N/A;N/A;N/A;0;0;0;0;0;0;0;(0.0, 0.0);(0.0, 0.0);4.73;0;0.7071069;0;0.1546912;0;
0.8572375;0;0;0;0;0;0;0;0;N/A;N/A;N/A;N/A;N/A;N/A;0;0;0;0;0;0;0;(0.0, 0.0);(0.0, 0.0);4.73;0;0.7071069;0;0.1546912;0;
0.8641829;0;0;0;0;0;0;0;0;N/A;N/A;N/A;N/A;N/A;N/A;0;0;0;0;0;0;0;(0.0, 0.0);(0.0, 0.0);4.73;0;0.7071069;0;0.1546912;0;
0.8720132;0;0;0;0;0;0;0;0;N/A;N/A;N/A;N/A;N/A;N/A;0;0;0;0;0;0;0;(0.0, 0.0);(0.0, 0.0);4.73;0;0.7071069;0;0.1546912;0;
0.8789576;0;0;0;0;0;0;0;0;N/A;N/A;N/A;N/A;N/A;N/A;0;0;0;0;0;0;0;(0.0, 0.0);(0.0, 0.0);4.73;0;0.7071068;0;0.1464929;0;
0.8864713;0;0;0;0;0;0;0;0;N/A;N/A;N/A;N/A;N/A;N/A;0;0;0;0;0;0;0;(0.0, 0.0);(0.0, 0.0);4.73;0;0.7071068;0;0.1464929;0;
0.8934149;0;0;0;0;0;0;0;0;N/A;N/A;N/A;N/A;N/A;N/A;0;0;0;0;0;0;0;(0.0, 0.0);(0.0, 0.0);4.73;0;0.7071068;0;0.1464929;0;
0.9004033;0;0;0;0;0;0;0;0;N/A;N/A;N/A;N/A;N/A;N/A;0;0;0;0;0;0;0;(0.0, 0.0);(0.0, 0.0);4.73;0;0.7071068;0;0.1464929;0;
0.9073163;0;0;0;0;0;0;0;0;N/A;N/A;N/A;N/A;N/A;N/A;0;0;0;0;0;0;0;(0.0, 0.0);(0.0, 0.0);4.73;0;0.7071068;0;0.1464929;0;
0.9193794;0;0;0;0;0;0;0;0;N/A;N/A;N/A;N/A;N/A;N/A;0;0;0;0;0;0;0;(0.0, 0.0);(0.0, 0.0);4.73;0;0.7071068;0;0.1464929;0;
0.9265354;0;0;0;0;0.214677;0;0;0;N/A;N/A;-0.1977306;-0.1977306;N/A;N/A;0;0;0;0;0;0;0;(0.0, 0.0);(0.0, 0.0);4.73;0;0.7071068;0;0.1464929;0;
0.9336935;0;0;0;0;0.4271197;0;0;0;N/A;N/A;-0.4948262;-0.1977306;N/A;N/A;0;0;0;0;0;0;0;(0.0, 0.0);(0.0, 0.0);4.73;0;0.7071068;0;0.1464929;0;
0.9406403;0;0;0;0;0.6355267;0;0;0;N/A;N/A;-0.4948262;-0.1977306;N/A;N/A;0;0;0;0;0;0;0;(0.0, 0.0);(0.0, 0.0);4.73;0;0.7071068;0;0.1464929;0;
0.9485127;0;0;0;0;0.8418635;0;0;0;N/A;N/A;-0.4950014;-0.1977306;N/A;N/A;0;0;0;0;0;0;0;(0.0, 0.0);(0.0, 0.0);4.73;0;0.7071068;0;0.1464929;0;
0.9625977;0;0;0;0;1.075606;0;0;0;N/A;N/A;-0.4950014;-0.1977306;N/A;N/A;0;0;0;0;0;0;0;(0.0, 0.0);(0.0, 0.0);4.73;0;0.7071068;0;0.1464929;0;
0.9695426;0;0;0;0;1.28395;0;0;0;N/A;N/A;-0.4950014;-0.1977306;N/A;N/A;0;0;0;0;0;0;0;(0.0, 0.0);(0.0, 0.0);4.73;0;0.7071068;0;0.1464929;0;
0.9764873;0;0;0;0;1.490184;0;0;0;N/A;N/A;-0.4953117;-0.1977306;N/A;N/A;0;0;0;0;0;0;0;(0.0, 0.0);(0.0, 0.0);4.73;0;0.7071068;0;0.1464929;0;
0.9834316;0;0;0;0;1.696417;0;0;0;N/A;N/A;-0.4953117;-0.1977306;N/A;N/A;0;0;0.05939219;0.03029316;0;0;0.03029316;(0.0, 0.0);(0.0, 0.0);4.73;0;0.7071068;0;0.1404902;0;
0.9903775;0;0;0;0;1.90265;0;0;0;N/A;N/A;-0.4953117;-0.1977306;N/A;N/A;0;0;0.05939219;0.03029316;0;0;0.03029316;(0.0, 0.0);(0.0, 0.0);4.73;0;0.7071068;0;0.1404902;0;
0.9973235;0;0;0;0;2.108884;0;0;0;N/A;N/A;-0.4953117;-0.1977306;N/A;N/A;0;0;0.05939219;0.03029316;0;0;0.03029316;(0.0, 0.0);(0.0, 0.0);4.73;0;0.7071068;0;0.1404902;0;
1.004266;0;0;0;0;2.315117;0;0;0;N/A;N/A;-0.4953117;-0.1977306;N/A;N/A;0;0;0.05939219;0.03029316;0;0;0.03029316;(0.0, 0.0);(0.0, 0.0);4.73;0;0.7071068;0;0.1404902;0;
1.011211;0;0;0;0;2.521351;0;0;0;N/A;N/A;-0.4953117;-0.1977306;N/A;N/A;0;0;0.05939219;0.03029316;0;0;0.03029316;(0.0, 0.0);(0.0, 0.0);4.73;0;0.7071068;0;0.1404902;0;
1.018157;0;0;0;0;2.727584;0;0;0;N/A;N/A;-0.4953117;-0.1977306;N/A;N/A;0;0;0.05939219;0.03029316;0;0;0.03029316;(0.0, 0.0);(0.0, 0.0);4.73;0;0.7071068;0;0.1404902;0;
1.0251;0;0;0;0;2.933818;0;0;0;N/A;N/A;-0.4953117;-0.1977306;N/A;N/A;0;0;0.05939219;0.03029316;0;0;0.03029316;(0.0, 0.0);(0.0, 0.0);4.73;0;0.7071068;0;0.1404902;0;
1.032047;0;0;0;0;3.139948;0;0;0;N/A;N/A;-0.4953117;-0.1977306;N/A;N/A;0;0;0.05939219;0.03029316;0;0;0.03029316;(0.0, 0.0);(0.0, 0.0);4.73;0;0.7071068;0;0.1404902;0;
1.038989;0;0;0;0;3.346285;0;0;0;N/A;N/A;-0.4953117;-0.1977306;N/A;N/A;0;0;0.05939219;0.03029316;0;0;0.03029316;(0.0, 0.0);(0.0, 0.0);4.73;0;0.7071068;0;0.1404902;0;
1.045935;0;0;0;0;3.552311;0;0;0;N/A;N/A;-0.4953117;-0.1977306;N/A;N/A;0;0;0.05939219;0.03029316;0;0;0.03029316;(0.0, 0.0);(0.0, 0.0);4.73;0;0.7071068;0;0.1404902;0;
1.052894;0;0;0;0;3.758545;0;0;0;N/A;N/A;-0.4953117;-0.1977306;N/A;N/A;0;0;0.05939219;0.03029316;0;0;0.03029316;(0.0, 0.0);(0.0, 0.0);4.73;0;0.7071068;0;0.1404902;0;
1.06031;0;0;0;0;3.965191;0;0;0;N/A;N/A;-0.4953117;-0.1977306;N/A;N/A;0;0;0.05939219;0.03029316;0;0;0.03029316;(0.0, 0.0);(0.0, 0.0);4.73;0;0.7071068;0;0.1404902;0;
1.067254;0;0;0;0;4.173523;0;0;0;N/A;N/A;-0.4953117;-0.1977306;N/A;N/A;0;0;0.05939219;0.03029316;0;0;0.03029316;(0.0, 0.0);(0.0, 0.0);4.73;0;0.7071068;0;0.1404902;0;
1.074263;0;0;0;0;4.379756;0;0;0;N/A;N/A;-0.4953117;-0.1977306;N/A;N/A;0;0;0.05939219;0.03029316;0;0;0.03029316;(0.0, 0.0);(0.0, 0.0);4.73;0;0.7071068;0;0.1404902;0;
1.08332;0;0;0;0;4.587842;0;0;0;N/A;N/A;-0.4953117;-0.1977306;N/A;N/A;0;0;0.05939219;0.03029316;0;0;0.03029316;(0.0, 0.0);(0.0, 0.0);4.73;0;0.7071068;0;0.1404902;0;
1.090266;0;0;0;0;4.796206;0;0;0;N/A;N/A;-0.4953117;-0.1977306;N/A;N/A;0;0;0.1119673;0.05233809;0;0;0.05233809;(0.0, 0.0);(0.0, 0.0);4.73;0;0.7071068;0;0.1362832;0;
1.097207;0;0;0;0;5.002543;0;0;0;N/A;N/A;-0.4955598;-0.1977306;N/A;N/A;0;0;0.1119673;0.05233809;0;0;0.05233809;(0.0, 0.0);(0.0, 0.0);4.73;0;0.7071068;0;0.1362832;0;
1.1051;0;0;0;0;5.208673;0;0;0;N/A;N/A;-0.4955598;-0.1977306;N/A;N/A;0;0;0.1119673;0.05233809;0;0;0.05233809;(0.0, 0.0);(0.0, 0.0);4.73;0;0.7071068;0;0.1362832;0;
1.119217;0;0;0;0;5.443054;0;0;0;N/A;N/A;-0.4955598;-0.1977306;N/A;N/A;0;0;0.1119673;0.05233809;0;0;0.05233809;(0.0, 0.0);(0.0, 0.0);4.73;0;0.7071068;0;0.1362832;0;
1.126166;0;0;0;0;5.651524;0;0;0;N/A;N/A;-0.4955598;-0.1977306;N/A;N/A;0;0;0.1119673;0.05233809;0;0;0.05233809;(0.0, 0.0);(0.0, 0.0);4.73;0;0.7071068;0;0.1362832;0;
1.133918;0;0;0;0;5.857861;0;0;0;N/A;N/A;-0.4955598;-0.1977306;N/A;N/A;0;0;0.1119673;0.05233809;0;0;0.05233809;(0.0, 0.0);(0.0, 0.0);4.73;0;0.7071068;0;0.1362832;0;
1.141358;0;0;0;0;6.081046;0;0;0;N/A;N/A;-0.4955598;-0.1977306;N/A;N/A;0;0;0.1119673;0.05233809;0;0;0.05233809;(0.0, 0.0);(0.0, 0.0);4.73;0;0.7071068;0;0.1362832;0;
1.151175;0;0;0;0;6.301946;0;0;0;N/A;N/A;-0.4955598;-0.1977306;N/A;N/A;0;0;0.1119673;0.05233809;0;0;0.05233809;(0.0, 0.0);(0.0, 0.0);4.73;0;0.7071068;0;0.1362832;0;
1.158118;0;0;0;0;6.510248;0;0;0;N/A;N/A;-0.4955598;-0.1977306;N/A;N/A;0;0;0.1119673;0.05233809;0;0;0.05233809;(0.0, 0.0);(0.0, 0.0);4.73;0;0.7071068;0;0.1362832;0;
1.165066;0;0;0;0;6.716378;0;0;0;N/A;N/A;-0.4955598;-0.1977306;N/A;N/A;0;0;0.1119673;0.05233809;0;0;0.05233809;(0.0, 0.0);(0.0, 0.0);4.73;0;0.7071068;0;0.1362832;0;
1.172637;0;0;0;0;6.922715;0;0;0;N/A;N/A;-0.4955598;-0.1977306;N/A;N/A;0;0;0.1119673;0.05233809;0;0;0.05233809;(0.0, 0.0);(0.0, 0.0);4.73;0;0.7071068;0;0.1362832;0;
1.179581;0;0;0;0;7.131047;0;0;0;N/A;N/A;-0.4955598;-0.1977306;N/A;N/A;0;0;0.1119673;0.05233809;0;0;0.05233809;(0.0, 0.0);(0.0, 0.0);4.73;0;0.7071068;0;0.1362832;0;
1.186526;0;0;0;0;7.337281;0;0;0;N/A;N/A;-0.4955598;-0.1977306;N/A;N/A;0;0;0.1119673;0.05233809;0;0;0.05233809;(0.0, 0.0);(0.0, 0.0);4.73;0;0.7071068;0;0.1362832;0;
1.193473;0;0;0;0;7.543411;0;0;0;N/A;N/A;-0.4955598;-0.1977306;N/A;N/A;0;0;0.1493419;0.07000312;0;0;0.07000312;(0.0, 0.0);(0.0, 0.0);4.73;0;0.7071068;0;0.1326081;0;
1.200594;0;0;0;0;7.749644;0;0;0;N/A;N/A;-0.4955598;-0.1977306;N/A;N/A;0;0;0.1493419;0.07000312;0;0;0.07000312;(0.0, 0.0);(0.0, 0.0);4.73;0;0.7071068;0;0.1326081;0;
1.207539;0;0;0;0;7.958009;0;0;0;N/A;N/A;-0.4955598;-0.1977306;N/A;N/A;0;0;0.1493419;0.07000312;0;0;0.07000312;(0.0, 0.0);(0.0, 0.0);4.73;0;0.7071068;0;0.1326081;0;
1.214485;0;0;0;0;8.164243;0;0;0;N/A;N/A;-0.4955598;-0.1977306;N/A;N/A;0;0;0.1493419;0.07000312;0;0;0.07000312;(0.0, 0.0);(0.0, 0.0);4.73;0;0.7071068;0;0.1326081;0;
1.221655;0;0;0;0;8.370476;0;0;0;N/A;N/A;-0.4955598;-0.1977306;N/A;N/A;0;0;0.1493419;0.07000312;0;0;0.07000312;(0.0, 0.0);(0.0, 0.0);4.73;0;0.7071068;0;0.1326081;0;
1.228603;0;0;0;0;8.578892;0;0;0;N/A;N/A;-0.4955598;-0.1977306;N/A;N/A;0;0;0.1493419;0.07000312;0;0;0.07000312;(0.0, 0.0);(0.0, 0.0);4.73;0;0.7071068;0;0.1326081;0;
1.235639;0;0;0;0;8.785332;0;0;0;N/A;N/A;-0.4955598;-0.1977306;N/A;N/A;0;0;0.1493419;0.07000312;0;0;0.07000312;(0.0, 0.0);(0.0, 0.0);4.73;0;0.7071068;0;0.1326081;0;
1.243205;0;0;0;0;8.994438;0;0;0;N/A;N/A;-0.4955598;-0.1977306;N/A;N/A;0;0;0.1493419;0.07000312;0;0;0.07000312;(0.0, 0.0);(0.0, 0.0);4.73;0;0.7071068;0;0.1326081;0;
1.250187;0;0;0;0;9.203898;0;0;0;N/A;N/A;-0.4955598;-0.1977306;N/A;N/A;0;0;0.1493419;0.07000312;0;0;0.07000312;(0.0, 0.0);(0.0, 0.0);4.73;0;0.7071068;0;0.1326081;0;
1.257135;0;0;0;0;9.411265;0;0;0;N/A;N/A;-0.4955598;-0.1977306;N/A;N/A;0;0;0.1493419;0.07000312;0;0;0.07000312;(0.0, 0.0);(0.0, 0.0);4.73;0;0.7071068;0;0.1326081;0;
1.271859;0;0;0;0;9.617498;0;0;0;N/A;N/A;-0.4955598;-0.1977306;N/A;N/A;0;0;0.1493419;0.07000312;0;0;0.07000312;(0.0, 0.0);(0.0, 0.0);4.73;0;0.7071068;0;0.1326081;0;
1.278807;0;0;0;0;9.825935;0;0;0;N/A;N/A;-0.4955598;-0.1862872;N/A;N/A;0;0;0.1493419;0.07000312;0;0;0.07000312;(0.0, 0.0);(0.0, 0.0);4.73;0;0.7071068;0;0.1326081;0;
1.285749;0;0;0;0;10.03227;0;0;0;N/A;N/A;-0.4955598;-0.1862872;N/A;N/A;0;0;0.1493419;0.07000312;0;0;0.07000312;(0.0, 0.0);(0.0, 0.0);4.73;0;0.7071068;0;0.1326081;0;
1.292696;0;0;0;0;10.2384;0;0;0;N/A;N/A;-0.4955598;-0.1862872;N/A;N/A;0;0;0.1493419;0.07000312;0;0;0.07000312;(0.0, 0.0);(0.0, 0.0);4.73;0;0.7071068;0;0.1326081;0;
1.299644;0;0;0;0;10.44474;0;0;0;N/A;N/A;-0.4955598;-0.1862872;N/A;N/A;0;0;0.1809719;0.08372658;0;0;0.08372658;(0.0, 0.0);(0.0, 0.0);4.73;0;0.7071068;0;0.1299644;0;
1.306583;0;0;0;0;10.65108;0;0;0;N/A;N/A;-0.4955598;-0.1862872;N/A;N/A;0;0;0.1809719;0.08372658;0;0;0.08372658;(0.0, 0.0);(0.0, 0.0);4.73;0;0.7071068;0;0.1299644;0;
1.313616;0;0;0;0;10.8571;0;0;0;N/A;N/A;-0.4955598;-0.1862872;N/A;N/A;0;0;0.1809719;0.08372658;0;0;0.08372658;(0.0, 0.0);(0.0, 0.0);4.73;0;0.7071068;0;0.1299644;0;
1.320543;0;0;0;0;11.06492;0;0;0;N/A;N/A;-0.4955598;-0.1862872;N/A;N/A;0;0;0.1809719;0.08372658;0;0;0.08372658;(0.0, 0.0);(0.0, 0.0);4.73;0;0.7071068;0;0.1299644;0;
1.327494;0;0;0;0;11.27053;0;0;0;N/A;N/A;-0.4955598;-0.1862872;N/A;N/A;0;0;0.1809719;0.08372658;0;0;0.08372658;(0.0, 0.0);(0.0, 0.0);4.73;0;0.7071068;0;0.1299644;0;
1.334435;0;0;0;0;11.47707;0;0;0;N/A;N/A;-0.4955598;-0.1862872;N/A;N/A;0;0;0.1809719;0.08372658;0;0;0.08372658;(0.0, 0.0);(0.0, 0.0);4.73;0;0.7071068;0;0.1299644;0;
1.341378;0;0;0;0;11.6832;0;0;0;N/A;N/A;-0.4955598;-0.1862872;N/A;N/A;0;0;0.1809719;0.08372658;0;0;0.08372658;(0.0, 0.0);(0.0, 0.0);4.73;0;0.7071068;0;0.1299644;0;
1.348326;0;0;0;0;11.88933;0;0;0;N/A;N/A;-0.4955598;-0.1862872;N/A;N/A;0;0;0.1809719;0.08372658;0;0;0.08372658;(0.0, 0.0);(0.0, 0.0);4.73;0;0.7071068;0;0.1299644;0;
1.358025;0;0;0;0;12.09567;0;0;0;N/A;N/A;-0.4955598;-0.1862872;N/A;N/A;0;0;0.1809719;0.08372658;0;0;0.08372658;(0.0, 0.0);(0.0, 0.0);4.73;0;0.7071068;0;0.1299644;0;
1.367173;0;0;0;0;12.09567;0;0;0;N/A;N/A;-0.4955598;-0.1862872;N/A;N/A;0;0;0.1809719;0.08372658;0;0;0.08372658;(0.0, 0.0);(0.0, 0.0);4.73;0;0.7071068;0;0.1299644;0;
1.375379;0;0;0;0;12.29326;0;0;0;N/A;N/A;-0.4955598;0.24;N/A;N/A;0;0;0.1809719;0.08372658;0;0;0.08372658;(0.0, 0.0);(0.0, 0.0);4.73;0;0.7071068;0;0.1299644;0;
1.382324;0;0;0;0;12.47046;0;0;0;N/A;N/A;-0.4955598;0.24;N/A;N/A;0;0;0.1809719;0.08372658;0;0;0.08372658;(0.0, 0.0);(0.0, 0.0);4.73;0;0.7071068;0;0.1299644;0;
1.390536;0;0;0;0;12.62045;0;0;0;N/A;N/A;-0.4955598;0.24;N/A;N/A;0;0;0.1809719;0.08372658;0;0;0.08372658;(0.0, 0.0);(0.0, 0.0);4.73;0;0.7071068;0;0.1299644;0;
1.397484;0;0;0;0;12.79784;0;0;0;N/A;N/A;-0.4955598;0.24;N/A;N/A;0;0;0.1809719;0.08372658;0;0;0.08372658;(0.0, 0.0);(0.0, 0.0);4.73;0;0.7071068;0;0.1299644;0;
1.404434;0;0;0;0;12.94783;0;0;0;N/A;N/A;-0.4955598;0.24;N/A;N/A;0;0;0.1850472;0.0936192;0;0;0.0936192;(0.0, 0.0);(0.0, 0.0);4.73;0;0.7071068;0;0.1276758;0;
1.411374;0;0;0;0;13.09789;0;0;0;N/A;N/A;-0.4955598;0.24;N/A;N/A;0;0;0.1850472;0.0936192;0;0;0.0936192;(0.0, 0.0);(0.0, 0.0);4.73;0;0.7071068;0;0.1276758;0;
1.424821;0;0;0;0;13.24773;0;0;0;N/A;N/A;-0.4955598;0.24;N/A;N/A;0;0;0.1850472;0.0936192;0;0;0.0936192;(0.0, 0.0);(0.0, 0.0);4.73;0;0.7071068;0;0.1276758;0;
1.432091;0;0;0;0;13.46583;0;0;0;N/A;N/A;-0.4955598;0.24;N/A;N/A;0;0;0.1850472;0.0936192;0;0;0.0936192;(0.0, 0.0);(0.0, 0.0);4.73;0;0.7071068;0;0.1276758;0;
1.439036;0;0;0;0;13.6228;0;0;0;N/A;N/A;-0.4955598;0.24;N/A;N/A;0;0;0.1850472;0.0936192;0;0;0.0936192;(0.0, 0.0);(0.0, 0.0);4.73;0;0.7071068;0;0.1276758;0;
1.446208;0;0;0;0;13.77279;0;0;0;N/A;N/A;-0.4955598;0.24;N/A;N/A;0;0;0.1850472;0.0936192;0;0;0.0936192;(0.0, 0.0);(0.0, 0.0);4.73;0;0.7071068;0;0.1276758;0;
1.453147;0;0;0;0;13.92765;0;0;0;N/A;N/A;-0.4955598;0.24;N/A;N/A;0;0;0.1850472;0.0936192;0;0;0.0936192;(0.0, 0.0);(0.0, 0.0);4.73;0;0.7071068;0;0.1276758;0;
1.460094;0;0;0;0;14.07749;0;0;0;N/A;N/A;-0.4955598;0.24;N/A;N/A;0;0;0.1850472;0.0936192;0;0;0.0936192;(0.0, 0.0);(0.0, 0.0);4.73;0;0.7071068;0;0.1276758;0;
1.46704;0;0;0;0;14.22748;0;0;0;N/A;N/A;-0.4955598;0.24;N/A;N/A;0;0;0.1850472;0.0936192;0;0;0.0936192;(0.0, 0.0);(0.0, 0.0);4.73;0;0.7071068;0;0.1276758;0;
1.473986;0;0;0;0;14.37747;0;0;0;N/A;N/A;-0.4955598;0.24;N/A;N/A;0;0;0.1850472;0.0936192;0;0;0.0936192;(0.0, 0.0);(0.0, 0.0);4.73;0;0.7071068;0;0.1276758;0;
1.480929;0;0;0;0;14.52738;0;0;0;N/A;N/A;-0.4955598;0.24;N/A;N/A;0;0;0.1850472;0.0936192;0;0;0.0936192;(0.0, 0.0);(0.0, 0.0);4.73;0;0.7071068;0;0.1276758;0;
1.487872;0;0;0;0;14.67729;0;0;0;N/A;N/A;-0.4955598;0.24;N/A;N/A;0;0;0.1850472;0.0936192;0;0;0.0936192;(0.0, 0.0);(0.0, 0.0);4.73;0;0.7071068;0;0.1276758;0;
1.494847;0;0;0;0;14.82728;0;0;0;N/A;N/A;-0.4955598;0.24;N/A;N/A;0;0;0.1850472;0.0936192;0;0;0.0936192;(0.0, 0.0);(0.0, 0.0);4.73;0;0.7071068;0;0.1276758;0;
1.501944;0;0;0;0;14.97787;0;0;0;N/A;N/A;-0.4955598;0.24;N/A;N/A;0;0;0.1850472;0.0936192;0;0;0.0936192;(0.0, 0.0);(0.0, 0.0);4.73;0;0.7071068;0;0.1276758;0;
1.50889;0;0;0;0;15.13113;0;0;0;N/A;N/A;-0.4955598;0.24;N/A;N/A;0;0;0.1854694;0.09881341;0;0;0.09881341;(0.0, 0.0);(0.0, 0.0);4.73;0;0.7071068;0;0.1257408;0;
1.515832;0;0;0;0;15.28112;0;0;0;N/A;N/A;-0.4955598;0.24;N/A;N/A;0;0;0.1854694;0.09881341;0;0;0.09881341;(0.0, 0.0);(0.0, 0.0);4.73;0;0.7071068;0;0.1257408;0;
1.522792;0;0;0;0;15.43103;0;0;0;N/A;N/A;-0.4955598;0.24;N/A;N/A;0;0;0.1854694;0.09881341;0;0;0.09881341;(0.0, 0.0);(0.0, 0.0);4.73;0;0.7071068;0;0.1257408;0;
1.529737;0;0;0;0;15.58132;0;0;0;N/A;N/A;-0.4955598;0.24;N/A;N/A;0;0;0.1854694;0.09881341;0;0;0.09881341;(0.0, 0.0);(0.0, 0.0);4.73;0;0.7071068;0;0.1257408;0;
1.536682;0;0;0;0;15.73131;0;0;0;N/A;N/A;-0.4955598;0.24;N/A;N/A;0;0;0.1854694;0.09881341;0;0;0.09881341;(0.0, 0.0);(0.0, 0.0);4.73;0;0.7071068;0;0.1257408;0;
1.543627;0;0;0;0;15.88129;0;0;0;N/A;N/A;-0.4955598;0.24;N/A;N/A;0;0;0.1854694;0.09881341;0;0;0.09881341;(0.0, 0.0);(0.0, 0.0);4.73;0;0.7071068;0;0.1257408;0;
1.550784;0;0;0;0;16.03128;0;0;0;N/A;N/A;-0.4955598;0.24;N/A;N/A;0;0;0.1854694;0.09881341;0;0;0.09881341;(0.0, 0.0);(0.0, 0.0);4.73;0;0.7071068;0;0.1257408;0;
1.558368;0;0;0;0;16.18579;0;0;0;N/A;N/A;-0.4955598;0.24;N/A;N/A;0;0;0.1854694;0.09881341;0;0;0.09881341;(0.0, 0.0);(0.0, 0.0);4.73;0;0.7071068;0;0.1257408;0;
1.56533;0;0;0;0;16.34957;0;0;0;N/A;N/A;-0.4955598;0.24;N/A;N/A;0;0;0.1854694;0.09881341;0;0;0.09881341;(0.0, 0.0);(0.0, 0.0);4.73;0;0.7071068;0;0.1257408;0;
1.580883;0;0;0;0;16.49986;0;0;0;N/A;N/A;-0.4955598;0.24;N/A;N/A;0;0;0.1854694;0.09881341;0;0;0.09881341;(0.0, 0.0);(0.0, 0.0);4.73;0;0.7071068;0;0.1257408;0;
1.58783;0;0;0;0;16.70828;0;0;0;N/A;N/A;-0.4955598;0.24;N/A;N/A;0;0;0.1854694;0.09881341;0;0;0.09881341;(0.0, 0.0);(0.0, 0.0);4.73;0;0.7071068;0;0.1257408;0;
1.594774;0;0;0;0;16.85834;0;0;0;N/A;N/A;-0.4955598;0.24;N/A;N/A;0;0;0.1854694;0.09881341;0;0;0.09881341;(0.0, 0.0);(0.0, 0.0);4.73;0;0.7071068;0;0.1257408;0;
1.601718;0;0;0;0;17.00833;0;0;0;N/A;N/A;-0.4955598;0.24;N/A;N/A;0;0;0.1854694;0.09881341;0;0;0.09881341;(0.0, 0.0);(0.0, 0.0);4.73;0;0.7071068;0;0.1257408;0;
1.608858;0;0;0;0;17.15824;0;0;0;N/A;N/A;-0.4955598;0.24;N/A;N/A;0;0;0.1854694;0.09881341;0;0;0.09881341;(0.0, 0.0);(0.0, 0.0);4.73;0;0.7071068;0;0.1257408;0;
1.615803;0;0;0;0;17.31245;0;0;0;N/A;N/A;-0.4955598;0.24;N/A;N/A;0;0;0.1856915;0.1031977;0;0;0.1031977;(0.0, 0.0);(0.0, 0.0);4.73;0;0.7071068;0;0.1242925;0;
1.622745;0;0;0;0;17.46244;0;0;0;N/A;N/A;-0.4955598;0.24;N/A;N/A;0;0;0.1856915;0.1031977;0;0;0.1031977;(0.0, 0.0);(0.0, 0.0);4.73;0;0.7071068;0;0.1242925;0;
1.629693;0;0;0;0;17.61235;0;0;0;N/A;N/A;-0.4955598;0.24;N/A;N/A;0;0;0.1856915;0.1031977;0;0;0.1031977;(0.0, 0.0);(0.0, 0.0);4.73;0;0.7071068;0;0.1242925;0;
1.636652;0;0;0;0;17.76234;0;0;0;N/A;N/A;-0.4955598;0.24;N/A;N/A;0;0;0.1856915;0.1031977;0;0;0.1031977;(0.0, 0.0);(0.0, 0.0);4.73;0;0.7071068;0;0.1242925;0;
1.643596;0;0;0;0;17.91255;0;0;0;N/A;N/A;-0.4955598;0.24;N/A;N/A;0;0;0.1856915;0.1031977;0;0;0.1031977;(0.0, 0.0);(0.0, 0.0);4.73;0;0.7071068;0;0.1242925;0;
1.650542;0;0;0;0;18.06254;0;0;0;N/A;N/A;-0.4955598;0.24;N/A;N/A;0;0;0.1856915;0.1031977;0;0;0.1031977;(0.0, 0.0);(0.0, 0.0);4.73;0;0.7071068;0;0.1242925;0;
1.657487;0;0;0;0;18.2126;0;0;0;N/A;N/A;-0.4955598;0.24;N/A;N/A;0;0;0.1856915;0.1031977;0;0;0.1031977;(0.0, 0.0);(0.0, 0.0);4.73;0;0.7071068;0;0.1242925;0;
1.665121;0;0;0;0;18.36259;0;0;0;N/A;N/A;-0.4955598;0.24;N/A;N/A;0;0;0.1856915;0.1031977;0;0;0.1031977;(0.0, 0.0);(0.0, 0.0);4.73;0;0.7071068;0;0.1242925;0;
1.672065;0;0;0;0;18.52747;0;0;0;N/A;N/A;-0.4955598;0.24;N/A;N/A;0;0;0.1856915;0.1031977;0;0;0.1031977;(0.0, 0.0);(0.0, 0.0);4.73;0;0.7071068;0;0.1242925;0;
1.679014;0;0;0;0;18.67738;0;0;0;N/A;N/A;-0.4955598;0.24;N/A;N/A;0;0;0.1856915;0.1031977;0;0;0.1031977;(0.0, 0.0);(0.0, 0.0);4.73;0;0.7071068;0;0.1242925;0;
1.685959;0;0;0;0;18.82737;0;0;0;N/A;N/A;-0.4955598;0.24;N/A;N/A;0;0;0.1856915;0.1031977;0;0;0.1031977;(0.0, 0.0);(0.0, 0.0);4.73;0;0.7071068;0;0.1242925;0;
1.692904;0;0;0;0;18.97728;0;0;0;N/A;N/A;-0.4955598;0.24;N/A;N/A;0;0;0.1856915;0.1031977;0;0;0.1031977;(0.0, 0.0);(0.0, 0.0);4.73;0;0.7071068;0;0.1242925;0;
1.699848;0;0;0;0;19.12719;0;0;0;N/A;N/A;-0.4955598;0.24;N/A;N/A;0;0;0.1856915;0.1031977;0;0;0.1031977;(0.0, 0.0);(0.0, 0.0);4.73;0;0.7071068;0;0.1242925;0;
1.706794;0;0;0;0;19.27718;0;0;0;N/A;N/A;-0.4955598;0.24;N/A;N/A;0;0;0.1856915;0.1031977;0;0;0.1031977;(0.0, 0.0);(0.0, 0.0);4.73;0;0.7071068;0;0.1242925;0;
1.713737;0;0;0;0;19.42724;0;0;0;N/A;N/A;-0.4955598;0.24;N/A;N/A;0;0;0.1856915;0.1031977;0;0;0.1031977;(0.0, 0.0);(0.0, 0.0);4.73;0;0.7071068;0;0.1242925;0;
1.721262;0;0;0;0;19.57723;0;0;0;N/A;N/A;-0.4955598;0.24;N/A;N/A;0;0;0.1862457;0.1066111;0;0;0.1066111;(0.0, 0.0);(0.0, 0.0);4.73;0;0.7071068;0;0.1229473;0;
1.735699;0;0;0;0;19.7397;0;0;0;N/A;N/A;-0.4955598;0.24;N/A;N/A;0;0;0.1862457;0.1066111;0;0;0.1066111;(0.0, 0.0);(0.0, 0.0);4.73;0;0.7071068;0;0.1229473;0;
1.742644;0;0;0;0;19.94806;0;0;0;N/A;N/A;-0.4955598;0.24;N/A;N/A;0;0;0.1862457;0.1066111;0;0;0.1066111;(0.0, 0.0);(0.0, 0.0);4.73;0;0.7071068;0;0.1229473;0;
1.749631;0;0;0;0;20.09805;0;0;0;N/A;N/A;-0.4955598;0.24;N/A;N/A;0;0;0.1862457;0.1066111;0;0;0.1066111;(0.0, 0.0);(0.0, 0.0);4.73;0;0.7071068;0;0.1229473;0;
1.756576;0;0;0;0;20.24893;0;0;0;N/A;N/A;-0.4955598;0.24;N/A;N/A;0;0;0.1862457;0.1066111;0;0;0.1066111;(0.0, 0.0);(0.0, 0.0);4.73;0;0.7071068;0;0.1229473;0;
1.763524;0;0;0;0;20.39892;0;0;0;N/A;N/A;-0.4955598;0.24;N/A;N/A;0;0;0.1862457;0.1066111;0;0;0.1066111;(0.0, 0.0);(0.0, 0.0);4.73;0;0.7071068;0;0.1229473;0;
1.77075;0;0;0;0;20.54898;0;0;0;N/A;N/A;-0.4955598;0.24;N/A;N/A;0;0;0.1862457;0.1066111;0;0;0.1066111;(0.0, 0.0);(0.0, 0.0);4.73;0;0.7071068;0;0.1229473;0;
1.777697;0;0;0;0;20.70509;0;0;0;N/A;N/A;-0.4955598;0.24;N/A;N/A;0;0;0.1862457;0.1066111;0;0;0.1066111;(0.0, 0.0);(0.0, 0.0);4.73;0;0.7071068;0;0.1229473;0;
1.784639;0;0;0;0;20.85507;0;0;0;N/A;N/A;-0.4955598;0.24;N/A;N/A;0;0;0.1862457;0.1066111;0;0;0.1066111;(0.0, 0.0);(0.0, 0.0);4.73;0;0.7071068;0;0.1229473;0;
1.791587;0;0;0;0;21.00499;0;0;0;N/A;N/A;-0.4955598;0.24;N/A;N/A;0;0;0.1862457;0.1066111;0;0;0.1066111;(0.0, 0.0);(0.0, 0.0);4.73;0;0.7071068;0;0.1229473;0;
1.798531;0;0;0;0;21.15497;0;0;0;N/A;N/A;-0.4955598;0.24;N/A;N/A;0;0;0.1862457;0.1066111;0;0;0.1066111;(0.0, 0.0);(0.0, 0.0);4.73;0;0.7071068;0;0.1229473;0;
1.805476;0;0;0;0;21.30489;0;0;0;N/A;N/A;-0.4955598;0.24;N/A;N/A;0;0;0.1862457;0.1066111;0;0;0.1066111;(0.0, 0.0);(0.0, 0.0);4.73;0;0.7071068;0;0.1229473;0;
1.812517;0;0;0;0;21.45487;0;0;0;N/A;N/A;-0.4955598;0.24;N/A;N/A;0;0;0.1862457;0.1066111;0;0;0.1066111;(0.0, 0.0);(0.0, 0.0);4.73;0;0.7071068;0;0.1229473;0;
1.819444;0;0;0;0;21.60695;0;0;0;N/A;N/A;-0.4955598;0.24;N/A;N/A;0;0;0.1862457;0.1066111;0;0;0.1066111;(0.0, 0.0);(0.0, 0.0);4.73;0;0.7071068;0;0.1229473;0;
1.82694;0;0;0;0;21.75649;0;0;0;N/A;N/A;-0.4955598;0.24;N/A;N/A;0;0;0.186437;0.1098811;0;0;0.1098811;(0.0, 0.0);(0.0, 0.0);4.73;0;0.7071069;0;0.121796;0;
1.833887;0;0;0;0;21.9184;0;0;0;N/A;N/A;-0.4955598;0.24;N/A;N/A;0;0;0.186437;0.1098811;0;0;0.1098811;(0.0, 0.0);(0.0, 0.0);4.73;0;0.7071069;0;0.121796;0;
1.840839;0;0;0;0;22.06846;0;0;0;N/A;N/A;-0.4955598;0.24;N/A;N/A;0;0;0.186437;0.1098811;0;0;0.1098811;(0.0, 0.0);(0.0, 0.0);4.73;0;0.7071069;0;0.121796;0;
1.847779;0;0;0;0;22.2186;0;0;0;N/A;N/A;-0.4955598;0.24;N/A;N/A;0;0;0.186437;0.1098811;0;0;0.1098811;(0.0, 0.0);(0.0, 0.0);4.73;0;0.7071069;0;0.121796;0;
1.855128;0;0;0;0;22.36851;0;0;0;N/A;N/A;-0.4955598;0.24;N/A;N/A;0;0;0.186437;0.1098811;0;0;0.1098811;(0.0, 0.0);(0.0, 0.0);4.73;0;0.7071069;0;0.121796;0;
1.862832;0;0;0;0;22.52726;0;0;0;N/A;N/A;-0.4955598;0.24;N/A;N/A;0;0;0.186437;0.1098811;0;0;0.1098811;(0.0, 0.0);(0.0, 0.0);4.73;0;0.7071069;0;0.121796;0;
1.870546;0;0;0;0;22.69364;0;0;0;N/A;N/A;-0.4955598;0.24;N/A;N/A;0;0;0.186437;0.1098811;0;0;0.1098811;(0.0, 0.0);(0.0, 0.0);4.73;0;0.7071069;0;0.121796;0;
1.877491;0;0;0;0;22.86022;0;0;0;N/A;N/A;-0.4955598;0.24;N/A;N/A;0;0;0.186437;0.1098811;0;0;0.1098811;(0.0, 0.0);(0.0, 0.0);4.73;0;0.7071069;0;0.121796;0;
1.894224;0;0;0;0;23.01013;0;0;0;N/A;N/A;-0.4955598;0.24;N/A;N/A;0;0;0.186437;0.1098811;0;0;0.1098811;(0.0, 0.0);(0.0, 0.0);4.73;0;0.7071069;0;0.121796;0;
1.90117;0;0;0;0;23.21852;0;0;0;N/A;N/A;-0.4955598;0.24;N/A;N/A;0;0;0.186437;0.1098811;0;0;0.1098811;(0.0, 0.0);(0.0, 0.0);4.73;0;0.7071069;0;0.121796;0;
1.908505;0;0;0;0;23.36859;0;0;0;N/A;N/A;-0.4955598;0.24;N/A;N/A;0;0;0.186437;0.1098811;0;0;0.1098811;(0.0, 0.0);(0.0, 0.0);4.73;0;0.7071069;0;0.121796;0;
1.91545;0;0;0;0;23.52691;0;0;0;N/A;N/A;-0.4955598;0.24;N/A;N/A;0;0;0.186437;0.1098811;0;0;0.1098811;(0.0, 0.0);(0.0, 0.0);4.73;0;0.7071069;0;0.121796;0;
1.922396;0;0;0;0;23.6769;0;0;0;N/A;N/A;-0.4955598;0.24;N/A;N/A;0;0;0.186437;0.1098811;0;0;0.1098811;(0.0, 0.0);(0.0, 0.0);4.73;0;0.7071069;0;0.121796;0;
1.930712;0;0;0;0;23.82689;0;0;0;N/A;N/A;-0.4955598;0.24;N/A;N/A;0;0;0.1864891;0.1129674;0;0;0.1129674;(0.0, 0.0);(0.0, 0.0);4.73;0;0.7071069;0;0.1206695;0;
1.937664;0;0;0;0;24.00649;0;0;0;N/A;N/A;-0.4955598;0.24;N/A;N/A;0;0;0.1864891;0.1129674;0;0;0.1129674;(0.0, 0.0);(0.0, 0.0);4.73;0;0.7071069;0;0.1206695;0;
1.944608;0;0;0;0;24.15663;0;0;0;N/A;N/A;-0.4955598;0.24;N/A;N/A;0;0;0.1864891;0.1129674;0;0;0.1129674;(0.0, 0.0);(0.0, 0.0);4.73;0;0.7071069;0;0.1206695;0;
1.956205;0;0;0;0;24.30654;0;0;0;N/A;N/A;-0.4955598;0.24;N/A;N/A;0;0;0.1864891;0.1129674;0;0;0.1129674;(0.0, 0.0);(0.0, 0.0);4.73;0;0.7071069;0;0.1206695;0;
1.963495;0;0;0;0;24.52522;0;0;0;N/A;N/A;-0.4955598;0.24;N/A;N/A;0;0;0.1864891;0.1129674;0;0;0.1129674;(0.0, 0.0);(0.0, 0.0);4.73;0;0.7071069;0;0.1206695;0;
1.970441;0;0;0;0;24.68261;0;0;0;N/A;N/A;-0.4955598;0.24;N/A;N/A;0;0;0.1864891;0.1129674;0;0;0.1129674;(0.0, 0.0);(0.0, 0.0);4.73;0;0.7071069;0;0.1206695;0;
1.977401;0;0;0;0;24.8326;0;0;0;N/A;N/A;-0.4955598;0.24;N/A;N/A;0;0;0.1864891;0.1129674;0;0;0.1129674;(0.0, 0.0);(0.0, 0.0);4.73;0;0.7071069;0;0.1206695;0;
1.986156;0;0;0;0;24.98289;0;0;0;N/A;N/A;-0.4955598;0.24;N/A;N/A;0;0;0.1864891;0.1129674;0;0;0.1129674;(0.0, 0.0);(0.0, 0.0);4.73;0;0.7071069;0;0.1206695;0;
1.993099;0;0;0;0;25.17197;0;0;0;N/A;N/A;-0.4955598;0.24;N/A;N/A;0;0;0.1864891;0.1129674;0;0;0.1129674;(0.0, 0.0);(0.0, 0.0);4.73;0;0.7071069;0;0.1206695;0;
2.000045;0;0;0;0;25.32196;0;0;0;N/A;N/A;-0.4955598;0.24;N/A;N/A;0;0;0.1864891;0.1129674;0;0;0.1129674;(0.0, 0.0);(0.0, 0.0);4.73;0;0.7071069;0;0.1206695;0;
2.006989;0;0;0;0;25.47194;0;0;0;N/A;N/A;-0.4955598;0.24;N/A;N/A;0;0;0.1864891;0.1129674;0;0;0.1129674;(0.0, 0.0);(0.0, 0.0);4.73;0;0.7071069;0;0.1206695;0;
2.015704;0;0;0;0;25.62193;0;0;0;N/A;N/A;-0.4955598;0.24;N/A;N/A;0;0;0.1864891;0.1129674;0;0;0.1129674;(0.0, 0.0);(0.0, 0.0);4.73;0;0.7071069;0;0.1206695;0;
2.02265;0;0;0;0;25.81012;0;0;0;N/A;N/A;-0.4955598;0.24;N/A;N/A;0;0;0.1864891;0.1129674;0;0;0.1129674;(0.0, 0.0);(0.0, 0.0);4.73;0;0.7071069;0;0.1206695;0;
2.029986;0;0;0;0;25.9601;0;0;0;N/A;N/A;-0.4955598;0.24;N/A;N/A;0;0;0.1864891;0.1129674;0;0;0.1129674;(0.0, 0.0);(0.0, 0.0);4.73;0;0.7071069;0;0.1206695;0;
2.044691;0;0;0;0;26.1185;0;0;0;N/A;N/A;-0.4955598;0.24;N/A;N/A;0;0;0.186791;0.1159509;0;0;0.1159509;(0.0, 0.0);(0.0, 0.0);4.73;0;0.7071069;0;0.1202759;0;
2.054925;0;0;0;0;26.1185;0;0;0;N/A;N/A;-0.4955598;0.24;N/A;N/A;0;0;0.186791;0.1159509;0;0;0.1159509;(0.0, 0.0);(0.0, 0.0);4.73;0;0.7071069;0;0.1202759;0;
2.07091;0;0;0;0;26.42239;0;0;0;N/A;N/A;-0.4955598;0.24;N/A;N/A;0;0;0.186791;0.1159509;0;0;0.1159509;(0.0, 0.0);(0.0, 0.0);4.73;0;0.7071069;0;0.1202759;0;
2.079953;0;0;0;0;26.69369;0;0;0;N/A;N/A;-0.4955598;0.24;N/A;N/A;0;0;0.186791;0.1159509;0;0;0.1159509;(0.0, 0.0);(0.0, 0.0);4.73;0;0.7071069;0;0.1202759;0;
2.086896;0;0;0;0;26.90197;0;0;0;N/A;N/A;-0.4955598;0.24;N/A;N/A;0;0;0.186791;0.1159509;0;0;0.1159509;(0.0, 0.0);(0.0, 0.0);4.73;0;0.7071069;0;0.1202759;0;
2.093841;0;0;0;0;27.1081;0;0;0;N/A;N/A;-0.4956232;0.24;N/A;N/A;0;0;0.186791;0.1159509;0;0;0.1159509;(0.0, 0.0);(0.0, 0.0);4.73;0;0.7071069;0;0.1202759;0;
2.100785;0;0;0;0;27.31424;0;0;0;N/A;N/A;-0.4956232;0.24;N/A;N/A;0;0;0.186791;0.1159509;0;0;0.1159509;(0.0, 0.0);(0.0, 0.0);4.73;0;0.7071069;0;0.1202759;0;
2.107925;0;0;0;0;27.52057;0;0;0;N/A;N/A;-0.4956232;0.24;N/A;N/A;0;0;0.186791;0.1159509;0;0;0.1159509;(0.0, 0.0);(0.0, 0.0);4.73;0;0.7071069;0;0.1202759;0;
2.11487;0;0;0;0;27.72894;0;0;0;N/A;N/A;-0.4956232;0.24;N/A;N/A;0;0;0.186791;0.1159509;0;0;0.1159509;(0.0, 0.0);(0.0, 0.0);4.73;0;0.7071069;0;0.1202759;0;
2.121814;0;0;0;0;27.93507;0;0;0;N/A;N/A;-0.4956232;0.24;N/A;N/A;0;0;0.186791;0.1159509;0;0;0.1159509;(0.0, 0.0);(0.0, 0.0);4.73;0;0.7071069;0;0.1202759;0;
2.128759;0;0;0;0;28.1412;0;0;0;N/A;N/A;-0.4956232;0.24;N/A;N/A;0;0;0.186791;0.1159509;0;0;0.1159509;(0.0, 0.0);(0.0, 0.0);4.73;0;0.7071069;0;0.1202759;0;
2.135968;0;0;0;0;28.34733;0;0;0;N/A;N/A;-0.4956232;0.24;N/A;N/A;0;0;0.186791;0.1159509;0;0;0.1159509;(0.0, 0.0);(0.0, 0.0);4.73;0;0.7071069;0;0.1202759;0;
2.142999;0;0;0;0;28.55825;0;0;0;N/A;N/A;-0.4956232;0.24;N/A;N/A;0;0;0.186791;0.1159509;0;0;0.1159509;(0.0, 0.0);(0.0, 0.0);4.73;0;0.7071069;0;0.1202759;0;
2.150518;0;0;0;0;28.76705;0;0;0;N/A;N/A;-0.4956232;0.24;N/A;N/A;0;0;0.2012462;0.121771;0;0;0.121771;(0.0, 0.0);(0.0, 0.0);4.730001;0;0.7071069;0;0.1194732;0;
2.157463;0;0;0;0;28.97541;0;0;0;N/A;N/A;-0.4956232;0.24;N/A;N/A;0;0;0.2012462;0.121771;0;0;0.121771;(0.0, 0.0);(0.0, 0.0);4.730001;0;0.7071069;0;0.1194732;0;
2.165668;0;0;0;0;29.18164;0;0;0;N/A;N/A;-0.4956232;0.24;N/A;N/A;0;0;0.2012462;0.121771;0;0;0.121771;(0.0, 0.0);(0.0, 0.0);4.730001;0;0.7071069;0;0.1194732;0;
2.172613;0;0;0;0;29.38998;0;0;0;N/A;N/A;-0.4956232;0.24;N/A;N/A;0;0;0.2012462;0.121771;0;0;0.121771;(0.0, 0.0);(0.0, 0.0);4.730001;0;0.7071069;0;0.1194732;0;
2.179911;0;0;0;0;29.59621;0;0;0;N/A;N/A;-0.4956232;0.24;N/A;N/A;0;0;0.2012462;0.121771;0;0;0.121771;(0.0, 0.0);(0.0, 0.0);4.730001;0;0.7071069;0;0.1194732;0;
2.195676;0;0;0;0;29.81293;0;0;0;N/A;N/A;-0.4956232;0.24;N/A;N/A;0;0;0.2012462;0.121771;0;0;0.121771;(0.0, 0.0);(0.0, 0.0);4.730001;0;0.7071069;0;0.1194732;0;
2.203232;0;0;0;0;30.0396;0;0;0;N/A;N/A;-0.4956232;0.24;N/A;N/A;0;0;0.2012462;0.121771;0;0;0.121771;(0.0, 0.0);(0.0, 0.0);4.730001;0;0.7071069;0;0.1194732;0;
2.210252;0;0;0;0;30.25022;0;0;0;N/A;N/A;-0.4956232;0.24;N/A;N/A;0;0;0.2012462;0.121771;0;0;0.121771;(0.0, 0.0);(0.0, 0.0);4.730001;0;0.7071069;0;0.1194732;0;
2.217226;0;0;0;0;30.45871;0;0;0;N/A;N/A;-0.4956232;0.24;N/A;N/A;0;0;0.2012462;0.121771;0;0;0.121771;(0.0, 0.0);(0.0, 0.0);4.730001;0;0.7071069;0;0.1194732;0;
2.22417;0;0;0;0;30.66577;0;0;0;N/A;N/A;-0.4956232;0.24;N/A;N/A;0;0;0.2012462;0.121771;0;0;0.121771;(0.0, 0.0);(0.0, 0.0);4.730001;0;0.7071069;0;0.1194732;0;
2.231115;0;0;0;0;30.8719;0;0;0;N/A;N/A;-0.4956232;0.24;N/A;N/A;0;0;0.2012462;0.121771;0;0;0.121771;(0.0, 0.0);(0.0, 0.0);4.730001;0;0.7071069;0;0.1194732;0;
2.23806;0;0;0;0;31.07814;0;0;0;N/A;N/A;-0.4956232;0.24;N/A;N/A;0;0;0.2012462;0.121771;0;0;0.121771;(0.0, 0.0);(0.0, 0.0);4.730001;0;0.7071069;0;0.1194732;0;
2.245212;0;0;0;0;31.28437;0;0;0;N/A;N/A;-0.4956232;0.24;N/A;N/A;0;0;0.2012462;0.121771;0;0;0.121771;(0.0, 0.0);(0.0, 0.0);4.730001;0;0.7071069;0;0.1194732;0;
2.252157;0;0;0;0;31.49271;0;0;0;N/A;N/A;-0.4956232;0.24;N/A;N/A;0;0;0.2145655;0.126397;0;0;0.126397;(0.0, 0.0);(0.0, 0.0);4.730001;0;0.7071069;0;0.1185346;0;
2.259104;0;0;0;0;31.69884;0;0;0;N/A;N/A;-0.4956232;0.24;N/A;N/A;0;0;0.2145655;0.126397;0;0;0.126397;(0.0, 0.0);(0.0, 0.0);4.730001;0;0.7071069;0;0.1185346;0;
2.266047;0;0;0;0;31.90507;0;0;0;N/A;N/A;-0.4956232;0.24;N/A;N/A;0;0;0.2145655;0.126397;0;0;0.126397;(0.0, 0.0);(0.0, 0.0);4.730001;0;0.7071069;0;0.1185346;0;
2.272992;0;0;0;0;32.11131;0;0;0;N/A;N/A;-0.4956232;0.24;N/A;N/A;0;0;0.2145655;0.126397;0;0;0.126397;(0.0, 0.0);(0.0, 0.0);4.730001;0;0.7071069;0;0.1185346;0;
2.279938;0;0;0;0;32.31744;0;0;0;N/A;N/A;-0.4956232;0.24;N/A;N/A;0;0;0.2145655;0.126397;0;0;0.126397;(0.0, 0.0);(0.0, 0.0);4.730001;0;0.7071069;0;0.1185346;0;
2.28688;0;0;0;0;32.52367;0;0;0;N/A;N/A;-0.4956232;0.24;N/A;N/A;0;0;0.2145655;0.126397;0;0;0.126397;(0.0, 0.0);(0.0, 0.0);4.730001;0;0.7071069;0;0.1185346;0;
2.293825;0;0;0;0;32.7299;0;0;0;N/A;N/A;-0.4956232;0.24;N/A;N/A;0;0;0.2145655;0.126397;0;0;0.126397;(0.0, 0.0);(0.0, 0.0);4.730001;0;0.7071069;0;0.1185346;0;
2.300803;0;0;0;0;32.93614;0;0;0;N/A;N/A;-0.4956232;0.24;N/A;N/A;0;0;0.2145655;0.126397;0;0;0.126397;(0.0, 0.0);(0.0, 0.0);4.730001;0;0.7071069;0;0.1185346;0;
2.307748;0;0;0;0;33.1433;0;0;0;N/A;N/A;-0.4956232;0.24;N/A;N/A;0;0;0.2145655;0.126397;0;0;0.126397;(0.0, 0.0);(0.0, 0.0);4.730001;0;0.7071069;0;0.1185346;0;
2.314694;0;0;0;0;33.34943;0;0;0;N/A;N/A;-0.4956232;0.24;N/A;N/A;0;0;0.2145655;0.126397;0;0;0.126397;(0.0, 0.0);(0.0, 0.0);4.730001;0;0.7071069;0;0.1185346;0;
2.321644;0;0;0;0;33.55577;0;0;0;N/A;N/A;-0.4956232;0.24;N/A;N/A;0;0;0.2145655;0.126397;0;0;0.126397;(0.0, 0.0);(0.0, 0.0);4.730001;0;0.7071069;0;0.1185346;0;
2.329566;0;0;0;0;33.7621;0;0;0;N/A;N/A;-0.4956232;0.24;N/A;N/A;0;0;0.2145655;0.126397;0;0;0.126397;(0.0, 0.0);(0.0, 0.0);4.730001;0;0.7071069;0;0.1185346;0;
2.343221;0;0;0;0;33.9973;0;0;0;N/A;N/A;-0.4956232;0.24;N/A;N/A;0;0;0.2145655;0.126397;0;0;0.126397;(0.0, 0.0);(0.0, 0.0);4.730001;0;0.7071069;0;0.1185346;0;
2.350165;0;0;0;0;34.20562;0;0;0;N/A;N/A;-0.4956232;0.24;N/A;N/A;0;0;0.2145655;0.126397;0;0;0.126397;(0.0, 0.0);(0.0, 0.0);4.730001;0;0.7071069;0;0.1185346;0;
2.35711;0;0;0;0;34.41186;0;0;0;N/A;N/A;-0.4956232;0.24;N/A;N/A;0;0;0.227373;0.1305027;0;0;0.1305027;(0.0, 0.0);(0.0, 0.0);4.730001;0;0.7071069;0;0.1178555;0;
2.364565;0;0;0;0;34.61809;0;0;0;N/A;N/A;-0.4956232;0.24;N/A;N/A;0;0;0.227373;0.1305027;0;0;0.1305027;(0.0, 0.0);(0.0, 0.0);4.730001;0;0.7071069;0;0.1178555;0;
2.373769;0;0;0;0;34.61809;0;0;0;N/A;N/A;-0.4956232;0.24;N/A;N/A;0;0;0.227373;0.1305027;0;0;0.1305027;(0.0, 0.0);(0.0, 0.0);4.730001;0;0.7071069;0;0.1178555;0;
2.380716;0;0;0;0;34.61809;0;0;0;N/A;N/A;-0.4956232;0.24;N/A;N/A;0;0;0.227373;0.1305027;0;0;0.1305027;(0.0, 0.0);(0.0, 0.0);4.730001;0;0.7071069;0;0.1178555;0;
2.388158;0;0;0;0;34.61809;0;0;0;N/A;N/A;-0.4956232;0.24;N/A;N/A;0;0;0.227373;0.1305027;0;0;0.1305027;(0.0, 0.0);(0.0, 0.0);4.730001;0;0.7071069;0;0.1178555;0;
2.395105;0;0;0;0;34.61809;0;0;0;N/A;N/A;-0.4956232;0.24;N/A;N/A;0;0;0.227373;0.1305027;0;0;0.1305027;(0.0, 0.0);(0.0, 0.0);4.730001;0;0.7071069;0;0.1178555;0;
2.402354;0;0;0;0;34.61809;0;0;0;N/A;N/A;-0.4956232;0.24;N/A;N/A;0;0;0.227373;0.1305027;0;0;0.1305027;(0.0, 0.0);(0.0, 0.0);4.730001;0;0.7071069;0;0.1178555;0;
2.409299;0;0;0;0;34.61809;0;0;0;N/A;N/A;-0.4956232;0.24;N/A;N/A;0;0;0.227373;0.1305027;0;0;0.1305027;(0.0, 0.0);(0.0, 0.0);4.730001;0;0.7071069;0;0.1178555;0;
2.416324;0;0;0;0;34.61809;0;0;0;N/A;N/A;-0.4956232;0.24;N/A;N/A;0;0;0.227373;0.1305027;0;0;0.1305027;(0.0, 0.0);(0.0, 0.0);4.730001;0;0.7071069;0;0.1178555;0;
2.423316;0;0;0;0;34.61809;0;0;0;N/A;N/A;-0.4956232;0.24;N/A;N/A;0;0;0.227373;0.1305027;0;0;0.1305027;(0.0, 0.0);(0.0, 0.0);4.730001;0;0.7071069;0;0.1178555;0;
2.430266;0;0;0;0;34.61809;0;0;0;N/A;N/A;-0.4956232;0.24;N/A;N/A;0;0;0.227373;0.1305027;0;0;0.1305027;(0.0, 0.0);(0.0, 0.0);4.730001;0;0.7071069;0;0.1178555;0;
2.437249;0;0;0;0;34.61809;0;0;0;N/A;N/A;-0.4956232;0.24;N/A;N/A;0;0;0.227373;0.1305027;0;0;0.1305027;(0.0, 0.0);(0.0, 0.0);4.730001;0;0.7071069;0;0.1178555;0;
2.44423;0;0;0;0;34.61809;0;0;0;N/A;N/A;-0.4956232;0.24;N/A;N/A;0;0;0.227373;0.1305027;0;0;0.1305027;(0.0, 0.0);(0.0, 0.0);4.730001;0;0.7071069;0;0.1178555;0;
2.45128;0;0;0;0;34.61809;0;0;0;N/A;N/A;-0.4956232;0.24;N/A;N/A;0;0;0.227373;0.1305027;0;0;0.1305027;(0.0, 0.0);(0.0, 0.0);4.730001;0;0.7071069;0;0.1178555;0;
2.458297;0;0;0;0;34.61809;0;0;0;N/A;N/A;-0.4956232;0.24;N/A;N/A;0;0;0.2400262;0.1341089;0;0;0.1341089;(0.0, 0.0);(0.0, 0.0);4.730001;0;0.7071069;0;0.1170618;0;
2.465242;0;0;0;0;34.61809;0;0;0;N/A;N/A;-0.4956232;0.24;N/A;N/A;0;0;0.2400262;0.1341089;0;0;0.1341089;(0.0, 0.0);(0.0, 0.0);4.730001;0;0.7071069;0;0.1170618;0;
2.472251;0;0;0;0;34.61809;0;0;0;N/A;N/A;-0.4956232;0.24;N/A;N/A;0;0;0.2400262;0.1341089;0;0;0.1341089;(0.0, 0.0);(0.0, 0.0);4.730001;0;0.7071069;0;0.1170618;0;
2.479201;0;0;0;0;34.61809;0;0;0;N/A;N/A;-0.4956232;0.24;N/A;N/A;0;0;0.2400262;0.1341089;0;0;0.1341089;(0.0, 0.0);(0.0, 0.0);4.730001;0;0.7071069;0;0.1170618;0;
2.48614;0;0;0;0;34.61809;0;0;0;N/A;N/A;-0.4956232;0.24;N/A;N/A;0;0;0.2400262;0.1341089;0;0;0.1341089;(0.0, 0.0);(0.0, 0.0);4.730001;0;0.7071069;0;0.1170618;0;
2.499716;0;0;0;0;34.61809;0;0;0;N/A;N/A;-0.4956232;0.24;N/A;N/A;0;0;0.2400262;0.1341089;0;0;0.1341089;(0.0, 0.0);(0.0, 0.0);4.730001;0;0.7071069;0;0.1170618;0;
2.507063;0;0;0;0;34.61809;0;0;0;N/A;N/A;-0.4956232;0.24;N/A;N/A;0;0;0.2400262;0.1341089;0;0;0.1341089;(0.0, 0.0);(0.0, 0.0);4.730001;0;0.7071069;0;0.1170618;0;
2.51401;0;0;0;0;34.61809;0;0;0;N/A;N/A;-0.4956232;0.24;N/A;N/A;0;0;0.2400262;0.1341089;0;0;0.1341089;(0.0, 0.0);(0.0, 0.0);4.730001;0;0.7071069;0;0.1170618;0;
2.521038;0;0;0;0;34.61809;0;0;0;N/A;N/A;-0.4956232;0.24;N/A;N/A;0;0;0.2400262;0.1341089;0;0;0.1341089;(0.0, 0.0);(0.0, 0.0);4.730001;0;0.7071069;0;0.1170618;0;
2.528064;0;0;0;0;34.61809;0;0;0;N/A;N/A;-0.4956232;0.24;N/A;N/A;0;0;0.2400262;0.1341089;0;0;0.1341089;(0.0, 0.0);(0.0, 0.0);4.730001;0;0.7071069;0;0.1170618;0;
2.535018;0;0;0;0;34.61809;0;0;0;N/A;N/A;-0.4956232;0.24;N/A;N/A;0;0;0.2400262;0.1341089;0;0;0.1341089;(0.0, 0.0);(0.0, 0.0);4.730001;0;0.7071069;0;0.1170618;0;
2.541987;0;0;0;0;34.61809;0;0;0;N/A;N/A;-0.4956232;0.24;N/A;N/A;0;0;0.2400262;0.1341089;0;0;0.1341089;(0.0, 0.0);(0.0, 0.0);4.730001;0;0.7071069;0;0.1170618;0;
2.54895;0;0;0;0;34.61809;0;0;0;N/A;N/A;-0.4956232;0.24;N/A;N/A;0;0;0.2400262;0.1341089;0;0;0.1341089;(0.0, 0.0);(0.0, 0.0);4.730001;0;0.7071069;0;0.1170618;0;
2.556168;0;0;0;0;34.61809;0;0;0;N/A;N/A;-0.4956232;0.24;N/A;N/A;0;0;0.2400262;0.1341089;0;0;0.1341089;(0.0, 0.0);(0.0, 0.0);4.730001;0;0.7071069;0;0.1170618;0;
2.564201;0;0;0;0;34.61809;0;0;0;N/A;N/A;-0.4956232;0.24;N/A;N/A;0;0;0.2291159;0.128013;0;0;0.128013;(0.0, 0.0);(0.0, 0.0);4.730001;0;0.707107;0;0.1165546;0;
2.571164;0;0;0;0;34.61809;0;0;0;N/A;N/A;-0.4956232;0.24;N/A;N/A;0;0;0.2291159;0.128013;0;0;0.128013;(0.0, 0.0);(0.0, 0.0);4.730001;0;0.707107;0;0.1165546;0;
2.580469;0;0;0;0;34.61809;0;0;0;N/A;N/A;-0.4956232;0.24;N/A;N/A;0;0;0.2291159;0.128013;0;0;0.128013;(0.0, 0.0);(0.0, 0.0);4.730001;0;0.707107;0;0.1165546;0;
2.588082;0;0;0;0;34.61809;0;0;0;N/A;N/A;-0.4956232;0.24;N/A;N/A;0;0;0.2291159;0.128013;0;0;0.128013;(0.0, 0.0);(0.0, 0.0);4.730001;0;0.707107;0;0.1165546;0;
2.595449;0;0;0;0;34.61809;0;0;0;N/A;N/A;-0.4956232;0.24;N/A;N/A;0;0;0.2291159;0.128013;0;0;0.128013;(0.0, 0.0);(0.0, 0.0);4.730001;0;0.707107;0;0.1165546;0;
2.603399;0;0;0;0;34.61809;0;0;0;N/A;N/A;-0.4956232;0.24;N/A;N/A;0;0;0.2291159;0.128013;0;0;0.128013;(0.0, 0.0);(0.0, 0.0);4.730001;0;0.707107;0;0.1165546;0;
2.610855;0;0;0;0;34.61809;0;0;0;N/A;N/A;-0.4956232;0.24;N/A;N/A;0;0;0.2291159;0.128013;0;0;0.128013;(0.0, 0.0);(0.0, 0.0);4.730001;0;0.707107;0;0.1165546;0;
2.620793;0;0;0;0;34.61809;0;0;0;N/A;N/A;-0.4956232;0.24;N/A;N/A;0;0;0.2291159;0.128013;0;0;0.128013;(0.0, 0.0);(0.0, 0.0);4.730001;0;0.707107;0;0.1165546;0;
2.628829;0;0;0;0;34.61809;0;0;0;N/A;N/A;-0.4956232;0.24;N/A;N/A;0;0;0.2291159;0.128013;0;0;0.128013;(0.0, 0.0);(0.0, 0.0);4.730001;0;0.707107;0;0.1165546;0;
2.637534;0;0;0;0;34.61809;0;0;0;N/A;N/A;-0.4956232;0.24;N/A;N/A;0;0;0.2291159;0.128013;0;0;0.128013;(0.0, 0.0);(0.0, 0.0);4.730001;0;0.707107;0;0.1165546;0;
2.645126;0;0;0;0;34.61809;0;0;0;N/A;N/A;-0.4956232;0.24;N/A;N/A;0;0;0.2291159;0.128013;0;0;0.128013;(0.0, 0.0);(0.0, 0.0);4.730001;0;0.707107;0;0.1165546;0;
2.654366;0;0;0;0;34.61809;0;0;0;N/A;N/A;-0.4956232;0.24;N/A;N/A;0;0;0.2291159;0.128013;0;0;0.128013;(0.0, 0.0);(0.0, 0.0);4.730001;0;0.707107;0;0.1165546;0;
2.661934;0;0;0;0;34.61809;0;0;0;N/A;N/A;-0.4956232;0.24;N/A;N/A;0;0;0.2291159;0.128013;0;0;0.128013;(0.0, 0.0);(0.0, 0.0);4.730001;0;0.707107;0;0.1165546;0;
2.670269;0;0;0;0;34.61809;0;0;0;N/A;N/A;-0.4956232;0.24;N/A;N/A;0;0;0.2191544;0.1224473;0;0;0.1224473;(0.0, 0.0);(0.0, 0.0);4.730001;0;0.707107;0;0.1160987;0;
2.678138;0;0;0;0;34.61809;0;0;0;N/A;N/A;-0.4956232;0.24;N/A;N/A;0;0;0.2191544;0.1224473;0;0;0.1224473;(0.0, 0.0);(0.0, 0.0);4.730001;0;0.707107;0;0.1160987;0;
2.685946;0;0;0;0;34.61809;0;0;0;N/A;N/A;-0.4956232;0.24;N/A;N/A;0;0;0.2191544;0.1224473;0;0;0.1224473;(0.0, 0.0);(0.0, 0.0);4.730001;0;0.707107;0;0.1160987;0;
2.693935;0;0;0;0;34.61809;0;0;0;N/A;N/A;-0.4956232;0.24;N/A;N/A;0;0;0.2191544;0.1224473;0;0;0.1224473;(0.0, 0.0);(0.0, 0.0);4.730001;0;0.707107;0;0.1160987;0;
2.703262;0;0;0;0;34.61809;0;0;0;N/A;N/A;-0.4956232;0.24;N/A;N/A;0;0;0.2191544;0.1224473;0;0;0.1224473;(0.0, 0.0);(0.0, 0.0);4.730001;0;0.707107;0;0.1160987;0;
2.710842;0;0;0;0;34.61809;0;0;0;N/A;N/A;-0.4956232;0.24;N/A;N/A;0;0;0.2191544;0.1224473;0;0;0.1224473;(0.0, 0.0);(0.0, 0.0);4.730001;0;0.707107;0;0.1160987;0;
2.718364;0;0;0;0;34.61809;0;0;0;N/A;N/A;-0.4956232;0.24;N/A;N/A;0;0;0.2191544;0.1224473;0;0;0.1224473;(0.0, 0.0);(0.0, 0.0);4.730001;0;0.707107;0;0.1160987;0;
2.72633;0;0;0;0;34.61809;0;0;0;N/A;N/A;-0.4956232;0.24;N/A;N/A;0;0;0.2191544;0.1224473;0;0;0.1224473;(0.0, 0.0);(0.0, 0.0);4.730001;0;0.707107;0;0.1160987;0;
2.734476;0;0;0;0;34.61809;0;0;0;N/A;N/A;-0.4956232;0.24;N/A;N/A;0;0;0.2191544;0.1224473;0;0;0.1224473;(0.0, 0.0);(0.0, 0.0);4.730001;0;0.707107;0;0.1160987;0;
2.743589;0;0;0;0;34.61809;0;0;0;N/A;N/A;-0.4956232;0.24;N/A;N/A;0;0;0.2191544;0.1224473;0;0;0.1224473;(0.0, 0.0);(0.0, 0.0);4.730001;0;0.707107;0;0.1160987;0;
2.751872;0;0;0;0;34.61809;0;0;0;N/A;N/A;-0.4956232;0.24;N/A;N/A;0;0;0.2191544;0.1224473;0;0;0.1224473;(0.0, 0.0);(0.0, 0.0);4.730001;0;0.707107;0;0.1160987;0;
2.761019;0;0;0;0;34.61809;0;0;0;N/A;N/A;-0.4956232;0.24;N/A;N/A;0;0;0.2191544;0.1224473;0;0;0.1224473;(0.0, 0.0);(0.0, 0.0);4.730001;0;0.707107;0;0.1160987;0;
2.769022;0;0;0;0;34.61809;0;0;0;N/A;N/A;-0.4956232;0.24;N/A;N/A;0;0;0.2191544;0.1224473;0;0;0.1224473;(0.0, 0.0);(0.0, 0.0);4.730001;0;0.707107;0;0.1160987;0;
2.778485;0;0;0;0;34.61809;0;0;0;N/A;N/A;-0.4956232;0.24;N/A;N/A;0;0;0.2100229;0.1173453;0;0;0.1173453;(0.0, 0.0);(0.0, 0.0);4.730001;0;0.707107;0;0.1157702;0;
2.78543;0;0;0;0;34.61809;0;0;0;N/A;N/A;-0.4956232;0.24;N/A;N/A;0;0;0.2100229;0.1173453;0;0;0.1173453;(0.0, 0.0);(0.0, 0.0);4.730001;0;0.707107;0;0.1157702;0;
2.7932;0;0;0;0;34.61809;0;0;0;N/A;N/A;-0.4956232;0.24;N/A;N/A;0;0;0.2100229;0.1173453;0;0;0.1173453;(0.0, 0.0);(0.0, 0.0);4.730001;0;0.707107;0;0.1157702;0;
2.800145;0;0;0;0;34.61809;0;0;0;N/A;N/A;-0.4956232;0.24;N/A;N/A;0;0;0.2100229;0.1173453;0;0;0.1173453;(0.0, 0.0);(0.0, 0.0);4.730001;0;0.707107;0;0.1157702;0;
2.808705;0;0;0;0;34.61809;0;0;0;N/A;N/A;-0.4956232;0.24;N/A;N/A;0;0;0.2100229;0.1173453;0;0;0.1173453;(0.0, 0.0);(0.0, 0.0);4.730001;0;0.707107;0;0.1157702;0;
2.81687;0;0;0;0;34.61809;0;0;0;N/A;N/A;-0.4956232;0.24;N/A;N/A;0;0;0.2100229;0.1173453;0;0;0.1173453;(0.0, 0.0);(0.0, 0.0);4.730001;0;0.707107;0;0.1157702;0;
2.824437;0;0;0;0;34.61809;0;0;0;N/A;N/A;-0.4956232;0.24;N/A;N/A;0;0;0.2100229;0.1173453;0;0;0.1173453;(0.0, 0.0);(0.0, 0.0);4.730001;0;0.707107;0;0.1157702;0;
2.831784;0;0;0;0;34.61809;0;0;0;N/A;N/A;-0.4956232;0.24;N/A;N/A;0;0;0.2100229;0.1173453;0;0;0.1173453;(0.0, 0.0);(0.0, 0.0);4.730001;0;0.707107;0;0.1157702;0;
2.838729;0;0;0;0;34.61809;0;0;0;N/A;N/A;-0.4956232;0.24;N/A;N/A;0;0;0.2100229;0.1173453;0;0;0.1173453;(0.0, 0.0);(0.0, 0.0);4.730001;0;0.707107;0;0.1157702;0;
2.845675;0;0;0;0;34.61809;0;0;0;N/A;N/A;-0.4956232;0.24;N/A;N/A;0;0;0.2100229;0.1173453;0;0;0.1173453;(0.0, 0.0);(0.0, 0.0);4.730001;0;0.707107;0;0.1157702;0;
2.852618;0;0;0;0;34.61809;0;0;0;N/A;N/A;-0.4956232;0.24;N/A;N/A;0;0;0.2100229;0.1173453;0;0;0.1173453;(0.0, 0.0);(0.0, 0.0);4.730001;0;0.707107;0;0.1157702;0;
2.859563;0;0;0;0;34.61809;0;0;0;N/A;N/A;-0.4956232;0.24;N/A;N/A;0;0;0.2100229;0.1173453;0;0;0.1173453;(0.0, 0.0);(0.0, 0.0);4.730001;0;0.707107;0;0.1157702;0;
2.866587;0;0;0;0;34.61809;0;0;0;N/A;N/A;-0.4956232;0.24;N/A;N/A;0;0;0.2100229;0.1173453;0;0;0.1173453;(0.0, 0.0);(0.0, 0.0);4.730001;0;0.707107;0;0.1157702;0;
2.873532;0;0;0;0;34.61809;0;0;0;N/A;N/A;-0.4956232;0.24;N/A;N/A;0;0;0.2100229;0.1173453;0;0;0.1173453;(0.0, 0.0);(0.0, 0.0);4.730001;0;0.707107;0;0.1157702;0;
2.880476;0;0;0;0;34.61809;0;0;0;N/A;N/A;-0.4956232;0.24;N/A;N/A;0;0;0.201622;0.1126515;0;0;0.1126515;(0.0, 0.0);(0.0, 0.0);4.730001;0;0.707107;0;0.115219;0;
2.887888;0;0;0;0;34.61809;0;0;0;N/A;N/A;-0.4956232;0.24;N/A;N/A;0;0;0.201622;0.1126515;0;0;0.1126515;(0.0, 0.0);(0.0, 0.0);4.730001;0;0.707107;0;0.115219;0;
2.894833;0;0;0;0;34.61809;0;0;0;N/A;N/A;-0.4956232;0.24;N/A;N/A;0;0;0.201622;0.1126515;0;0;0.1126515;(0.0, 0.0);(0.0, 0.0);4.730001;0;0.707107;0;0.115219;0;
2.902618;0;0;0;0;34.61809;0;0;0;N/A;N/A;-0.4956232;0.24;N/A;N/A;0;0;0.201622;0.1126515;0;0;0.1126515;(0.0, 0.0);(0.0, 0.0);4.730001;0;0.707107;0;0.115219;0;
2.911652;0;0;0;0;34.61809;0;0;0;N/A;N/A;-0.4956232;0.24;N/A;N/A;0;0;0.201622;0.1126515;0;0;0.1126515;(0.0, 0.0);(0.0, 0.0);4.730001;0;0.707107;0;0.115219;0;
2.919007;0;0;0;0;34.61809;0;0;0;N/A;N/A;-0.4956232;0.24;N/A;N/A;0;0;0.201622;0.1126515;0;0;0.1126515;(0.0, 0.0);(0.0, 0.0);4.730001;0;0.707107;0;0.115219;0;
2.925952;0;0;0;0;34.61809;0;0;0;N/A;N/A;-0.4956232;0.24;N/A;N/A;0;0;0.201622;0.1126515;0;0;0.1126515;(0.0, 0.0);(0.0, 0.0);4.730001;0;0.707107;0;0.115219;0;
2.934507;0;0;0;0;34.61809;0;0;0;N/A;N/A;-0.4956232;0.24;N/A;N/A;0;0;0.201622;0.1126515;0;0;0.1126515;(0.0, 0.0);(0.0, 0.0);4.730001;0;0.707107;0;0.115219;0;
2.941452;0;0;0;0;34.61809;0;0;0;N/A;N/A;-0.4956232;0.24;N/A;N/A;0;0;0.201622;0.1126515;0;0;0.1126515;(0.0, 0.0);(0.0, 0.0);4.730001;0;0.707107;0;0.115219;0;
2.950422;0;0;0;0;34.61809;0;0;0;N/A;N/A;-0.4956232;0.24;N/A;N/A;0;0;0.201622;0.1126515;0;0;0.1126515;(0.0, 0.0);(0.0, 0.0);4.730001;0;0.707107;0;0.115219;0;
2.957368;0;0;0;0;34.61809;0;0;0;N/A;N/A;-0.4956232;0.24;N/A;N/A;0;0;0.201622;0.1126515;0;0;0.1126515;(0.0, 0.0);(0.0, 0.0);4.730001;0;0.707107;0;0.115219;0;
2.964391;0;0;0;0;34.61809;0;0;0;N/A;N/A;-0.4956232;0.24;N/A;N/A;0;0;0.201622;0.1126515;0;0;0.1126515;(0.0, 0.0);(0.0, 0.0);4.730001;0;0.707107;0;0.115219;0;
2.971337;0;0;0;0;34.61809;0;0;0;N/A;N/A;-0.4956232;0.24;N/A;N/A;0;0;0.201622;0.1126515;0;0;0.1126515;(0.0, 0.0);(0.0, 0.0);4.730001;0;0.707107;0;0.115219;0;
2.978281;0;0;0;0;34.61809;0;0;0;N/A;N/A;-0.4956232;0.24;N/A;N/A;0;0;0.201622;0.1126515;0;0;0.1126515;(0.0, 0.0);(0.0, 0.0);4.730001;0;0.707107;0;0.115219;0;
2.98577;0;0;0;0;34.61809;0;0;0;N/A;N/A;-0.4956232;0.24;N/A;N/A;0;0;0.1938673;0.1083187;0;0;0.1083187;(0.0, 0.0);(0.0, 0.0);4.730001;0;0.707107;0;0.1148373;0;
2.992715;0;0;0;0;34.61809;0;0;0;N/A;N/A;-0.4956232;0.24;N/A;N/A;0;0;0.1938673;0.1083187;0;0;0.1083187;(0.0, 0.0);(0.0, 0.0);4.730001;0;0.707107;0;0.1148373;0;
2.999659;0;0;0;0;34.61809;0;0;0;N/A;N/A;-0.4956232;0.24;N/A;N/A;0;0;0.1938673;0.1083187;0;0;0.1083187;(0.0, 0.0);(0.0, 0.0);4.730001;0;0.707107;0;0.1148373;0;
3.007437;0;0;0;0;34.61809;0;0;0;N/A;N/A;-0.4956232;0.24;N/A;N/A;0;0;0.1938673;0.1083187;0;0;0.1083187;(0.0, 0.0);(0.0, 0.0);4.730001;0;0.707107;0;0.1148373;0;
3.014441;0;0;0;0;34.61809;0;0;0;N/A;N/A;-0.4956232;0.24;N/A;N/A;0;0;0.1938673;0.1083187;0;0;0.1083187;(0.0, 0.0);(0.0, 0.0);4.730001;0;0.707107;0;0.1148373;0;
3.022579;0;0;0;0;34.61809;0;0;0;N/A;N/A;-0.4956232;0.24;N/A;N/A;0;0;0.1938673;0.1083187;0;0;0.1083187;(0.0, 0.0);(0.0, 0.0);4.730001;0;0.707107;0;0.1148373;0;
3.033624;0;0;0;0;34.61809;0;0;0;N/A;N/A;-0.4956232;0.24;N/A;N/A;0;0;0.1938673;0.1083187;0;0;0.1083187;(0.0, 0.0);(0.0, 0.0);4.730001;0;0.707107;0;0.1148373;0;
3.042773;0;0;0;0;34.61809;0;0;0;N/A;N/A;-0.4956232;0.24;N/A;N/A;0;0;0.1938673;0.1083187;0;0;0.1083187;(0.0, 0.0);(0.0, 0.0);4.730001;0;0.707107;0;0.1148373;0;
3.050131;0;0;0;0;34.61809;0;0;0;N/A;N/A;-0.4956232;0.24;N/A;N/A;0;0;0.1938673;0.1083187;0;0;0.1083187;(0.0, 0.0);(0.0, 0.0);4.730001;0;0.707107;0;0.1148373;0;
3.05708;0;0;0;0;34.61809;0;0;0;N/A;N/A;-0.4956232;0.24;N/A;N/A;0;0;0.1938673;0.1083187;0;0;0.1083187;(0.0, 0.0);(0.0, 0.0);4.730001;0;0.707107;0;0.1148373;0;
3.066227;0;0;0;0;34.61809;0;0;0;N/A;N/A;-0.4956232;0.24;N/A;N/A;0;0;0.1938673;0.1083187;0;0;0.1083187;(0.0, 0.0);(0.0, 0.0);4.730001;0;0.707107;0;0.1148373;0;
3.073438;0;0;0;0;34.61809;0;0;0;N/A;N/A;-0.4956232;0.24;N/A;N/A;0;0;0.1938673;0.1083187;0;0;0.1083187;(0.0, 0.0);(0.0, 0.0);4.730001;0;0.707107;0;0.1148373;0;
3.081577;0;0;0;0;34.61809;0;0;0;N/A;N/A;-0.4956232;0.24;N/A;N/A;0;0;0.1938673;0.1083187;0;0;0.1083187;(0.0, 0.0);(0.0, 0.0);4.730001;0;0.707107;0;0.1148373;0;
3.092122;0;0;0;0;34.61809;0;0;0;N/A;N/A;-0.4956232;0.24;N/A;N/A;0;0;0.1866871;0.1043069;0;0;0.1043069;(0.0, 0.0);(0.0, 0.0);4.730001;0;0.707107;0;0.114523;0;
