sep=;
timestamp;reset_count;virtual_distance_between_resets_median;time_elapsed_between_resets_median;sum_injected_translation;sum_injected_rotation_g_r;sum_injected_rotation_g_c;sum_real_distance_travelled;sum_virtual_distance_travelled;min_g_t;max_g_t;min_g_r;max_g_r;min_g_c;max_g_c;g_t_average;injected_translation_average;g_r_average;injected_rotation_from_rotation_gain_average;g_c_average;injected_rotation_from_curvature_gain_average;injected_rotation_average;real_position_average;virtual_position_average;distance_to_boundary_average;distance_to_center_average;normalized_distance_to_boundary_average;experiment_duration;average_sampling_interval;normalized_distance_to_center_average;
0;0;0;0;0;0;0;0;0;N/A;N/A;N/A;N/A;N/A;N/A;0;0;0;0;0;0;0;(NaN, NaN);(NaN, NaN);0;0;0;0;0;0;
0.02;0;0;0;0;0;0;0;0;N/A;N/A;N/A;N/A;N/A;N/A;0;0;0;0;0;0;0;(NaN, NaN);(NaN, NaN);0;0;0;0;0;0;
0.3533334;0;0;0;0;0;0;0;0;N/A;N/A;N/A;N/A;N/A;N/A;0;0;0;0;0;0;0;(0.0, 0.0);(0.0, 0.0);4.73;0;0.7071068;0;0.3533334;0;
0.3883509;0;0;0;0;0;0;0;0;N/A;N/A;N/A;N/A;N/A;N/A;0;0;0;0;0;0;0;(0.0, 0.0);(0.0, 0.0);4.73;0;0.7071068;0;0.3533334;0;
0.3968287;0;0;0;0;0;0;0;0;N/A;N/A;N/A;N/A;N/A;N/A;0;0;0;0;0;0;0;(0.0, 0.0);(0.0, 0.0);4.73;0;0.7071068;0;0.3533334;0;
0.4037752;0;0;0;0;0;0;0;0;N/A;N/A;N/A;N/A;N/A;N/A;0;0;0;0;0;0;0;(0.0, 0.0);(0.0, 0.0);4.73;0;0.7071068;0;0.3533334;0;
0.4117884;0;0;0;0;0;0;0;0;N/A;N/A;N/A;N/A;N/A;N/A;0;0;0;0;0;0;0;(0.0, 0.0);(0.0, 0.0);4.73;0;0.7071068;0;0.3533334;0;
0.4207084;0;0;0;0;0;0;0;0;N/A;N/A;N/A;N/A;N/A;N/A;0;0;0;0;0;0;0;(0.0, 0.0);(0.0, 0.0);4.73;0;0.7071068;0;0.3533334;0;
0.4324383;0;0;0;0;0;0;0;0;N/A;N/A;N/A;N/A;N/A;N/A;0;0;0;0;0;0;0;(0.0, 0.0);(0.0, 0.0);4.73;0;0.7071068;0;0.3533334;0;
0.4398077;0;0;0;0;0;0;0;0;N/A;N/A;N/A;N/A;N/A;N/A;0;0;0;0;0;0;0;(0.0, 0.0);(0.0, 0.0);4.73;0;0.7071068;0;0.3533334;0;
0.4475001;0;0;0;0;0;0;0;0;N/A;N/A;N/A;N/A;N/A;N/A;0;0;0;0;0;0;0;(0.0, 0.0);(0.0, 0.0);4.73;0;0.7071068;0;0.3533334;0;
0.4552715;0;0;0;0;0;0;0;0;N/A;N/A;N/A;N/A;N/A;N/A;0;0;0;0;0;0;0;(0.0, 0.0);(0.0, 0.0);4.73;0;0.7071068;0;0.2276357;0;
0.4648157;0;0;0;0;0;0;0;0;N/A;N/A;N/A;N/A;N/A;N/A;0;0;0;0;0;0;0;(0.0, 0.0);(0.0, 0.0);4.73;0;0.7071068;0;0.2276357;0;
0.4717613;0;0;0;0;0;0;0;0;N/A;N/A;N/A;N/A;N/A;N/A;0;0;0;0;0;0;0;(0.0, 0.0);(0.0, 0.0);4.73;0;0.7071068;0;0.2276357;0;
0.4787048;0;0;0;0;0;0;0;0;N/A;N/A;N/A;N/A;N/A;N/A;0;0;0;0;0;0;0;(0.0, 0.0);(0.0, 0.0);4.73;0;0.7071068;0;0.2276357;0;
0.4856494;0;0;0;0;0;0;0;0;N/A;N/A;N/A;N/A;N/A;N/A;0;0;0;0;0;0;0;(0.0, 0.0);(0.0, 0.0);4.73;0;0.7071068;0;0.2276357;0;
0.4966486;0;0;0;0;0;0;0;0;N/A;N/A;N/A;N/A;N/A;N/A;0;0;0;0;0;0;0;(0.0, 0.0);(0.0, 0.0);4.73;0;0.7071068;0;0.2276357;0;
0.5035931;0;0;0;0;0;0;0;0;N/A;N/A;N/A;N/A;N/A;N/A;0;0;0;0;0;0;0;(0.0, 0.0);(0.0, 0.0);4.73;0;0.7071068;0;0.2276357;0;
0.511224;0;0;0;0;0;0;0;0;N/A;N/A;N/A;N/A;N/A;N/A;0;0;0;0;0;0;0;(0.0, 0.0);(0.0, 0.0);4.73;0;0.7071068;0;0.2276357;0;
0.5181676;0;0;0;0;0;0;0;0;N/A;N/A;N/A;N/A;N/A;N/A;0;0;0;0;0;0;0;(0.0, 0.0);(0.0, 0.0);4.73;0;0.7071068;0;0.2276357;0;
0.5251122;0;0;0;0;0;0;0;0;N/A;N/A;N/A;N/A;N/A;N/A;0;0;0;0;0;0;0;(0.0, 0.0);(0.0, 0.0);4.73;0;0.7071068;0;0.2276357;0;
0.5320567;0;0;0;0;0;0;0;0;N/A;N/A;N/A;N/A;N/A;N/A;0;0;0;0;0;0;0;(0.0, 0.0);(0.0, 0.0);4.73;0;0.7071068;0;0.2276357;0;
0.5390018;0;0;0;0;0;0;0;0;N/A;N/A;N/A;N/A;N/A;N/A;0;0;0;0;0;0;0;(0.0, 0.0);(0.0, 0.0);4.73;0;0.7071068;0;0.2276357;0;
0.5459462;0;0;0;0;0;0;0;0;N/A;N/A;N/A;N/A;N/A;N/A;0;0;0;0;0;0;0;(0.0, 0.0);(0.0, 0.0);4.73;0;0.7071068;0;0.2276357;0;
0.5528905;0;0;0;0;0;0;0;0;N/A;N/A;N/A;N/A;N/A;N/A;0;0;0;0;0;0;0;(0.0, 0.0);(0.0, 0.0);4.73;0;0.7071068;0;0.2276357;0;
0.5599731;0;0;0;0;0;0;0;0;N/A;N/A;N/A;N/A;N/A;N/A;0;0;0;0;0;0;0;(0.0, 0.0);(0.0, 0.0);4.73;0;0.7071068;0;0.1866577;0;
0.5669177;0;0;0;0;0;0;0;0;N/A;N/A;N/A;N/A;N/A;N/A;0;0;0;0;0;0;0;(0.0, 0.0);(0.0, 0.0);4.73;0;0.7071068;0;0.1866577;0;
0.5738649;0;0;0;0;0;0;0;0;N/A;N/A;N/A;N/A;N/A;N/A;0;0;0;0;0;0;0;(0.0, 0.0);(0.0, 0.0);4.73;0;0.7071068;0;0.1866577;0;
0.5808071;0;0;0;0;0;0;0;0;N/A;N/A;N/A;N/A;N/A;N/A;0;0;0;0;0;0;0;(0.0, 0.0);(0.0, 0.0);4.73;0;0.7071068;0;0.1866577;0;
0.5877516;0;0;0;0;0;0;0;0;N/A;N/A;N/A;N/A;N/A;N/A;0;0;0;0;0;0;0;(0.0, 0.0);(0.0, 0.0);4.73;0;0.7071068;0;0.1866577;0;
0.5946962;0;0;0;0;0;0;0;0;N/A;N/A;N/A;N/A;N/A;N/A;0;0;0;0;0;0;0;(0.0, 0.0);(0.0, 0.0);4.73;0;0.7071068;0;0.1866577;0;
0.6016411;0;0;0;0;0;0;0;0;N/A;N/A;N/A;N/A;N/A;N/A;0;0;0;0;0;0;0;(0.0, 0.0);(0.0, 0.0);4.73;0;0.7071068;0;0.1866577;0;
0.6086832;0;0;0;0;0;0;0;0;N/A;N/A;N/A;N/A;N/A;N/A;0;0;0;0;0;0;0;(0.0, 0.0);(0.0, 0.0);4.73;0;0.7071068;0;0.1866577;0;
0.6156278;0;0;0;0;0;0;0;0;N/A;N/A;N/A;N/A;N/A;N/A;0;0;0;0;0;0;0;(0.0, 0.0);(0.0, 0.0);4.73;0;0.7071068;0;0.1866577;0;
0.6225722;0;0;0;0;0;0;0;0;N/A;N/A;N/A;N/A;N/A;N/A;0;0;0;0;0;0;0;(0.0, 0.0);(0.0, 0.0);4.73;0;0.7071068;0;0.1866577;0;
0.629522;0;0;0;0;0;0;0;0;N/A;N/A;N/A;N/A;N/A;N/A;0;0;0;0;0;0;0;(0.0, 0.0);(0.0, 0.0);4.73;0;0.7071068;0;0.1866577;0;
0.636463;0;0;0;0;0;0;0;0;N/A;N/A;N/A;N/A;N/A;N/A;0;0;0;0;0;0;0;(0.0, 0.0);(0.0, 0.0);4.73;0;0.7071068;0;0.1866577;0;
0.6434081;0;0;0;0;0;0;0;0;N/A;N/A;N/A;N/A;N/A;N/A;0;0;0;0;0;0;0;(0.0, 0.0);(0.0, 0.0);4.73;0;0.7071068;0;0.1866577;0;
0.6503527;0;0;0;0;0;0;0;0;N/A;N/A;N/A;N/A;N/A;N/A;0;0;0;0;0;0;0;(0.0, 0.0);(0.0, 0.0);4.73;0;0.7071068;0;0.1866577;0;
0.6589125;0;0;0;0;0;0;0;0;N/A;N/A;N/A;N/A;N/A;N/A;0;0;0;0;0;0;0;(0.0, 0.0);(0.0, 0.0);4.73;0;0.7071068;0;0.1866577;0;
0.6658576;0;0;0;0;0;0;0;0;N/A;N/A;N/A;N/A;N/A;N/A;0;0;0;0;0;0;0;(0.0, 0.0);(0.0, 0.0);4.73;0;0.7071069;0;0.1664644;0;
0.672801;0;0;0;0;0;0;0;0;N/A;N/A;N/A;N/A;N/A;N/A;0;0;0;0;0;0;0;(0.0, 0.0);(0.0, 0.0);4.73;0;0.7071069;0;0.1664644;0;
0.6797463;0;0;0;0;0;0;0;0;N/A;N/A;N/A;N/A;N/A;N/A;0;0;0;0;0;0;0;(0.0, 0.0);(0.0, 0.0);4.73;0;0.7071069;0;0.1664644;0;
0.6866906;0;0;0;0;0;0;0;0;N/A;N/A;N/A;N/A;N/A;N/A;0;0;0;0;0;0;0;(0.0, 0.0);(0.0, 0.0);4.73;0;0.7071069;0;0.1664644;0;
0.6936349;0;0;0;0;0;0;0;0;N/A;N/A;N/A;N/A;N/A;N/A;0;0;0;0;0;0;0;(0.0, 0.0);(0.0, 0.0);4.73;0;0.7071069;0;0.1664644;0;
0.7005795;0;0;0;0;0;0;0;0;N/A;N/A;N/A;N/A;N/A;N/A;0;0;0;0;0;0;0;(0.0, 0.0);(0.0, 0.0);4.73;0;0.7071069;0;0.1664644;0;
0.7078732;0;0;0;0;0;0;0;0;N/A;N/A;N/A;N/A;N/A;N/A;0;0;0;0;0;0;0;(0.0, 0.0);(0.0, 0.0);4.73;0;0.7071069;0;0.1664644;0;
0.7186868;0;0;0;0;0;0;0;0;N/A;N/A;N/A;N/A;N/A;N/A;0;0;0;0;0;0;0;(0.0, 0.0);(0.0, 0.0);4.73;0;0.7071069;0;0.1664644;0;
0.7264711;0;0;0;0;0;0;0;0;N/A;N/A;N/A;N/A;N/A;N/A;0;0;0;0;0;0;0;(0.0, 0.0);(0.0, 0.0);4.73;0;0.7071069;0;0.1664644;0;
0.7334152;0;0;0;0;0;0;0;0;N/A;N/A;N/A;N/A;N/A;N/A;0;0;0;0;0;0;0;(0.0, 0.0);(0.0, 0.0);4.73;0;0.7071069;0;0.1664644;0;
0.7403715;0;0;0;0;0;0;0;0;N/A;N/A;N/A;N/A;N/A;N/A;0;0;0;0;0;0;0;(0.0, 0.0);(0.0, 0.0);4.73;0;0.7071069;0;0.1664644;0;
0.7473177;0;0;0;0;0;0;0;0;N/A;N/A;N/A;N/A;N/A;N/A;0;0;0;0;0;0;0;(0.0, 0.0);(0.0, 0.0);4.73;0;0.7071069;0;0.1664644;0;
0.7542607;0;0;0;0;0;0;0;0;N/A;N/A;N/A;N/A;N/A;N/A;0;0;0;0;0;0;0;(0.0, 0.0);(0.0, 0.0);4.73;0;0.7071069;0;0.1664644;0;
0.7612051;0;0;0;0;0;0;0;0;N/A;N/A;N/A;N/A;N/A;N/A;0;0;0;0;0;0;0;(0.0, 0.0);(0.0, 0.0);4.73;0;0.7071069;0;0.1664644;0;
0.76815;0;0;0;0;0;0;0;0;N/A;N/A;N/A;N/A;N/A;N/A;0;0;0;0;0;0;0;(0.0, 0.0);(0.0, 0.0);4.73;0;0.7071069;0;0.15363;0;
0.7750943;0;0;0;0;0;0;0;0;N/A;N/A;N/A;N/A;N/A;N/A;0;0;0;0;0;0;0;(0.0, 0.0);(0.0, 0.0);4.73;0;0.7071069;0;0.15363;0;
0.7820393;0;0;0;0;0;0;0;0;N/A;N/A;N/A;N/A;N/A;N/A;0;0;0;0;0;0;0;(0.0, 0.0);(0.0, 0.0);4.73;0;0.7071069;0;0.15363;0;
0.7938778;0;0;0;0;0;0;0;0;N/A;N/A;N/A;N/A;N/A;N/A;0;0;0;0;0;0;0;(0.0, 0.0);(0.0, 0.0);4.73;0;0.7071069;0;0.15363;0;
0.805541;0;0;0;0;0;0;0;0;N/A;N/A;N/A;N/A;N/A;N/A;0;0;0;0;0;0;0;(0.0, 0.0);(0.0, 0.0);4.73;0;0.7071069;0;0.15363;0;
0.8128666;0;0;0;0;0;0;0;0;N/A;N/A;N/A;N/A;N/A;N/A;0;0;0;0;0;0;0;(0.0, 0.0);(0.0, 0.0);4.73;0;0.7071069;0;0.15363;0;
0.819828;0;0;0;0;0;0;0;0;N/A;N/A;N/A;N/A;N/A;N/A;0;0;0;0;0;0;0;(0.0, 0.0);(0.0, 0.0);4.73;0;0.7071069;0;0.15363;0;
0.8268712;0;0;0;0;0;0;0;0;N/A;N/A;N/A;N/A;N/A;N/A;0;0;0;0;0;0;0;(0.0, 0.0);(0.0, 0.0);4.73;0;0.7071069;0;0.15363;0;
0.8338099;0;0;0;0;0;0;0;0;N/A;N/A;N/A;N/A;N/A;N/A;0;0;0;0;0;0;0;(0.0, 0.0);(0.0, 0.0);4.73;0;0.7071069;0;0.15363;0;
0.8407574;0;0;0;0;0;0;0;0;N/A;N/A;N/A;N/A;N/A;N/A;0;0;0;0;0;0;0;(0.0, 0.0);(0.0, 0.0);4.73;0;0.7071069;0;0.15363;0;
0.8505328;0;0;0;0;0;0;0;0;N/A;N/A;N/A;N/A;N/A;N/A;0;0;0;0;0;0;0;(0.0, 0.0);(0.0, 0.0);4.73;0;0.7071069;0;0.15363;0;
0.8611988;0;0;0;0;0;0;0;0;N/A;N/A;N/A;N/A;N/A;N/A;0;0;0;0;0;0;0;(0.0, 0.0);(0.0, 0.0);4.73;0;0.7071069;0;0.15363;0;
0.8730887;0;0;0;0;0;0;0;0;N/A;N/A;N/A;N/A;N/A;N/A;0;0;0;0;0;0;0;(0.0, 0.0);(0.0, 0.0);4.73;0;0.7071068;0;0.1455148;0;
0.8863631;0;0;0;0;0;0;0;0;N/A;N/A;N/A;N/A;N/A;N/A;0;0;0;0;0;0;0;(0.0, 0.0);(0.0, 0.0);4.73;0;0.7071068;0;0.1455148;0;
0.898468;0;0;0;0;0;0;0;0;N/A;N/A;N/A;N/A;N/A;N/A;0;0;0;0;0;0;0;(0.0, 0.0);(0.0, 0.0);4.73;0;0.7071068;0;0.1455148;0;
0.9058362;0;0;0;0;0;0;0;0;N/A;N/A;N/A;N/A;N/A;N/A;0;0;0;0;0;0;0;(0.0, 0.0);(0.0, 0.0);4.73;0;0.7071068;0;0.1455148;0;
0.913348;0;0;0;0;0;0;0;0;N/A;N/A;N/A;N/A;N/A;N/A;0;0;0;0;0;0;0;(0.0, 0.0);(0.0, 0.0);4.73;0;0.7071068;0;0.1455148;0;
0.9202926;0;0;0;0;0;0;0;0;N/A;N/A;N/A;N/A;N/A;N/A;0;0;0;0;0;0;0;(0.0, 0.0);(0.0, 0.0);4.73;0;0.7071068;0;0.1455148;0;
0.9275709;0;0;0;0;0;0;0;0;N/A;N/A;N/A;N/A;N/A;N/A;0;0;0;0;0;0;0;(0.0, 0.0);(0.0, 0.0);4.73;0;0.7071068;0;0.1455148;0;
0.9345168;0;0;0;0;0;0;0;0;N/A;N/A;N/A;N/A;N/A;N/A;0;0;0;0;0;0;0;(0.0, 0.0);(0.0, 0.0);4.73;0;0.7071068;0;0.1455148;0;
0.941573;0;0;0;0;0;0;0;0;N/A;N/A;N/A;N/A;N/A;N/A;0;0;0;0;0;0;0;(0.0, 0.0);(0.0, 0.0);4.73;0;0.7071068;0;0.1455148;0;
0.9490806;0;0;0;0;0;0;0;0;N/A;N/A;N/A;N/A;N/A;N/A;0;0;0;0;0;0;0;(0.0, 0.0);(0.0, 0.0);4.73;0;0.7071068;0;0.1455148;0;
0.9560257;0;0;0;0;0;0;0;0;N/A;N/A;N/A;N/A;N/A;N/A;0;0;0;0;0;0;0;(0.0, 0.0);(0.0, 0.0);4.73;0;0.7071068;0;0.1455148;0;
0.9631175;0;0;0;0;0;0;0;0;N/A;N/A;N/A;N/A;N/A;N/A;0;0;0;0;0;0;0;(0.0, 0.0);(0.0, 0.0);4.73;0;0.7071068;0;0.1455148;0;
0.9701898;0;0;0;0;0;0;0;0;N/A;N/A;N/A;N/A;N/A;N/A;0;0;0;0;0;0;0;(0.0, 0.0);(0.0, 0.0);4.73;0;0.7071068;0;0.1455148;0;
0.9771423;0;0;0;0;0;0;0;0;N/A;N/A;N/A;N/A;N/A;N/A;0;0;0;0;0;0;0;(0.0, 0.0);(0.0, 0.0);4.73;0;0.7071068;0;0.1395918;0;
0.9840816;0;0;0;0;0;0;0;0;N/A;N/A;N/A;N/A;N/A;N/A;0;0;0;0;0;0;0;(0.0, 0.0);(0.0, 0.0);4.73;0;0.7071068;0;0.1395918;0;
0.9910262;0;0;0;0;0;0;0;0;N/A;N/A;N/A;N/A;N/A;N/A;0;0;0;0;0;0;0;(0.0, 0.0);(0.0, 0.0);4.73;0;0.7071068;0;0.1395918;0;
0.9979706;0;0;0;0;0;0;0;0;N/A;N/A;N/A;N/A;N/A;N/A;0;0;0;0;0;0;0;(0.0, 0.0);(0.0, 0.0);4.73;0;0.7071068;0;0.1395918;0;
1.004915;0;0;0;0;0;0;0;0;N/A;N/A;N/A;N/A;N/A;N/A;0;0;0;0;0;0;0;(0.0, 0.0);(0.0, 0.0);4.73;0;0.7071068;0;0.1395918;0;
1.012245;0;0;0;0;0;0;0;0;N/A;N/A;N/A;N/A;N/A;N/A;0;0;0;0;0;0;0;(0.0, 0.0);(0.0, 0.0);4.73;0;0.7071068;0;0.1395918;0;
1.019402;0;0;0;0;0;0;0;0;N/A;N/A;N/A;N/A;N/A;N/A;0;0;0;0;0;0;0;(0.0, 0.0);(0.0, 0.0);4.73;0;0.7071068;0;0.1395918;0;
1.026357;0;0;0;0;0;0;0;0;N/A;N/A;N/A;N/A;N/A;N/A;0;0;0;0;0;0;0;(0.0, 0.0);(0.0, 0.0);4.73;0;0.7071068;0;0.1395918;0;
1.033302;0;0;0;0;0;0;0;0;N/A;N/A;N/A;N/A;N/A;N/A;0;0;0;0;0;0;0;(0.0, 0.0);(0.0, 0.0);4.73;0;0.7071068;0;0.1395918;0;
1.040252;0;0;0;0;0;0;0;0;N/A;N/A;N/A;N/A;N/A;N/A;0;0;0;0;0;0;0;(0.0, 0.0);(0.0, 0.0);4.73;0;0.7071068;0;0.1395918;0;
1.047192;0;0;0;0;0;0;0;0;N/A;N/A;N/A;N/A;N/A;N/A;0;0;0;0;0;0;0;(0.0, 0.0);(0.0, 0.0);4.73;0;0.7071068;0;0.1395918;0;
1.054138;0;0;0;0;0;0;0;0;N/A;N/A;N/A;N/A;N/A;N/A;0;0;0;0;0;0;0;(0.0, 0.0);(0.0, 0.0);4.73;0;0.7071068;0;0.1395918;0;
1.061082;0;0;0;0;0;0;0;0;N/A;N/A;N/A;N/A;N/A;N/A;0;0;0;0;0;0;0;(0.0, 0.0);(0.0, 0.0);4.73;0;0.7071068;0;0.1395918;0;
1.068025;0;0;0;0;0;0;0;0;N/A;N/A;N/A;N/A;N/A;N/A;0;0;0;0;0;0;0;(0.0, 0.0);(0.0, 0.0);4.73;0;0.7071068;0;0.1395918;0;
1.074972;0;0;0;0;0;0;0;0;N/A;N/A;N/A;N/A;N/A;N/A;0;0;0;0;0;0;0;(0.0, 0.0);(0.0, 0.0);4.73;0;0.7071068;0;0.1395918;0;
1.081917;0;0;0;0;0;0;0;0;N/A;N/A;N/A;N/A;N/A;N/A;0;0;0;0;0;0;0;(0.0, 0.0);(0.0, 0.0);4.73;0;0.7071068;0;0.1352396;0;
1.088858;0;0;0;0;0;0;0;0;N/A;N/A;N/A;N/A;N/A;N/A;0;0;0;0;0;0;0;(0.0, 0.0);(0.0, 0.0);4.73;0;0.7071068;0;0.1352396;0;
1.095804;0;0;0;0;0;0;0;0;N/A;N/A;N/A;N/A;N/A;N/A;0;0;0;0;0;0;0;(0.0, 0.0);(0.0, 0.0);4.73;0;0.7071068;0;0.1352396;0;
1.102748;0;0;0;0;0;0;0;0;N/A;N/A;N/A;N/A;N/A;N/A;0;0;0;0;0;0;0;(0.0, 0.0);(0.0, 0.0);4.73;0;0.7071068;0;0.1352396;0;
1.109693;0;0;0;0;0;0;0;0;N/A;N/A;N/A;N/A;N/A;N/A;0;0;0;0;0;0;0;(0.0, 0.0);(0.0, 0.0);4.73;0;0.7071068;0;0.1352396;0;
1.116644;0;0;0;0;0;0;0;0;N/A;N/A;N/A;N/A;N/A;N/A;0;0;0;0;0;0;0;(0.0, 0.0);(0.0, 0.0);4.73;0;0.7071068;0;0.1352396;0;
1.123583;0;0;0;0;0;0;0;0;N/A;N/A;N/A;N/A;N/A;N/A;0;0;0;0;0;0;0;(0.0, 0.0);(0.0, 0.0);4.73;0;0.7071068;0;0.1352396;0;
1.130526;0;0;0;0;0;0;0;0;N/A;N/A;N/A;N/A;N/A;N/A;0;0;0;0;0;0;0;(0.0, 0.0);(0.0, 0.0);4.73;0;0.7071068;0;0.1352396;0;
1.137472;0;0;0;0;0;0;0;0;N/A;N/A;N/A;N/A;N/A;N/A;0;0;0;0;0;0;0;(0.0, 0.0);(0.0, 0.0);4.73;0;0.7071068;0;0.1352396;0;
1.144415;0;0;0;0;0;0;0;0;N/A;N/A;N/A;N/A;N/A;N/A;0;0;0;0;0;0;0;(0.0, 0.0);(0.0, 0.0);4.73;0;0.7071068;0;0.1352396;0;
1.15136;0;0;0;0;0;0;0;0;N/A;N/A;N/A;N/A;N/A;N/A;0;0;0;0;0;0;0;(0.0, 0.0);(0.0, 0.0);4.73;0;0.7071068;0;0.1352396;0;
1.158305;0;0;0;0;0;0;0;0;N/A;N/A;N/A;N/A;N/A;N/A;0;0;0;0;0;0;0;(0.0, 0.0);(0.0, 0.0);4.73;0;0.7071068;0;0.1352396;0;
1.165249;0;0;0;0;0;0;0;0;N/A;N/A;N/A;N/A;N/A;N/A;0;0;0;0;0;0;0;(0.0, 0.0);(0.0, 0.0);4.73;0;0.7071068;0;0.1352396;0;
1.172194;0;0;0;0;0;0;0;0;N/A;N/A;N/A;N/A;N/A;N/A;0;0;0;0;0;0;0;(0.0, 0.0);(0.0, 0.0);4.73;0;0.7071068;0;0.1352396;0;
1.17914;0;0;0;0;0;0;0;0;N/A;N/A;N/A;N/A;N/A;N/A;0;0;0;0;0;0;0;(0.0, 0.0);(0.0, 0.0);4.73;0;0.7071068;0;0.1352396;0;
1.186085;0;0;0;0;0;0;0;0;N/A;N/A;N/A;N/A;N/A;N/A;0;0;0;0;0;0;0;(0.0, 0.0);(0.0, 0.0);4.73;0;0.7071068;0;0.1317872;0;
1.193031;0;0;0;0;0;0;0;0;N/A;N/A;N/A;N/A;N/A;N/A;0;0;0;0;0;0;0;(0.0, 0.0);(0.0, 0.0);4.73;0;0.7071068;0;0.1317872;0;
1.199972;0;0;0;0;0;0;0;0;N/A;N/A;N/A;N/A;N/A;N/A;0;0;0;0;0;0;0;(0.0, 0.0);(0.0, 0.0);4.73;0;0.7071068;0;0.1317872;0;
1.208926;0;0;0;0;0;0;0;0;N/A;N/A;N/A;N/A;N/A;N/A;0;0;0;0;0;0;0;(0.0, 0.0);(0.0, 0.0);4.73;0;0.7071068;0;0.1317872;0;
1.215871;0;0;0;0;0;0;0;0;N/A;N/A;N/A;N/A;N/A;N/A;0;0;0;0;0;0;0;(0.0, 0.0);(0.0, 0.0);4.73;0;0.7071068;0;0.1317872;0;
1.222817;0;0;0;0;0;0;0;0;N/A;N/A;N/A;N/A;N/A;N/A;0;0;0;0;0;0;0;(0.0, 0.0);(0.0, 0.0);4.73;0;0.7071068;0;0.1317872;0;
1.22976;0;0;0;0;0;0;0;0;N/A;N/A;N/A;N/A;N/A;N/A;0;0;0;0;0;0;0;(0.0, 0.0);(0.0, 0.0);4.73;0;0.7071068;0;0.1317872;0;
1.23702;0;0;0;0;0;0;0;0;N/A;N/A;N/A;N/A;N/A;N/A;0;0;0;0;0;0;0;(0.0, 0.0);(0.0, 0.0);4.73;0;0.7071068;0;0.1317872;0;
1.24396;0;0;0;0;0;0;0;0;N/A;N/A;N/A;N/A;N/A;N/A;0;0;0;0;0;0;0;(0.0, 0.0);(0.0, 0.0);4.73;0;0.7071068;0;0.1317872;0;
1.250905;0;0;0;0;0;0;0;0;N/A;N/A;N/A;N/A;N/A;N/A;0;0;0;0;0;0;0;(0.0, 0.0);(0.0, 0.0);4.73;0;0.7071068;0;0.1317872;0;
1.25785;0;0;0;0;0;0;0;0;N/A;N/A;N/A;N/A;N/A;N/A;0;0;0;0;0;0;0;(0.0, 0.0);(0.0, 0.0);4.73;0;0.7071068;0;0.1317872;0;
1.264794;0;0;0;0;0;0;0;0;N/A;N/A;N/A;N/A;N/A;N/A;0;0;0;0;0;0;0;(0.0, 0.0);(0.0, 0.0);4.73;0;0.7071068;0;0.1317872;0;
1.271996;0;0;0;0;0;0;0;0;N/A;N/A;N/A;N/A;N/A;N/A;0;0;0;0;0;0;0;(0.0, 0.0);(0.0, 0.0);4.73;0;0.7071068;0;0.1317872;0;
1.278943;0;0;0;0;0;0;0;0;N/A;N/A;N/A;N/A;N/A;N/A;0;0;0;0;0;0;0;(0.0, 0.0);(0.0, 0.0);4.73;0;0.7071068;0;0.1317872;0;
1.285886;0;0;0;0;0;0;0;0;N/A;N/A;N/A;N/A;N/A;N/A;0;0;0;0;0;0;0;(0.0, 0.0);(0.0, 0.0);4.73;0;0.7071068;0;0.1317872;0;
1.292833;0;0;0;0;0;0;0;0;N/A;N/A;N/A;N/A;N/A;N/A;0;0;0;0;0;0;0;(0.0, 0.0);(0.0, 0.0);4.73;0;0.7071068;0;0.1292833;0;
1.299777;0;0;0;0;0;0;0;0;N/A;N/A;N/A;N/A;N/A;N/A;0;0;0;0;0;0;0;(0.0, 0.0);(0.0, 0.0);4.73;0;0.7071068;0;0.1292833;0;
1.307172;0;0;0;0;0;0;0;0;N/A;N/A;N/A;N/A;N/A;N/A;0;0;0;0;0;0;0;(0.0, 0.0);(0.0, 0.0);4.73;0;0.7071068;0;0.1292833;0;
1.314146;0;0;0;0;0;0;0;0;N/A;N/A;N/A;N/A;N/A;N/A;0;0;0;0;0;0;0;(0.0, 0.0);(0.0, 0.0);4.73;0;0.7071068;0;0.1292833;0;
1.321067;0;0;0;0;0;0;0;0;N/A;N/A;N/A;N/A;N/A;N/A;0;0;0;0;0;0;0;(0.0, 0.0);(0.0, 0.0);4.73;0;0.7071068;0;0.1292833;0;
1.328054;0;0;0;0;0;0;0;0;N/A;N/A;N/A;N/A;N/A;N/A;0;0;0;0;0;0;0;(0.0, 0.0);(0.0, 0.0);4.73;0;0.7071068;0;0.1292833;0;
1.335106;0;0;0;0;0;0;0;0;N/A;N/A;N/A;N/A;N/A;N/A;0;0;0;0;0;0;0;(0.0, 0.0);(0.0, 0.0);4.73;0;0.7071068;0;0.1292833;0;
1.342047;0;0;0;0;0;0;0;0;N/A;N/A;N/A;N/A;N/A;N/A;0;0;0;0;0;0;0;(0.0, 0.0);(0.0, 0.0);4.73;0;0.7071068;0;0.1292833;0;
1.348991;0;0;0;0;0;0;0;0;N/A;N/A;N/A;N/A;N/A;N/A;0;0;0;0;0;0;0;(0.0, 0.0);(0.0, 0.0);4.73;0;0.7071068;0;0.1292833;0;
1.355997;0;0;0;0;0;0;0;0;N/A;N/A;N/A;N/A;N/A;N/A;0;0;0;0;0;0;0;(0.0, 0.0);(0.0, 0.0);4.73;0;0.7071068;0;0.1292833;0;
1.363511;0;0;0;0;0;0;0;0;N/A;N/A;N/A;N/A;N/A;N/A;0;0;0;0;0;0;0;(0.0, 0.0);(0.0, 0.0);4.73;0;0.7071068;0;0.1292833;0;
1.370452;0;0;0;0;0;0;0;0;N/A;N/A;N/A;N/A;N/A;N/A;0;0;0;0;0;0;0;(0.0, 0.0);(0.0, 0.0);4.73;0;0.7071068;0;0.1292833;0;
1.377397;0;0;0;0;0;0;0;0;N/A;N/A;N/A;N/A;N/A;N/A;0;0;0;0;0;0;0;(0.0, 0.0);(0.0, 0.0);4.73;0;0.7071068;0;0.1292833;0;
1.384346;0;0;0;0;0;0;0;0;N/A;N/A;N/A;N/A;N/A;N/A;0;0;0;0;0;0;0;(0.0, 0.0);(0.0, 0.0);4.73;0;0.7071068;0;0.1292833;0;
1.391286;0;0;0;0;0;0;0;0;N/A;N/A;N/A;N/A;N/A;N/A;0;0;0;0;0;0;0;(0.0, 0.0);(0.0, 0.0);4.73;0;0.7071068;0;0.1292833;0;
1.398468;0;0;0;0;0;0;0;0;N/A;N/A;N/A;N/A;N/A;N/A;0;0;0;0;0;0;0;(0.0, 0.0);(0.0, 0.0);4.73;0;0.7071068;0;0.1271335;0;
1.405756;0;0;0;0;0;0;0;0;N/A;N/A;N/A;N/A;N/A;N/A;0;0;0;0;0;0;0;(0.0, 0.0);(0.0, 0.0);4.73;0;0.7071068;0;0.1271335;0;
1.412701;0;0;0;0;0;0;0;0;N/A;N/A;N/A;N/A;N/A;N/A;0;0;0;0;0;0;0;(0.0, 0.0);(0.0, 0.0);4.73;0;0.7071068;0;0.1271335;0;
1.420378;0;0;0;0;0;0;0;0;N/A;N/A;N/A;N/A;N/A;N/A;0;0;0;0;0;0;0;(0.0, 0.0);(0.0, 0.0);4.73;0;0.7071068;0;0.1271335;0;
1.427319;0;0;0;0;0;0;0;0;N/A;N/A;N/A;N/A;N/A;N/A;0;0;0;0;0;0;0;(0.0, 0.0);(0.0, 0.0);4.73;0;0.7071068;0;0.1271335;0;
1.434263;0;0;0;0;0;0;0;0;N/A;N/A;N/A;N/A;N/A;N/A;0;0;0;0;0;0;0;(0.0, 0.0);(0.0, 0.0);4.73;0;0.7071068;0;0.1271335;0;
1.441208;0;0;0;0;0;0;0;0;N/A;N/A;N/A;N/A;N/A;N/A;0;0;0;0;0;0;0;(0.0, 0.0);(0.0, 0.0);4.73;0;0.7071068;0;0.1271335;0;
1.448152;0;0;0;0;0;0;0;0;N/A;N/A;N/A;N/A;N/A;N/A;0;0;0;0;0;0;0;(0.0, 0.0);(0.0, 0.0);4.73;0;0.7071068;0;0.1271335;0;
1.455097;0;0;0;0;0;0;0;0;N/A;N/A;N/A;N/A;N/A;N/A;0;0;0;0;0;0;0;(0.0, 0.0);(0.0, 0.0);4.73;0;0.7071068;0;0.1271335;0;
1.462982;0;0;0;0;0;0;0;0;N/A;N/A;N/A;N/A;N/A;N/A;0;0;0;0;0;0;0;(0.0, 0.0);(0.0, 0.0);4.73;0;0.7071068;0;0.1271335;0;
1.469933;0;0;0;0;0;0;0;0;N/A;N/A;N/A;N/A;N/A;N/A;0;0;0;0;0;0;0;(0.0, 0.0);(0.0, 0.0);4.73;0;0.7071068;0;0.1271335;0;
1.476878;0;0;0;0;0;0;0;0;N/A;N/A;N/A;N/A;N/A;N/A;0;0;0;0;0;0;0;(0.0, 0.0);(0.0, 0.0);4.73;0;0.7071068;0;0.1271335;0;
1.483822;0;0;0;0;0;0;0;0;N/A;N/A;N/A;N/A;N/A;N/A;0;0;0;0;0;0;0;(0.0, 0.0);(0.0, 0.0);4.73;0;0.7071068;0;0.1271335;0;
1.490767;0;0;0;0;0;0;0;0;N/A;N/A;N/A;N/A;N/A;N/A;0;0;0;0;0;0;0;(0.0, 0.0);(0.0, 0.0);4.73;0;0.7071068;0;0.1271335;0;
1.497972;0;0;0;0;0;0;0;0;N/A;N/A;N/A;N/A;N/A;N/A;0;0;0;0;0;0;0;(0.0, 0.0);(0.0, 0.0);4.73;0;0.7071068;0;0.1271335;0;
1.50492;0;0;0;0;0;0;0;0;N/A;N/A;N/A;N/A;N/A;N/A;0;0;0;0;0;0;0;(0.0, 0.0);(0.0, 0.0);4.73;0;0.7071068;0;0.12541;0;
1.511864;0;0;0;0;0;0;0;0;N/A;N/A;N/A;N/A;N/A;N/A;0;0;0;0;0;0;0;(0.0, 0.0);(0.0, 0.0);4.73;0;0.7071068;0;0.12541;0;
1.51881;0;0;0;0;0;0;0;0;N/A;N/A;N/A;N/A;N/A;N/A;0;0;0;0;0;0;0;(0.0, 0.0);(0.0, 0.0);4.73;0;0.7071068;0;0.12541;0;
1.525754;0;0;0;0;0;0;0;0;N/A;N/A;N/A;N/A;N/A;N/A;0;0;0;0;0;0;0;(0.0, 0.0);(0.0, 0.0);4.73;0;0.7071068;0;0.12541;0;
1.532698;0;0;0;0;0;0;0;0;N/A;N/A;N/A;N/A;N/A;N/A;0;0;0;0;0;0;0;(0.0, 0.0);(0.0, 0.0);4.73;0;0.7071068;0;0.12541;0;
1.540465;0;0;0;0;0;0;0;0;N/A;N/A;N/A;N/A;N/A;N/A;0;0;0;0;0;0;0;(0.0, 0.0);(0.0, 0.0);4.73;0;0.7071068;0;0.12541;0;
1.547407;0;0;0;0;0;0;0;0;N/A;N/A;N/A;N/A;N/A;N/A;0;0;0;0;0;0;0;(0.0, 0.0);(0.0, 0.0);4.73;0;0.7071068;0;0.12541;0;
1.554351;0;0;0;0;0;0;0;0;N/A;N/A;N/A;N/A;N/A;N/A;0;0;0;0;0;0;0;(0.0, 0.0);(0.0, 0.0);4.73;0;0.7071068;0;0.12541;0;
1.561406;0;0;0;0;0;0;0;0;N/A;N/A;N/A;N/A;N/A;N/A;0;0;0;0;0;0;0;(0.0, 0.0);(0.0, 0.0);4.73;0;0.7071068;0;0.12541;0;
1.568348;0;0;0;0;0;0;0;0;N/A;N/A;N/A;N/A;N/A;N/A;0;0;0;0;0;0;0;(0.0, 0.0);(0.0, 0.0);4.73;0;0.7071068;0;0.12541;0;
1.575293;0;0;0;0;0;0;0;0;N/A;N/A;N/A;N/A;N/A;N/A;0;0;0;0;0;0;0;(0.0, 0.0);(0.0, 0.0);4.73;0;0.7071068;0;0.12541;0;
1.582237;0;0;0;0;0;0;0;0;N/A;N/A;N/A;N/A;N/A;N/A;0;0;0;0;0;0;0;(0.0, 0.0);(0.0, 0.0);4.73;0;0.7071068;0;0.12541;0;
1.589181;0;0;0;0;0;0;0;0;N/A;N/A;N/A;N/A;N/A;N/A;0;0;0;0;0;0;0;(0.0, 0.0);(0.0, 0.0);4.73;0;0.7071068;0;0.12541;0;
1.596126;0;0;0;0;0;0;0;0;N/A;N/A;N/A;N/A;N/A;N/A;0;0;0;0;0;0;0;(0.0, 0.0);(0.0, 0.0);4.73;0;0.7071068;0;0.12541;0;
1.603071;0;0;0;0;0;0;0;0;N/A;N/A;N/A;N/A;N/A;N/A;0;0;0;0;0;0;0;(0.0, 0.0);(0.0, 0.0);4.73;0;0.7071068;0;0.12541;0;
1.610015;0;0;0;0;0;0;0;0;N/A;N/A;N/A;N/A;N/A;N/A;0;0;0;0;0;0;0;(0.0, 0.0);(0.0, 0.0);4.73;0;0.7071068;0;0.1238473;0;
1.617257;0;0;0;0;0;0;0;0;N/A;N/A;N/A;N/A;N/A;N/A;0;0;0;0;0;0;0;(0.0, 0.0);(0.0, 0.0);4.73;0;0.7071068;0;0.1238473;0;
1.6242;0;0;0;0;0;0;0;0;N/A;N/A;N/A;N/A;N/A;N/A;0;0;0;0;0;0;0;(0.0, 0.0);(0.0, 0.0);4.73;0;0.7071068;0;0.1238473;0;
1.631144;0;0;0;0;0;0;0;0;N/A;N/A;N/A;N/A;N/A;N/A;0;0;0;0;0;0;0;(0.0, 0.0);(0.0, 0.0);4.73;0;0.7071068;0;0.1238473;0;
1.638089;0;0;0;0;0;0;0;0;N/A;N/A;N/A;N/A;N/A;N/A;0;0;0;0;0;0;0;(0.0, 0.0);(0.0, 0.0);4.73;0;0.7071068;0;0.1238473;0;
1.645033;0;0;0;0;0;0;0;0;N/A;N/A;N/A;N/A;N/A;N/A;0;0;0;0;0;0;0;(0.0, 0.0);(0.0, 0.0);4.73;0;0.7071068;0;0.1238473;0;
1.652024;0;0;0;0;0;0;0;0;N/A;N/A;N/A;N/A;N/A;N/A;0;0;0;0;0;0;0;(0.0, 0.0);(0.0, 0.0);4.73;0;0.7071068;0;0.1238473;0;
1.658969;0;0;0;0;0;0;0;0;N/A;N/A;N/A;N/A;N/A;N/A;0;0;0;0;0;0;0;(0.0, 0.0);(0.0, 0.0);4.73;0;0.7071068;0;0.1238473;0;
1.665914;0;0;0;0;0;0;0;0;N/A;N/A;N/A;N/A;N/A;N/A;0;0;0;0;0;0;0;(0.0, 0.0);(0.0, 0.0);4.73;0;0.7071068;0;0.1238473;0;
1.673263;0;0;0;0;0;0;0;0;N/A;N/A;N/A;N/A;N/A;N/A;0;0;0;0;0;0;0;(0.0, 0.0);(0.0, 0.0);4.73;0;0.7071068;0;0.1238473;0;
1.680313;0;0;0;0;0;0;0;0;N/A;N/A;N/A;N/A;N/A;N/A;0;0;0;0;0;0;0;(0.0, 0.0);(0.0, 0.0);4.73;0;0.7071068;0;0.1238473;0;
1.68726;0;0;0;0;0;0;0;0;N/A;N/A;N/A;N/A;N/A;N/A;0;0;0;0;0;0;0;(0.0, 0.0);(0.0, 0.0);4.73;0;0.7071068;0;0.1238473;0;
1.694206;0;0;0;0;0;0;0;0;N/A;N/A;N/A;N/A;N/A;N/A;0;0;0;0;0;0;0;(0.0, 0.0);(0.0, 0.0);4.73;0;0.7071068;0;0.1238473;0;
1.701158;0;0;0;0;0;0;0;0;N/A;N/A;N/A;N/A;N/A;N/A;0;0;0;0;0;0;0;(0.0, 0.0);(0.0, 0.0);4.73;0;0.7071068;0;0.1238473;0;
1.71146;0;0;0;0;0;0;0;0;N/A;N/A;N/A;N/A;N/A;N/A;0;0;0;0;0;0;0;(0.0, 0.0);(0.0, 0.0);4.73;0;0.7071068;0;0.1222472;0;
1.719686;0;0;0;0;0;0;0;0;N/A;N/A;N/A;N/A;N/A;N/A;0;0;0;0;0;0;0;(0.0, 0.0);(0.0, 0.0);4.73;0;0.7071068;0;0.1222472;0;
1.727721;0;0;0;0;0;0;0;0;N/A;N/A;N/A;N/A;N/A;N/A;0;0;0;0;0;0;0;(0.0, 0.0);(0.0, 0.0);4.73;0;0.7071068;0;0.1222472;0;
1.73753;0;0;0;0;0;0;0;0;N/A;N/A;N/A;N/A;N/A;N/A;0;0;0;0;0;0;0;(0.0, 0.0);(0.0, 0.0);4.73;0;0.7071068;0;0.1222472;0;
1.748136;0;0;0;0;0;0;0;0;N/A;N/A;N/A;N/A;N/A;N/A;0;0;0;0;0;0;0;(0.0, 0.0);(0.0, 0.0);4.73;0;0.7071068;0;0.1222472;0;
1.756686;0;0;0;0;0;0;0;0;N/A;N/A;N/A;N/A;N/A;N/A;0;0;0;0;0;0;0;(0.0, 0.0);(0.0, 0.0);4.73;0;0.7071068;0;0.1222472;0;
1.76363;0;0;0;0;0;0;0;0;N/A;N/A;N/A;N/A;N/A;N/A;0;0;0;0;0;0;0;(0.0, 0.0);(0.0, 0.0);4.73;0;0.7071068;0;0.1222472;0;
1.770574;0;0;0;0;0;0;0;0;N/A;N/A;N/A;N/A;N/A;N/A;0;0;0;0;0;0;0;(0.0, 0.0);(0.0, 0.0);4.73;0;0.7071068;0;0.1222472;0;
1.777519;0;0;0;0;0;0;0;0;N/A;N/A;N/A;N/A;N/A;N/A;0;0;0;0;0;0;0;(0.0, 0.0);(0.0, 0.0);4.73;0;0.7071068;0;0.1222472;0;
1.784464;0;0;0;0;0;0;0;0;N/A;N/A;N/A;N/A;N/A;N/A;0;0;0;0;0;0;0;(0.0, 0.0);(0.0, 0.0);4.73;0;0.7071068;0;0.1222472;0;
1.791408;0;0;0;0;0;0;0;0;N/A;N/A;N/A;N/A;N/A;N/A;0;0;0;0;0;0;0;(0.0, 0.0);(0.0, 0.0);4.73;0;0.7071068;0;0.1222472;0;
1.798353;0;0;0;0;0;0;0;0;N/A;N/A;N/A;N/A;N/A;N/A;0;0;0;0;0;0;0;(0.0, 0.0);(0.0, 0.0);4.73;0;0.7071068;0;0.1222472;0;
1.805297;0;0;0;0;0;0;0;0;N/A;N/A;N/A;N/A;N/A;N/A;0;0;0;0;0;0;0;(0.0, 0.0);(0.0, 0.0);4.73;0;0.7071068;0;0.1222472;0;
1.812242;0;0;0;0;0;0;0;0;N/A;N/A;N/A;N/A;N/A;N/A;0;0;0;0;0;0;0;(0.0, 0.0);(0.0, 0.0);4.73;0;0.7071069;0;0.1208161;0;
1.819187;0;0;0;0;0;0;0;0;N/A;N/A;N/A;N/A;N/A;N/A;0;0;0;0;0;0;0;(0.0, 0.0);(0.0, 0.0);4.73;0;0.7071069;0;0.1208161;0;
1.826131;0;0;0;0;0;0;0;0;N/A;N/A;N/A;N/A;N/A;N/A;0;0;0;0;0;0;0;(0.0, 0.0);(0.0, 0.0);4.73;0;0.7071069;0;0.1208161;0;
1.833076;0;0;0;0;0;0;0;0;N/A;N/A;N/A;N/A;N/A;N/A;0;0;0;0;0;0;0;(0.0, 0.0);(0.0, 0.0);4.73;0;0.7071069;0;0.1208161;0;
1.84002;0;0;0;0;0;0;0;0;N/A;N/A;N/A;N/A;N/A;N/A;0;0;0;0;0;0;0;(0.0, 0.0);(0.0, 0.0);4.73;0;0.7071069;0;0.1208161;0;
1.846965;0;0;0;0;0;0;0;0;N/A;N/A;N/A;N/A;N/A;N/A;0;0;0;0;0;0;0;(0.0, 0.0);(0.0, 0.0);4.73;0;0.7071069;0;0.1208161;0;
1.853911;0;0;0;0;0;0;0;0;N/A;N/A;N/A;N/A;N/A;N/A;0;0;0;0;0;0;0;(0.0, 0.0);(0.0, 0.0);4.73;0;0.7071069;0;0.1208161;0;
1.860854;0;0;0;0;0;0;0;0;N/A;N/A;N/A;N/A;N/A;N/A;0;0;0;0;0;0;0;(0.0, 0.0);(0.0, 0.0);4.73;0;0.7071069;0;0.1208161;0;
1.867799;0;0;0;0;0;0;0;0;N/A;N/A;N/A;N/A;N/A;N/A;0;0;0;0;0;0;0;(0.0, 0.0);(0.0, 0.0);4.73;0;0.7071069;0;0.1208161;0;
1.874745;0;0;0;0;0;0;0;0;N/A;N/A;N/A;N/A;N/A;N/A;0;0;0;0;0;0;0;(0.0, 0.0);(0.0, 0.0);4.73;0;0.7071069;0;0.1208161;0;
1.881688;0;0;0;0;0;0;0;0;N/A;N/A;N/A;N/A;N/A;N/A;0;0;0;0;0;0;0;(0.0, 0.0);(0.0, 0.0);4.73;0;0.7071069;0;0.1208161;0;
1.888633;0;0;0;0;0;0;0;0;N/A;N/A;N/A;N/A;N/A;N/A;0;0;0;0;0;0;0;(0.0, 0.0);(0.0, 0.0);4.73;0;0.7071069;0;0.1208161;0;
1.895581;0;0;0;0;0;0;0;0;N/A;N/A;N/A;N/A;N/A;N/A;0;0;0;0;0;0;0;(0.0, 0.0);(0.0, 0.0);4.73;0;0.7071069;0;0.1208161;0;
1.902522;0;0;0;0;0;0;0;0;N/A;N/A;N/A;N/A;N/A;N/A;0;0;0;0;0;0;0;(0.0, 0.0);(0.0, 0.0);4.73;0;0.7071069;0;0.1208161;0;
1.90965;0;0;0;0;0;0;0;0;N/A;N/A;N/A;N/A;N/A;N/A;0;0;0;0;0;0;0;(0.0, 0.0);(0.0, 0.0);4.73;0;0.7071069;0;0.1208161;0;
1.917347;0;0;0;0;0;0;0;0;N/A;N/A;N/A;N/A;N/A;N/A;0;0;0;0;0;0;0;(0.0, 0.0);(0.0, 0.0);4.73;0;0.7071069;0;0.1198342;0;
1.925291;0;0;0;0;0;0;0;0;N/A;N/A;N/A;N/A;N/A;N/A;0;0;0;0;0;0;0;(0.0, 0.0);(0.0, 0.0);4.73;0;0.7071069;0;0.1198342;0;
1.933814;0;0;0;0;0;0;0;0;N/A;N/A;N/A;N/A;N/A;N/A;0;0;0;0;0;0;0;(0.0, 0.0);(0.0, 0.0);4.73;0;0.7071069;0;0.1198342;0;
1.94076;0;0;0;0;0;0;0;0;N/A;N/A;N/A;N/A;N/A;N/A;0;0;0;0;0;0;0;(0.0, 0.0);(0.0, 0.0);4.73;0;0.7071069;0;0.1198342;0;
1.948064;0;0;0;0;0;0;0;0;N/A;N/A;N/A;N/A;N/A;N/A;0;0;0;0;0;0;0;(0.0, 0.0);(0.0, 0.0);4.73;0;0.7071069;0;0.1198342;0;
1.955126;0;0;0;0;0;0;0;0;N/A;N/A;N/A;N/A;N/A;N/A;0;0;0;0;0;0;0;(0.0, 0.0);(0.0, 0.0);4.73;0;0.7071069;0;0.1198342;0;
1.962408;0;0;0;0;0;0;0;0;N/A;N/A;N/A;N/A;N/A;N/A;0;0;0;0;0;0;0;(0.0, 0.0);(0.0, 0.0);4.73;0;0.7071069;0;0.1198342;0;
1.969352;0;0;0;0;0;0;0;0;N/A;N/A;N/A;N/A;N/A;N/A;0;0;0;0;0;0;0;(0.0, 0.0);(0.0, 0.0);4.73;0;0.7071069;0;0.1198342;0;
1.978407;0;0;0;0;0;0;0;0;N/A;N/A;N/A;N/A;N/A;N/A;0;0;0;0;0;0;0;(0.0, 0.0);(0.0, 0.0);4.73;0;0.7071069;0;0.1198342;0;
1.989022;0;0;0;0;0;0;0;0;N/A;N/A;N/A;N/A;N/A;N/A;0;0;0;0;0;0;0;(0.0, 0.0);(0.0, 0.0);4.73;0;0.7071069;0;0.1198342;0;
1.998373;0;0;0;0;0;0;0;0;N/A;N/A;N/A;N/A;N/A;N/A;0;0;0;0;0;0;0;(0.0, 0.0);(0.0, 0.0);4.73;0;0.7071069;0;0.1198342;0;
2.008963;0;0;0;0;0;0;0;0;N/A;N/A;N/A;N/A;N/A;N/A;0;0;0;0;0;0;0;(0.0, 0.0);(0.0, 0.0);4.73;0;0.7071069;0;0.1198342;0;
2.019334;0;0;0;0;0;0;0;0;N/A;N/A;N/A;N/A;N/A;N/A;0;0;0;0;0;0;0;(0.0, 0.0);(0.0, 0.0);4.73;0;0.7071069;0;0.1187844;0;
2.031315;0;0;0;0;0;0;0;0;N/A;N/A;N/A;N/A;N/A;N/A;0;0;0;0;0;0;0;(0.0, 0.0);(0.0, 0.0);4.73;0;0.7071069;0;0.1187844;0;
2.041584;0;0;0;0;0;0;0;0;N/A;N/A;N/A;N/A;N/A;N/A;0;0;0;0;0;0;0;(0.0, 0.0);(0.0, 0.0);4.73;0;0.7071069;0;0.1187844;0;
2.051773;0;0;0;0;0;0;0;0;N/A;N/A;N/A;N/A;N/A;N/A;0;0;0;0;0;0;0;(0.0, 0.0);(0.0, 0.0);4.73;0;0.7071069;0;0.1187844;0;
2.06147;0;0;0;0;0;0;0;0;N/A;N/A;N/A;N/A;N/A;N/A;0;0;0;0;0;0;0;(0.0, 0.0);(0.0, 0.0);4.73;0;0.7071069;0;0.1187844;0;
2.071982;0;0;0;0;0;0;0;0;N/A;N/A;N/A;N/A;N/A;N/A;0;0;0;0;0;0;0;(0.0, 0.0);(0.0, 0.0);4.73;0;0.7071069;0;0.1187844;0;
2.079661;0;0;0;0;0;0;0;0;N/A;N/A;N/A;N/A;N/A;N/A;0;0;0;0;0;0;0;(0.0, 0.0);(0.0, 0.0);4.73;0;0.7071069;0;0.1187844;0;
2.089853;0;0;0;0;0;0;0;0;N/A;N/A;N/A;N/A;N/A;N/A;0;0;0;0;0;0;0;(0.0, 0.0);(0.0, 0.0);4.73;0;0.7071069;0;0.1187844;0;
2.09707;0;0;0;0;0;0;0;0;N/A;N/A;N/A;N/A;N/A;N/A;0;0;0;0;0;0;0;(0.0, 0.0);(0.0, 0.0);4.73;0;0.7071069;0;0.1187844;0;
2.104565;0;0;0;0;0;0;0;0;N/A;N/A;N/A;N/A;N/A;N/A;0;0;0;0;0;0;0;(0.0, 0.0);(0.0, 0.0);4.73;0;0.7071069;0;0.1187844;0;
2.112935;0;0;0;0;0;0;0;0;N/A;N/A;N/A;N/A;N/A;N/A;0;0;0;0;0;0;0;(0.0, 0.0);(0.0, 0.0);4.73;0;0.7071069;0;0.1187844;0;
2.119883;0;0;0;0;0;0;0;0;N/A;N/A;N/A;N/A;N/A;N/A;0;0;0;0;0;0;0;(0.0, 0.0);(0.0, 0.0);4.730001;0;0.7071069;0;0.1177713;0;
2.126829;0;0;0;0;0;0;0;0;N/A;N/A;N/A;N/A;N/A;N/A;0;0;0;0;0;0;0;(0.0, 0.0);(0.0, 0.0);4.730001;0;0.7071069;0;0.1177713;0;
2.134228;0;0;0;0;0;0;0;0;N/A;N/A;N/A;N/A;N/A;N/A;0;0;0;0;0;0;0;(0.0, 0.0);(0.0, 0.0);4.730001;0;0.7071069;0;0.1177713;0;
2.141172;0;0;0;0;0;0;0;0;N/A;N/A;N/A;N/A;N/A;N/A;0;0;0;0;0;0;0;(0.0, 0.0);(0.0, 0.0);4.730001;0;0.7071069;0;0.1177713;0;
2.148162;0;0;0;0;0;0;0;0;N/A;N/A;N/A;N/A;N/A;N/A;0;0;0;0;0;0;0;(0.0, 0.0);(0.0, 0.0);4.730001;0;0.7071069;0;0.1177713;0;
2.155109;0;0;0;0;0;0;0;0;N/A;N/A;N/A;N/A;N/A;N/A;0;0;0;0;0;0;0;(0.0, 0.0);(0.0, 0.0);4.730001;0;0.7071069;0;0.1177713;0;
2.163182;0;0;0;0;0;0;0;0;N/A;N/A;N/A;N/A;N/A;N/A;0;0;0;0;0;0;0;(0.0, 0.0);(0.0, 0.0);4.730001;0;0.7071069;0;0.1177713;0;
2.170319;0;0;0;0;0;0;0;0;N/A;N/A;N/A;N/A;N/A;N/A;0;0;0;0;0;0;0;(0.0, 0.0);(0.0, 0.0);4.730001;0;0.7071069;0;0.1177713;0;
2.177296;0;0;0;0;0;0;0;0;N/A;N/A;N/A;N/A;N/A;N/A;0;0;0;0;0;0;0;(0.0, 0.0);(0.0, 0.0);4.730001;0;0.7071069;0;0.1177713;0;
2.184441;0;0;0;0;0;0;0;0;N/A;N/A;N/A;N/A;N/A;N/A;0;0;0;0;0;0;0;(0.0, 0.0);(0.0, 0.0);4.730001;0;0.7071069;0;0.1177713;0;
2.191385;0;0;0;0;0;0;0;0;N/A;N/A;N/A;N/A;N/A;N/A;0;0;0;0;0;0;0;(0.0, 0.0);(0.0, 0.0);4.730001;0;0.7071069;0;0.1177713;0;
2.198329;0;0;0;0;0;0;0;0;N/A;N/A;N/A;N/A;N/A;N/A;0;0;0;0;0;0;0;(0.0, 0.0);(0.0, 0.0);4.730001;0;0.7071069;0;0.1177713;0;
2.205274;0;0;0;0;0;0;0;0;N/A;N/A;N/A;N/A;N/A;N/A;0;0;0;0;0;0;0;(0.0, 0.0);(0.0, 0.0);4.730001;0;0.7071069;0;0.1177713;0;
2.213338;0;0;0;0;0;0;0;0;N/A;N/A;N/A;N/A;N/A;N/A;0;0;0;0;0;0;0;(0.0, 0.0);(0.0, 0.0);4.730001;0;0.7071069;0;0.1177713;0;
2.220283;0;0;0;0;0;0;0;0;N/A;N/A;N/A;N/A;N/A;N/A;0;0;0;0;0;0;0;(0.0, 0.0);(0.0, 0.0);4.730001;0;0.7071069;0;0.116857;0;
2.227304;0;0;0;0;0;0;0;0;N/A;N/A;N/A;N/A;N/A;N/A;0;0;0;0;0;0;0;(0.0, 0.0);(0.0, 0.0);4.730001;0;0.7071069;0;0.116857;0;
2.234248;0;0;0;0;0;0;0;0;N/A;N/A;N/A;N/A;N/A;N/A;0;0;0;0;0;0;0;(0.0, 0.0);(0.0, 0.0);4.730001;0;0.7071069;0;0.116857;0;
2.241193;0;0;0;0;0;0;0;0;N/A;N/A;N/A;N/A;N/A;N/A;0;0;0;0;0;0;0;(0.0, 0.0);(0.0, 0.0);4.730001;0;0.7071069;0;0.116857;0;
2.248137;0;0;0;0;0;0;0;0;N/A;N/A;N/A;N/A;N/A;N/A;0;0;0;0;0;0;0;(0.0, 0.0);(0.0, 0.0);4.730001;0;0.7071069;0;0.116857;0;
2.255082;0;0;0;0;0;0;0;0;N/A;N/A;N/A;N/A;N/A;N/A;0;0;0;0;0;0;0;(0.0, 0.0);(0.0, 0.0);4.730001;0;0.7071069;0;0.116857;0;
2.262124;0;0;0;0;0;0;0;0;N/A;N/A;N/A;N/A;N/A;N/A;0;0;0;0;0;0;0;(0.0, 0.0);(0.0, 0.0);4.730001;0;0.7071069;0;0.116857;0;
2.269141;0;0;0;0;0;0;0;0;N/A;N/A;N/A;N/A;N/A;N/A;0;0;0;0;0;0;0;(0.0, 0.0);(0.0, 0.0);4.730001;0;0.7071069;0;0.116857;0;
2.276085;0;0;0;0;0;0;0;0;N/A;N/A;N/A;N/A;N/A;N/A;0;0;0;0;0;0;0;(0.0, 0.0);(0.0, 0.0);4.730001;0;0.7071069;0;0.116857;0;
2.28303;0;0;0;0;0;0;0;0;N/A;N/A;N/A;N/A;N/A;N/A;0;0;0;0;0;0;0;(0.0, 0.0);(0.0, 0.0);4.730001;0;0.7071069;0;0.116857;0;
2.290144;0;0;0;0;0;0;0;0;N/A;N/A;N/A;N/A;N/A;N/A;0;0;0;0;0;0;0;(0.0, 0.0);(0.0, 0.0);4.730001;0;0.7071069;0;0.116857;0;
2.297089;0;0;0;0;0;0;0;0;N/A;N/A;N/A;N/A;N/A;N/A;0;0;0;0;0;0;0;(0.0, 0.0);(0.0, 0.0);4.730001;0;0.7071069;0;0.116857;0;
2.304034;0;0;0;0;0;0;0;0;N/A;N/A;N/A;N/A;N/A;N/A;0;0;0;0;0;0;0;(0.0, 0.0);(0.0, 0.0);4.730001;0;0.7071069;0;0.116857;0;
2.310978;0;0;0;0;0;0;0;0;N/A;N/A;N/A;N/A;N/A;N/A;0;0;0;0;0;0;0;(0.0, 0.0);(0.0, 0.0);4.730001;0;0.7071069;0;0.116857;0;
2.317922;0;0;0;0;0;0;0;0;N/A;N/A;N/A;N/A;N/A;N/A;0;0;0;0;0;0;0;(0.0, 0.0);(0.0, 0.0);4.730001;0;0.7071069;0;0.116857;0;
2.324867;0;0;0;0;0;0;0;0;N/A;N/A;N/A;N/A;N/A;N/A;0;0;0;0;0;0;0;(0.0, 0.0);(0.0, 0.0);4.730001;0;0.7071069;0;0.1162434;0;
2.331812;0;0;0;0;0;0;0;0;N/A;N/A;N/A;N/A;N/A;N/A;0;0;0;0;0;0;0;(0.0, 0.0);(0.0, 0.0);4.730001;0;0.7071069;0;0.1162434;0;
2.339046;0;0;0;0;0;0;0;0;N/A;N/A;N/A;N/A;N/A;N/A;0;0;0;0;0;0;0;(0.0, 0.0);(0.0, 0.0);4.730001;0;0.7071069;0;0.1162434;0;
2.345992;0;0;0;0;0;0;0;0;N/A;N/A;N/A;N/A;N/A;N/A;0;0;0;0;0;0;0;(0.0, 0.0);(0.0, 0.0);4.730001;0;0.7071069;0;0.1162434;0;
2.353212;0;0;0;0;0;0;0;0;N/A;N/A;N/A;N/A;N/A;N/A;0;0;0;0;0;0;0;(0.0, 0.0);(0.0, 0.0);4.730001;0;0.7071069;0;0.1162434;0;
2.360157;0;0;0;0;0;0;0;0;N/A;N/A;N/A;N/A;N/A;N/A;0;0;0;0;0;0;0;(0.0, 0.0);(0.0, 0.0);4.730001;0;0.7071069;0;0.1162434;0;
2.367101;0;0;0;0;0;0;0;0;N/A;N/A;N/A;N/A;N/A;N/A;0;0;0;0;0;0;0;(0.0, 0.0);(0.0, 0.0);4.730001;0;0.7071069;0;0.1162434;0;
2.374046;0;0;0;0;0;0;0;0;N/A;N/A;N/A;N/A;N/A;N/A;0;0;0;0;0;0;0;(0.0, 0.0);(0.0, 0.0);4.730001;0;0.7071069;0;0.1162434;0;
2.38099;0;0;0;0;0;0;0;0;N/A;N/A;N/A;N/A;N/A;N/A;0;0;0;0;0;0;0;(0.0, 0.0);(0.0, 0.0);4.730001;0;0.7071069;0;0.1162434;0;
2.387935;0;0;0;0;0;0;0;0;N/A;N/A;N/A;N/A;N/A;N/A;0;0;0;0;0;0;0;(0.0, 0.0);(0.0, 0.0);4.730001;0;0.7071069;0;0.1162434;0;
2.395201;0;0;0;0;0;0;0;0;N/A;N/A;N/A;N/A;N/A;N/A;0;0;0;0;0;0;0;(0.0, 0.0);(0.0, 0.0);4.730001;0;0.7071069;0;0.1162434;0;
2.404123;0;0;0;0;0;0;0;0;N/A;N/A;N/A;N/A;N/A;N/A;0;0;0;0;0;0;0;(0.0, 0.0);(0.0, 0.0);4.730001;0;0.7071069;0;0.1162434;0;
2.416342;0;0;0;0;0;0;0;0;N/A;N/A;N/A;N/A;N/A;N/A;0;0;0;0;0;0;0;(0.0, 0.0);(0.0, 0.0);4.730001;0;0.7071069;0;0.1162434;0;
2.423287;0;0;0;0;0;0;0;0;N/A;N/A;N/A;N/A;N/A;N/A;0;0;0;0;0;0;0;(0.0, 0.0);(0.0, 0.0);4.730001;0;0.7071069;0;0.1162434;0;
2.430231;0;0;0;0;0;0;0;0;N/A;N/A;N/A;N/A;N/A;N/A;0;0;0;0;0;0;0;(0.0, 0.0);(0.0, 0.0);4.730001;0;0.7071069;0;0.1157253;0;
2.437176;0;0;0;0;0;0;0;0;N/A;N/A;N/A;N/A;N/A;N/A;0;0;0;0;0;0;0;(0.0, 0.0);(0.0, 0.0);4.730001;0;0.7071069;0;0.1157253;0;
2.444121;0;0;0;0;0;0;0;0;N/A;N/A;N/A;N/A;N/A;N/A;0;0;0;0;0;0;0;(0.0, 0.0);(0.0, 0.0);4.730001;0;0.7071069;0;0.1157253;0;
2.451065;0;0;0;0;0;0;0;0;N/A;N/A;N/A;N/A;N/A;N/A;0;0;0;0;0;0;0;(0.0, 0.0);(0.0, 0.0);4.730001;0;0.7071069;0;0.1157253;0;
2.45801;0;0;0;0;0;0;0;0;N/A;N/A;N/A;N/A;N/A;N/A;0;0;0;0;0;0;0;(0.0, 0.0);(0.0, 0.0);4.730001;0;0.7071069;0;0.1157253;0;
2.468405;0;0;0;0;0;0;0;0;N/A;N/A;N/A;N/A;N/A;N/A;0;0;0;0;0;0;0;(0.0, 0.0);(0.0, 0.0);4.730001;0;0.7071069;0;0.1157253;0;
