sep=;
timestamp;reset_count;virtual_distance_between_resets_median;time_elapsed_between_resets_median;sum_injected_translation;sum_injected_rotation_g_r;sum_injected_rotation_g_c;sum_real_distance_travelled;sum_virtual_distance_travelled;min_g_t;max_g_t;min_g_r;max_g_r;min_g_c;max_g_c;g_t_average;injected_translation_average;g_r_average;injected_rotation_from_rotation_gain_average;g_c_average;injected_rotation_from_curvature_gain_average;injected_rotation_average;real_position_average;virtual_position_average;distance_to_boundary_average;distance_to_center_average;normalized_distance_to_boundary_average;experiment_duration;average_sampling_interval;normalized_distance_to_center_average;
0;0;0;0;0;0;0;0;0;N/A;N/A;N/A;N/A;N/A;N/A;0;0;0;0;0;0;0;(NaN, NaN);(NaN, NaN);0;0;0;0;0;0;
0.02;0;0;0;0;0;0;0;0;N/A;N/A;N/A;N/A;N/A;N/A;0;0;0;0;0;0;0;(NaN, NaN);(NaN, NaN);0;0;0;0;0;0;
0.3533334;0;0;0;0;0;0;0;0;N/A;N/A;N/A;N/A;N/A;N/A;0;0;0;0;0;0;0;(0.0, 0.0);(0.0, 0.0);4.73;0;0.7071068;0;0.3533334;0;
0.3997141;0;0;0;0;0;0;0;0;N/A;N/A;N/A;N/A;N/A;N/A;0;0;0;0;0;0;0;(0.0, 0.0);(0.0, 0.0);4.73;0;0.7071068;0;0.3533334;0;
0.4108209;0;0;0;0;0;0;0;0;N/A;N/A;N/A;N/A;N/A;N/A;0;0;0;0;0;0;0;(0.0, 0.0);(0.0, 0.0);4.73;0;0.7071068;0;0.3533334;0;
0.4178675;0;0;0;0;0;0;0;0;N/A;N/A;N/A;N/A;N/A;N/A;0;0;0;0;0;0;0;(0.0, 0.0);(0.0, 0.0);4.73;0;0.7071068;0;0.3533334;0;
0.4248118;0;0;0;0;0;0;0;0;N/A;N/A;N/A;N/A;N/A;N/A;0;0;0;0;0;0;0;(0.0, 0.0);(0.0, 0.0);4.73;0;0.7071068;0;0.3533334;0;
0.4317566;0;0;0;0;0;0;0;0;N/A;N/A;N/A;N/A;N/A;N/A;0;0;0;0;0;0;0;(0.0, 0.0);(0.0, 0.0);4.73;0;0.7071068;0;0.3533334;0;
0.4387015;0;0;0;0;0;0;0;0;N/A;N/A;N/A;N/A;N/A;N/A;0;0;0;0;0;0;0;(0.0, 0.0);(0.0, 0.0);4.73;0;0.7071068;0;0.3533334;0;
0.4457452;0;0;0;0;0;0;0;0;N/A;N/A;N/A;N/A;N/A;N/A;0;0;0;0;0;0;0;(0.0, 0.0);(0.0, 0.0);4.73;0;0.7071068;0;0.3533334;0;
0.4526899;0;0;0;0;0;0;0;0;N/A;N/A;N/A;N/A;N/A;N/A;0;0;0;0;0;0;0;(0.0, 0.0);(0.0, 0.0);4.73;0;0.7071068;0;0.3533334;0;
0.4602681;0;0;0;0;0;0;0;0;N/A;N/A;N/A;N/A;N/A;N/A;0;0;0;0;0;0;0;(0.0, 0.0);(0.0, 0.0);4.73;0;0.7071068;0;0.2301341;0;
0.467526;0;0;0;0;0;0;0;0;N/A;N/A;N/A;N/A;N/A;N/A;0;0;0;0;0;0;0;(0.0, 0.0);(0.0, 0.0);4.73;0;0.7071068;0;0.2301341;0;
0.4777747;0;0;0;0;0;0;0;0;N/A;N/A;N/A;N/A;N/A;N/A;0;0;0;0;0;0;0;(0.0, 0.0);(0.0, 0.0);4.73;0;0.7071068;0;0.2301341;0;
0.4853686;0;0;0;0;0;0;0;0;N/A;N/A;N/A;N/A;N/A;N/A;0;0;0;0;0;0;0;(0.0, 0.0);(0.0, 0.0);4.73;0;0.7071068;0;0.2301341;0;
0.4923131;0;0;0;0;0;0;0;0;N/A;N/A;N/A;N/A;N/A;N/A;0;0;0;0;0;0;0;(0.0, 0.0);(0.0, 0.0);4.73;0;0.7071068;0;0.2301341;0;
0.4992577;0;0;0;0;0;0;0;0;N/A;N/A;N/A;N/A;N/A;N/A;0;0;0;0;0;0;0;(0.0, 0.0);(0.0, 0.0);4.73;0;0.7071068;0;0.2301341;0;
0.5067143;0;0;0;0;0;0;0;0;N/A;N/A;N/A;N/A;N/A;N/A;0;0;0;0;0;0;0;(0.0, 0.0);(0.0, 0.0);4.73;0;0.7071068;0;0.2301341;0;
0.5139964;0;0;0;0;0;0;0;0;N/A;N/A;N/A;N/A;N/A;N/A;0;0;0;0;0;0;0;(0.0, 0.0);(0.0, 0.0);4.73;0;0.7071068;0;0.2301341;0;
0.5227441;0;0;0;0;0;0;0;0;N/A;N/A;N/A;N/A;N/A;N/A;0;0;0;0;0;0;0;(0.0, 0.0);(0.0, 0.0);4.73;0;0.7071068;0;0.2301341;0;
0.5303466;0;0;0;0;0;0;0;0;N/A;N/A;N/A;N/A;N/A;N/A;0;0;0;0;0;0;0;(0.0, 0.0);(0.0, 0.0);4.73;0;0.7071068;0;0.2301341;0;
0.5419406;0;0;0;0;0;0;0;0;N/A;N/A;N/A;N/A;N/A;N/A;0;0;0;0;0;0;0;(0.0, 0.0);(0.0, 0.0);4.73;0;0.7071068;0;0.2301341;0;
0.5510535;0;0;0;0;0;0;0;0;N/A;N/A;N/A;N/A;N/A;N/A;0;0;0;0;0;0;0;(0.0, 0.0);(0.0, 0.0);4.73;0;0.7071068;0;0.2301341;0;
0.5583932;0;0;0;0;0;0;0;0;N/A;N/A;N/A;N/A;N/A;N/A;0;0;0;0;0;0;0;(0.0, 0.0);(0.0, 0.0);4.73;0;0.7071068;0;0.2301341;0;
0.5660415;0;0;0;0;0;0;0;0;N/A;N/A;N/A;N/A;N/A;N/A;0;0;0;0;0;0;0;(0.0, 0.0);(0.0, 0.0);4.73;0;0.7071068;0;0.1886805;0;
0.5743498;0;0;0;0;0;0;0;0;N/A;N/A;N/A;N/A;N/A;N/A;0;0;0;0;0;0;0;(0.0, 0.0);(0.0, 0.0);4.73;0;0.7071068;0;0.1886805;0;
0.5898939;0;0;0;0;0;0;0;0;N/A;N/A;N/A;N/A;N/A;N/A;0;0;0;0;0;0;0;(0.0, 0.0);(0.0, 0.0);4.73;0;0.7071068;0;0.1886805;0;
0.5975147;0;0;0;0;0;0;0;0;N/A;N/A;N/A;N/A;N/A;N/A;0;0;0;0;0;0;0;(0.0, 0.0);(0.0, 0.0);4.73;0;0.7071068;0;0.1886805;0;
0.6063907;0;0;0;0;0;0;0;0;N/A;N/A;N/A;N/A;N/A;N/A;0;0;0;0;0;0;0;(0.0, 0.0);(0.0, 0.0);4.73;0;0.7071068;0;0.1886805;0;
0.6133454;0;0;0;0;0;0;0;0;N/A;N/A;N/A;N/A;N/A;N/A;0;0;0;0;0;0;0;(0.0, 0.0);(0.0, 0.0);4.73;0;0.7071068;0;0.1886805;0;
0.6202905;0;0;0;0;0;0;0;0;N/A;N/A;N/A;N/A;N/A;N/A;0;0;0;0;0;0;0;(0.0, 0.0);(0.0, 0.0);4.73;0;0.7071068;0;0.1886805;0;
0.6274704;0;0;0;0;0;0;0;0;N/A;N/A;N/A;N/A;N/A;N/A;0;0;0;0;0;0;0;(0.0, 0.0);(0.0, 0.0);4.73;0;0.7071068;0;0.1886805;0;
0.634415;0;0;0;0;0;0;0;0;N/A;N/A;N/A;N/A;N/A;N/A;0;0;0;0;0;0;0;(0.0, 0.0);(0.0, 0.0);4.73;0;0.7071068;0;0.1886805;0;
0.6426114;0;0;0;0;0;0;0;0;N/A;N/A;N/A;N/A;N/A;N/A;0;0;0;0;0;0;0;(0.0, 0.0);(0.0, 0.0);4.73;0;0.7071068;0;0.1886805;0;
0.6495568;0;0;0;0;0;0;0;0;N/A;N/A;N/A;N/A;N/A;N/A;0;0;0;0;0;0;0;(0.0, 0.0);(0.0, 0.0);4.73;0;0.7071068;0;0.1886805;0;
0.6565015;0;0;0;0;0;0;0;0;N/A;N/A;N/A;N/A;N/A;N/A;0;0;0;0;0;0;0;(0.0, 0.0);(0.0, 0.0);4.73;0;0.7071068;0;0.1886805;0;
0.6663706;0;0;0;0;0;0;0;0;N/A;N/A;N/A;N/A;N/A;N/A;0;0;0;0;0;0;0;(0.0, 0.0);(0.0, 0.0);4.73;0;0.7071068;0;0.1665926;0;
0.6742679;0;0;0;0;0;0;0;0;N/A;N/A;N/A;N/A;N/A;N/A;0;0;0;0;0;0;0;(0.0, 0.0);(0.0, 0.0);4.73;0;0.7071068;0;0.1665926;0;
0.6820217;0;0;0;0;0;0;0;0;N/A;N/A;N/A;N/A;N/A;N/A;0;0;0;0;0;0;0;(0.0, 0.0);(0.0, 0.0);4.73;0;0.7071068;0;0.1665926;0;
0.6897414;0;0;0;0;0;0;0;0;N/A;N/A;N/A;N/A;N/A;N/A;0;0;0;0;0;0;0;(0.0, 0.0);(0.0, 0.0);4.73;0;0.7071068;0;0.1665926;0;
0.6966851;0;0;0;0;0;0;0;0;N/A;N/A;N/A;N/A;N/A;N/A;0;0;0;0;0;0;0;(0.0, 0.0);(0.0, 0.0);4.73;0;0.7071068;0;0.1665926;0;
0.7054884;0;0;0;0;0;0;0;0;N/A;N/A;N/A;N/A;N/A;N/A;0;0;0;0;0;0;0;(0.0, 0.0);(0.0, 0.0);4.73;0;0.7071068;0;0.1665926;0;
