sep=;
timestamp;reset_count;virtual_distance_between_resets_median;time_elapsed_between_resets_median;sum_injected_translation;sum_injected_rotation_g_r;sum_injected_rotation_g_c;sum_real_distance_travelled;sum_virtual_distance_travelled;min_g_t;max_g_t;min_g_r;max_g_r;min_g_c;max_g_c;g_t_average;injected_translation_average;g_r_average;injected_rotation_from_rotation_gain_average;g_c_average;injected_rotation_from_curvature_gain_average;injected_rotation_average;real_position_average;virtual_position_average;distance_to_boundary_average;distance_to_center_average;normalized_distance_to_boundary_average;normalized_distance_to_center_average;experiment_duration;average_sampling_interval;
4.106571;0;0;0;0;0;0;1.929394;1.929394;N/A;N/A;N/A;N/A;N/A;N/A;0;0;0;0;0;0;0;(0.0, 0.7);(0.0, 0.7);4.019506;0.7104934;0.6008922;0.1062145;0;0.1207815;
4.439905;0;0;0;0;0;0;2.400798;2.400798;N/A;N/A;N/A;N/A;N/A;N/A;0;0;0;0;0;0;0;(0.0, 0.7);(0.0, 0.7);3.994205;0.7367792;0.5971098;0.1101441;0;0.1268544;
4.553247;0;0;0;0;0;0;2.400798;2.400798;N/A;N/A;N/A;N/A;N/A;N/A;0;0;0;0;0;0;0;(0.0, 0.8);(0.0, 0.8);3.970309;0.7616047;0.5935374;0.1138554;0;0.1264791;
4.56854;0;0;0;0;0;0;2.400798;2.400798;N/A;N/A;N/A;N/A;N/A;N/A;0;0;0;0;0;0;0;(0.0, 0.8);(0.0, 0.8);3.970309;0.7616047;0.5935374;0.1138554;0;0.1264791;
4.575485;0;0;0;0;0;0;2.400798;2.400798;N/A;N/A;N/A;N/A;N/A;N/A;0;0;0;0;0;0;0;(0.0, 0.8);(0.0, 0.8);3.970309;0.7616047;0.5935374;0.1138554;0;0.1264791;
4.582429;0;0;0;0;0;0;2.400798;2.400798;N/A;N/A;N/A;N/A;N/A;N/A;0;0;0;0;0;0;0;(0.0, 0.8);(0.0, 0.8);3.970309;0.7616047;0.5935374;0.1138554;0;0.1264791;
4.589374;0;0;0;0;0;0;2.400798;2.400798;N/A;N/A;N/A;N/A;N/A;N/A;0;0;0;0;0;0;0;(0.0, 0.8);(0.0, 0.8);3.970309;0.7616047;0.5935374;0.1138554;0;0.1264791;
4.596319;0;0;0;0;0;0;2.400798;2.400798;N/A;N/A;N/A;N/A;N/A;N/A;0;0;0;0;0;0;0;(0.0, 0.8);(0.0, 0.8);3.970309;0.7616047;0.5935374;0.1138554;0;0.1264791;
4.609569;0;0;0;0;0;0;2.400798;2.400798;N/A;N/A;N/A;N/A;N/A;N/A;0;0;0;0;0;0;0;(0.0, 0.8);(0.0, 0.8);3.970309;0.7616047;0.5935374;0.1138554;0;0.1264791;
4.616514;0;0;0;0;0;0;2.400798;2.400798;N/A;N/A;N/A;N/A;N/A;N/A;0;0;0;0;0;0;0;(0.0, 0.8);(0.0, 0.8);3.970309;0.7616047;0.5935374;0.1138554;0;0.1264791;
4.623458;0;0;0;0;0;0;2.400798;2.400798;N/A;N/A;N/A;N/A;N/A;N/A;0;0;0;0;0;0;0;(0.0, 0.8);(0.0, 0.8);3.970309;0.7616047;0.5935374;0.1138554;0;0.1264791;
4.630403;0;0;0;0;0;0;2.400798;2.400798;N/A;N/A;N/A;N/A;N/A;N/A;0;0;0;0;0;0;0;(0.0, 0.8);(0.0, 0.8);3.970309;0.7616047;0.5935374;0.1138554;0;0.1264791;
4.640198;0;0;0;0;0;0;2.400798;2.400798;N/A;N/A;N/A;N/A;N/A;N/A;0;0;0;0;0;0;0;(0.0, 0.8);(0.0, 0.8);3.970309;0.7616047;0.5935374;0.1138554;0;0.1264791;
4.652765;0;0;0;0;0;0;2.413365;2.413365;N/A;N/A;N/A;N/A;N/A;N/A;0;0;0;0;0;0;0;(0.0, 0.8);(0.0, 0.8);3.970309;0.7616047;0.5935374;0.1138554;0;0.1264791;
4.661039;0;0;0;0;0;0;2.42164;2.42164;N/A;N/A;N/A;N/A;N/A;N/A;0;0;0;0;0;0;0;(0.0, 0.8);(0.0, 0.8);3.947769;0.7850324;0.5901679;0.1173577;0;0.125974;
4.673095;0;0;0;0;0;0;2.433695;2.433695;N/A;N/A;N/A;N/A;N/A;N/A;0;0;0;0;0;0;0;(0.0, 0.8);(0.0, 0.8);3.947769;0.7850324;0.5901679;0.1173577;0;0.125974;
4.681872;0;0;0;0;0;0;2.442473;2.442473;N/A;N/A;N/A;N/A;N/A;N/A;0;0;0;0;0;0;0;(0.0, 0.8);(0.0, 0.8);3.947769;0.7850324;0.5901679;0.1173577;0;0.125974;
4.694059;0;0;0;0;0;0;2.454659;2.454659;N/A;N/A;N/A;N/A;N/A;N/A;0;0;0;0;0;0;0;(0.0, 0.8);(0.0, 0.8);3.947769;0.7850324;0.5901679;0.1173577;0;0.125974;
4.703235;0;0;0;0;0;0;2.463835;2.463835;N/A;N/A;N/A;N/A;N/A;N/A;0;0;0;0;0;0;0;(0.0, 0.8);(0.0, 0.8);3.947769;0.7850324;0.5901679;0.1173577;0;0.125974;
4.714857;0;0;0;0;0;0;2.475457;2.475457;N/A;N/A;N/A;N/A;N/A;N/A;0;0;0;0;0;0;0;(0.0, 0.8);(0.0, 0.8);3.947769;0.7850324;0.5901679;0.1173577;0;0.125974;
4.726511;0;0;0;0;0;0;2.487112;2.487112;N/A;N/A;N/A;N/A;N/A;N/A;0;0;0;0;0;0;0;(0.0, 0.8);(0.0, 0.8);3.947769;0.7850324;0.5901679;0.1173577;0;0.125974;
4.736012;0;0;0;0;0;0;2.496612;2.496612;N/A;N/A;N/A;N/A;N/A;N/A;0;0;0;0;0;0;0;(0.0, 0.8);(0.0, 0.8);3.947769;0.7850324;0.5901679;0.1173577;0;0.125974;
4.748224;0;0;0;0;0;0;2.508824;2.508824;N/A;N/A;N/A;N/A;N/A;N/A;0;0;0;0;0;0;0;(0.0, 0.8);(0.0, 0.8);3.947769;0.7850324;0.5901679;0.1173577;0;0.125974;
4.766726;0;0;0;0;0;0;2.527326;2.527326;N/A;N/A;N/A;N/A;N/A;N/A;0;0;0;0;0;0;0;(0.0, 0.8);(0.0, 0.8);3.928046;0.805867;0.5872194;0.1204723;0;0.1254402;
4.77375;0;0;0;0;0;0;2.53435;2.53435;N/A;N/A;N/A;N/A;N/A;N/A;0;0;0;0;0;0;0;(0.0, 0.8);(0.0, 0.8);3.928046;0.805867;0.5872194;0.1204723;0;0.1254402;
4.780694;0;0;0;0;0;0;2.541295;2.541295;N/A;N/A;N/A;N/A;N/A;N/A;0;0;0;0;0;0;0;(0.0, 0.8);(0.0, 0.8);3.928046;0.805867;0.5872194;0.1204723;0;0.1254402;
4.787745;0;0;0;0;0;0;2.548345;2.548345;N/A;N/A;N/A;N/A;N/A;N/A;0;0;0;0;0;0;0;(0.0, 0.8);(0.0, 0.8);3.928046;0.805867;0.5872194;0.1204723;0;0.1254402;
4.794683;0;0;0;0;0;0;2.555283;2.555283;N/A;N/A;N/A;N/A;N/A;N/A;0;0;0;0;0;0;0;(0.0, 0.8);(0.0, 0.8);3.928046;0.805867;0.5872194;0.1204723;0;0.1254402;
4.801633;0;0;0;0;0;0;2.562234;2.562234;N/A;N/A;N/A;N/A;N/A;N/A;0;0;0;0;0;0;0;(0.0, 0.8);(0.0, 0.8);3.928046;0.805867;0.5872194;0.1204723;0;0.1254402;
4.809417;0;0;0;0;0;0;2.570018;2.570018;N/A;N/A;N/A;N/A;N/A;N/A;0;0;0;0;0;0;0;(0.0, 0.8);(0.0, 0.8);3.928046;0.805867;0.5872194;0.1204723;0;0.1254402;
4.81636;0;0;0;0;0;0;2.576961;2.576961;N/A;N/A;N/A;N/A;N/A;N/A;0;0;0;0;0;0;0;(0.0, 0.8);(0.0, 0.8);3.928046;0.805867;0.5872194;0.1204723;0;0.1254402;
4.823308;0;0;0;0;0;0;2.583908;2.583908;N/A;N/A;N/A;N/A;N/A;N/A;0;0;0;0;0;0;0;(0.0, 0.8);(0.0, 0.8);3.928046;0.805867;0.5872194;0.1204723;0;0.1254402;
4.830252;0;0;0;0;0;0;2.590853;2.590853;N/A;N/A;N/A;N/A;N/A;N/A;0;0;0;0;0;0;0;(0.0, 0.8);(0.0, 0.8);3.928046;0.805867;0.5872194;0.1204723;0;0.1254402;
4.837386;0;0;0;0;0;0;2.597986;2.597986;N/A;N/A;N/A;N/A;N/A;N/A;0;0;0;0;0;0;0;(0.0, 0.8);(0.0, 0.8);3.928046;0.805867;0.5872194;0.1204723;0;0.1254402;
4.844354;0;0;0;0;0;0;2.604954;2.604954;N/A;N/A;N/A;N/A;N/A;N/A;0;0;0;0;0;0;0;(0.0, 0.8);(0.0, 0.8);3.928046;0.805867;0.5872194;0.1204723;0;0.1254402;
4.851298;0;0;0;0;0;0;2.611899;2.611899;N/A;N/A;N/A;N/A;N/A;N/A;0;0;0;0;0;0;0;(0.0, 0.8);(0.0, 0.8);3.928046;0.805867;0.5872194;0.1204723;0;0.1254402;
4.858352;0;0;0;0;0;0;2.618953;2.618953;N/A;N/A;N/A;N/A;N/A;N/A;0;0;0;0;0;0;0;(0.0, 0.8);(0.0, 0.8);3.928046;0.805867;0.5872194;0.1204723;0;0.1254402;
4.865305;0;0;0;0;0;0;2.625906;2.625906;N/A;N/A;N/A;N/A;N/A;N/A;0;0;0;0;0;0;0;(0.0, 0.8);(0.0, 0.8);3.928046;0.805867;0.5872194;0.1204723;0;0.1254402;
4.872712;0;0;0;0;0;0;2.633312;2.633312;N/A;N/A;N/A;N/A;N/A;N/A;0;0;0;0;0;0;0;(0.0, 0.8);(0.0, 0.8);3.911452;0.8240501;0.5847387;0.1231906;0;0.1249413;
4.879658;0;0;0;0;0;0;2.640259;2.640259;N/A;N/A;N/A;N/A;N/A;N/A;0;0;0;0;0;0;0;(0.0, 0.8);(0.0, 0.8);3.911452;0.8240501;0.5847387;0.1231906;0;0.1249413;
4.886604;0;0;0;0;0;0;2.647205;2.647205;N/A;N/A;N/A;N/A;N/A;N/A;0;0;0;0;0;0;0;(0.0, 0.8);(0.0, 0.8);3.911452;0.8240501;0.5847387;0.1231906;0;0.1249413;
4.893546;0;0;0;0;0;0;2.654147;2.654147;N/A;N/A;N/A;N/A;N/A;N/A;0;0;0;0;0;0;0;(0.0, 0.8);(0.0, 0.8);3.911452;0.8240501;0.5847387;0.1231906;0;0.1249413;
4.900652;0;0;0;0;0;0;2.661252;2.661252;N/A;N/A;N/A;N/A;N/A;N/A;0;0;0;0;0;0;0;(0.0, 0.8);(0.0, 0.8);3.911452;0.8240501;0.5847387;0.1231906;0;0.1249413;
4.915116;0;0;0;0;0;0;2.675717;2.675717;N/A;N/A;N/A;N/A;N/A;N/A;0;0;0;0;0;0;0;(0.0, 0.8);(0.0, 0.8);3.911452;0.8240501;0.5847387;0.1231906;0;0.1249413;
4.922064;0;0;0;0;0;0;2.682665;2.682665;N/A;N/A;N/A;N/A;N/A;N/A;0;0;0;0;0;0;0;(0.0, 0.8);(0.0, 0.8);3.911452;0.8240501;0.5847387;0.1231906;0;0.1249413;
4.929149;0;0;0;0;0;0;2.689749;2.689749;N/A;N/A;N/A;N/A;N/A;N/A;0;0;0;0;0;0;0;(0.0, 0.8);(0.0, 0.8);3.911452;0.8240501;0.5847387;0.1231906;0;0.1249413;
4.936093;0;0;0;0;0;0;2.696694;2.696694;N/A;N/A;N/A;N/A;N/A;N/A;0;0;0;0;0;0;0;(0.0, 0.8);(0.0, 0.8);3.911452;0.8240501;0.5847387;0.1231906;0;0.1249413;
4.94304;0;0;0;0;0;0;2.703641;2.703641;N/A;N/A;N/A;N/A;N/A;N/A;0;0;0;0;0;0;0;(0.0, 0.8);(0.0, 0.8);3.911452;0.8240501;0.5847387;0.1231906;0;0.1249413;
4.949982;0;0;0;0;0;0;2.710583;2.710583;N/A;N/A;N/A;N/A;N/A;N/A;0;0;0;0;0;0;0;(0.0, 0.8);(0.0, 0.8);3.911452;0.8240501;0.5847387;0.1231906;0;0.1249413;
4.956929;0;0;0;0;0;0;2.71753;2.71753;N/A;N/A;N/A;N/A;N/A;N/A;0;0;0;0;0;0;0;(0.0, 0.8);(0.0, 0.8);3.911452;0.8240501;0.5847387;0.1231906;0;0.1249413;
4.963872;0;0;0;0;0;0;2.724473;2.724473;N/A;N/A;N/A;N/A;N/A;N/A;0;0;0;0;0;0;0;(0.0, 0.8);(0.0, 0.8);3.911452;0.8240501;0.5847387;0.1231906;0;0.1249413;
4.970816;0;0;0;0;0;0;2.731417;2.731417;N/A;N/A;N/A;N/A;N/A;N/A;0;0;0;0;0;0;0;(0.0, 0.8);(0.0, 0.8);3.911452;0.8240501;0.5847387;0.1231906;0;0.1249413;
4.977763;0;0;0;0;0;0;2.738364;2.738364;N/A;N/A;N/A;N/A;N/A;N/A;0;0;0;0;0;0;0;(-0.1, 0.8);(-0.1, 0.8);3.897439;0.8403193;0.582644;0.1256227;0;0.1244441;
4.984972;0;0;0;0;0;0;2.745573;2.745573;N/A;N/A;N/A;N/A;N/A;N/A;0;0;0;0;0;0;0;(-0.1, 0.8);(-0.1, 0.8);3.897439;0.8403193;0.582644;0.1256227;0;0.1244441;
4.993229;0;0;0;0;0;0;2.75383;2.75383;N/A;N/A;N/A;N/A;N/A;N/A;0;0;0;0;0;0;0;(-0.1, 0.8);(-0.1, 0.8);3.897439;0.8403193;0.582644;0.1256227;0;0.1244441;
5.000174;0;0;0;0;0;0;2.760775;2.760775;N/A;N/A;N/A;N/A;N/A;N/A;0;0;0;0;0;0;0;(-0.1, 0.8);(-0.1, 0.8);3.897439;0.8403193;0.582644;0.1256227;0;0.1244441;
5.007119;0;0;0;0;0;0;2.76772;2.76772;N/A;N/A;N/A;N/A;N/A;N/A;0;0;0;0;0;0;0;(-0.1, 0.8);(-0.1, 0.8);3.897439;0.8403193;0.582644;0.1256227;0;0.1244441;
5.014063;0;0;0;0;0;0;2.774664;2.774664;N/A;N/A;N/A;N/A;N/A;N/A;0;0;0;0;0;0;0;(-0.1, 0.8);(-0.1, 0.8);3.897439;0.8403193;0.582644;0.1256227;0;0.1244441;
5.021008;0;0;0;0;0;0;2.781609;2.781609;N/A;N/A;N/A;N/A;N/A;N/A;0;0;0;0;0;0;0;(-0.1, 0.8);(-0.1, 0.8);3.897439;0.8403193;0.582644;0.1256227;0;0.1244441;
5.027952;0;0;0;0;0;0;2.788553;2.788553;N/A;N/A;N/A;N/A;N/A;N/A;0;0;0;0;0;0;0;(-0.1, 0.8);(-0.1, 0.8);3.897439;0.8403193;0.582644;0.1256227;0;0.1244441;
5.034899;0;0;0;0;0;0;2.7955;2.7955;N/A;N/A;N/A;N/A;N/A;N/A;0;0;0;0;0;0;0;(-0.1, 0.8);(-0.1, 0.8);3.897439;0.8403193;0.582644;0.1256227;0;0.1244441;
5.041843;0;0;0;0;0;0;2.802445;2.802445;N/A;N/A;N/A;N/A;N/A;N/A;0;0;0;0;0;0;0;(-0.1, 0.8);(-0.1, 0.8);3.897439;0.8403193;0.582644;0.1256227;0;0.1244441;
5.048787;0;0;0;0;0;0;2.809388;2.809388;N/A;N/A;N/A;N/A;N/A;N/A;0;0;0;0;0;0;0;(-0.1, 0.8);(-0.1, 0.8);3.897439;0.8403193;0.582644;0.1256227;0;0.1244441;
5.055824;0;0;0;0;0;0;2.816425;2.816425;N/A;N/A;N/A;N/A;N/A;N/A;0;0;0;0;0;0;0;(-0.1, 0.8);(-0.1, 0.8);3.897439;0.8403193;0.582644;0.1256227;0;0.1244441;
5.070092;0;0;0;0;0;0;2.830693;2.830693;N/A;N/A;N/A;N/A;N/A;N/A;0;0;0;0;0;0;0;(-0.1, 0.8);(-0.1, 0.8);3.897439;0.8403193;0.582644;0.1256227;0;0.1244441;
5.077036;0;0;0;0;0;0;2.837638;2.837638;N/A;N/A;N/A;N/A;N/A;N/A;0;0;0;0;0;0;0;(-0.1, 0.8);(-0.1, 0.8);3.897439;0.8403193;0.582644;0.1256227;0;0.1244441;
5.083982;0;0;0;0;0;0;2.844584;2.844584;N/A;N/A;N/A;N/A;N/A;N/A;0;0;0;0;0;0;0;(-0.1, 0.8);(-0.1, 0.8);3.885474;0.8553457;0.5808553;0.1278691;0;0.1239996;
5.090925;0;0;0;0;0;0;2.851526;2.851526;N/A;N/A;N/A;N/A;N/A;N/A;0;0;0;0;0;0;0;(-0.1, 0.8);(-0.1, 0.8);3.885474;0.8553457;0.5808553;0.1278691;0;0.1239996;
5.09787;0;0;0;0;0;0;2.858471;2.858471;N/A;N/A;N/A;N/A;N/A;N/A;0;0;0;0;0;0;0;(-0.1, 0.8);(-0.1, 0.8);3.885474;0.8553457;0.5808553;0.1278691;0;0.1239996;
5.104817;0;0;0;0;0;0;2.865419;2.865419;N/A;N/A;N/A;N/A;N/A;N/A;0;0;0;0;0;0;0;(-0.1, 0.8);(-0.1, 0.8);3.885474;0.8553457;0.5808553;0.1278691;0;0.1239996;
5.11176;0;0;0;0;0;0;2.87236;2.87236;N/A;N/A;N/A;N/A;N/A;N/A;0;0;0;0;0;0;0;(-0.1, 0.8);(-0.1, 0.8);3.885474;0.8553457;0.5808553;0.1278691;0;0.1239996;
5.118704;0;0;0;0;0;0;2.879305;2.879305;N/A;N/A;N/A;N/A;N/A;N/A;0;0;0;0;0;0;0;(-0.1, 0.8);(-0.1, 0.8);3.885474;0.8553457;0.5808553;0.1278691;0;0.1239996;
5.125648;0;0;0;0;0;0;2.88625;2.88625;N/A;N/A;N/A;N/A;N/A;N/A;0;0;0;0;0;0;0;(-0.1, 0.8);(-0.1, 0.8);3.885474;0.8553457;0.5808553;0.1278691;0;0.1239996;
5.132594;0;0;0;0;0;0;2.893194;2.893194;N/A;N/A;N/A;N/A;N/A;N/A;0;0;0;0;0;0;0;(-0.1, 0.8);(-0.1, 0.8);3.885474;0.8553457;0.5808553;0.1278691;0;0.1239996;
5.13954;0;0;0;0;0;0;2.900141;2.900141;N/A;N/A;N/A;N/A;N/A;N/A;0;0;0;0;0;0;0;(-0.1, 0.8);(-0.1, 0.8);3.885474;0.8553457;0.5808553;0.1278691;0;0.1239996;
5.146483;0;0;0;0;0;0;2.907084;2.907084;N/A;N/A;N/A;N/A;N/A;N/A;0;0;0;0;0;0;0;(-0.1, 0.8);(-0.1, 0.8);3.885474;0.8553457;0.5808553;0.1278691;0;0.1239996;
5.153428;0;0;0;0;0;0;2.914029;2.914029;N/A;N/A;N/A;N/A;N/A;N/A;0;0;0;0;0;0;0;(-0.1, 0.8);(-0.1, 0.8);3.885474;0.8553457;0.5808553;0.1278691;0;0.1239996;
5.160373;0;0;0;0;0;0;2.920974;2.920974;N/A;N/A;N/A;N/A;N/A;N/A;0;0;0;0;0;0;0;(-0.1, 0.8);(-0.1, 0.8);3.885474;0.8553457;0.5808553;0.1278691;0;0.1239996;
5.167331;0;0;0;0;0;0;2.927932;2.927932;N/A;N/A;N/A;N/A;N/A;N/A;0;0;0;0;0;0;0;(-0.1, 0.8);(-0.1, 0.8);3.885474;0.8553457;0.5808553;0.1278691;0;0.1239996;
5.178765;0;0;0;0;0;0;2.944102;2.944102;N/A;N/A;N/A;N/A;N/A;N/A;0;0;0;0;0;0;0;(-0.1, 0.8);(-0.1, 0.8);3.885474;0.8553457;0.5808553;0.1278691;0;0.1239996;
5.187048;0;0;0;0;0;0;2.955817;2.955817;N/A;N/A;N/A;N/A;N/A;N/A;0;0;0;0;0;0;0;(-0.1, 0.9);(-0.1, 0.9);3.875416;0.8693972;0.5793516;0.1299697;0;0.1235012;
5.193994;0;0;0;0;0;0;2.965638;2.965638;N/A;N/A;N/A;N/A;N/A;N/A;0;0;0;0;0;0;0;(-0.1, 0.9);(-0.1, 0.9);3.875416;0.8693972;0.5793516;0.1299697;0;0.1235012;
5.200938;0;0;0;0;0;0;2.975459;2.975459;N/A;N/A;N/A;N/A;N/A;N/A;0;0;0;0;0;0;0;(-0.1, 0.9);(-0.1, 0.9);3.875416;0.8693972;0.5793516;0.1299697;0;0.1235012;
5.207922;0;0;0;0;0;0;2.985337;2.985337;N/A;N/A;N/A;N/A;N/A;N/A;0;0;0;0;0;0;0;(-0.1, 0.9);(-0.1, 0.9);3.875416;0.8693972;0.5793516;0.1299697;0;0.1235012;
5.221868;0;0;0;0;0;0;3.005058;3.005058;N/A;N/A;N/A;N/A;N/A;N/A;0;0;0;0;0;0;0;(-0.1, 0.9);(-0.1, 0.9);3.875416;0.8693972;0.5793516;0.1299697;0;0.1235012;
5.228812;0;0;0;0;0;0;3.014879;3.014879;N/A;N/A;N/A;N/A;N/A;N/A;0;0;0;0;0;0;0;(-0.1, 0.9);(-0.1, 0.9);3.875416;0.8693972;0.5793516;0.1299697;0;0.1235012;
5.235756;0;0;0;0;0;0;3.0247;3.0247;N/A;N/A;N/A;N/A;N/A;N/A;0;0;0;0;0;0;0;(-0.1, 0.9);(-0.1, 0.9);3.875416;0.8693972;0.5793516;0.1299697;0;0.1235012;
5.242701;0;0;0;0;0;0;3.034521;3.034521;N/A;N/A;N/A;N/A;N/A;N/A;0;0;0;0;0;0;0;(-0.1, 0.9);(-0.1, 0.9);3.875416;0.8693972;0.5793516;0.1299697;0;0.1235012;
5.249646;0;0;0;0;0;0;3.044343;3.044343;N/A;N/A;N/A;N/A;N/A;N/A;0;0;0;0;0;0;0;(-0.1, 0.9);(-0.1, 0.9);3.875416;0.8693972;0.5793516;0.1299697;0;0.1235012;
5.256591;0;0;0;0;0;0;3.054164;3.054164;N/A;N/A;N/A;N/A;N/A;N/A;0;0;0;0;0;0;0;(-0.1, 0.9);(-0.1, 0.9);3.875416;0.8693972;0.5793516;0.1299697;0;0.1235012;
5.263535;0;0;0;0;0;0;3.063985;3.063985;N/A;N/A;N/A;N/A;N/A;N/A;0;0;0;0;0;0;0;(-0.1, 0.9);(-0.1, 0.9);3.875416;0.8693972;0.5793516;0.1299697;0;0.1235012;
5.27052;0;0;0;0;0;0;3.073863;3.073863;N/A;N/A;N/A;N/A;N/A;N/A;0;0;0;0;0;0;0;(-0.1, 0.9);(-0.1, 0.9);3.875416;0.8693972;0.5793516;0.1299697;0;0.1235012;
5.277464;0;0;0;0;0;0;3.083685;3.083685;N/A;N/A;N/A;N/A;N/A;N/A;0;0;0;0;0;0;0;(-0.1, 0.9);(-0.1, 0.9);3.875416;0.8693972;0.5793516;0.1299697;0;0.1235012;
5.284409;0;0;0;0;0;0;3.093506;3.093506;N/A;N/A;N/A;N/A;N/A;N/A;0;0;0;0;0;0;0;(-0.1, 0.9);(-0.1, 0.9);3.875416;0.8693972;0.5793516;0.1299697;0;0.1235012;
5.29213;0;0;0;0;0;0;3.104425;3.104425;N/A;N/A;N/A;N/A;N/A;N/A;0;0;0;0;0;0;0;(-0.1, 0.9);(-0.1, 0.9);3.868628;0.8810227;0.5783368;0.1317076;0;0.1230728;
5.299806;0;0;0;0;0;0;3.11528;3.11528;N/A;N/A;N/A;N/A;N/A;N/A;0;0;0;0;0;0;0;(-0.1, 0.9);(-0.1, 0.9);3.868628;0.8810227;0.5783368;0.1317076;0;0.1230728;
5.30675;0;0;0;0;0;0;3.1251;3.1251;N/A;N/A;N/A;N/A;N/A;N/A;0;0;0;0;0;0;0;(-0.1, 0.9);(-0.1, 0.9);3.868628;0.8810227;0.5783368;0.1317076;0;0.1230728;
5.313695;0;0;0;0;0;0;3.134923;3.134923;N/A;N/A;N/A;N/A;N/A;N/A;0;0;0;0;0;0;0;(-0.1, 0.9);(-0.1, 0.9);3.868628;0.8810227;0.5783368;0.1317076;0;0.1230728;
5.320641;0;0;0;0;0;0;3.144745;3.144745;N/A;N/A;N/A;N/A;N/A;N/A;0;0;0;0;0;0;0;(-0.1, 0.9);(-0.1, 0.9);3.868628;0.8810227;0.5783368;0.1317076;0;0.1230728;
5.327584;0;0;0;0;0;0;3.154565;3.154565;N/A;N/A;N/A;N/A;N/A;N/A;0;0;0;0;0;0;0;(-0.1, 0.9);(-0.1, 0.9);3.868628;0.8810227;0.5783368;0.1317076;0;0.1230728;
5.33453;0;0;0;0;0;0;3.164388;3.164388;N/A;N/A;N/A;N/A;N/A;N/A;0;0;0;0;0;0;0;(-0.1, 0.9);(-0.1, 0.9);3.868628;0.8810227;0.5783368;0.1317076;0;0.1230728;
5.341486;0;0;0;0;0;0;3.174225;3.174225;N/A;N/A;N/A;N/A;N/A;N/A;0;0;0;0;0;0;0;(-0.1, 0.9);(-0.1, 0.9);3.868628;0.8810227;0.5783368;0.1317076;0;0.1230728;
5.348431;0;0;0;0;0;0;3.184046;3.184046;N/A;N/A;N/A;N/A;N/A;N/A;0;0;0;0;0;0;0;(-0.1, 0.9);(-0.1, 0.9);3.868628;0.8810227;0.5783368;0.1317076;0;0.1230728;
5.355377;0;0;0;0;0;0;3.19387;3.19387;N/A;N/A;N/A;N/A;N/A;N/A;0;0;0;0;0;0;0;(-0.1, 0.9);(-0.1, 0.9);3.868628;0.8810227;0.5783368;0.1317076;0;0.1230728;
5.36232;0;0;0;0;0;0;3.203688;3.203688;N/A;N/A;N/A;N/A;N/A;N/A;0;0;0;0;0;0;0;(-0.1, 0.9);(-0.1, 0.9);3.868628;0.8810227;0.5783368;0.1317076;0;0.1230728;
5.377233;0;0;0;0;0;0;3.224778;3.224778;N/A;N/A;N/A;N/A;N/A;N/A;0;0;0;0;0;0;0;(-0.1, 0.9);(-0.1, 0.9);3.868628;0.8810227;0.5783368;0.1317076;0;0.1230728;
5.384178;0;0;0;0;0;0;3.234601;3.234601;N/A;N/A;N/A;N/A;N/A;N/A;0;0;0;0;0;0;0;(-0.1, 0.9);(-0.1, 0.9);3.868628;0.8810227;0.5783368;0.1317076;0;0.1230728;
5.393194;0;0;0;0;0;0;3.247351;3.247351;N/A;N/A;N/A;N/A;N/A;N/A;0;0;0;0;0;0;0;(-0.1, 0.9);(-0.1, 0.9);3.865234;0.8900331;0.5778294;0.1330546;0;0.1225726;
5.400143;0;0;0;0;0;0;3.257178;3.257178;N/A;N/A;N/A;N/A;N/A;N/A;0;0;0;0;0;0;0;(-0.1, 0.9);(-0.1, 0.9);3.865234;0.8900331;0.5778294;0.1330546;0;0.1225726;
5.407084;0;0;0;0;0;0;3.266995;3.266995;N/A;N/A;N/A;N/A;N/A;N/A;0;0;0;0;0;0;0;(-0.1, 0.9);(-0.1, 0.9);3.865234;0.8900331;0.5778294;0.1330546;0;0.1225726;
5.414028;0;0;0;0;0;0;3.276815;3.276815;N/A;N/A;N/A;N/A;N/A;N/A;0;0;0;0;0;0;0;(-0.1, 0.9);(-0.1, 0.9);3.865234;0.8900331;0.5778294;0.1330546;0;0.1225726;
5.420973;0;0;0;0;0;0;3.286637;3.286637;N/A;N/A;N/A;N/A;N/A;N/A;0;0;0;0;0;0;0;(-0.1, 0.9);(-0.1, 0.9);3.865234;0.8900331;0.5778294;0.1330546;0;0.1225726;
5.427917;0;0;0;0;0;0;3.296458;3.296458;N/A;N/A;N/A;N/A;N/A;N/A;0;0;0;0;0;0;0;(-0.1, 0.9);(-0.1, 0.9);3.865234;0.8900331;0.5778294;0.1330546;0;0.1225726;
5.434864;0;0;0;0;0;0;3.306281;3.306281;N/A;N/A;N/A;N/A;N/A;N/A;0;0;0;0;0;0;0;(-0.1, 0.9);(-0.1, 0.9);3.865234;0.8900331;0.5778294;0.1330546;0;0.1225726;
5.441808;0;0;0;0;0;0;3.316102;3.316102;N/A;N/A;N/A;N/A;N/A;N/A;0;0;0;0;0;0;0;(-0.1, 0.9);(-0.1, 0.9);3.865234;0.8900331;0.5778294;0.1330546;0;0.1225726;
5.448752;0;0;0;0;0;0;3.325922;3.325922;N/A;N/A;N/A;N/A;N/A;N/A;0;0;0;0;0;0;0;(-0.1, 0.9);(-0.1, 0.9);3.865234;0.8900331;0.5778294;0.1330546;0;0.1225726;
5.45647;0;0;0;0;0;0;3.336836;3.336836;N/A;N/A;N/A;N/A;N/A;N/A;0;0;0;0;0;0;0;(-0.1, 0.9);(-0.1, 0.9);3.865234;0.8900331;0.5778294;0.1330546;0;0.1225726;
5.463414;0;0;0;0;0;0;3.346657;3.346657;N/A;N/A;N/A;N/A;N/A;N/A;0;0;0;0;0;0;0;(-0.1, 0.9);(-0.1, 0.9);3.865234;0.8900331;0.5778294;0.1330546;0;0.1225726;
5.470358;0;0;0;0;0;0;3.356477;3.356477;N/A;N/A;N/A;N/A;N/A;N/A;0;0;0;0;0;0;0;(-0.1, 0.9);(-0.1, 0.9);3.865234;0.8900331;0.5778294;0.1330546;0;0.1225726;
5.477303;0;0;0;0;0;0;3.366299;3.366299;N/A;N/A;N/A;N/A;N/A;N/A;0;0;0;0;0;0;0;(-0.1, 0.9);(-0.1, 0.9);3.865234;0.8900331;0.5778294;0.1330546;0;0.1225726;
5.484447;0;0;0;0;0;0;3.376402;3.376402;N/A;N/A;N/A;N/A;N/A;N/A;0;0;0;0;0;0;0;(-0.1, 0.9);(-0.1, 0.9);3.865234;0.8900331;0.5778294;0.1330546;0;0.1225726;
5.492018;0;0;0;0;0;0;3.387109;3.387109;N/A;N/A;N/A;N/A;N/A;N/A;0;0;0;0;0;0;0;(-0.1, 0.9);(-0.1, 0.9);3.865234;0.8900331;0.5778294;0.1330546;0;0.1225726;
5.500279;0;0;0;0;0;0;3.398792;3.398792;N/A;N/A;N/A;N/A;N/A;N/A;0;0;0;0;0;0;0;(-0.1, 0.9);(-0.1, 0.9);3.86512;0.8966891;0.5778124;0.1340497;0;0.1222284;
5.507236;0;0;0;0;0;0;3.408631;3.408631;N/A;N/A;N/A;N/A;N/A;N/A;0;0;0;0;0;0;0;(-0.1, 0.9);(-0.1, 0.9);3.86512;0.8966891;0.5778124;0.1340497;0;0.1222284;
5.514183;0;0;0;0;0;0;3.418454;3.418454;N/A;N/A;N/A;N/A;N/A;N/A;0;0;0;0;0;0;0;(-0.1, 0.9);(-0.1, 0.9);3.86512;0.8966891;0.5778124;0.1340497;0;0.1222284;
5.527998;0;0;0;0;0;0;3.437993;3.437993;N/A;N/A;N/A;N/A;N/A;N/A;0;0;0;0;0;0;0;(-0.1, 0.9);(-0.1, 0.9);3.86512;0.8966891;0.5778124;0.1340497;0;0.1222284;
5.534942;0;0;0;0;0;0;3.447813;3.447813;N/A;N/A;N/A;N/A;N/A;N/A;0;0;0;0;0;0;0;(-0.1, 0.9);(-0.1, 0.9);3.86512;0.8966891;0.5778124;0.1340497;0;0.1222284;
5.541886;0;0;0;0;0;0;3.457634;3.457634;N/A;N/A;N/A;N/A;N/A;N/A;0;0;0;0;0;0;0;(-0.1, 0.9);(-0.1, 0.9);3.86512;0.8966891;0.5778124;0.1340497;0;0.1222284;
5.548831;0;0;0;0;0;0;3.467455;3.467455;N/A;N/A;N/A;N/A;N/A;N/A;0;0;0;0;0;0;0;(-0.1, 0.9);(-0.1, 0.9);3.86512;0.8966891;0.5778124;0.1340497;0;0.1222284;
5.555893;0;0;0;0;0;0;3.477442;3.477442;N/A;N/A;N/A;N/A;N/A;N/A;0;0;0;0;0;0;0;(-0.1, 0.9);(-0.1, 0.9);3.86512;0.8966891;0.5778124;0.1340497;0;0.1222284;
5.563183;0;0;0;0;0;0;3.487751;3.487751;N/A;N/A;N/A;N/A;N/A;N/A;0;0;0;0;0;0;0;(-0.1, 0.9);(-0.1, 0.9);3.86512;0.8966891;0.5778124;0.1340497;0;0.1222284;
5.570128;0;0;0;0;0;0;3.497573;3.497573;N/A;N/A;N/A;N/A;N/A;N/A;0;0;0;0;0;0;0;(-0.1, 0.9);(-0.1, 0.9);3.86512;0.8966891;0.5778124;0.1340497;0;0.1222284;
5.577177;0;0;0;0;0;0;3.507542;3.507542;N/A;N/A;N/A;N/A;N/A;N/A;0;0;0;0;0;0;0;(-0.1, 0.9);(-0.1, 0.9);3.86512;0.8966891;0.5778124;0.1340497;0;0.1222284;
5.584121;0;0;0;0;0;0;3.517363;3.517363;N/A;N/A;N/A;N/A;N/A;N/A;0;0;0;0;0;0;0;(-0.1, 0.9);(-0.1, 0.9);3.86512;0.8966891;0.5778124;0.1340497;0;0.1222284;
5.591068;0;0;0;0;0;0;3.527187;3.527187;N/A;N/A;N/A;N/A;N/A;N/A;0;0;0;0;0;0;0;(-0.1, 0.9);(-0.1, 0.9);3.86512;0.8966891;0.5778124;0.1340497;0;0.1222284;
5.598011;0;0;0;0;0;0;3.537005;3.537005;N/A;N/A;N/A;N/A;N/A;N/A;0;0;0;0;0;0;0;(-0.1, 0.9);(-0.1, 0.9);3.86512;0.8966891;0.5778124;0.1340497;0;0.1222284;
5.604954;0;0;0;0;0;0;3.546824;3.546824;N/A;N/A;N/A;N/A;N/A;N/A;0;0;0;0;0;0;0;(-0.1, 0.9);(-0.1, 0.9);3.865407;0.9013836;0.5778553;0.1347515;0;0.1218468;
5.6119;0;0;0;0;0;0;3.556648;3.556648;N/A;N/A;N/A;N/A;N/A;N/A;0;0;0;0;0;0;0;(-0.1, 0.9);(-0.1, 0.9);3.865407;0.9013836;0.5778553;0.1347515;0;0.1218468;
5.618843;0;0;0;0;0;0;3.566467;3.566467;N/A;N/A;N/A;N/A;N/A;N/A;0;0;0;0;0;0;0;(-0.1, 0.9);(-0.1, 0.9);3.865407;0.9013836;0.5778553;0.1347515;0;0.1218468;
5.62579;0;0;0;0;0;0;3.576291;3.576291;N/A;N/A;N/A;N/A;N/A;N/A;0;0;0;0;0;0;0;(-0.1, 0.9);(-0.1, 0.9);3.865407;0.9013836;0.5778553;0.1347515;0;0.1218468;
5.632734;0;0;0;0;0;0;3.586112;3.586112;N/A;N/A;N/A;N/A;N/A;N/A;0;0;0;0;0;0;0;(-0.1, 0.9);(-0.1, 0.9);3.865407;0.9013836;0.5778553;0.1347515;0;0.1218468;
5.639694;0;0;0;0;0;0;3.595954;3.595954;N/A;N/A;N/A;N/A;N/A;N/A;0;0;0;0;0;0;0;(-0.1, 0.9);(-0.1, 0.9);3.865407;0.9013836;0.5778553;0.1347515;0;0.1218468;
5.646631;0;0;0;0;0;0;3.605764;3.605764;N/A;N/A;N/A;N/A;N/A;N/A;0;0;0;0;0;0;0;(-0.1, 0.9);(-0.1, 0.9);3.865407;0.9013836;0.5778553;0.1347515;0;0.1218468;
5.653574;0;0;0;0;0;0;3.615583;3.615583;N/A;N/A;N/A;N/A;N/A;N/A;0;0;0;0;0;0;0;(-0.1, 0.9);(-0.1, 0.9);3.865407;0.9013836;0.5778553;0.1347515;0;0.1218468;
5.660517;0;0;0;0;0;0;3.625403;3.625403;N/A;N/A;N/A;N/A;N/A;N/A;0;0;0;0;0;0;0;(-0.1, 0.9);(-0.1, 0.9);3.865407;0.9013836;0.5778553;0.1347515;0;0.1218468;
5.667604;0;0;0;0;0;0;3.635425;3.635425;N/A;N/A;N/A;N/A;N/A;N/A;0;0;0;0;0;0;0;(-0.1, 0.9);(-0.1, 0.9);3.865407;0.9013836;0.5778553;0.1347515;0;0.1218468;
5.683438;0;0;0;0;0;0;3.657818;3.657818;N/A;N/A;N/A;N/A;N/A;N/A;0;0;0;0;0;0;0;(-0.1, 0.9);(-0.1, 0.9);3.865407;0.9013836;0.5778553;0.1347515;0;0.1218468;
5.690905;0;0;0;0;0;0;3.668377;3.668377;N/A;N/A;N/A;N/A;N/A;N/A;0;0;0;0;0;0;0;(-0.1, 0.9);(-0.1, 0.9);3.865407;0.9013836;0.5778553;0.1347515;0;0.1218468;
5.697918;0;0;0;0;0;0;3.678297;3.678297;N/A;N/A;N/A;N/A;N/A;N/A;0;0;0;0;0;0;0;(-0.1, 0.9);(-0.1, 0.9);3.865407;0.9013836;0.5778553;0.1347515;0;0.1218468;
5.704862;0;0;0;0;0;0;3.688115;3.688115;N/A;N/A;N/A;N/A;N/A;N/A;0;0;0;0;0;0;0;(-0.1, 0.9);(-0.1, 0.9);3.865407;0.9013836;0.5778553;0.1347515;0;0.1218468;
5.713736;0;0;0;0;0;0;3.700665;3.700665;N/A;N/A;N/A;N/A;N/A;N/A;0;0;0;0;0;0;0;(-0.2, 0.9);(-0.2, 0.9);3.864964;0.9046817;0.5777891;0.1352445;0;0.1215689;
5.720681;0;0;0;0;0;0;3.710487;3.710487;N/A;N/A;N/A;N/A;N/A;N/A;0;0;0;0;0;0;0;(-0.2, 0.9);(-0.2, 0.9);3.864964;0.9046817;0.5777891;0.1352445;0;0.1215689;
5.727627;0;0;0;0;0;0;3.72031;3.72031;N/A;N/A;N/A;N/A;N/A;N/A;0;0;0;0;0;0;0;(-0.2, 0.9);(-0.2, 0.9);3.864964;0.9046817;0.5777891;0.1352445;0;0.1215689;
5.73457;0;0;0;0;0;0;3.73013;3.73013;N/A;N/A;N/A;N/A;N/A;N/A;0;0;0;0;0;0;0;(-0.2, 0.9);(-0.2, 0.9);3.864964;0.9046817;0.5777891;0.1352445;0;0.1215689;
5.744036;0;0;0;0;0;0;3.743516;3.743516;N/A;N/A;N/A;N/A;N/A;N/A;0;0;0;0;0;0;0;(-0.2, 0.9);(-0.2, 0.9);3.864964;0.9046817;0.5777891;0.1352445;0;0.1215689;
5.751318;0;0;0;0;0;0;3.753814;3.753814;N/A;N/A;N/A;N/A;N/A;N/A;0;0;0;0;0;0;0;(-0.2, 0.9);(-0.2, 0.9);3.864964;0.9046817;0.5777891;0.1352445;0;0.1215689;
5.758298;0;0;0;0;0;0;3.763686;3.763686;N/A;N/A;N/A;N/A;N/A;N/A;0;0;0;0;0;0;0;(-0.2, 0.9);(-0.2, 0.9);3.864964;0.9046817;0.5777891;0.1352445;0;0.1215689;
5.765243;0;0;0;0;0;0;3.773508;3.773508;N/A;N/A;N/A;N/A;N/A;N/A;0;0;0;0;0;0;0;(-0.2, 0.9);(-0.2, 0.9);3.864964;0.9046817;0.5777891;0.1352445;0;0.1215689;
5.772438;0;0;0;0;0;0;3.783682;3.783682;N/A;N/A;N/A;N/A;N/A;N/A;0;0;0;0;0;0;0;(-0.2, 0.9);(-0.2, 0.9);3.864964;0.9046817;0.5777891;0.1352445;0;0.1215689;
5.779383;0;0;0;0;0;0;3.793504;3.793504;N/A;N/A;N/A;N/A;N/A;N/A;0;0;0;0;0;0;0;(-0.2, 0.9);(-0.2, 0.9);3.864964;0.9046817;0.5777891;0.1352445;0;0.1215689;
5.786327;0;0;0;0;0;0;3.803325;3.803325;N/A;N/A;N/A;N/A;N/A;N/A;0;0;0;0;0;0;0;(-0.2, 0.9);(-0.2, 0.9);3.864964;0.9046817;0.5777891;0.1352445;0;0.1215689;
5.793272;0;0;0;0;0;0;3.813147;3.813147;N/A;N/A;N/A;N/A;N/A;N/A;0;0;0;0;0;0;0;(-0.2, 0.9);(-0.2, 0.9);3.864964;0.9046817;0.5777891;0.1352445;0;0.1215689;
5.800216;0;0;0;0;0;0;3.822968;3.822968;N/A;N/A;N/A;N/A;N/A;N/A;0;0;0;0;0;0;0;(-0.2, 0.9);(-0.2, 0.9);3.864964;0.9046817;0.5777891;0.1352445;0;0.1215689;
5.807523;0;0;0;0;0;0;3.833301;3.833301;N/A;N/A;N/A;N/A;N/A;N/A;0;0;0;0;0;0;0;(-0.2, 0.9);(-0.2, 0.9);3.864964;0.9046817;0.5777891;0.1352445;0;0.1215689;
5.814467;0;0;0;0;0;0;3.843122;3.843122;N/A;N/A;N/A;N/A;N/A;N/A;0;0;0;0;0;0;0;(-0.2, 0.8);(-0.2, 0.8);3.863838;0.9069572;0.5776207;0.1355847;0;0.1211347;
5.821412;0;0;0;0;0;0;3.852943;3.852943;N/A;N/A;N/A;N/A;N/A;N/A;0;0;0;0;0;0;0;(-0.2, 0.8);(-0.2, 0.8);3.863838;0.9069572;0.5776207;0.1355847;0;0.1211347;
5.836159;0;0;0;0;0;0;3.873798;3.873798;N/A;N/A;N/A;N/A;N/A;N/A;0;0;0;0;0;0;0;(-0.2, 0.8);(-0.2, 0.8);3.863838;0.9069572;0.5776207;0.1355847;0;0.1211347;
5.843105;0;0;0;0;0;0;3.883621;3.883621;N/A;N/A;N/A;N/A;N/A;N/A;0;0;0;0;0;0;0;(-0.2, 0.8);(-0.2, 0.8);3.863838;0.9069572;0.5776207;0.1355847;0;0.1211347;
5.850048;0;0;0;0;0;0;3.89344;3.89344;N/A;N/A;N/A;N/A;N/A;N/A;0;0;0;0;0;0;0;(-0.2, 0.8);(-0.2, 0.8);3.863838;0.9069572;0.5776207;0.1355847;0;0.1211347;
5.856993;0;0;0;0;0;0;3.903262;3.903262;N/A;N/A;N/A;N/A;N/A;N/A;0;0;0;0;0;0;0;(-0.2, 0.8);(-0.2, 0.8);3.863838;0.9069572;0.5776207;0.1355847;0;0.1211347;
5.863937;0;0;0;0;0;0;3.913083;3.913083;N/A;N/A;N/A;N/A;N/A;N/A;0;0;0;0;0;0;0;(-0.2, 0.8);(-0.2, 0.8);3.863838;0.9069572;0.5776207;0.1355847;0;0.1211347;
5.871625;0;0;0;0;0;0;3.923955;3.923955;N/A;N/A;N/A;N/A;N/A;N/A;0;0;0;0;0;0;0;(-0.2, 0.8);(-0.2, 0.8);3.863838;0.9069572;0.5776207;0.1355847;0;0.1211347;
5.87857;0;0;0;0;0;0;3.933776;3.933776;N/A;N/A;N/A;N/A;N/A;N/A;0;0;0;0;0;0;0;(-0.2, 0.8);(-0.2, 0.8);3.863838;0.9069572;0.5776207;0.1355847;0;0.1211347;
5.885516;0;0;0;0;0;0;3.943599;3.943599;N/A;N/A;N/A;N/A;N/A;N/A;0;0;0;0;0;0;0;(-0.2, 0.8);(-0.2, 0.8);3.863838;0.9069572;0.5776207;0.1355847;0;0.1211347;
5.892461;0;0;0;0;0;0;3.953421;3.953421;N/A;N/A;N/A;N/A;N/A;N/A;0;0;0;0;0;0;0;(-0.2, 0.8);(-0.2, 0.8);3.863838;0.9069572;0.5776207;0.1355847;0;0.1211347;
5.899405;0;0;0;0;0;0;3.963242;3.963242;N/A;N/A;N/A;N/A;N/A;N/A;0;0;0;0;0;0;0;(-0.2, 0.8);(-0.2, 0.8);3.863838;0.9069572;0.5776207;0.1355847;0;0.1211347;
5.906348;0;0;0;0;0;0;3.973061;3.973061;N/A;N/A;N/A;N/A;N/A;N/A;0;0;0;0;0;0;0;(-0.2, 0.8);(-0.2, 0.8);3.863838;0.9069572;0.5776207;0.1355847;0;0.1211347;
5.913296;0;0;0;0;0;0;3.982886;3.982886;N/A;N/A;N/A;N/A;N/A;N/A;0;0;0;0;0;0;0;(-0.2, 0.8);(-0.2, 0.8);3.863838;0.9069572;0.5776207;0.1355847;0;0.1211347;
5.920239;0;0;0;0;0;0;3.992706;3.992706;N/A;N/A;N/A;N/A;N/A;N/A;0;0;0;0;0;0;0;(-0.2, 0.8);(-0.2, 0.8);3.862436;0.9083663;0.5774111;0.1357954;0;0.1208212;
5.927184;0;0;0;0;0;0;4.002527;4.002527;N/A;N/A;N/A;N/A;N/A;N/A;0;0;0;0;0;0;0;(-0.2, 0.8);(-0.2, 0.8);3.862436;0.9083663;0.5774111;0.1357954;0;0.1208212;
5.935929;0;0;0;0;0;0;4.014894;4.014894;N/A;N/A;N/A;N/A;N/A;N/A;0;0;0;0;0;0;0;(-0.2, 0.8);(-0.2, 0.8);3.862436;0.9083663;0.5774111;0.1357954;0;0.1208212;
5.943582;0;0;0;0;0;0;4.025717;4.025717;N/A;N/A;N/A;N/A;N/A;N/A;0;0;0;0;0;0;0;(-0.2, 0.8);(-0.2, 0.8);3.862436;0.9083663;0.5774111;0.1357954;0;0.1208212;
5.951501;0;0;0;0;0;0;4.036917;4.036917;N/A;N/A;N/A;N/A;N/A;N/A;0;0;0;0;0;0;0;(-0.2, 0.8);(-0.2, 0.8);3.862436;0.9083663;0.5774111;0.1357954;0;0.1208212;
5.959207;0;0;0;0;0;0;4.047813;4.047813;N/A;N/A;N/A;N/A;N/A;N/A;0;0;0;0;0;0;0;(-0.2, 0.8);(-0.2, 0.8);3.862436;0.9083663;0.5774111;0.1357954;0;0.1208212;
5.966152;0;0;0;0;0;0;4.057636;4.057636;N/A;N/A;N/A;N/A;N/A;N/A;0;0;0;0;0;0;0;(-0.2, 0.8);(-0.2, 0.8);3.862436;0.9083663;0.5774111;0.1357954;0;0.1208212;
5.973095;0;0;0;0;0;0;4.067455;4.067455;N/A;N/A;N/A;N/A;N/A;N/A;0;0;0;0;0;0;0;(-0.2, 0.8);(-0.2, 0.8);3.862436;0.9083663;0.5774111;0.1357954;0;0.1208212;
5.992149;0;0;0;0;0;0;4.094401;4.094401;N/A;N/A;N/A;N/A;N/A;N/A;0;0;0;0;0;0;0;(-0.2, 0.8);(-0.2, 0.8);3.862436;0.9083663;0.5774111;0.1357954;0;0.1208212;
5.999118;0;0;0;0;0;0;4.104257;4.104257;N/A;N/A;N/A;N/A;N/A;N/A;0;0;0;0;0;0;0;(-0.2, 0.8);(-0.2, 0.8);3.862436;0.9083663;0.5774111;0.1357954;0;0.1208212;
6.006065;0;0;0;0;0;0;4.114081;4.114081;N/A;N/A;N/A;N/A;N/A;N/A;0;0;0;0;0;0;0;(-0.2, 0.8);(-0.2, 0.8);3.862436;0.9083663;0.5774111;0.1357954;0;0.1208212;
6.013008;0;0;0;0;0;0;4.1239;4.1239;N/A;N/A;N/A;N/A;N/A;N/A;0;0;0;0;0;0;0;(-0.2, 0.8);(-0.2, 0.8);3.862436;0.9083663;0.5774111;0.1357954;0;0.1208212;
6.019954;0;0;0;0;0;0;4.133724;4.133724;N/A;N/A;N/A;N/A;N/A;N/A;0;0;0;0;0;0;0;(-0.2, 0.8);(-0.2, 0.8);3.862436;0.9083663;0.5774111;0.1357954;0;0.1208212;
6.026897;0;0;0;0;0;0;4.143543;4.143543;N/A;N/A;N/A;N/A;N/A;N/A;0;0;0;0;0;0;0;(-0.2, 0.8);(-0.2, 0.8);3.861196;0.9089949;0.5772258;0.1358893;0;0.120538;
6.033842;0;0;0;0;0;0;4.153364;4.153364;N/A;N/A;N/A;N/A;N/A;N/A;0;0;0;0;0;0;0;(-0.2, 0.8);(-0.2, 0.8);3.861196;0.9089949;0.5772258;0.1358893;0;0.120538;
6.040787;0;0;0;0;0;0;4.163185;4.163185;N/A;N/A;N/A;N/A;N/A;N/A;0;0;0;0;0;0;0;(-0.2, 0.8);(-0.2, 0.8);3.861196;0.9089949;0.5772258;0.1358893;0;0.120538;
6.047731;0;0;0;0;0;0;4.173007;4.173007;N/A;N/A;N/A;N/A;N/A;N/A;0;0;0;0;0;0;0;(-0.2, 0.8);(-0.2, 0.8);3.861196;0.9089949;0.5772258;0.1358893;0;0.120538;
6.054677;0;0;0;0;0;0;4.182828;4.182828;N/A;N/A;N/A;N/A;N/A;N/A;0;0;0;0;0;0;0;(-0.2, 0.8);(-0.2, 0.8);3.861196;0.9089949;0.5772258;0.1358893;0;0.120538;
6.061622;0;0;0;0;0;0;4.19265;4.19265;N/A;N/A;N/A;N/A;N/A;N/A;0;0;0;0;0;0;0;(-0.2, 0.8);(-0.2, 0.8);3.861196;0.9089949;0.5772258;0.1358893;0;0.120538;
6.068566;0;0;0;0;0;0;4.20247;4.20247;N/A;N/A;N/A;N/A;N/A;N/A;0;0;0;0;0;0;0;(-0.2, 0.8);(-0.2, 0.8);3.861196;0.9089949;0.5772258;0.1358893;0;0.120538;
6.075511;0;0;0;0;0;0;4.212292;4.212292;N/A;N/A;N/A;N/A;N/A;N/A;0;0;0;0;0;0;0;(-0.2, 0.8);(-0.2, 0.8);3.861196;0.9089949;0.5772258;0.1358893;0;0.120538;
6.082675;0;0;0;0;0;0;4.219456;4.219456;N/A;N/A;N/A;N/A;N/A;N/A;0;0;0;0;0;0;0;(-0.2, 0.8);(-0.2, 0.8);3.861196;0.9089949;0.5772258;0.1358893;0;0.120538;
6.090993;0;0;0;0;0;0;4.227774;4.227774;N/A;N/A;N/A;N/A;N/A;N/A;0;0;0;0;0;0;0;(-0.2, 0.8);(-0.2, 0.8);3.861196;0.9089949;0.5772258;0.1358893;0;0.120538;
6.097937;0;0;0;0;0;0;4.234718;4.234718;N/A;N/A;N/A;N/A;N/A;N/A;0;0;0;0;0;0;0;(-0.2, 0.8);(-0.2, 0.8);3.861196;0.9089949;0.5772258;0.1358893;0;0.120538;
6.104882;0;0;0;0;0;0;4.241663;4.241663;N/A;N/A;N/A;N/A;N/A;N/A;0;0;0;0;0;0;0;(-0.2, 0.8);(-0.2, 0.8);3.861196;0.9089949;0.5772258;0.1358893;0;0.120538;
6.112097;0;0;0;0;0;0;4.248878;4.248878;N/A;N/A;N/A;N/A;N/A;N/A;0;0;0;0;0;0;0;(-0.2, 0.8);(-0.2, 0.8);3.861196;0.9089949;0.5772258;0.1358893;0;0.120538;
6.119041;0;0;0;0;0;0;4.255823;4.255823;N/A;N/A;N/A;N/A;N/A;N/A;0;0;0;0;0;0;0;(-0.2, 0.8);(-0.2, 0.8);3.861196;0.9089949;0.5772258;0.1358893;0;0.120538;
6.125986;0;0;0;0;0;0;4.262767;4.262767;N/A;N/A;N/A;N/A;N/A;N/A;0;0;0;0;0;0;0;(-0.2, 0.8);(-0.2, 0.8);3.861196;0.9089949;0.5772258;0.1358893;0;0.120538;
6.140423;0;0;0;0;0;0;4.277204;4.277204;N/A;N/A;N/A;N/A;N/A;N/A;0;0;0;0;0;0;0;(-0.2, 0.8);(-0.2, 0.8);3.859935;0.9094787;0.5770373;0.1359617;0;0.1204005;
6.147368;0;0;0;0;0;0;4.284149;4.284149;N/A;N/A;N/A;N/A;N/A;N/A;0;0;0;0;0;0;0;(-0.2, 0.8);(-0.2, 0.8);3.859935;0.9094787;0.5770373;0.1359617;0;0.1204005;
6.154313;0;0;0;0;0;0;4.291093;4.291093;N/A;N/A;N/A;N/A;N/A;N/A;0;0;0;0;0;0;0;(-0.2, 0.8);(-0.2, 0.8);3.859935;0.9094787;0.5770373;0.1359617;0;0.1204005;
6.161325;0;0;0;0;0;0;4.298106;4.298106;N/A;N/A;N/A;N/A;N/A;N/A;0;0;0;0;0;0;0;(-0.2, 0.8);(-0.2, 0.8);3.859935;0.9094787;0.5770373;0.1359617;0;0.1204005;
6.168269;0;0;0;0;0;0;4.30505;4.30505;N/A;N/A;N/A;N/A;N/A;N/A;0;0;0;0;0;0;0;(-0.2, 0.8);(-0.2, 0.8);3.859935;0.9094787;0.5770373;0.1359617;0;0.1204005;
6.175216;0;0;0;0;0;0;4.311997;4.311997;N/A;N/A;N/A;N/A;N/A;N/A;0;0;0;0;0;0;0;(-0.2, 0.8);(-0.2, 0.8);3.859935;0.9094787;0.5770373;0.1359617;0;0.1204005;
6.182159;0;0;0;0;0;0;4.31894;4.31894;N/A;N/A;N/A;N/A;N/A;N/A;0;0;0;0;0;0;0;(-0.2, 0.8);(-0.2, 0.8);3.859935;0.9094787;0.5770373;0.1359617;0;0.1204005;
6.189187;0;0;0;0;0;0;4.325968;4.325968;N/A;N/A;N/A;N/A;N/A;N/A;0;0;0;0;0;0;0;(-0.2, 0.8);(-0.2, 0.8);3.859935;0.9094787;0.5770373;0.1359617;0;0.1204005;
6.196132;0;0;0;0;0;0;4.332913;4.332913;N/A;N/A;N/A;N/A;N/A;N/A;0;0;0;0;0;0;0;(-0.2, 0.8);(-0.2, 0.8);3.859935;0.9094787;0.5770373;0.1359617;0;0.1204005;
6.203077;0;0;0;0;0;0;4.339859;4.339859;N/A;N/A;N/A;N/A;N/A;N/A;0;0;0;0;0;0;0;(-0.2, 0.8);(-0.2, 0.8);3.859935;0.9094787;0.5770373;0.1359617;0;0.1204005;
6.210021;0;0;0;0;0;0;4.346802;4.346802;N/A;N/A;N/A;N/A;N/A;N/A;0;0;0;0;0;0;0;(-0.2, 0.8);(-0.2, 0.8);3.859935;0.9094787;0.5770373;0.1359617;0;0.1204005;
6.216965;0;0;0;0;0;0;4.353746;4.353746;N/A;N/A;N/A;N/A;N/A;N/A;0;0;0;0;0;0;0;(-0.2, 0.8);(-0.2, 0.8);3.859935;0.9094787;0.5770373;0.1359617;0;0.1204005;
6.223913;0;0;0;0;0;0;4.360694;4.360694;N/A;N/A;N/A;N/A;N/A;N/A;0;0;0;0;0;0;0;(-0.2, 0.8);(-0.2, 0.8);3.859935;0.9094787;0.5770373;0.1359617;0;0.1204005;
6.230855;0;0;0;0;0;0;4.367636;4.367636;N/A;N/A;N/A;N/A;N/A;N/A;0;0;0;0;0;0;0;(-0.2, 0.8);(-0.2, 0.8);3.859935;0.9094787;0.5770373;0.1359617;0;0.1204005;
6.237799;0;0;0;0;0;0;4.37458;4.37458;N/A;N/A;N/A;N/A;N/A;N/A;0;0;0;0;0;0;0;(-0.2, 0.8);(-0.2, 0.8);3.859935;0.9094787;0.5770373;0.1359617;0;0.1204005;
6.245659;0;0;0;0;0;0;4.37458;4.37458;N/A;N/A;N/A;N/A;N/A;N/A;0;0;0;0;0;0;0;(-0.2, 0.8);(-0.2, 0.8);3.857448;0.9113025;0.5766654;0.1362343;0;0.1201088;
6.253209;0;0;0;0;0;0;4.37458;4.37458;N/A;N/A;N/A;N/A;N/A;N/A;0;0;0;0;0;0;0;(-0.2, 0.8);(-0.2, 0.8);3.857448;0.9113025;0.5766654;0.1362343;0;0.1201088;
6.260155;0;0;0;0;0;0;4.37458;4.37458;N/A;N/A;N/A;N/A;N/A;N/A;0;0;0;0;0;0;0;(-0.2, 0.8);(-0.2, 0.8);3.857448;0.9113025;0.5766654;0.1362343;0;0.1201088;
6.267099;0;0;0;0;0;0;4.37458;4.37458;N/A;N/A;N/A;N/A;N/A;N/A;0;0;0;0;0;0;0;(-0.2, 0.8);(-0.2, 0.8);3.857448;0.9113025;0.5766654;0.1362343;0;0.1201088;
6.275158;0;0;0;0;0;0;4.37458;4.37458;N/A;N/A;N/A;N/A;N/A;N/A;0;0;0;0;0;0;0;(-0.2, 0.8);(-0.2, 0.8);3.857448;0.9113025;0.5766654;0.1362343;0;0.1201088;
6.282406;0;0;0;0;0;0;4.37458;4.37458;N/A;N/A;N/A;N/A;N/A;N/A;0;0;0;0;0;0;0;(-0.2, 0.8);(-0.2, 0.8);3.857448;0.9113025;0.5766654;0.1362343;0;0.1201088;
6.298135;0;0;0;0;0;0;4.37458;4.37458;N/A;N/A;N/A;N/A;N/A;N/A;0;0;0;0;0;0;0;(-0.2, 0.8);(-0.2, 0.8);3.857448;0.9113025;0.5766654;0.1362343;0;0.1201088;
6.305803;0;0;0;0;0;0;4.37458;4.37458;N/A;N/A;N/A;N/A;N/A;N/A;0;0;0;0;0;0;0;(-0.2, 0.8);(-0.2, 0.8);3.857448;0.9113025;0.5766654;0.1362343;0;0.1201088;
6.312774;0;0;0;0;0;0;4.37458;4.37458;N/A;N/A;N/A;N/A;N/A;N/A;0;0;0;0;0;0;0;(-0.2, 0.8);(-0.2, 0.8);3.857448;0.9113025;0.5766654;0.1362343;0;0.1201088;
6.319719;0;0;0;0;0;0;4.37458;4.37458;N/A;N/A;N/A;N/A;N/A;N/A;0;0;0;0;0;0;0;(-0.2, 0.8);(-0.2, 0.8);3.857448;0.9113025;0.5766654;0.1362343;0;0.1201088;
6.326833;0;0;0;0;0;0;4.37458;4.37458;N/A;N/A;N/A;N/A;N/A;N/A;0;0;0;0;0;0;0;(-0.2, 0.8);(-0.2, 0.8);3.857448;0.9113025;0.5766654;0.1362343;0;0.1201088;
6.333779;0;0;0;0;0;0;4.37458;4.37458;N/A;N/A;N/A;N/A;N/A;N/A;0;0;0;0;0;0;0;(-0.2, 0.8);(-0.2, 0.8);3.857448;0.9113025;0.5766654;0.1362343;0;0.1201088;
6.340724;0;0;0;0;0;0;4.37458;4.37458;N/A;N/A;N/A;N/A;N/A;N/A;0;0;0;0;0;0;0;(-0.2, 0.8);(-0.2, 0.8);3.857448;0.9113025;0.5766654;0.1362343;0;0.1201088;
6.347699;0;0;0;0;0;0;4.37458;4.37458;N/A;N/A;N/A;N/A;N/A;N/A;0;0;0;0;0;0;0;(-0.3, 0.8);(-0.3, 0.8);3.854531;0.9136405;0.5762293;0.1365838;0;0.1197679;
6.356566;0;0;0;0;0;0;4.383449;4.383449;N/A;N/A;N/A;N/A;N/A;N/A;0;0;0;0;0;0;0;(-0.3, 0.8);(-0.3, 0.8);3.854531;0.9136405;0.5762293;0.1365838;0;0.1197679;
6.364181;0;0;0;0;0;0;4.391062;4.391062;N/A;N/A;N/A;N/A;N/A;N/A;0;0;0;0;0;0;0;(-0.3, 0.8);(-0.3, 0.8);3.854531;0.9136405;0.5762293;0.1365838;0;0.1197679;
6.372848;0;0;0;0;0;0;4.399729;4.399729;N/A;N/A;N/A;N/A;N/A;N/A;0;0;0;0;0;0;0;(-0.3, 0.8);(-0.3, 0.8);3.854531;0.9136405;0.5762293;0.1365838;0;0.1197679;
6.379793;0;0;0;0;0;0;4.406674;4.406674;N/A;N/A;N/A;N/A;N/A;N/A;0;0;0;0;0;0;0;(-0.3, 0.8);(-0.3, 0.8);3.854531;0.9136405;0.5762293;0.1365838;0;0.1197679;
6.387611;0;0;0;0;0;0;4.414494;4.414494;N/A;N/A;N/A;N/A;N/A;N/A;0;0;0;0;0;0;0;(-0.3, 0.8);(-0.3, 0.8);3.854531;0.9136405;0.5762293;0.1365838;0;0.1197679;
6.39781;0;0;0;0;0;0;4.424693;4.424693;N/A;N/A;N/A;N/A;N/A;N/A;0;0;0;0;0;0;0;(-0.3, 0.8);(-0.3, 0.8);3.854531;0.9136405;0.5762293;0.1365838;0;0.1197679;
6.408353;0;0;0;0;0;0;4.435235;4.435235;N/A;N/A;N/A;N/A;N/A;N/A;0;0;0;0;0;0;0;(-0.3, 0.8);(-0.3, 0.8);3.854531;0.9136405;0.5762293;0.1365838;0;0.1197679;
6.417538;0;0;0;0;0;0;4.44442;4.44442;N/A;N/A;N/A;N/A;N/A;N/A;0;0;0;0;0;0;0;(-0.3, 0.8);(-0.3, 0.8);3.854531;0.9136405;0.5762293;0.1365838;0;0.1197679;
6.425815;0;0;0;0;0;0;4.452697;4.452697;N/A;N/A;N/A;N/A;N/A;N/A;0;0;0;0;0;0;0;(-0.3, 0.8);(-0.3, 0.8);3.854531;0.9136405;0.5762293;0.1365838;0;0.1197679;
6.435397;0;0;0;0;0;0;4.462279;4.462279;N/A;N/A;N/A;N/A;N/A;N/A;0;0;0;0;0;0;0;(-0.3, 0.8);(-0.3, 0.8);3.854531;0.9136405;0.5762293;0.1365838;0;0.1197679;
6.45177;0;0;0;0;0;0;4.478652;4.478652;N/A;N/A;N/A;N/A;N/A;N/A;0;0;0;0;0;0;0;(-0.3, 0.8);(-0.3, 0.8);3.852356;0.9151864;0.5759043;0.1368149;0;0.1194772;
6.46287;0;0;0;0;0;0;4.478652;4.478652;N/A;N/A;N/A;N/A;N/A;N/A;0;0;0;0;0;0;0;(-0.3, 0.8);(-0.3, 0.8);3.852356;0.9151864;0.5759043;0.1368149;0;0.1194772;
6.472035;0;0;0;0;0;0;4.478652;4.478652;N/A;N/A;N/A;N/A;N/A;N/A;0;0;0;0;0;0;0;(-0.3, 0.8);(-0.3, 0.8);3.852356;0.9151864;0.5759043;0.1368149;0;0.1194772;
6.479977;0;0;0;0;0;0;4.478652;4.478652;N/A;N/A;N/A;N/A;N/A;N/A;0;0;0;0;0;0;0;(-0.3, 0.8);(-0.3, 0.8);3.852356;0.9151864;0.5759043;0.1368149;0;0.1194772;
6.488117;0;0;0;0;0;0;4.478652;4.478652;N/A;N/A;N/A;N/A;N/A;N/A;0;0;0;0;0;0;0;(-0.3, 0.8);(-0.3, 0.8);3.852356;0.9151864;0.5759043;0.1368149;0;0.1194772;
6.498019;0;0;0;0;0;0;4.478652;4.478652;N/A;N/A;N/A;N/A;N/A;N/A;0;0;0;0;0;0;0;(-0.3, 0.8);(-0.3, 0.8);3.852356;0.9151864;0.5759043;0.1368149;0;0.1194772;
6.507236;0;0;0;0;0;0;4.478652;4.478652;N/A;N/A;N/A;N/A;N/A;N/A;0;0;0;0;0;0;0;(-0.3, 0.8);(-0.3, 0.8);3.852356;0.9151864;0.5759043;0.1368149;0;0.1194772;
6.515545;0;0;0;0;0;0;4.478652;4.478652;N/A;N/A;N/A;N/A;N/A;N/A;0;0;0;0;0;0;0;(-0.3, 0.8);(-0.3, 0.8);3.852356;0.9151864;0.5759043;0.1368149;0;0.1194772;
6.523593;0;0;0;0;0;0;4.478652;4.478652;N/A;N/A;N/A;N/A;N/A;N/A;0;0;0;0;0;0;0;(-0.3, 0.8);(-0.3, 0.8);3.852356;0.9151864;0.5759043;0.1368149;0;0.1194772;
6.532531;0;0;0;0;0;0;4.478652;4.478652;N/A;N/A;N/A;N/A;N/A;N/A;0;0;0;0;0;0;0;(-0.3, 0.8);(-0.3, 0.8);3.852356;0.9151864;0.5759043;0.1368149;0;0.1194772;
6.541393;0;0;0;0;0;0;4.478652;4.478652;N/A;N/A;N/A;N/A;N/A;N/A;0;0;0;0;0;0;0;(-0.3, 0.8);(-0.3, 0.8);3.852356;0.9151864;0.5759043;0.1368149;0;0.1194772;
6.549531;0;0;0;0;0;0;4.478652;4.478652;N/A;N/A;N/A;N/A;N/A;N/A;0;0;0;0;0;0;0;(-0.3, 0.8);(-0.3, 0.8);3.852356;0.9151864;0.5759043;0.1368149;0;0.1194772;
6.557663;0;0;0;0;0;0;4.478652;4.478652;N/A;N/A;N/A;N/A;N/A;N/A;0;0;0;0;0;0;0;(-0.3, 0.7);(-0.3, 0.7);3.850883;0.916001;0.5756841;0.1369367;0;0.1192302;
6.565655;0;0;0;0;0;0;4.478652;4.478652;N/A;N/A;N/A;N/A;N/A;N/A;0;0;0;0;0;0;0;(-0.3, 0.7);(-0.3, 0.7);3.850883;0.916001;0.5756841;0.1369367;0;0.1192302;
6.574785;0;0;0;0;0;0;4.478652;4.478652;N/A;N/A;N/A;N/A;N/A;N/A;0;0;0;0;0;0;0;(-0.3, 0.7);(-0.3, 0.7);3.850883;0.916001;0.5756841;0.1369367;0;0.1192302;
6.581729;0;0;0;0;0;0;4.478652;4.478652;N/A;N/A;N/A;N/A;N/A;N/A;0;0;0;0;0;0;0;(-0.3, 0.7);(-0.3, 0.7);3.850883;0.916001;0.5756841;0.1369367;0;0.1192302;
6.589223;0;0;0;0;0;0;4.478652;4.478652;N/A;N/A;N/A;N/A;N/A;N/A;0;0;0;0;0;0;0;(-0.3, 0.7);(-0.3, 0.7);3.850883;0.916001;0.5756841;0.1369367;0;0.1192302;
6.604001;0;0;0;0;0;0;4.478652;4.478652;N/A;N/A;N/A;N/A;N/A;N/A;0;0;0;0;0;0;0;(-0.3, 0.7);(-0.3, 0.7);3.850883;0.916001;0.5756841;0.1369367;0;0.1192302;
6.611026;0;0;0;0;0;0;4.478652;4.478652;N/A;N/A;N/A;N/A;N/A;N/A;0;0;0;0;0;0;0;(-0.3, 0.7);(-0.3, 0.7);3.850883;0.916001;0.5756841;0.1369367;0;0.1192302;
6.619058;0;0;0;0;0;0;4.478652;4.478652;N/A;N/A;N/A;N/A;N/A;N/A;0;0;0;0;0;0;0;(-0.3, 0.7);(-0.3, 0.7);3.850883;0.916001;0.5756841;0.1369367;0;0.1192302;
6.62655;0;0;0;0;0;0;4.478652;4.478652;N/A;N/A;N/A;N/A;N/A;N/A;0;0;0;0;0;0;0;(-0.3, 0.7);(-0.3, 0.7);3.850883;0.916001;0.5756841;0.1369367;0;0.1192302;
6.63356;0;0;0;0;0;0;4.478652;4.478652;N/A;N/A;N/A;N/A;N/A;N/A;0;0;0;0;0;0;0;(-0.3, 0.7);(-0.3, 0.7);3.850883;0.916001;0.5756841;0.1369367;0;0.1192302;
6.640504;0;0;0;0;0;0;4.478652;4.478652;N/A;N/A;N/A;N/A;N/A;N/A;0;0;0;0;0;0;0;(-0.3, 0.7);(-0.3, 0.7);3.850883;0.916001;0.5756841;0.1369367;0;0.1192302;
6.650915;0;0;0;0;0;0;4.478652;4.478652;N/A;N/A;N/A;N/A;N/A;N/A;0;0;0;0;0;0;0;(-0.3, 0.7);(-0.3, 0.7);3.850883;0.916001;0.5756841;0.1369367;0;0.1192302;
6.658467;0;0;0;0;0;0;4.478652;4.478652;N/A;N/A;N/A;N/A;N/A;N/A;0;0;0;0;0;0;0;(-0.3, 0.7);(-0.3, 0.7);3.849463;0.9167865;0.5754717;0.1370541;0;0.1189012;
6.666321;0;0;0;0;0;0;4.478652;4.478652;N/A;N/A;N/A;N/A;N/A;N/A;0;0;0;0;0;0;0;(-0.3, 0.7);(-0.3, 0.7);3.849463;0.9167865;0.5754717;0.1370541;0;0.1189012;
6.674354;0;0;0;0;0;0;4.478652;4.478652;N/A;N/A;N/A;N/A;N/A;N/A;0;0;0;0;0;0;0;(-0.3, 0.7);(-0.3, 0.7);3.849463;0.9167865;0.5754717;0.1370541;0;0.1189012;
6.682089;0;0;0;0;0;0;4.478652;4.478652;N/A;N/A;N/A;N/A;N/A;N/A;0;0;0;0;0;0;0;(-0.3, 0.7);(-0.3, 0.7);3.849463;0.9167865;0.5754717;0.1370541;0;0.1189012;
6.690756;0;0;0;0;0;0;4.478652;4.478652;N/A;N/A;N/A;N/A;N/A;N/A;0;0;0;0;0;0;0;(-0.3, 0.7);(-0.3, 0.7);3.849463;0.9167865;0.5754717;0.1370541;0;0.1189012;
6.700777;0;0;0;0;0;0;4.478652;4.478652;N/A;N/A;N/A;N/A;N/A;N/A;0;0;0;0;0;0;0;(-0.3, 0.7);(-0.3, 0.7);3.849463;0.9167865;0.5754717;0.1370541;0;0.1189012;
6.709185;0;0;0;0;0;0;4.478652;4.478652;N/A;N/A;N/A;N/A;N/A;N/A;0;0;0;0;0;0;0;(-0.3, 0.7);(-0.3, 0.7);3.849463;0.9167865;0.5754717;0.1370541;0;0.1189012;
6.7165;0;0;0;0;0;0;4.478652;4.478652;N/A;N/A;N/A;N/A;N/A;N/A;0;0;0;0;0;0;0;(-0.3, 0.7);(-0.3, 0.7);3.849463;0.9167865;0.5754717;0.1370541;0;0.1189012;
6.723702;0;0;0;0;0;0;4.478652;4.478652;N/A;N/A;N/A;N/A;N/A;N/A;0;0;0;0;0;0;0;(-0.3, 0.7);(-0.3, 0.7);3.849463;0.9167865;0.5754717;0.1370541;0;0.1189012;
6.731402;0;0;0;0;0;0;4.478652;4.478652;N/A;N/A;N/A;N/A;N/A;N/A;0;0;0;0;0;0;0;(-0.3, 0.7);(-0.3, 0.7);3.849463;0.9167865;0.5754717;0.1370541;0;0.1189012;
6.738479;0;0;0;0;0;0;4.478652;4.478652;N/A;N/A;N/A;N/A;N/A;N/A;0;0;0;0;0;0;0;(-0.3, 0.7);(-0.3, 0.7);3.849463;0.9167865;0.5754717;0.1370541;0;0.1189012;
6.747718;0;0;0;0;0;0;4.478652;4.478652;N/A;N/A;N/A;N/A;N/A;N/A;0;0;0;0;0;0;0;(-0.3, 0.7);(-0.3, 0.7);3.849463;0.9167865;0.5754717;0.1370541;0;0.1189012;
6.757895;0;0;0;0;0;0;4.478652;4.478652;N/A;N/A;N/A;N/A;N/A;N/A;0;0;0;0;0;0;0;(-0.3, 0.7);(-0.3, 0.7);3.849463;0.9167865;0.5754717;0.1370541;0;0.1189012;
6.766721;0;0;0;0;0;0;4.478652;4.478652;N/A;N/A;N/A;N/A;N/A;N/A;0;0;0;0;0;0;0;(-0.3, 0.7);(-0.3, 0.7);3.848092;0.9175444;0.5752668;0.1371674;0;0.1187144;
6.775793;0;0;0;0;0;0;4.478652;4.478652;N/A;N/A;N/A;N/A;N/A;N/A;0;0;0;0;0;0;0;(-0.3, 0.7);(-0.3, 0.7);3.848092;0.9175444;0.5752668;0.1371674;0;0.1187144;
6.784024;0;0;0;0;0;0;4.478652;4.478652;N/A;N/A;N/A;N/A;N/A;N/A;0;0;0;0;0;0;0;(-0.3, 0.7);(-0.3, 0.7);3.848092;0.9175444;0.5752668;0.1371674;0;0.1187144;
6.792712;0;0;0;0;0;0;4.478652;4.478652;N/A;N/A;N/A;N/A;N/A;N/A;0;0;0;0;0;0;0;(-0.3, 0.7);(-0.3, 0.7);3.848092;0.9175444;0.5752668;0.1371674;0;0.1187144;
6.801095;0;0;0;0;0;0;4.478652;4.478652;N/A;N/A;N/A;N/A;N/A;N/A;0;0;0;0;0;0;0;(-0.3, 0.7);(-0.3, 0.7);3.848092;0.9175444;0.5752668;0.1371674;0;0.1187144;
6.810675;0;0;0;0;0;0;4.478652;4.478652;N/A;N/A;N/A;N/A;N/A;N/A;0;0;0;0;0;0;0;(-0.3, 0.7);(-0.3, 0.7);3.848092;0.9175444;0.5752668;0.1371674;0;0.1187144;
6.818942;0;0;0;0;0;0;4.478652;4.478652;N/A;N/A;N/A;N/A;N/A;N/A;0;0;0;0;0;0;0;(-0.3, 0.7);(-0.3, 0.7);3.848092;0.9175444;0.5752668;0.1371674;0;0.1187144;
6.827479;0;0;0;0;0;0;4.478652;4.478652;N/A;N/A;N/A;N/A;N/A;N/A;0;0;0;0;0;0;0;(-0.3, 0.7);(-0.3, 0.7);3.848092;0.9175444;0.5752668;0.1371674;0;0.1187144;
6.834949;0;0;0;0;0;0;4.478652;4.478652;N/A;N/A;N/A;N/A;N/A;N/A;0;0;0;0;0;0;0;(-0.3, 0.7);(-0.3, 0.7);3.848092;0.9175444;0.5752668;0.1371674;0;0.1187144;
6.842076;0;0;0;0;0;0;4.478652;4.478652;N/A;N/A;N/A;N/A;N/A;N/A;0;0;0;0;0;0;0;(-0.3, 0.7);(-0.3, 0.7);3.848092;0.9175444;0.5752668;0.1371674;0;0.1187144;
6.849934;0;0;0;0;0;0;4.478652;4.478652;N/A;N/A;N/A;N/A;N/A;N/A;0;0;0;0;0;0;0;(-0.3, 0.7);(-0.3, 0.7);3.848092;0.9175444;0.5752668;0.1371674;0;0.1187144;
6.856952;0;0;0;0;0;0;4.478652;4.478652;N/A;N/A;N/A;N/A;N/A;N/A;0;0;0;0;0;0;0;(-0.3, 0.7);(-0.3, 0.7);3.848092;0.9175444;0.5752668;0.1371674;0;0.1187144;
6.863898;0;0;0;0;0;0;4.478652;4.478652;N/A;N/A;N/A;N/A;N/A;N/A;0;0;0;0;0;0;0;(-0.3, 0.7);(-0.3, 0.7);3.848092;0.9175444;0.5752668;0.1371674;0;0.1187144;
6.870843;0;0;0;0;0;0;4.478652;4.478652;N/A;N/A;N/A;N/A;N/A;N/A;0;0;0;0;0;0;0;(-0.3, 0.7);(-0.3, 0.7);3.846768;0.9182762;0.575069;0.1372768;0;0.1184628;
6.880227;0;0;0;0;0;0;4.478652;4.478652;N/A;N/A;N/A;N/A;N/A;N/A;0;0;0;0;0;0;0;(-0.3, 0.7);(-0.3, 0.7);3.846768;0.9182762;0.575069;0.1372768;0;0.1184628;
6.887841;0;0;0;0;0;0;4.478652;4.478652;N/A;N/A;N/A;N/A;N/A;N/A;0;0;0;0;0;0;0;(-0.3, 0.7);(-0.3, 0.7);3.846768;0.9182762;0.575069;0.1372768;0;0.1184628;
6.894785;0;0;0;0;0;0;4.478652;4.478652;N/A;N/A;N/A;N/A;N/A;N/A;0;0;0;0;0;0;0;(-0.3, 0.7);(-0.3, 0.7);3.846768;0.9182762;0.575069;0.1372768;0;0.1184628;
6.905468;0;0;0;0;0;0;4.478652;4.478652;N/A;N/A;N/A;N/A;N/A;N/A;0;0;0;0;0;0;0;(-0.3, 0.7);(-0.3, 0.7);3.846768;0.9182762;0.575069;0.1372768;0;0.1184628;
6.913313;0;0;0;0;0;0;4.478652;4.478652;N/A;N/A;N/A;N/A;N/A;N/A;0;0;0;0;0;0;0;(-0.3, 0.7);(-0.3, 0.7);3.846768;0.9182762;0.575069;0.1372768;0;0.1184628;
6.920257;0;0;0;0;0;0;4.478652;4.478652;N/A;N/A;N/A;N/A;N/A;N/A;0;0;0;0;0;0;0;(-0.3, 0.7);(-0.3, 0.7);3.846768;0.9182762;0.575069;0.1372768;0;0.1184628;
6.927203;0;0;0;0;0;0;4.478652;4.478652;N/A;N/A;N/A;N/A;N/A;N/A;0;0;0;0;0;0;0;(-0.3, 0.7);(-0.3, 0.7);3.846768;0.9182762;0.575069;0.1372768;0;0.1184628;
6.934144;0;0;0;0;0;0;4.478652;4.478652;N/A;N/A;N/A;N/A;N/A;N/A;0;0;0;0;0;0;0;(-0.3, 0.7);(-0.3, 0.7);3.846768;0.9182762;0.575069;0.1372768;0;0.1184628;
6.941533;0;0;0;0;0;0;4.478652;4.478652;N/A;N/A;N/A;N/A;N/A;N/A;0;0;0;0;0;0;0;(-0.3, 0.7);(-0.3, 0.7);3.846768;0.9182762;0.575069;0.1372768;0;0.1184628;
6.948486;0;0;0;0;0;0;4.478652;4.478652;N/A;N/A;N/A;N/A;N/A;N/A;0;0;0;0;0;0;0;(-0.3, 0.7);(-0.3, 0.7);3.846768;0.9182762;0.575069;0.1372768;0;0.1184628;
6.955529;0;0;0;0;0;0;4.478652;4.478652;N/A;N/A;N/A;N/A;N/A;N/A;0;0;0;0;0;0;0;(-0.3, 0.7);(-0.3, 0.7);3.846768;0.9182762;0.575069;0.1372768;0;0.1184628;
6.962473;0;0;0;0;0;0;4.478652;4.478652;N/A;N/A;N/A;N/A;N/A;N/A;0;0;0;0;0;0;0;(-0.3, 0.7);(-0.3, 0.7);3.846768;0.9182762;0.575069;0.1372768;0;0.1184628;
6.970055;0;0;0;0;0;0;4.478652;4.478652;N/A;N/A;N/A;N/A;N/A;N/A;0;0;0;0;0;0;0;(-0.3, 0.7);(-0.3, 0.7);3.846768;0.9182762;0.575069;0.1372768;0;0.1184628;
6.977052;0;0;0;0;0;0;4.478652;4.478652;N/A;N/A;N/A;N/A;N/A;N/A;0;0;0;0;0;0;0;(-0.3, 0.7);(-0.3, 0.7);3.84549;0.9189832;0.5748778;0.1373825;0;0.1182551;
6.984026;0;0;0;0;0;0;4.478652;4.478652;N/A;N/A;N/A;N/A;N/A;N/A;0;0;0;0;0;0;0;(-0.3, 0.7);(-0.3, 0.7);3.84549;0.9189832;0.5748778;0.1373825;0;0.1182551;
6.991921;0;0;0;0;0;0;4.478652;4.478652;N/A;N/A;N/A;N/A;N/A;N/A;0;0;0;0;0;0;0;(-0.3, 0.7);(-0.3, 0.7);3.84549;0.9189832;0.5748778;0.1373825;0;0.1182551;
6.998867;0;0;0;0;0;0;4.478652;4.478652;N/A;N/A;N/A;N/A;N/A;N/A;0;0;0;0;0;0;0;(-0.3, 0.7);(-0.3, 0.7);3.84549;0.9189832;0.5748778;0.1373825;0;0.1182551;
7.005811;0;0;0;0;0;0;4.478652;4.478652;N/A;N/A;N/A;N/A;N/A;N/A;0;0;0;0;0;0;0;(-0.3, 0.7);(-0.3, 0.7);3.84549;0.9189832;0.5748778;0.1373825;0;0.1182551;
7.012755;0;0;0;0;0;0;4.478652;4.478652;N/A;N/A;N/A;N/A;N/A;N/A;0;0;0;0;0;0;0;(-0.3, 0.7);(-0.3, 0.7);3.84549;0.9189832;0.5748778;0.1373825;0;0.1182551;
7.019701;0;0;0;0;0;0;4.478652;4.478652;N/A;N/A;N/A;N/A;N/A;N/A;0;0;0;0;0;0;0;(-0.3, 0.7);(-0.3, 0.7);3.84549;0.9189832;0.5748778;0.1373825;0;0.1182551;
7.026644;0;0;0;0;0;0;4.478652;4.478652;N/A;N/A;N/A;N/A;N/A;N/A;0;0;0;0;0;0;0;(-0.3, 0.7);(-0.3, 0.7);3.84549;0.9189832;0.5748778;0.1373825;0;0.1182551;
7.033589;0;0;0;0;0;0;4.478652;4.478652;N/A;N/A;N/A;N/A;N/A;N/A;0;0;0;0;0;0;0;(-0.3, 0.7);(-0.3, 0.7);3.84549;0.9189832;0.5748778;0.1373825;0;0.1182551;
7.040534;0;0;0;0;0;0;4.478652;4.478652;N/A;N/A;N/A;N/A;N/A;N/A;0;0;0;0;0;0;0;(-0.3, 0.7);(-0.3, 0.7);3.84549;0.9189832;0.5748778;0.1373825;0;0.1182551;
7.047479;0;0;0;0;0;0;4.478652;4.478652;N/A;N/A;N/A;N/A;N/A;N/A;0;0;0;0;0;0;0;(-0.3, 0.7);(-0.3, 0.7);3.84549;0.9189832;0.5748778;0.1373825;0;0.1182551;
7.054423;0;0;0;0;0;0;4.478652;4.478652;N/A;N/A;N/A;N/A;N/A;N/A;0;0;0;0;0;0;0;(-0.3, 0.7);(-0.3, 0.7);3.84549;0.9189832;0.5748778;0.1373825;0;0.1182551;
7.061368;0;0;0;0;0;0;4.478652;4.478652;N/A;N/A;N/A;N/A;N/A;N/A;0;0;0;0;0;0;0;(-0.3, 0.7);(-0.3, 0.7);3.84549;0.9189832;0.5748778;0.1373825;0;0.1182551;
7.068312;0;0;0;0;0;0;4.478652;4.478652;N/A;N/A;N/A;N/A;N/A;N/A;0;0;0;0;0;0;0;(-0.3, 0.7);(-0.3, 0.7);3.84549;0.9189832;0.5748778;0.1373825;0;0.1182551;
7.07526;0;0;0;0;0;0;4.478652;4.478652;N/A;N/A;N/A;N/A;N/A;N/A;0;0;0;0;0;0;0;(-0.3, 0.7);(-0.3, 0.7);3.84549;0.9189832;0.5748778;0.1373825;0;0.1182551;
7.082201;0;0;0;0;0;0;4.478652;4.478652;N/A;N/A;N/A;N/A;N/A;N/A;0;0;0;0;0;0;0;(-0.3, 0.7);(-0.3, 0.7);3.844254;0.9196665;0.574693;0.1374847;0;0.1180367;
7.089146;0;0;0;0;0;0;4.478652;4.478652;N/A;N/A;N/A;N/A;N/A;N/A;0;0;0;0;0;0;0;(-0.3, 0.7);(-0.3, 0.7);3.844254;0.9196665;0.574693;0.1374847;0;0.1180367;
7.09609;0;0;0;0;0;0;4.478652;4.478652;N/A;N/A;N/A;N/A;N/A;N/A;0;0;0;0;0;0;0;(-0.3, 0.7);(-0.3, 0.7);3.844254;0.9196665;0.574693;0.1374847;0;0.1180367;
7.103037;0;0;0;0;0;0;4.478652;4.478652;N/A;N/A;N/A;N/A;N/A;N/A;0;0;0;0;0;0;0;(-0.3, 0.7);(-0.3, 0.7);3.844254;0.9196665;0.574693;0.1374847;0;0.1180367;
7.10998;0;0;0;0;0;0;4.478652;4.478652;N/A;N/A;N/A;N/A;N/A;N/A;0;0;0;0;0;0;0;(-0.3, 0.7);(-0.3, 0.7);3.844254;0.9196665;0.574693;0.1374847;0;0.1180367;
7.117298;0;0;0;0;0;0;4.478652;4.478652;N/A;N/A;N/A;N/A;N/A;N/A;0;0;0;0;0;0;0;(-0.3, 0.7);(-0.3, 0.7);3.844254;0.9196665;0.574693;0.1374847;0;0.1180367;
7.124242;0;0;0;0;0;0;4.478652;4.478652;N/A;N/A;N/A;N/A;N/A;N/A;0;0;0;0;0;0;0;(-0.3, 0.7);(-0.3, 0.7);3.844254;0.9196665;0.574693;0.1374847;0;0.1180367;
7.131186;0;0;0;0;0;0;4.478652;4.478652;N/A;N/A;N/A;N/A;N/A;N/A;0;0;0;0;0;0;0;(-0.3, 0.7);(-0.3, 0.7);3.844254;0.9196665;0.574693;0.1374847;0;0.1180367;
7.138131;0;0;0;0;0;0;4.478652;4.478652;N/A;N/A;N/A;N/A;N/A;N/A;0;0;0;0;0;0;0;(-0.3, 0.7);(-0.3, 0.7);3.844254;0.9196665;0.574693;0.1374847;0;0.1180367;
7.145076;0;0;0;0;0;0;4.478652;4.478652;N/A;N/A;N/A;N/A;N/A;N/A;0;0;0;0;0;0;0;(-0.3, 0.7);(-0.3, 0.7);3.844254;0.9196665;0.574693;0.1374847;0;0.1180367;
7.15202;0;0;0;0;0;0;4.478652;4.478652;N/A;N/A;N/A;N/A;N/A;N/A;0;0;0;0;0;0;0;(-0.3, 0.7);(-0.3, 0.7);3.844254;0.9196665;0.574693;0.1374847;0;0.1180367;
7.158965;0;0;0;0;0;0;4.478652;4.478652;N/A;N/A;N/A;N/A;N/A;N/A;0;0;0;0;0;0;0;(-0.3, 0.7);(-0.3, 0.7);3.844254;0.9196665;0.574693;0.1374847;0;0.1180367;
7.165909;0;0;0;0;0;0;4.478652;4.478652;N/A;N/A;N/A;N/A;N/A;N/A;0;0;0;0;0;0;0;(-0.3, 0.7);(-0.3, 0.7);3.844254;0.9196665;0.574693;0.1374847;0;0.1180367;
7.173462;0;0;0;0;0;0;4.478652;4.478652;N/A;N/A;N/A;N/A;N/A;N/A;0;0;0;0;0;0;0;(-0.3, 0.7);(-0.3, 0.7);3.844254;0.9196665;0.574693;0.1374847;0;0.1180367;
7.180503;0;0;0;0;0;0;4.478652;4.478652;N/A;N/A;N/A;N/A;N/A;N/A;0;0;0;0;0;0;0;(-0.3, 0.7);(-0.3, 0.7);3.844254;0.9196665;0.574693;0.1374847;0;0.1180367;
7.187445;0;0;0;0;0;0;4.478652;4.478652;N/A;N/A;N/A;N/A;N/A;N/A;0;0;0;0;0;0;0;(-0.3, 0.7);(-0.3, 0.7);3.843058;0.9203275;0.5745143;0.1375835;0;0.117827;
7.194408;0;0;0;0;0;0;4.478652;4.478652;N/A;N/A;N/A;N/A;N/A;N/A;0;0;0;0;0;0;0;(-0.3, 0.7);(-0.3, 0.7);3.843058;0.9203275;0.5745143;0.1375835;0;0.117827;
7.201352;0;0;0;0;0;0;4.478652;4.478652;N/A;N/A;N/A;N/A;N/A;N/A;0;0;0;0;0;0;0;(-0.3, 0.7);(-0.3, 0.7);3.843058;0.9203275;0.5745143;0.1375835;0;0.117827;
7.208549;0;0;0;0;0;0;4.478652;4.478652;N/A;N/A;N/A;N/A;N/A;N/A;0;0;0;0;0;0;0;(-0.3, 0.7);(-0.3, 0.7);3.843058;0.9203275;0.5745143;0.1375835;0;0.117827;
7.217206;0;0;0;0;0;0;4.478652;4.478652;N/A;N/A;N/A;N/A;N/A;N/A;0;0;0;0;0;0;0;(-0.3, 0.7);(-0.3, 0.7);3.843058;0.9203275;0.5745143;0.1375835;0;0.117827;
7.22415;0;0;0;0;0;0;4.478652;4.478652;N/A;N/A;N/A;N/A;N/A;N/A;0;0;0;0;0;0;0;(-0.3, 0.7);(-0.3, 0.7);3.843058;0.9203275;0.5745143;0.1375835;0;0.117827;
7.231095;0;0;0;0;0;0;4.478652;4.478652;N/A;N/A;N/A;N/A;N/A;N/A;0;0;0;0;0;0;0;(-0.3, 0.7);(-0.3, 0.7);3.843058;0.9203275;0.5745143;0.1375835;0;0.117827;
7.238039;0;0;0;0;0;0;4.478652;4.478652;N/A;N/A;N/A;N/A;N/A;N/A;0;0;0;0;0;0;0;(-0.3, 0.7);(-0.3, 0.7);3.843058;0.9203275;0.5745143;0.1375835;0;0.117827;
7.244984;0;0;0;0;0;0;4.478652;4.478652;N/A;N/A;N/A;N/A;N/A;N/A;0;0;0;0;0;0;0;(-0.3, 0.7);(-0.3, 0.7);3.843058;0.9203275;0.5745143;0.1375835;0;0.117827;
7.251928;0;0;0;0;0;0;4.478652;4.478652;N/A;N/A;N/A;N/A;N/A;N/A;0;0;0;0;0;0;0;(-0.3, 0.7);(-0.3, 0.7);3.843058;0.9203275;0.5745143;0.1375835;0;0.117827;
7.258873;0;0;0;0;0;0;4.478652;4.478652;N/A;N/A;N/A;N/A;N/A;N/A;0;0;0;0;0;0;0;(-0.3, 0.7);(-0.3, 0.7);3.843058;0.9203275;0.5745143;0.1375835;0;0.117827;
7.265818;0;0;0;0;0;0;4.478652;4.478652;N/A;N/A;N/A;N/A;N/A;N/A;0;0;0;0;0;0;0;(-0.3, 0.7);(-0.3, 0.7);3.843058;0.9203275;0.5745143;0.1375835;0;0.117827;
7.272762;0;0;0;0;0;0;4.478652;4.478652;N/A;N/A;N/A;N/A;N/A;N/A;0;0;0;0;0;0;0;(-0.3, 0.7);(-0.3, 0.7);3.843058;0.9203275;0.5745143;0.1375835;0;0.117827;
7.28018;0;0;0;0;0;0;4.478652;4.478652;N/A;N/A;N/A;N/A;N/A;N/A;0;0;0;0;0;0;0;(-0.3, 0.7);(-0.3, 0.7);3.843058;0.9203275;0.5745143;0.1375835;0;0.117827;
7.287125;0;0;0;0;0;0;4.478652;4.478652;N/A;N/A;N/A;N/A;N/A;N/A;0;0;0;0;0;0;0;(-0.3, 0.7);(-0.3, 0.7);3.843058;0.9203275;0.5745143;0.1375835;0;0.117827;
7.294068;0;0;0;0;0;0;4.478652;4.478652;N/A;N/A;N/A;N/A;N/A;N/A;0;0;0;0;0;0;0;(-0.4, 0.7);(-0.4, 0.7);3.841902;0.9209672;0.5743414;0.1376791;0;0.1176463;
7.301013;0;0;0;0;0;0;4.478652;4.478652;N/A;N/A;N/A;N/A;N/A;N/A;0;0;0;0;0;0;0;(-0.4, 0.7);(-0.4, 0.7);3.841902;0.9209672;0.5743414;0.1376791;0;0.1176463;
7.307957;0;0;0;0;0;0;4.478652;4.478652;N/A;N/A;N/A;N/A;N/A;N/A;0;0;0;0;0;0;0;(-0.4, 0.7);(-0.4, 0.7);3.841902;0.9209672;0.5743414;0.1376791;0;0.1176463;
7.318099;0;0;0;0;0;0;4.478652;4.478652;N/A;N/A;N/A;N/A;N/A;N/A;0;0;0;0;0;0;0;(-0.4, 0.7);(-0.4, 0.7);3.841902;0.9209672;0.5743414;0.1376791;0;0.1176463;
