0, 0
0, 0
6.899964E-06, 0.05193182
3.574749E-05, 0.1660978
6.986513E-05, 0.2750679
0.0001036177, 0.3807938
0.000137137, 0.4845154
0.0001713173, 0.5878992
0.0002077504, 0.6946316
0.0002450593, 0.7994699
0.0002699398, 0.8629106
0.0002802129, 0.8048431
0.0003167427, 0.690048
0.00036614, 0.5630525
0.0004165311, 0.4371068
0.0004667405, 0.3149538
0.0005203857, 0.189185
0.000573276, 0.06350061
0.0006263117, -0.06279045
0.0006793896, -0.1835837
0.0007197396, -0.2709372
0.0007710553, -0.3774801
0.0008249713, -0.4836132
0.0008744649, -0.5795887
0.0009237483, -0.6783838
0.0009612172, -0.7637123
0.0009967096, -0.8463786
0.00103762, -0.936621
0.001086926, -1.032052
0.001142263, -1.131134
0.001197756, -1.235423
0.001240668, -1.325548
0.001271461, -1.394731
0.00127495, -1.402323
0.001277501, -1.351591
0.001292665, -1.268943
0.001311848, -1.186416
0.001331514, -1.103909
0.00135335, -1.018827
0.001379642, -0.9296444
0.001401159, -0.8486366
0.001421061, -0.7684113
0.001441865, -0.6864087
0.001463038, -0.6044227
0.00148383, -0.5232943
0.001505424, -0.439923
0.001527854, -0.3557124
0.001549986, -0.2718743
0.001585797, -0.1505692
0.001618853, -0.02786386
0.001651102, 0.09863746
0.001683654, 0.22625
0.001715213, 0.3509138
0.001747118, 0.4760934
0.001779844, 0.5988687
0.001812209, 0.7221456
0.001844659, 0.8493101
0.001866161, 0.9344482
