0, 1
0, 1
0, 1
0, 1
0, 1
0, 1
0, 1
0, 1
0, 1
0, 1
0, 1
0, 1
0, 1
0, 1
0, 1
0, 1
0, 1
0, 1
0, 1
0, 1
0, 1
0, 1
0, 1
0, 1
0, 1
0, 1
0, 1
0, 1
0, 1
0, 1
0, 1
0, 1
0, 1
0, 1
0, 1
0, 1
0, 1
0, 1
0, 1
0, 1
0, 1
0, 1
0, 1
0, 1
0, 1
0, 1
0, 1
0, 1
0, 1
0, 1
0, 1
0, 1
0, 1
0, 1
0, 1
0, 1
0, 1
0, 1
0, 1
0, 1
0, 1
0, 1
0, 1
0, 1
0, 1
0, 1
0, 1
0, 1
0, 1
0, 1
0, 1
0, 1
0, 1
0, 1
0, 1
0, 1
0, 1
0, 1
0, 1
0, 1
0, 1
0, 1
0, 1
0, 1
0, 1
0, 1
0, 1
0, 1
0, 1
0, 1
0, 1
0, 1
0, 1
0, 1
0, 1
0, 1
0, 1
0, 1
0, 1
0, 1
0, 1
0, 1
0, 1
0, 1
0, 1
0, 1
0, 1
0, 1
0, 1
0, 1
0, 1
0, 1
0, 1
0, 1
0, 1
0, 1
0, 1
0, 1
0, 1
0, 1
0, 1
0, 1
0, 1
0, 1
0, 1
0, 1
0, 1
0, 1
0, 1
0, 1
0, 1
0, 1
0, 1
0, 1
0, 1
0, 1
0, 1
0, 1
0, 1
0, 1
0, 1
0, 1
0, 1
0, 1
0, 1
0, 1
0, 1
0, 1
0, 1
0, 1
0, 1
0, 1
0, 1
0, 1
0, 1
0, 1
0, 1
0, 1
0, 1
0, 1
0, 1
0, 1
0, 1
0, 1
0, 1
0, 1
0, 1
0, 1
0, 1
0, 1
0, 1
0, 1
0, 1
0, 1
0, 1
0, 1
0, 1
0, 1
0, 1
0, 1
0, 1
0, 1
0, 1
-0.03703856, 0.9986668
-0.1880512, 0.9808734
-0.3491888, 0.9358466
-0.5056561, 0.8615323
-0.631166, 0.774251
-0.7286876, 0.6846831
-0.7345299, 0.6785764
-0.7345299, 0.6785764
-0.7143015, 0.6991309
-0.600112, 0.7986014
-0.4855572, 0.8737369
-0.4622105, 0.8867703
-0.4622105, 0.8867703
-0.4622105, 0.8867703
-0.4622105, 0.8867703
-0.4622105, 0.8867703
-0.4622105, 0.8867703
-0.4622105, 0.8867703
-0.4622105, 0.8867703
-0.4622105, 0.8867703
-0.4622105, 0.8867703
-0.4622105, 0.8867703
-0.4622105, 0.8867703
-0.4622105, 0.8867703
-0.4622105, 0.8867703
-0.4622105, 0.8867703
-0.4622105, 0.8867703
-0.4622105, 0.8867703
-0.4622105, 0.8867703
-0.4622105, 0.8867703
-0.4622105, 0.8867703
-0.4622105, 0.8867703
-0.4622105, 0.8867703
-0.4622105, 0.8867703
-0.4622105, 0.8867703
-0.4622105, 0.8867703
-0.4622105, 0.8867703
-0.4622105, 0.8867703
-0.4622105, 0.8867703
-0.4622105, 0.8867703
-0.4622105, 0.8867703
-0.4622105, 0.8867703
-0.4622105, 0.8867703
-0.4622105, 0.8867703
-0.4622105, 0.8867703
-0.4622105, 0.8867703
-0.4622105, 0.8867703
-0.4622105, 0.8867703
-0.4622105, 0.8867703
-0.4622105, 0.8867703
-0.4622105, 0.8867703
-0.4622105, 0.8867703
-0.4622105, 0.8867703
-0.4622105, 0.8867703
-0.4622105, 0.8867703
-0.4622105, 0.8867703
-0.4622105, 0.8867703
-0.4622105, 0.8867703
-0.4622105, 0.8867703
-0.4622105, 0.8867703
-0.4622105, 0.8867703
-0.4622105, 0.8867703
-0.4622105, 0.8867703
-0.4622105, 0.8867703
-0.4622105, 0.8867703
-0.4622105, 0.8867703
-0.4622105, 0.8867703
-0.4622105, 0.8867703
-0.4622105, 0.8867703
-0.4622105, 0.8867703
-0.4622105, 0.8867703
-0.4622105, 0.8867703
-0.4622105, 0.8867703
-0.4622105, 0.8867703
-0.4622105, 0.8867703
-0.4622105, 0.8867703
-0.4622105, 0.8867703
-0.4622105, 0.8867703
-0.4622105, 0.8867703
-0.4622105, 0.8867703
-0.4622105, 0.8867703
-0.4622105, 0.8867703
-0.4622105, 0.8867703
-0.4622105, 0.8867703
-0.4622105, 0.8867703
-0.4622105, 0.8867703
-0.4622105, 0.8867703
-0.4622105, 0.8867703
-0.4622105, 0.8867703
-0.4622105, 0.8867703
-0.4622105, 0.8867703
-0.4622105, 0.8867703
-0.4622105, 0.8867703
-0.4622105, 0.8867703
-0.4622105, 0.8867703
-0.4622105, 0.8867703
-0.4622105, 0.8867703
-0.4622105, 0.8867703
-0.4622105, 0.8867703
-0.4622105, 0.8867703
-0.4622105, 0.8867703
-0.4622105, 0.8867703
-0.4622105, 0.8867703
-0.4622105, 0.8867703
-0.4622105, 0.8867703
-0.4622105, 0.8867703
-0.4622105, 0.8867703
-0.4622105, 0.8867703
-0.4622105, 0.8867703
-0.4622105, 0.8867703
-0.4622105, 0.8867703
-0.4622105, 0.8867703
-0.4622105, 0.8867703
-0.4622105, 0.8867703
-0.4622105, 0.8867703
-0.4622105, 0.8867703
-0.4622105, 0.8867703
-0.4622105, 0.8867703
-0.4622105, 0.8867703
-0.4622105, 0.8867703
-0.4622105, 0.8867703
-0.4622105, 0.8867703
-0.4622105, 0.8867703
-0.4622105, 0.8867703
-0.4622105, 0.8867703
-0.4622105, 0.8867703
-0.4622105, 0.8867703
-0.4622105, 0.8867703
-0.4622105, 0.8867703
-0.4622105, 0.8867703
-0.4622105, 0.8867703
-0.4622105, 0.8867703
-0.4622105, 0.8867703
-0.4622105, 0.8867703
-0.4622105, 0.8867703
-0.4622105, 0.8867703
-0.4622105, 0.8867703
-0.4622105, 0.8867703
-0.4622105, 0.8867703
-0.4622105, 0.8867703
-0.4622105, 0.8867703
-0.4622105, 0.8867703
-0.4622105, 0.8867703
-0.4622105, 0.8867703
-0.4622105, 0.8867703
-0.4622105, 0.8867703
-0.4622105, 0.8867703
-0.4622105, 0.8867703
-0.4622105, 0.8867703
-0.4622105, 0.8867703
-0.4622105, 0.8867703
-0.4622105, 0.8867703
