3.114953E-12, 1
-9.660648E-11, 1
1.63617E-11, 1
4.761402E-11, 1
-1.15714E-10, 1
-1.78101E-10, 1
-2.379233E-11, 1
-2.210683E-10, 1
5.172127E-12, 1
1.164017E-10, 1
2.497486E-12, 1
-2.724231E-10, 1
-1.719593E-10, 1
1.36778E-10, 1
-7.994245E-11, 1
2.268254E-10, 1
-2.702749E-10, 1
-4.002825E-10, 1
-3.486113E-10, 1
8.344144E-11, 1
9.055041E-12, 1
9.904483E-11, 1
-3.517202E-10, 1
-1.086738E-11, 1
-7.825701E-11, 1
9.231501E-11, 1
-4.972407E-10, 1
4.846795E-10, 1
1.045261E-10, 1
7.745552E-10, 1
-1.508615E-11, 1
7.402488E-10, 1
-1.688921E-10, 1
-3.170672E-10, 1
-2.177489E-10, 1
-1.087292E-09, 1
0.04865416, 0.9979879
0.1899707, 0.9808344
0.3517234, 0.9348797
0.5063191, 0.8609753
0.5793209, 0.8150997
0.5793209, 0.8150997
0.5793209, 0.8150997
0.5793209, 0.8150997
0.579321, 0.8150997
0.579321, 0.8150996
0.579321, 0.8150996
0.579321, 0.8150996
0.579321, 0.8150997
0.579321, 0.8150996
0.5793213, 0.8150995
0.5793213, 0.8150994
0.5793213, 0.8150994
0.5793214, 0.8150991
0.5793214, 0.8150991
0.5793214, 0.8150993
0.5793214, 0.8150992
0.5793214, 0.8150991
0.5793215, 0.8150991
0.5793217, 0.8150991
0.5793215, 0.8150991
0.5793217, 0.8150989
0.5793219, 0.8150988
0.5785351, 0.8156567
0.5714121, 0.8206556
0.5606502, 0.828044
0.5489569, 0.8358397
0.5378716, 0.8430195
0.5262187, 0.8503388
0.5135202, 0.8580667
0.5014431, 0.8651818
0.4904714, 0.8714508
0.478856, 0.8778841
0.4674328, 0.8840216
0.4552782, 0.8903397
0.4426798, 0.8966709
0.4307364, 0.9024701
0.4197894, 0.9076155
0.4082132, 0.9128786
0.4035288, 0.9149669
0.4035287, 0.9149669
0.4035289, 0.9149668
0.4035288, 0.9149668
0.4035289, 0.9149669
0.403529, 0.9149668
0.4035289, 0.9149668
