0, 1
0, 1
0.0003839562, 1
0.0006322557, 0.9999999
0.0006736337, 0.9999999
0.0006724347, 0.9999999
0.0006786593, 0.9999999
0.0007016911, 0.9999999
0.0007090648, 0.9999999
0.0007226169, 0.9999999
0.000814372, 0.9999997
0.0002209581, 0.9999998
-0.000351131, 0.9999999
0.01843853, 0.999596
0.1179293, 0.9925091
0.2267818, 0.9734336
0.3319438, 0.9427704
0.4327331, 0.900942
0.5315702, 0.8464009
0.6224796, 0.7819576
0.7072539, 0.7061987
0.7656971, 0.6430211
0.6749101, 0.7356879
0.5143065, 0.855684
0.3345263, 0.9405233
0.1350101, 0.9891153
-0.06823523, 0.9959221
-0.2726853, 0.96028
-0.4567162, 0.8878193
-0.6252714, 0.7781243
-0.7683752, 0.6374868
-0.8748575, 0.4823111
-0.8958446, 0.4443673
-0.8958446, 0.4443673
-0.8958446, 0.4443673
-0.8958446, 0.4443673
-0.8958446, 0.4443673
-0.8958446, 0.4443673
-0.8958446, 0.4443673
-0.8958446, 0.4443673
