0, 1
0, 1
0, 1
0, 1
0, 1
0, 1
0, 1
0, 1
0, 1
0, 1
0, 1
0, 1
0, 1
0, 1
0, 1
0, 1
0, 1
0, 1
0, 1
0, 1
0, 1
0, 1
0, 1
0, 1
0, 1
0, 1
0, 1
0, 1
0, 1
0, 1
0, 1
0, 1
0, 1
0, 1
0, 1
0, 1
0, 1
0, 1
0, 1
0, 1
0, 1
0, 1
0, 1
0, 1
0, 1
0, 1
0, 1
0, 1
0, 1
0, 1
0, 1
0, 1
0, 1
0, 1
0, 1
0, 1
-0.06759631, 0.9966234
-0.2344773, 0.9711069
-0.3786722, 0.9247232
-0.4153702, 0.9096527
-0.4153702, 0.9096527
-0.4153702, 0.9096527
-0.4153702, 0.9096527
-0.4153702, 0.9096527
-0.4153702, 0.9096527
-0.4153702, 0.9096527
-0.4153702, 0.9096527
-0.4153702, 0.9096527
