0, 0
0, 0
0, 0.0043855
0, 0.0819452
0, 0.1890662
0, 0.2945262
0, 0.3935486
0, 0.4988115
0, 0.6047748
0, 0.7060168
0, 0.755591
0, 0.7163979
0, 0.6178026
0, 0.5126452
0, 0.404848
0, 0.3079239
0, 0.1995899
0, 0.1271427
0, 0.1255968
0, 0.1255968
0, 0.1255968
0, 0.1255968
0, 0.1255968
0, 0.1255968
0, 0.1255968
0, 0.1255968
0, 0.1255968
0, 0.1255968
0, 0.1255968
0, 0.1255968
0, 0.1255968
0, 0.1255968
0, 0.1255968
0, 0.1255968
0, 0.1255968
0, 0.1255968
0, 0.1255968
0, 0.1255968
