0, 0.1111111
-0.0001676348, 0.481052
-0.0006291269, 0.5729465
-0.001204896, 0.6736116
-0.001851113, 0.7896227
-0.002489252, 0.9050012
-0.003118946, 1.019104
-0.003784414, 1.139611
-0.004443888, 1.259021
-0.005081386, 1.37414
-0.005733889, 1.492049
-0.006407924, 1.613949
-0.007016833, 1.724029
-0.007633285, 1.835385
-0.008323281, 1.960315
-0.008991092, 2.081368
-0.009609017, 2.193413
-0.01013994, 2.294683
-0.01018927, 2.30444
-0.01018927, 2.30444
-0.01018927, 2.30444
-0.01018927, 2.30444
-0.01018927, 2.30444
-0.01018927, 2.30444
-0.01018934, 2.30444
-0.01018931, 2.30444
-0.01018891, 2.30444
-0.01018831, 2.30444
-0.01018795, 2.30444
-0.01018789, 2.30444
-0.01018758, 2.30444
-0.01018765, 2.30444
-0.01018726, 2.30444
-0.01018731, 2.30444
-0.01018728, 2.30444
-0.01018738, 2.30444
-0.01018747, 2.30444
-0.01018758, 2.30444
-0.01018709, 2.30444
-0.0101869, 2.30444
-0.01018694, 2.30444
-0.01018685, 2.304441
-0.01018629, 2.304441
-0.01018611, 2.304441
-0.01018597, 2.304441
-0.01018596, 2.304441
-0.01018594, 2.304441
-0.01018589, 2.304441
-0.01018581, 2.304441
-0.01018585, 2.304441
-0.01018591, 2.304441
-0.01018597, 2.304441
-0.01018597, 2.304441
-0.01018603, 2.30444
-0.01018604, 2.304441
-0.01018605, 2.304441
-0.01018564, 2.304442
-0.01018606, 2.304441
-0.01018603, 2.304441
-0.01018629, 2.30444
-0.01018641, 2.304441
-0.01018658, 2.304441
-0.01018676, 2.30444
-0.01018671, 2.30444
-0.01018682, 2.30444
-0.01018649, 2.304441
-0.01018658, 2.30444
-0.01018676, 2.30444
-0.01018702, 2.304439
-0.01018691, 2.304439
-0.01018722, 2.304439
-0.01018733, 2.304438
-0.01018744, 2.304438
-0.01018759, 2.304438
-0.0101873, 2.304438
-0.01018739, 2.304437
-0.01018739, 2.304437
-0.01018739, 2.304437
-0.01018739, 2.304437
-0.01018739, 2.304437
-0.01018739, 2.304437
-0.01018739, 2.304437
