0, 1
-0.006384022, 0.9999696
-0.01199835, 0.9999279
-0.01199835, 0.9999279
-0.01199833, 0.9999278
-0.01199832, 0.9999278
-0.01199831, 0.9999278
-0.01199829, 0.9999278
-0.0119983, 0.9999278
-0.01207884, 0.9999269
-0.01232052, 0.999924
-0.01232052, 0.999924
-0.01232052, 0.999924
-0.01232054, 0.999924
-0.01232053, 0.999924
-0.01232054, 0.999924
-0.01232056, 0.999924
-0.0123205, 0.999924
-0.01232043, 0.999924
-0.01232043, 0.999924
-0.01250073, 0.9999218
-0.01255479, 0.9999211
-0.01255473, 0.9999211
-0.01255468, 0.9999211
-0.01255464, 0.9999211
-0.01255459, 0.9999211
-0.01255456, 0.9999211
-0.01277379, 0.9999183
-0.01277376, 0.9999183
-0.01277374, 0.9999183
-0.01288884, 0.999917
-0.01297102, 0.999916
-0.01297098, 0.999916
-0.01297097, 0.999916
-0.01297096, 0.999916
-0.01319548, 0.9999128
-0.0132329, 0.9999123
-0.0132329, 0.9999123
-0.01323288, 0.9999123
-0.01323285, 0.9999123
-0.01323283, 0.9999123
-0.0132328, 0.9999123
-0.01323279, 0.9999123
-0.01323282, 0.9999123
-0.01323279, 0.9999123
-0.01341909, 0.9999099
-0.01357424, 0.9999078
-0.01357403, 0.9999078
-0.01357398, 0.9999078
-0.01357395, 0.9999078
-0.01357395, 0.9999077
-0.01357395, 0.9999078
-0.01357389, 0.9999078
-0.01357387, 0.9999078
-0.01357387, 0.9999078
-0.01357386, 0.9999078
-0.01357386, 0.9999078
-0.01357386, 0.9999079
-0.01357385, 0.9999079
-0.01357386, 0.9999079
-0.01357386, 0.9999079
-0.01383162, 0.9999043
-0.01390526, 0.9999034
-0.01390526, 0.9999034
-0.01390526, 0.9999034
-0.01390526, 0.9999034
-0.01390526, 0.9999034
-0.01390526, 0.9999034
-0.01390526, 0.9999034
-0.01390526, 0.9999034
-0.01390526, 0.9999034
-0.01390526, 0.9999034
-0.01390526, 0.9999034
-0.01390526, 0.9999034
-0.01390526, 0.9999034
-0.01390526, 0.9999034
-0.01390526, 0.9999034
-0.01390526, 0.9999034
-0.01390526, 0.9999033
-0.01390526, 0.9999033
-0.01390526, 0.9999033
-0.01390526, 0.9999033
-0.01390526, 0.9999033
-0.01390526, 0.9999034
-0.01390526, 0.9999034
-0.01390526, 0.9999034
-0.01390526, 0.9999034
-0.01390526, 0.9999034
-0.01390526, 0.9999034
-0.01390526, 0.9999034
-0.01390526, 0.9999033
-0.01390526, 0.9999034
-0.01390526, 0.9999034
-0.01390526, 0.9999034
-0.01390526, 0.9999034
-0.01390526, 0.9999033
