0, 1
0.01405535, 0.9998891
0.03350607, 0.9994214
0.05097717, 0.9986901
0.06680842, 0.9977556
0.08040555, 0.9967558
0.0922766, 0.9957277
0.1051884, 0.9944447
0.1182285, 0.9929793
0.1297876, 0.9915381
0.1327006, 0.9911563
0.1327006, 0.9911563
0.1327006, 0.9911563
0.1318335, 0.9912713
0.1240192, 0.992275
0.1127984, 0.9936121
0.09989395, 0.9949908
0.08687869, 0.996212
0.07469708, 0.9972
0.06209052, 0.998064
0.05353677, 0.9985657
0.05329039, 0.9985791
0.05329043, 0.9985791
0.05329048, 0.9985791
0.05329054, 0.9985791
0.05329058, 0.9985791
0.04972206, 0.9987602
0.04550087, 0.9989643
0.04550088, 0.9989643
0.04560048, 0.9989598
0.04855457, 0.9988202
0.04906772, 0.9987955
0.04898874, 0.9987993
0.04442656, 0.9990093
0.03365161, 0.9994279
0.02619767, 0.9996566
0.02689964, 0.9996376
0.03379673, 0.9994249
0.04539572, 0.9989623
0.05769226, 0.9983279
0.06985103, 0.9975517
0.08241021, 0.9965915
0.09489372, 0.995481
0.1069544, 0.9942582
0.1192813, 0.9928537
0.1293073, 0.9916035
0.1302371, 0.9914828
0.1302035, 0.9914872
0.1263088, 0.9919879
0.1159317, 0.9932517
0.1031232, 0.9946607
0.09032789, 0.9959055
0.07789498, 0.9969553
0.06473014, 0.9978953
0.05201659, 0.99864
0.03957111, 0.9992098
0.02641442, 0.999644
0.01426964, 0.9998927
0.003289101, 0.9999899
-0.008627806, 0.9999561
-0.02107102, 0.9997718
-0.02919232, 0.9995737
-0.02934454, 0.9995692
-0.02934454, 0.9995692
-0.02934454, 0.9995692
-0.02934454, 0.9995692
-0.02934454, 0.9995692
-0.02934454, 0.9995692
-0.02934454, 0.9995692
-0.02934454, 0.9995692
-0.02934454, 0.9995692
-0.02934454, 0.9995692
-0.02934454, 0.9995692
-0.02934454, 0.9995692
-0.02934454, 0.9995692
-0.02934454, 0.9995692
-0.02934454, 0.9995692
-0.02934454, 0.9995692
-0.02934454, 0.9995693
-0.02934454, 0.9995693
-0.02934454, 0.9995693
-0.02934454, 0.9995693
-0.02934454, 0.9995693
-0.02934454, 0.9995692
-0.02934454, 0.9995692
-0.02934454, 0.9995692
-0.02934454, 0.9995692
-0.02934454, 0.9995692
-0.02934454, 0.9995692
-0.02934454, 0.9995692
-0.02934454, 0.9995693
-0.02934454, 0.9995692
-0.02934454, 0.9995692
-0.02934454, 0.9995692
-0.02934454, 0.9995692
-0.02934454, 0.9995693
