0, 1
0, 1
0, 1
-1.143584E-05, 1
-0.003220026, 0.9999928
-0.01177053, 0.9999266
-0.02155665, 0.9997638
-0.03177502, 0.9994905
-0.04188028, 0.9991185
-0.05143945, 0.9986725
-0.06138185, 0.9981098
-0.07137027, 0.997446
-0.08085733, 0.996722
-0.09047867, 0.9958944
-0.1004505, 0.9949376
-0.1103964, 0.9938837
-0.1205036, 0.9927084
-0.1306526, 0.991424
-0.1402297, 0.9901152
-0.1502235, 0.9886476
-0.1604566, 0.9870386
-0.1700331, 0.9854345
-0.1799023, 0.9836801
-0.1899786, 0.9817836
-0.1995683, 0.9798801
-0.20935, 0.9778364
-0.2190512, 0.9757093
-0.2283923, 0.9735652
-0.2381621, 0.9712211
-0.2478309, 0.9687991
-0.2574904, 0.9662763
-0.2673694, 0.9635897
-0.2718735, 0.9623328
-0.2718735, 0.9623328
-0.2718735, 0.9623328
-0.2718735, 0.9623328
-0.2718735, 0.9623328
-0.2718735, 0.9623328
-0.2718735, 0.9623328
-0.2718735, 0.9623328
-0.2718735, 0.9623328
-0.2718735, 0.9623328
-0.2718735, 0.9623328
-0.2718735, 0.9623328
-0.2718735, 0.9623328
-0.2718735, 0.9623328
-0.2718735, 0.9623328
-0.2718735, 0.9623328
-0.2718735, 0.9623328
-0.2718735, 0.9623328
-0.2718735, 0.9623328
-0.2718735, 0.9623328
-0.2718735, 0.9623328
-0.2718735, 0.9623328
-0.2718735, 0.9623328
-0.2718735, 0.9623328
-0.2718735, 0.9623328
-0.2718735, 0.9623328
