0, 0
0, 0
0, 0
1.054424E-15, 0.0024564
-1.977226E-11, 0.07481498
1.749765E-10, 0.1802621
2.931382E-10, 0.2822566
2.76191E-09, 0.3884307
5.369195E-09, 0.4948244
-1.540703E-09, 0.594831
-1.352096E-08, 0.7005496
-1.134689E-08, 0.8049421
1.23592E-08, 0.9022792
2.818468E-08, 1.005044
2.13807E-08, 1.111779
-5.575986E-09, 1.213635
2.265504E-08, 1.318079
3.59545E-08, 1.426382
8.585145E-10, 1.524884
-5.483675E-08, 1.630071
-1.070649E-07, 1.740808
6.388003E-09, 1.8387
3.845527E-08, 1.941501
1.140791E-07, 2.049107
1.856396E-07, 2.15085
2.095683E-07, 2.253683
2.175319E-07, 2.358772
2.663009E-07, 2.458973
2.017866E-07, 2.560774
2.403702E-07, 2.667753
1.769622E-07, 2.76951
1.965979E-07, 2.874338
1.003272E-07, 2.916306
1.003272E-07, 2.916306
1.003272E-07, 2.916306
1.003272E-07, 2.916306
1.003272E-07, 2.916306
1.003272E-07, 2.916306
1.003272E-07, 2.916306
1.003272E-07, 2.916306
1.003272E-07, 2.916306
1.003272E-07, 2.916306
1.003272E-07, 2.916306
1.003272E-07, 2.916306
1.003272E-07, 2.916306
1.003272E-07, 2.916306
1.003272E-07, 2.916306
1.003272E-07, 2.916306
1.003272E-07, 2.916306
1.003272E-07, 2.916306
1.003272E-07, 2.916306
1.003272E-07, 2.916306
1.003272E-07, 2.916306
1.003272E-07, 2.916306
1.003272E-07, 2.916306
1.003272E-07, 2.916306
1.003272E-07, 2.916306
1.003272E-07, 2.916306
