0, 1
0, 1
-0.0008643789, 0.9999994
-0.004258776, 0.9999902
-0.009102483, 0.9999574
-0.0140887, 0.9998998
-0.0188679, 0.9998211
-0.02354005, 0.9997221
-0.02802738, 0.9996064
-0.03267687, 0.9994649
-0.03731649, 0.9993026
-0.02287182, 0.9994386
0.1114497, 0.9926472
0.2721673, 0.9610825
0.4270149, 0.9029598
0.5672591, 0.8221975
0.6948147, 0.7175962
0.8006546, 0.5974021
0.8853599, 0.4626729
0.9468812, 0.3182282
0.9863117, 0.1577216
0.9987416, -0.008886875
0.9827393, -0.1787096
0.9405723, -0.3364529
0.8815494, -0.470869
0.8639495, -0.5035679
0.8091291, -0.5858954
0.7747014, -0.6323271
0.7747014, -0.6323271
0.7747012, -0.6323274
0.7747011, -0.6323277
0.7747012, -0.6323276
0.8127187, -0.580997
0.8638607, -0.5037228
0.8647127, -0.5022666
0.8661891, -0.4997149
0.8666335, -0.4988745
0.8073481, -0.5888382
0.78721, -0.6166801
0.7913852, -0.6113157
0.7860045, -0.617907
0.7604932, -0.6493413
0.7642723, -0.6448927
0.764888, -0.6441632
0.7648881, -0.6441631
0.764888, -0.6441631
0.764888, -0.6441631
0.764888, -0.6441631
0.764888, -0.6441631
0.764888, -0.6441631
0.7389446, -0.6726588
0.6244625, -0.7796872
0.4921218, -0.8692508
0.3428534, -0.9381594
0.1840167, -0.9817781
0.02128304, -0.9986995
-0.1355562, -0.9897365
-0.2882314, -0.9564586
-0.4421626, -0.8956844
-0.5778074, -0.8149156
-0.7003094, -0.7122445
-0.8063969, -0.5895641
-0.8897887, -0.4541076
-0.9526404, -0.3003066
-0.9879954, -0.1480211
-0.9987853, 0.01671268
-0.9829503, 0.1779664
-0.9573984, 0.2886019
-0.9558579, 0.2938153
-0.9209658, 0.3867789
-0.8698692, 0.4931668
-0.8673828, 0.4976416
-0.8273622, 0.5598486
-0.7316541, 0.6804075
-0.6958413, 0.7181959
-0.6958411, 0.7181958
-0.6958411, 0.7181958
-0.6713768, 0.7403045
-0.5855257, 0.8105324
-0.579219, 0.8151721
-0.574944, 0.8181205
-0.4783306, 0.8770317
-0.4207443, 0.9071792
-0.4207443, 0.9071792
-0.4207443, 0.9071792
-0.4207377, 0.9071824
-0.4207113, 0.9071946
-0.4206823, 0.907208
-0.4988592, 0.8654513
-0.6313784, 0.7739552
-0.7511662, 0.6584741
-0.8469562, 0.5295199
-0.9226598, 0.38266
-0.9741775, 0.2212728
-0.9966844, 0.0667977
-0.9943383, -0.09490997
-0.9659702, -0.2544535
-0.909999, -0.4117557
-0.829644, -0.5564004
-0.7304286, -0.6813697
-0.6086136, -0.7921372
-0.4936315, -0.8692043
-0.4816525, -0.8763531
-0.4881563, -0.8727561
-0.4862905, -0.8737965
-0.4824295, -0.8759336
-0.4727893, -0.8810909
-0.3644464, -0.9299988
-0.2112165, -0.9762723
-0.04946953, -0.9977078
0.1139166, -0.9922988
0.2740463, -0.9606258
0.4233117, -0.904835
0.5624815, -0.8253098
0.6896378, -0.7226073
0.7977534, -0.6013418
0.8849966, -0.4630977
0.9188695, -0.3945611
0.9187883, -0.3947506
0.9187882, -0.3947506
0.9187883, -0.3947506
0.9187883, -0.3947506
0.9187883, -0.3947506
0.9187883, -0.3947506
0.9187883, -0.3947506
0.9187883, -0.3947506
0.9187883, -0.3947506
