0, 1
0, 1
3.174963E-11, 1
1.48165E-10, 1
-4.346172E-10, 1
-1.36594E-09, 1
4.967054E-10, 1
6.519258E-09, 1
3.008888E-09, 1
1.197415E-09, 1
-1.289524E-08, 1
0.01411541, 0.9997324
0.106907, 0.9937564
0.2149558, 0.9761079
0.3218709, 0.9462332
0.4227377, 0.9056984
0.5203269, 0.853366
0.608853, 0.7926962
0.6899046, 0.723258
0.7621961, 0.6465958
0.8290661, 0.5582237
0.8864819, 0.4615694
0.9335544, 0.3569961
0.9669267, 0.2531817
0.9872046, 0.1579873
0.9904798, 0.1376251
0.9981999, 0.04740578
0.999979, 0.006478607
0.999979, 0.006478615
0.999979, 0.006478281
0.999979, 0.006477845
0.999979, 0.00647808
0.9950719, 0.08317968
0.9799895, 0.199006
0.9797305, 0.2003203
0.9797305, 0.2003204
0.9803714, 0.1969475
0.9961652, 0.07440697
0.999759, 0.02194696
0.9997618, 0.02181836
0.9997361, 0.007873015
0.999046, -0.04367016
0.9990502, -0.0435745
0.9990577, -0.04340206
0.9990577, -0.04340206
0.9990577, -0.04340206
0.9990577, -0.04340207
0.9990577, -0.04340206
0.9990577, -0.04340207
0.9990577, -0.04340206
0.992283, -0.1054497
0.924733, -0.371617
0.7828624, -0.6165482
0.5715774, -0.816103
0.3111079, -0.9466398
0.02640665, -0.9962481
-0.2499469, -0.9649302
-0.5046548, -0.8595203
-0.732716, -0.6752893
-0.8917776, -0.4452917
-0.9805409, -0.1772164
-0.99057, 0.1096954
-0.9205461, 0.3822398
-0.7689988, 0.6335181
-0.5659276, 0.8208226
-0.3029579, 0.949442
-0.02035919, 0.9964048
0.1870489, 0.9821359
0.1983619, 0.9801248
0.3582448, 0.9298612
0.5514781, 0.8338941
0.5613332, 0.8275899
0.6568516, 0.7498312
0.8359404, 0.5436033
0.8885555, 0.4587693
0.8885555, 0.4587694
0.8885555, 0.4587694
0.9101515, 0.4101443
0.9746832, 0.2218103
0.9786946, 0.205322
0.980031, 0.1981969
0.9973888, 0.01121152
0.9971381, -0.07559966
0.9971381, -0.07559966
0.9971381, -0.07559966
0.9971381, -0.07559932
0.9971382, -0.07559868
0.9971382, -0.07559804
0.9988216, 0.01349429
0.9828072, 0.1776189
0.9365973, 0.3468502
0.861702, 0.5046791
0.7496498, 0.6593275
0.5988745, 0.7989066
0.4331183, 0.8994883
0.2440587, 0.9679415
0.0456702, 0.9973138
-0.160372, 0.9852047
-0.3582262, 0.9318935
-0.5347397, 0.8430205
-0.6939573, 0.7177646
-0.8094591, 0.5859432
-0.8320187, 0.5547475
-0.8320821, 0.5546524
-0.8320818, 0.5546529
-0.8320819, 0.5546528
-0.8348403, 0.5503904
-0.8838917, 0.4662525
-0.9307602, 0.3641957
-0.971181, 0.2332761
-0.9971872, 0.04622736
-0.986514, -0.1535999
-0.9371867, -0.3442085
-0.8505621, -0.5223383
-0.7284587, -0.6826297
-0.5765786, -0.8151336
-0.4096031, -0.9107147
-0.3308737, -0.943675
-0.3308023, -0.9437
-0.3308023, -0.9437
-0.3308023, -0.9437
-0.3308023, -0.9437001
-0.3308023, -0.9437001
-0.3308023, -0.9437001
-0.3308023, -0.9437
-0.3308023, -0.9437001
-0.3308023, -0.9437
