0.1111111, 0.1111111
0.3551647, 0.4317249
0.3654754, 0.5586704
0.3251869, 0.6681947
0.2408093, 0.7291809
0.1573894, 0.7902232
0.1118623, 0.8918508
0.121997, 1.031455
0.1468047, 1.176013
0.1664893, 1.304452
0.1668523, 1.333515
0.1668523, 1.333515
0.1668523, 1.333515
0.1668523, 1.333515
0.1668523, 1.333515
0.1668523, 1.333515
0.1668523, 1.333515
0.1668523, 1.333515
0.1668523, 1.333515
0.1668523, 1.333515
0.1668523, 1.333515
0.1668523, 1.333515
0.1668523, 1.333515
0.1668523, 1.333515
0.1668523, 1.333515
0.1668523, 1.333515
0.1668523, 1.333515
0.1668523, 1.333515
0.1668523, 1.333515
0.1668523, 1.333515
0.1668523, 1.333515
0.1668523, 1.333515
0.1668523, 1.333515
0.1668523, 1.333515
0.1668523, 1.333515
0.1668523, 1.333515
0.1668523, 1.333515
0.1668523, 1.333515
0.1668523, 1.333515
0.1668523, 1.333515
0.1668523, 1.333515
0.1668523, 1.333515
0.1668523, 1.333515
0.1668523, 1.333515
0.1668523, 1.333515
0.1668523, 1.333515
0.1668523, 1.333515
0.1668523, 1.333515
0.1668523, 1.333515
0.1668523, 1.333515
0.1668523, 1.333515
0.1668523, 1.333515
0.1668523, 1.333515
0.1668523, 1.333515
0.1668523, 1.333515
0.1668523, 1.333515
0.1668523, 1.333515
0.1668523, 1.333515
0.1668523, 1.333515
0.1668523, 1.333515
0.1668523, 1.333515
0.1668523, 1.333515
0.1668523, 1.333515
0.1668523, 1.333515
0.1668523, 1.333515
0.1668523, 1.333515
0.1668523, 1.333515
0.1668523, 1.333515
0.1668523, 1.333515
0.1668523, 1.333515
0.1668523, 1.333515
0.1668523, 1.333515
0.1668523, 1.333515
0.1668523, 1.333515
0.1668523, 1.333515
0.1668523, 1.333515
0.1668523, 1.333515
0.1668523, 1.333515
0.1668523, 1.333515
0.1668523, 1.333515
0.1668523, 1.333515
0.1668523, 1.333515
0.1668523, 1.333515
0.1668523, 1.333515
0.1668523, 1.333515
0.1668523, 1.333515
0.1668523, 1.333515
0.1668523, 1.333515
0.1668523, 1.333515
0.1668523, 1.333515
0.1668523, 1.333515
0.1668523, 1.333515
0.1668523, 1.333515
0.1668523, 1.333515
0.1668523, 1.333515
0.1668523, 1.333515
0.1668523, 1.333515
0.1668523, 1.333515
0.1668523, 1.333515
0.1668523, 1.333515
0.1668523, 1.333515
0.1668523, 1.333515
0.1668523, 1.333515
0.1668523, 1.333515
