-0.1666667, 0.9553418
-0.5933629, 0.8041913
-0.7005802, 0.7119021
-0.7997831, 0.5995356
-0.8109891, 0.5850512
-0.7961965, 0.6046305
-0.7058707, 0.7069156
-0.5951432, 0.8028844
-0.5750719, 0.818097
-0.5815369, 0.8135187
-0.5827833, 0.8126277
-0.5827833, 0.8126277
-0.5827833, 0.8126277
-0.5827833, 0.8126277
-0.5827833, 0.8126277
-0.5827833, 0.8126277
-0.5827833, 0.8126277
-0.5827833, 0.8126277
-0.5827833, 0.8126277
-0.5827833, 0.8126277
-0.5827833, 0.8126277
-0.5827833, 0.8126277
-0.5827833, 0.8126277
-0.5827833, 0.8126277
-0.5827833, 0.8126277
-0.5827833, 0.8126277
-0.5827833, 0.8126277
-0.5827833, 0.8126277
-0.5827833, 0.8126277
-0.5827833, 0.8126277
-0.5827833, 0.8126277
-0.5827833, 0.8126277
-0.5827833, 0.8126277
-0.5827833, 0.8126277
-0.5827833, 0.8126277
-0.5827833, 0.8126277
-0.5827833, 0.8126277
-0.5827833, 0.8126277
-0.5827833, 0.8126277
-0.5827833, 0.8126277
-0.5827833, 0.8126277
-0.5827833, 0.8126277
-0.5827833, 0.8126277
-0.5827833, 0.8126277
-0.5827833, 0.8126277
-0.5827833, 0.8126277
-0.5827833, 0.8126277
-0.5827833, 0.8126277
-0.5827833, 0.8126277
-0.5827833, 0.8126277
-0.5827833, 0.8126277
-0.5827833, 0.8126277
-0.5827833, 0.8126277
-0.5827833, 0.8126277
-0.5827833, 0.8126277
-0.5827833, 0.8126277
-0.5827833, 0.8126277
-0.5827833, 0.8126277
-0.5827833, 0.8126277
-0.5827833, 0.8126277
-0.5827833, 0.8126277
-0.5827833, 0.8126277
-0.5827833, 0.8126277
-0.5827833, 0.8126277
-0.5827833, 0.8126277
-0.5827833, 0.8126277
-0.5827833, 0.8126277
-0.5827833, 0.8126277
-0.5827833, 0.8126277
-0.5827833, 0.8126277
-0.5827833, 0.8126277
-0.5827833, 0.8126277
-0.5827833, 0.8126277
-0.5827833, 0.8126277
-0.5827833, 0.8126277
-0.5827833, 0.8126277
-0.5827833, 0.8126277
-0.5827833, 0.8126277
-0.5827833, 0.8126277
-0.5827833, 0.8126277
-0.5827833, 0.8126277
-0.5827833, 0.8126277
-0.5827833, 0.8126277
-0.5827833, 0.8126277
-0.5827833, 0.8126277
-0.5827833, 0.8126277
-0.5827833, 0.8126277
-0.5827833, 0.8126277
-0.5827833, 0.8126277
-0.5827833, 0.8126277
-0.5827833, 0.8126277
-0.5827833, 0.8126277
-0.5827833, 0.8126277
-0.5827833, 0.8126277
-0.5827833, 0.8126277
-0.5827833, 0.8126277
-0.5827833, 0.8126277
-0.5827833, 0.8126277
-0.5827833, 0.8126277
-0.5827833, 0.8126277
-0.5827833, 0.8126277
-0.5827833, 0.8126277
-0.5827833, 0.8126277
-0.5827833, 0.8126277
