0.1111111, 0.1111111
0.3598495, 0.4306709
0.3879151, 0.5550804
0.3689009, 0.6714177
0.2979377, 0.7494697
0.2280306, 0.8256187
0.2013339, 0.9340513
0.2369896, 1.069848
0.2914289, 1.208046
0.3382085, 1.329286
0.3449088, 1.357574
0.3449088, 1.357574
0.3449088, 1.357574
0.3449088, 1.357574
0.3449088, 1.357574
0.3449088, 1.357574
0.3449088, 1.357574
0.3449088, 1.357574
0.3449088, 1.357574
0.3449088, 1.357574
0.3449088, 1.357574
0.3449088, 1.357574
0.3449088, 1.357574
0.3449088, 1.357574
0.3449088, 1.357574
0.3449088, 1.357574
0.3449088, 1.357574
0.3449088, 1.357574
0.3449088, 1.357574
0.3449088, 1.357574
0.3449088, 1.357574
0.3449088, 1.357574
0.3449088, 1.357574
0.3449088, 1.357574
0.3449088, 1.357574
0.3449088, 1.357574
0.3449088, 1.357574
0.3449088, 1.357574
0.3449088, 1.357574
0.3449088, 1.357574
0.3449088, 1.357574
0.3449088, 1.357574
0.3449088, 1.357574
0.3449088, 1.357574
0.3449088, 1.357574
0.3449088, 1.357574
0.3449088, 1.357574
0.3449088, 1.357574
0.3449088, 1.357574
0.3449088, 1.357574
0.3449088, 1.357574
0.3449088, 1.357574
0.3449088, 1.357574
0.3449088, 1.357574
0.3449088, 1.357574
0.3449088, 1.357574
0.3449088, 1.357574
0.3449088, 1.357574
0.3449088, 1.357574
0.3449088, 1.357574
0.3449088, 1.357574
0.3449088, 1.357574
0.3449088, 1.357574
0.3449088, 1.357574
0.3449088, 1.357574
0.3449088, 1.357574
0.3449088, 1.357574
0.3449088, 1.357574
0.3449088, 1.357574
0.3449088, 1.357574
0.3449088, 1.357574
0.3449088, 1.357574
0.3449088, 1.357574
0.3449088, 1.357574
0.3449088, 1.357574
0.3449088, 1.357574
0.3449088, 1.357574
0.3449088, 1.357574
0.3449088, 1.357574
0.3449088, 1.357574
0.3449088, 1.357574
0.3449088, 1.357574
0.3449088, 1.357574
0.3449088, 1.357574
0.3449088, 1.357574
0.3449088, 1.357574
0.3449088, 1.357574
0.3449088, 1.357574
0.3449088, 1.357574
0.3449088, 1.357574
0.3449088, 1.357574
0.3449088, 1.357574
0.3449088, 1.357574
0.3449088, 1.357574
0.3449088, 1.357574
0.3449088, 1.357574
0.3449088, 1.357574
0.3449088, 1.357574
0.3449088, 1.357574
0.3449088, 1.357574
0.3449088, 1.357574
0.3449088, 1.357574
0.3449088, 1.357574
0.3449088, 1.357574
