0, 1
0, 1
0, 1
0, 1
0, 1
0, 1
0, 1
0, 1
0, 1
0, 1
0, 1
0, 1
0, 1
0, 1
0, 1
0, 1
0, 1
0, 1
0, 1
0, 1
-1.247307E-11, 1
1.791005E-10, 1
1.663076E-09, 1
2.261783E-09, 1
0.03762854, 0.9986554
0.1526423, 0.9877066
0.2669836, 0.9631708
0.3807852, 0.9240409
0.47745, 0.8779379
0.5884972, 0.8074158
0.7174459, 0.6946657
0.8292023, 0.5562189
0.8975096, 0.4408366
0.8999262, 0.436042
0.8999262, 0.4360421
0.8999261, 0.4360424
0.8999262, 0.436042
0.8999262, 0.4360419
0.8999262, 0.4360419
0.8999262, 0.4360419
0.8999262, 0.4360418
0.8999267, 0.4360415
0.8999264, 0.4360415
0.8999265, 0.4360414
0.8999268, 0.4360412
0.899927, 0.4360409
0.8999269, 0.4360409
0.8999269, 0.4360409
0.899927, 0.4360409
0.9157196, 0.4001621
0.9630038, 0.2657835
0.9935883, 0.1034383
0.9979327, -0.04783392
0.989575, -0.1436022
0.9977874, 0.004869397
0.9687715, 0.2373955
0.8874452, 0.4560401
0.7514667, 0.6562626
0.5792702, 0.8126676
0.5355563, 0.8442954
0.5871915, 0.8092832
0.6354594, 0.7719262
0.6742983, 0.738369
0.681058, 0.7322293
0.6810582, 0.7322293
0.681058, 0.7322295
0.6810574, 0.7322301
0.6810571, 0.7322302
0.6810569, 0.7322307
0.6810566, 0.732231
0.6810566, 0.7322308
0.6810564, 0.732231
0.681056, 0.7322313
0.681056, 0.7322315
0.681056, 0.7322316
0.6810551, 0.732232
0.6810549, 0.7322324
0.6810546, 0.7322327
0.6810542, 0.7322329
0.6810542, 0.732233
0.6810545, 0.7322329
0.6893809, 0.7241116
0.7860602, 0.6159554
0.8818097, 0.469442
0.9057773, 0.4237536
0.9058907, 0.4235115
0.883943, 0.4658847
0.808231, 0.5873788
0.684945, 0.7255495
0.6013128, 0.7990137
0.6013128, 0.7990137
0.6013128, 0.7990139
0.6013128, 0.7990138
0.5986687, 0.8009528
0.4633607, 0.8834073
0.2927474, 0.9559342
0.2814604, 0.9595729
0.2814605, 0.9595729
0.2814606, 0.9595728
0.2814609, 0.9595728
0.2814611, 0.9595727
0.2814608, 0.9595728
0.2814606, 0.9595728
0.2814601, 0.9595729
0.2814602, 0.9595729
0.2814601, 0.9595729
0.2814598, 0.9595729
0.2814604, 0.9595729
0.2814604, 0.9595729
0.2814604, 0.9595729
0.2814604, 0.9595729
0.2814604, 0.9595729
0.2814604, 0.9595729
0.2814604, 0.9595729
0.2814604, 0.9595729
0.2814604, 0.9595729
0.2814604, 0.9595729
0.2814604, 0.9595729
0.2814604, 0.9595729
0.2814604, 0.9595729
0.2814604, 0.9595729
0.2814604, 0.9595729
0.2814604, 0.9595729
0.2814604, 0.9595729
0.2814604, 0.9595729
0.2814604, 0.9595729
0.2814604, 0.9595729
0.2814604, 0.9595729
0.2814604, 0.9595729
0.2814604, 0.9595729
0.2814604, 0.9595729
0.2814604, 0.9595729
0.2814604, 0.9595729
0.2814604, 0.9595729
0.2814604, 0.9595729
0.2814604, 0.9595729
0.2814604, 0.9595729
0.2814604, 0.9595729
0.2814604, 0.9595729
0.2814604, 0.9595729
0.2814604, 0.9595729
0.2814604, 0.9595729
0.2814604, 0.9595729
0.2814604, 0.9595729
0.2814604, 0.9595729
0.2814604, 0.9595729
0.2814604, 0.9595729
0.2814604, 0.9595729
0.2814604, 0.9595729
0.2814604, 0.9595729
0.2814604, 0.9595729
0.2814604, 0.9595729
0.2814604, 0.9595729
0.2814604, 0.9595729
0.2814604, 0.9595729
0.2814604, 0.9595729
0.2814604, 0.9595729
0.2814604, 0.9595729
0.2814604, 0.9595729
0.2814604, 0.9595729
0.2814604, 0.9595729
0.2814604, 0.9595729
0.2814604, 0.9595729
0.2814604, 0.9595729
0.2814604, 0.9595729
0.2814604, 0.9595729
0.2814604, 0.9595729
0.2814604, 0.9595729
0.2814604, 0.9595729
0.2814604, 0.9595729
0.2814604, 0.9595729
0.2814604, 0.9595729
0.2814604, 0.9595729
0.2814604, 0.9595729
0.2814604, 0.9595729
0.2814604, 0.9595729
0.2814604, 0.9595729
0.2814604, 0.9595729
0.2814604, 0.9595729
0.2814604, 0.9595729
0.2814604, 0.9595729
0.2814604, 0.9595729
0.2814604, 0.9595729
0.2814604, 0.9595729
0.2814604, 0.9595729
0.2814604, 0.9595729
0.2814604, 0.9595729
