0, 1
0, 1
0, 1
0, 1
0, 1
0, 1
0, 1
0, 1
0, 1
0, 1
0, 1
0, 1
0, 1
0, 1
0, 1
0, 1
0, 1
0, 1
0, 1
0, 1
-0.000888464, 0.9999993
-0.004393195, 0.9999896
-0.008785092, 0.9999606
-0.01237652, 0.9999233
0.02901365, 0.998779
0.1768347, 0.9831213
0.3400391, 0.939189
0.4963489, 0.8667754
0.6232978, 0.7805198
0.746829, 0.6632755
0.8479365, 0.5279896
0.9213435, 0.3855058
0.9698333, 0.2421078
0.9755302, 0.2198654
0.975414, 0.2203804
0.9751331, 0.2216197
0.9748122, 0.2230266
0.9744834, 0.2244588
0.9743429, 0.2250686
0.9744677, 0.2245273
0.9747633, 0.2232403
0.975069, 0.2219012
0.9753944, 0.2204664
0.9756905, 0.2191526
0.9759545, 0.2179745
0.976216, 0.2168002
0.9764614, 0.2156923
0.9766904, 0.2146525
0.9769201, 0.2136052
0.9841226, 0.1735379
0.9985644, 0.02854743
0.9887324, -0.1416961
0.9521919, -0.3017369
0.9082684, -0.4179508
0.942799, -0.33035
0.9831564, -0.1761153
0.9987893, -0.01832052
0.9881388, 0.1464314
0.9527537, 0.300721
0.9537852, 0.2972145
0.9899644, 0.1329775
0.9981951, -0.03539183
0.9816902, -0.1866308
0.9734096, -0.2290716
0.9733085, -0.2295004
0.9729591, -0.2309771
0.9725292, -0.2327802
0.9720796, -0.2346506
0.971622, -0.2365382
0.9711323, -0.2385411
0.9706318, -0.2405695
0.9701151, -0.2426445
0.9695333, -0.2449588
0.9690907, -0.2467045
0.969095, -0.2466877
0.9694482, -0.2452955
0.9699847, -0.2431653
0.9705181, -0.2410282
0.9710616, -0.2388285
0.9715862, -0.236685
0.9720602, -0.234731
0.9695726, -0.2440058
0.9266536, -0.3729112
0.8572038, -0.513467
0.8388133, -0.5444149
0.8419146, -0.5396096
0.8683053, -0.4942689
0.9340616, -0.3538957
0.980089, -0.1932998
0.9924762, -0.1224362
0.9924203, -0.1228897
0.9923108, -0.1237705
0.9921969, -0.1246804
0.9924186, -0.1227121
0.9988022, -0.01289646
0.993751, 0.1107359
0.993081, 0.117432
0.9930725, 0.1175036
0.9930507, 0.1176871
0.993028, 0.1178784
0.9930035, 0.1180849
0.9929834, 0.1182554
0.9929819, 0.1182686
0.9929817, 0.1182691
0.9929817, 0.1182691
0.9929816, 0.1182692
0.9929817, 0.1182694
0.9929817, 0.1182689
0.9929817, 0.1182688
0.9929817, 0.1182688
0.9929817, 0.1182688
0.9929817, 0.1182688
0.9929817, 0.1182688
0.9929817, 0.1182688
0.9929817, 0.1182688
0.9929817, 0.1182688
0.9929817, 0.1182688
0.9929817, 0.1182688
0.9929817, 0.1182688
0.9929817, 0.1182688
0.9929817, 0.1182688
0.9929817, 0.1182688
0.9929817, 0.1182688
0.9929817, 0.1182688
0.9929817, 0.1182688
0.9929817, 0.1182688
0.9929817, 0.1182688
0.9929817, 0.1182688
0.9929817, 0.1182688
0.9929817, 0.1182688
0.9929817, 0.1182688
0.9929817, 0.1182688
0.9929817, 0.1182688
0.9929817, 0.1182688
0.9929817, 0.1182688
0.9929817, 0.1182688
0.9929817, 0.1182688
0.9929817, 0.1182688
0.9929817, 0.1182688
0.9929817, 0.1182688
0.9929817, 0.1182688
0.9929817, 0.1182688
0.9929817, 0.1182688
0.9929817, 0.1182688
0.9929817, 0.1182688
0.9929817, 0.1182688
0.9929817, 0.1182688
0.9929817, 0.1182688
0.9929817, 0.1182688
0.9929817, 0.1182688
0.9929817, 0.1182688
0.9929817, 0.1182688
0.9929817, 0.1182688
0.9929817, 0.1182688
0.9929817, 0.1182688
0.9929817, 0.1182688
0.9929817, 0.1182688
0.9929817, 0.1182688
0.9929817, 0.1182688
0.9929817, 0.1182688
0.9929817, 0.1182688
0.9929817, 0.1182688
0.9929817, 0.1182688
0.9929817, 0.1182688
0.9929817, 0.1182688
0.9929817, 0.1182688
0.9929817, 0.1182688
0.9929817, 0.1182688
0.9929817, 0.1182688
0.9929817, 0.1182688
0.9929817, 0.1182688
0.9929817, 0.1182688
0.9929817, 0.1182688
0.9929817, 0.1182688
0.9929817, 0.1182688
0.9929817, 0.1182688
0.9929817, 0.1182688
0.9929817, 0.1182688
0.9929817, 0.1182688
0.9929817, 0.1182688
0.9929817, 0.1182688
0.9929817, 0.1182688
0.9929817, 0.1182688
0.9929817, 0.1182688
0.9929817, 0.1182688
0.9929817, 0.1182688
0.9929817, 0.1182688
