0, 1
0, 1
0, 1
0, 1
0, 1
0, 1
0, 1
0, 1
0, 1
0, 1
0, 1
0, 1
7.084424E-06, 1
0.001651253, 0.9999982
0.006278388, 0.999979
0.0122852, 0.999923
0.01887009, 0.9998199
0.02575838, 0.9996662
0.07358566, 0.9964182
0.2367699, 0.9704309
0.4011866, 0.9147428
0.5333923, 0.8446425
0.6666741, 0.74398
0.775469, 0.6295841
0.8193352, 0.5733144
0.8243948, 0.5660065
0.8284349, 0.5600847
0.8287769, 0.5595793
0.8297879, 0.5580778
0.8321318, 0.5545765
0.8346063, 0.5508455
0.8424093, 0.5385234
0.9064671, 0.4197004
0.9585655, 0.2814061
0.9760062, 0.2177431
0.9763575, 0.2161583
0.9774862, 0.2109924
0.9787472, 0.205064
0.9797796, 0.2000742
0.9809822, 0.1940874
0.9823471, 0.1870555
0.9835474, 0.180642
0.9846066, 0.1747762
0.9857249, 0.1683566
0.9860029, 0.1667282
0.9860029, 0.1667282
