0, 0
0, 0
0, 0
0, 0
0, 0
0, 0
0, 0
0, 0
0, 0
0, 0
0, 0
0, 0
0, 0
0, 0
0, 0
0, 0
0, 0
0, 0
-4.005767E-06, 0.04384845
-2.775271E-05, 0.1455288
-6.012135E-05, 0.2509589
0.0003821757, 0.3534653
0.008836458, 0.4559778
0.03100951, 0.5605179
0.0642952, 0.6571068
0.1050051, 0.7527676
0.1459016, 0.8493066
0.1864116, 0.9449142
0.22652, 1.039565
0.2664652, 1.133829
0.3066355, 1.228624
0.3474464, 1.32493
0.3885866, 1.422013
0.4021123, 1.453936
0.3693542, 1.376661
0.3284688, 1.280188
0.287282, 1.182997
0.2463476, 1.086401
0.2071757, 0.9887141
0.1827342, 0.8865583
0.1800918, 0.7809275
0.1998286, 0.6786664
0.2382343, 0.5800049
0.2808605, 0.4834549
0.3227776, 0.3853825
0.3535621, 0.2882046
0.3722092, 0.1867563
0.3784178, 0.08199274
0.3715652, -0.02304402
0.3551181, -0.1258654
0.3385031, -0.2257213
0.3212809, -0.3293857
0.3041435, -0.4325
0.287321, -0.5337134
0.2703158, -0.6360306
0.2529281, -0.7406471
0.2352175, -0.8446128
0.2118924, -0.9408051
0.2035952, -0.9672244
0.203595, -0.9672245
0.2035952, -0.9672247
0.203595, -0.9672247
0.2392072, -0.934611
0.3142, -0.8649244
0.3905592, -0.7933168
0.467002, -0.7216547
0.5436413, -0.6498116
0.6200408, -0.5781928
0.695911, -0.5070683
0.7700887, -0.4375308
0.8433534, -0.3688496
0.9165514, -0.3002317
0.9917251, -0.2297607
1.065329, -0.1607615
1.090286, -0.137366
1.088141, -0.1393761
1.033479, -0.1906128
0.9569375, -0.2623755
0.8809882, -0.3335891
0.8050069, -0.4048346
0.7306237, -0.4745812
0.6562577, -0.5443122
0.5825124, -0.613462
0.5345395, -0.6584451
0.5335261, -0.6593953
0.5335261, -0.6593953
0.5335261, -0.6593953
0.5553733, -0.6389095
0.6290179, -0.5698344
0.7060203, -0.4975959
0.7822968, -0.4260367
0.8585436, -0.3545055
0.9344743, -0.2832682
1.007072, -0.2151551
1.083485, -0.1434607
1.158394, -0.07317639
1.235422, -0.0009058531
1.263866, 0.02578278
1.212437, -0.02248037
1.137117, -0.09318215
1.060052, -0.1655267
0.9813894, -0.2393706
0.9043593, -0.3116824
0.8246791, -0.3864833
0.7478753, -0.4585863
0.6726308, -0.5292255
0.6018106, -0.5957136
0.5755716, -0.6203484
0.5755716, -0.6203484
0.5755717, -0.6203483
0.5755716, -0.6203484
0.5755716, -0.6203484
0.5755717, -0.6203483
0.5755717, -0.6203483
0.5755717, -0.6203483
0.5755717, -0.6203483
0.5755717, -0.6203483
0.5755717, -0.6203483
0.5755716, -0.6203484
0.5755716, -0.6203483
0.5755716, -0.6203484
0.5755716, -0.6203484
0.5755716, -0.6203484
0.5755716, -0.6203484
0.5755716, -0.6203484
0.5755717, -0.6203483
0.5755716, -0.6203484
0.5755716, -0.6203484
0.5755716, -0.6203484
0.5755717, -0.6203483
0.5755717, -0.6203483
0.5755717, -0.6203483
0.5755717, -0.6203483
0.5755717, -0.6203483
0.5755716, -0.6203484
0.5755716, -0.6203484
0.5755717, -0.6203483
0.5755716, -0.6203484
0.5755717, -0.6203483
0.5755716, -0.6203484
0.5755717, -0.6203483
0.5755716, -0.6203484
0.5755717, -0.6203483
0.5755717, -0.6203483
0.5755716, -0.6203483
0.5755716, -0.6203484
0.5755716, -0.6203484
0.5755716, -0.6203484
0.5755717, -0.6203483
0.5755717, -0.6203483
0.5755716, -0.6203484
0.5755716, -0.6203484
0.5755716, -0.6203484
0.5755717, -0.6203483
0.5755717, -0.6203483
0.5755717, -0.6203483
0.5755716, -0.6203484
0.5755716, -0.6203484
0.5755716, -0.6203484
0.5755716, -0.6203484
