0, 0
0, 0
0, 0.0009091857
0, 0.06861766
0, 0.1756107
0, 0.2823487
0, 0.3812261
0, 0.4843188
0.004122767, 0.583871
0.07824825, 0.6137289
0.1710533, 0.5814014
0.120326, 0.473669
0.02139549, 0.3747385
-0.08685826, 0.2668746
-0.1998878, 0.1691305
-0.321674, 0.0935543
-0.4613109, 0.0357579
-0.606051, 0.002648532
-0.7445799, -0.006482539
-0.8884066, -0.01056174
-0.969029, -0.08075975
-1.00662, -0.1716243
-0.9628819, -0.3033513
-0.8798301, -0.3944679
-0.7702631, -0.3907341
-0.6830683, -0.3146923
-0.753938, -0.238829
-0.8215094, -0.2137865
-0.8266332, -0.2118875
-0.8266331, -0.2118875
-0.8266332, -0.2118875
-0.8266332, -0.2118875
-0.8266332, -0.2118875
-0.8266332, -0.2118875
-0.8266332, -0.2118875
-0.8266332, -0.2118875
-0.8266332, -0.2118875
-0.8266332, -0.2118875
-0.8266332, -0.2118875
-0.8266332, -0.2118875
-0.8266332, -0.2118875
-0.8266332, -0.2118875
-0.8266331, -0.2118875
-0.8266332, -0.2118875
-0.8266332, -0.2118875
-0.8266332, -0.2118875
-0.8266332, -0.2118875
-0.8266332, -0.2118875
-0.8266332, -0.2118875
-0.8266332, -0.2118875
-0.8266332, -0.2118875
-0.8266332, -0.2118875
-0.8266332, -0.2118875
-0.8266332, -0.2118875
-0.8266331, -0.2118875
-0.8266332, -0.2118875
-0.8266332, -0.2118875
