0, 1
0, 1
0, 1
0, 1
0, 1
0, 1
0, 1
0, 1
0, 1
0, 1
0, 1
0, 1
0, 1
0.01618271, 0.9996001
0.1553953, 0.986703
0.3101774, 0.9494548
0.464831, 0.884191
0.603964, 0.7956504
0.7100387, 0.7034946
0.659988, 0.7498919
0.5254413, 0.8495461
0.3928094, 0.9187276
0.3475114, 0.9376757
0.3475114, 0.9376757
0.3475114, 0.9376757
0.3475114, 0.9376757
0.3475114, 0.9376757
0.3475114, 0.9376757
0.3475114, 0.9376757
0.3475114, 0.9376758
0.3475114, 0.9376757
0.3475114, 0.9376757
0.3475114, 0.9376757
0.3475114, 0.9376757
0.3475114, 0.9376757
0.3475114, 0.9376757
0.3475114, 0.9376757
0.3475114, 0.9376757
0.3475114, 0.9376757
0.3475114, 0.9376757
0.3475114, 0.9376757
0.3475114, 0.9376757
0.3475114, 0.9376757
0.3475114, 0.9376757
0.3475114, 0.9376757
0.3475114, 0.9376757
0.3475114, 0.9376757
0.3475114, 0.9376757
0.3475114, 0.9376757
0.3475114, 0.9376757
0.3475114, 0.9376757
0.3475114, 0.9376757
0.3475114, 0.9376757
0.3475114, 0.9376757
0.3475114, 0.9376758
0.3475114, 0.9376757
0.3475114, 0.9376757
