0, 0
0, 0
1.146286E-06, 0.01543975
0.0001798455, 0.1071782
0.001055175, 0.2074953
0.002947059, 0.3102995
0.005932316, 0.4151752
0.009935729, 0.5192243
0.01498249, 0.6237029
0.02108321, 0.7283457
0.02817333, 0.8320852
0.03623619, 0.9348812
0.04514257, 1.035799
0.05508903, 1.137393
0.06602226, 1.239496
0.07768374, 1.3395
0.09084137, 1.443412
0.1053167, 1.548764
0.1200227, 1.648146
0.1326834, 1.728858
