0, 0
0, 0
-1.546114E-06, 0.01841637
-4.599315E-05, 0.1345686
-0.000131037, 0.2634284
-0.0002216902, 0.3953116
-0.0003126389, 0.5298206
-0.0004030519, 0.6631778
-0.0004972286, 0.7972754
-0.0005935821, 0.9316267
-0.0006893916, 1.064993
-0.0007832279, 1.197189
-0.0008758281, 1.326962
-0.0009721561, 1.457549
-0.001078136, 1.588953
-0.001188911, 1.717958
-0.001305343, 1.852679
-0.001416487, 1.989061
-0.001516043, 2.117977
-0.001593891, 2.223881
