0, 0
0, 0
0, 0
0, 0
0, 0
0, 0.002421964
-3.356536E-05, 0.07691064
-0.0003724249, 0.1828458
-0.001177779, 0.2804708
-0.002538392, 0.3818118
-0.0045397, 0.4871059
-0.007059391, 0.5902825
-0.01016037, 0.694395
-0.01388198, 0.8003885
-0.01692596, 0.8768109
-0.01713942, 0.8819234
-0.01713942, 0.8819233
-0.01713942, 0.8819234
-0.01713942, 0.8819234
-0.01713942, 0.8819234
-0.01713942, 0.8819234
