0, 0
0, 0
0, 0
0, 0
0, 0
0, 0
0, 0
0, 0
0, 0
0, 0
0, 0
0, 0
0, 0
0, 0
0, 0
0, 0
0, 0
0, 0
0, 0
0, 0
0, 0
0, 0
0, 0
0, 0
0, 0
0, 0.00423255
0, 0.08131932
0, 0.185496
5.678479E-05, 0.2905574
0.01348851, 0.3923275
0.1117954, 0.462425
0.2124267, 0.4397486
0.2766151, 0.345092
0.2895475, 0.2019313
0.2761026, 0.05840219
0.2026252, -0.01342212
0.1054941, -0.053587
0.01578772, -0.1370351
-0.06484782, -0.2592211
-0.08921034, -0.373878
-0.01364865, -0.4478536
0.1263564, -0.4724561
0.2365227, -0.4544821
0.3079452, -0.3381855
0.3692706, -0.253324
0.3825509, -0.3379911
0.3715, -0.4456681
0.2743377, -0.4811181
0.1752359, -0.4322006
0.1642143, -0.5203168
0.2282801, -0.5875744
0.2956435, -0.5468749
0.2885993, -0.4458633
0.2432037, -0.4089112
0.2413307, -0.5061617
0.2490751, -0.582306
0.2651083, -0.5240339
0.3405269, -0.4758491
0.3434575, -0.5556594
0.2503913, -0.5228575
0.2319258, -0.580248
0.2261605, -0.5176359
0.2780942, -0.4253004
0.3370978, -0.4646453
0.3382899, -0.4763671
0.3382899, -0.4763671
0.3382899, -0.4763671
0.3382899, -0.4763671
0.3382899, -0.4763671
0.3382899, -0.4763671
0.3382899, -0.4763671
0.3382899, -0.4763671
0.3382899, -0.4763671
0.3382899, -0.4763671
0.3382899, -0.4763671
0.3382899, -0.4763671
0.3382899, -0.4763671
0.3382899, -0.4763671
0.3382899, -0.4763671
0.3382899, -0.4763671
0.3382899, -0.4763671
0.3382899, -0.4763671
0.3382899, -0.4763671
0.3382899, -0.4763671
0.3382899, -0.4763671
0.3382899, -0.4763671
0.3382899, -0.4763671
0.3382899, -0.4763671
0.3382899, -0.4763671
0.3382899, -0.4763671
0.3382899, -0.4763671
0.3382899, -0.4763672
0.3382899, -0.4763672
0.3382899, -0.4763671
0.3382899, -0.4763671
0.3382899, -0.4763671
0.3382899, -0.4763671
0.3382899, -0.4763671
0.3382899, -0.4763671
0.3382899, -0.4763671
0.3382899, -0.4763671
0.3382899, -0.4763671
0.3382899, -0.4763672
0.3382899, -0.4763671
0.3382899, -0.4763672
0.3382899, -0.4763671
0.3382899, -0.4763671
0.3382899, -0.4763671
0.3382899, -0.4763671
0.3382899, -0.4763671
0.3382899, -0.4763671
0.3382899, -0.4763671
0.3382899, -0.4763671
0.3382899, -0.4763671
0.3382899, -0.4763671
0.3382899, -0.4763671
0.3382899, -0.4763671
0.3382899, -0.4763671
0.3382899, -0.4763671
0.3382899, -0.4763671
0.3382899, -0.4763671
0.3382899, -0.4763671
0.3382899, -0.4763671
0.3382899, -0.4763671
0.3382899, -0.4763671
0.3382899, -0.4763671
0.3382899, -0.4763671
0.3382899, -0.4763671
0.3382899, -0.4763671
0.3382899, -0.4763671
0.3382899, -0.4763671
0.3382899, -0.4763671
0.3382899, -0.4763671
0.3382899, -0.4763671
0.3382899, -0.4763672
0.3382899, -0.4763671
0.3382899, -0.4763671
0.3382899, -0.4763671
0.3382899, -0.4763671
0.3382899, -0.4763671
0.3382899, -0.4763671
0.3382899, -0.4763671
0.3382899, -0.4763671
0.3382899, -0.4763671
0.3382899, -0.4763671
0.3382899, -0.4763671
0.3382899, -0.4763671
0.3382899, -0.4763671
0.3382899, -0.4763671
0.3382899, -0.4763671
0.3382899, -0.4763671
0.3382899, -0.4763671
0.3382899, -0.4763671
0.3382899, -0.4763671
0.3382899, -0.4763671
0.3382899, -0.4763671
0.3382899, -0.4763671
0.3382899, -0.4763671
0.3382899, -0.4763671
0.3382899, -0.4763671
0.3382899, -0.4763671
0.3382899, -0.4763671
0.3382899, -0.4763671
0.3382899, -0.4763671
0.3382899, -0.4763671
0.3382899, -0.4763671
0.3382899, -0.4763671
0.3382899, -0.4763671
0.3382899, -0.4763671
0.3382899, -0.4763671
0.3382899, -0.4763671
0.3382899, -0.4763671
0.3382899, -0.4763671
0.3382899, -0.4763671
0.3382899, -0.4763671
0.3382899, -0.4763671
0.3382899, -0.4763671
0.3382899, -0.4763671
0.3382899, -0.4763671
0.3382899, -0.4763671
0.3382899, -0.4763671
0.3382899, -0.4763671
0.3382899, -0.4763671
0.3382899, -0.4763671
0.3382899, -0.4763671
0.3382899, -0.4763671
0.3382899, -0.4763671
0.3382899, -0.4763671
0.3382899, -0.4763671
0.3382899, -0.4763671
0.3382899, -0.4763671
0.3382899, -0.4763671
