0, 1
0, 1
0, 1
0, 1
0, 1
0, 1
0, 1
0, 1
0, 1
0, 1
0, 1
0, 1
0, 1
0, 1
0, 1
0, 1
0, 1
0, 1
0, 1
0, 1
0, 1
0, 1
0, 1
0, 1
0, 1
0, 1
0, 1
0, 1
0.00783048, 0.9998646
0.1295097, 0.9905174
0.2854986, 0.9572176
0.4372029, 0.8980891
0.5805259, 0.8129846
0.7025543, 0.7100279
0.8097643, 0.5849675
0.8929672, 0.4476286
0.9544401, 0.2945313
0.9857251, 0.1669234
0.9611055, 0.2720521
0.905376, 0.4222342
0.8248689, 0.5634472
0.8242275, 0.5645695
0.9026623, 0.4277904
0.9611205, 0.2717899
0.9915656, 0.1261017
0.9948676, 0.1011836
0.9948676, 0.1011836
0.9948676, 0.1011836
0.9948676, 0.1011836
0.9948676, 0.1011836
0.9948676, 0.1011836
0.9948676, 0.1011836
0.9948676, 0.1011836
0.9948676, 0.1011836
0.9948676, 0.1011836
0.9948676, 0.1011836
0.9948676, 0.1011836
0.9948676, 0.1011836
0.9948676, 0.1011836
0.9948676, 0.1011836
0.9948676, 0.1011836
0.9948676, 0.1011836
0.9948676, 0.1011836
0.9948676, 0.1011836
0.9948676, 0.1011836
0.9948676, 0.1011836
0.9948676, 0.1011836
0.9948676, 0.1011836
0.9948676, 0.1011836
0.9948676, 0.1011836
0.9948676, 0.1011836
0.9948676, 0.1011836
0.9948676, 0.1011836
0.9948676, 0.1011836
0.9948676, 0.1011836
0.9948676, 0.1011836
0.9948677, 0.1011836
0.9948676, 0.1011836
0.9948677, 0.1011836
0.9948676, 0.1011836
0.9948677, 0.1011836
0.9948677, 0.1011836
0.9948676, 0.1011836
0.9948676, 0.1011836
0.9948676, 0.1011836
0.9948676, 0.1011836
0.9948676, 0.1011836
0.9948676, 0.1011836
0.9948677, 0.1011836
0.9948676, 0.1011836
0.9948677, 0.1011836
0.9948678, 0.1011836
0.9948678, 0.1011836
0.9948677, 0.1011836
0.9948677, 0.1011836
0.9948677, 0.1011836
0.9948677, 0.1011836
0.9948677, 0.1011836
0.9948677, 0.1011836
0.9948677, 0.1011836
0.9948677, 0.1011836
0.9948677, 0.1011836
0.9948678, 0.1011836
0.9948677, 0.1011836
0.9948678, 0.1011836
0.9948677, 0.1011836
0.9948677, 0.1011836
0.9948677, 0.1011836
0.9948677, 0.1011836
0.9948676, 0.1011836
0.9948677, 0.1011836
0.9948676, 0.1011836
0.9948677, 0.1011836
0.9948676, 0.1011836
0.9948676, 0.1011836
0.9948676, 0.1011836
0.9948676, 0.1011836
0.9948676, 0.1011836
0.9948676, 0.1011836
0.9948676, 0.1011836
0.9948676, 0.1011836
0.9948676, 0.1011836
0.9948676, 0.1011836
0.9948676, 0.1011836
0.9948676, 0.1011836
0.9948676, 0.1011836
0.9948676, 0.1011836
0.9948676, 0.1011836
0.9948676, 0.1011836
0.9948676, 0.1011836
0.9948676, 0.1011836
0.9948676, 0.1011836
0.9948676, 0.1011836
0.9948676, 0.1011836
0.9948678, 0.1011836
0.9948676, 0.1011836
0.9948676, 0.1011836
0.9948676, 0.1011836
0.9948677, 0.1011836
0.9948676, 0.1011836
0.9948677, 0.1011836
0.9948676, 0.1011836
0.9948676, 0.1011836
0.9948676, 0.1011836
0.9948676, 0.1011836
0.9948676, 0.1011836
0.9948676, 0.1011836
0.9948677, 0.1011836
0.9948676, 0.1011836
0.9948676, 0.1011836
0.9948676, 0.1011836
0.9948676, 0.1011836
0.9948676, 0.1011836
0.9948677, 0.1011836
0.9948676, 0.1011836
0.9948676, 0.1011836
0.9948676, 0.1011836
0.9948676, 0.1011836
0.9948676, 0.1011836
0.9948676, 0.1011836
0.9948676, 0.1011836
0.9948676, 0.1011836
0.9948676, 0.1011836
0.9948676, 0.1011836
0.9948676, 0.1011836
0.9948676, 0.1011836
0.9948676, 0.1011836
0.9948676, 0.1011836
0.9948676, 0.1011836
0.9948676, 0.1011836
0.9948677, 0.1011836
0.9948676, 0.1011836
0.9948676, 0.1011836
0.9948676, 0.1011836
0.9948676, 0.1011836
0.9948676, 0.1011836
0.9948676, 0.1011836
0.9948676, 0.1011836
0.9948676, 0.1011836
0.9948676, 0.1011836
0.9948676, 0.1011836
0.9948676, 0.1011836
0.9948676, 0.1011836
0.9948676, 0.1011836
0.9948676, 0.1011836
0.9948676, 0.1011836
0.9948676, 0.1011836
0.9948676, 0.1011836
0.9948676, 0.1011836
0.9948676, 0.1011836
0.9948676, 0.1011836
0.9948676, 0.1011836
