0, 0
0, 0
0, 0
0, 0
0, 0
0, 0
9.581637E-06, 0.03726607
0.0002404555, 0.1414086
0.0009802321, 0.2468173
0.002301384, 0.3538785
0.00426362, 0.4633053
0.006569751, 0.5616695
0.008364753, 0.6280614
0.008381531, 0.6286411
0.008381531, 0.6286411
0.008381531, 0.6286411
0.008381531, 0.6286411
0.008381531, 0.6286411
0.008381531, 0.6286411
0.008381531, 0.6286411
0.008381531, 0.6286411
0.008381531, 0.6286411
0.008381531, 0.6286411
0.008381531, 0.6286411
0.008381531, 0.6286411
0.008381531, 0.6286411
0.008381531, 0.6286411
0.008381531, 0.6286411
0.008381531, 0.6286411
0.008381531, 0.6286411
0.04564787, 0.6461877
0.1416516, 0.6913003
0.231637, 0.7331277
0.3275349, 0.7771317
0.4304738, 0.823666
0.5212016, 0.8640658
0.6208718, 0.9078248
0.7286381, 0.9543819
0.8294778, 0.9972284
0.9246283, 1.037036
1.027678, 1.079469
1.130603, 1.121157
1.226026, 1.159189
1.328378, 1.199343
1.430861, 1.238862
1.527607, 1.27556
1.627423, 1.312802
1.732508, 1.351309
1.83136, 1.386891
1.900812, 1.411565
1.902478, 1.412153
1.902478, 1.412153
1.902478, 1.412153
1.902478, 1.412153
1.902478, 1.412152
1.902478, 1.412152
1.902478, 1.412153
1.902478, 1.412153
1.902478, 1.412153
1.902478, 1.412153
1.902478, 1.412152
1.902478, 1.412153
1.902478, 1.412153
1.902478, 1.412153
1.902478, 1.412153
1.902478, 1.412153
1.902478, 1.412153
1.902478, 1.412152
1.902478, 1.412152
1.902478, 1.412153
1.902478, 1.412153
1.902478, 1.412153
1.902478, 1.412153
1.902478, 1.412153
1.902478, 1.412153
1.902478, 1.412153
1.902478, 1.412153
1.902478, 1.412153
1.902478, 1.412153
1.902478, 1.412153
1.902478, 1.412153
1.902478, 1.412153
1.902478, 1.412153
1.902478, 1.412152
1.902478, 1.412153
1.902478, 1.412153
1.902478, 1.412153
1.902478, 1.412153
1.902478, 1.412153
1.902478, 1.412153
1.902478, 1.412153
1.902478, 1.412153
1.902478, 1.412153
1.902478, 1.412152
1.902478, 1.412152
1.902478, 1.412152
1.902478, 1.412153
1.902478, 1.412153
1.902478, 1.412152
1.902478, 1.412152
1.902478, 1.412153
1.902478, 1.412153
1.902478, 1.412153
1.902478, 1.412153
1.902478, 1.412153
1.902478, 1.412153
1.902478, 1.412153
1.902478, 1.412153
1.902478, 1.412153
1.902478, 1.412153
1.902478, 1.412153
1.902478, 1.412153
1.902478, 1.412153
1.902478, 1.412153
1.902478, 1.412153
1.902478, 1.412153
1.902478, 1.412153
1.902478, 1.412153
1.902478, 1.412153
1.902478, 1.412153
1.902478, 1.412153
1.902478, 1.412153
1.902478, 1.412153
1.902478, 1.412153
1.902478, 1.412153
1.902478, 1.412153
1.902478, 1.412153
1.902478, 1.412153
1.902478, 1.412153
1.902478, 1.412153
1.902478, 1.412153
1.902478, 1.412153
1.902478, 1.412153
1.902478, 1.412153
1.902478, 1.412153
1.902478, 1.412153
1.902478, 1.412153
1.902478, 1.412153
1.902478, 1.412153
1.902478, 1.412153
1.902478, 1.412153
1.902478, 1.412153
1.902478, 1.412153
1.902478, 1.412153
1.902478, 1.412152
1.902478, 1.412152
1.902478, 1.412153
1.902478, 1.412153
1.902478, 1.412153
1.902478, 1.412153
1.902478, 1.412152
1.902478, 1.412152
1.902478, 1.412152
1.902478, 1.412152
1.902478, 1.412152
1.902478, 1.412152
1.902478, 1.412152
1.902478, 1.412152
1.902478, 1.412153
1.902478, 1.412152
1.902478, 1.412152
1.902478, 1.412152
1.902478, 1.412153
1.902478, 1.412153
1.902478, 1.412153
1.902478, 1.412152
1.905887, 1.411785
1.979361, 1.403866
2.083197, 1.392674
2.193678, 1.380766
2.295828, 1.369756
2.379415, 1.360747
2.388162, 1.359804
2.388162, 1.359804
2.388162, 1.359804
2.388162, 1.359804
2.388162, 1.359804
2.342201, 1.356711
2.238569, 1.360535
2.143917, 1.413537
2.086356, 1.535849
2.037985, 1.666644
1.984921, 1.720672
1.948755, 1.689986
1.90098, 1.56115
1.914068, 1.44655
1.951762, 1.355481
1.990343, 1.261696
2.023098, 1.161283
2.040016, 1.064599
2.058889, 0.9616123
2.092877, 0.8638716
2.133608, 0.7786191
2.149318, 0.7467795
2.149318, 0.7467795
2.149318, 0.7467795
2.149318, 0.7467795
2.149318, 0.7467795
2.149318, 0.7467795
2.149318, 0.7467795
2.149318, 0.7467795
2.149318, 0.7467795
2.149318, 0.7467795
2.149318, 0.7467795
