0, 1
9.392797E-14, 1
0.001441249, 0.9999985
0.005575353, 0.9999835
0.01029908, 0.999946
0.01504007, 0.9998859
0.01969533, 0.9998053
0.02424653, 0.9997052
0.0295248, 0.9995624
0.04086069, 0.9990926
0.1606614, 0.9858506
0.3156385, 0.947814
0.463548, 0.8848492
0.5998279, 0.7987209
0.7235092, 0.6886188
0.8274305, 0.5595093
0.9097404, 0.4124006
0.957327, 0.2883533
0.962339, 0.2718351
0.9644762, 0.2641645
0.9658641, 0.2590457
0.9671053, 0.2543727
0.9683043, 0.2497698
0.9694864, 0.2451417
0.9706452, 0.240512
0.9715921, 0.2366607
0.9717683, 0.2359373
0.9724735, 0.2330101
0.9735336, 0.2285399
0.974558, 0.2241324
0.9755736, 0.2196689
0.9766026, 0.2150476
0.9776487, 0.2102401
0.9786635, 0.2054652
0.9795938, 0.2009839
0.9805074, 0.1964772
0.9814635, 0.1916434
0.9823923, 0.186824
0.9832738, 0.1821284
0.9841283, 0.1774535
0.9849256, 0.1729738
0.9857123, 0.1684323
0.9864941, 0.1637913
0.9872469, 0.1591913
0.9879407, 0.1548276
0.9886377, 0.1503119
0.9893283, 0.1456969
0.9900514, 0.1406988
0.9907524, 0.1356744
0.991402, 0.1308436
0.9920022, 0.126213
0.9924584, 0.1225812
0.9924917, 0.1223125
0.9924917, 0.1223125
0.9924917, 0.1223125
0.9924917, 0.1223125
