0, 0
2.290418E-14, 0.008485
4.031095E-05, 0.08070046
0.0003802479, 0.1845489
0.001192759, 0.2891501
0.002505231, 0.3939048
0.004281828, 0.4973388
0.008518223, 0.5987304
0.08499701, 0.7040467
0.1428376, 0.8051716
0.15177, 0.9077221
0.1722499, 1.007743
0.143324, 1.133218
0.1117311, 1.273674
0.152554, 1.37461
0.2343802, 1.441224
0.3277346, 1.494153
0.4239645, 1.529894
0.5214682, 1.557993
0.6200019, 1.58539
0.7209775, 1.612769
0.8221061, 1.639647
0.9230248, 1.665951
1.025513, 1.692145
1.126656, 1.717481
1.204195, 1.736577
1.18551, 1.732046
1.090342, 1.709065
0.9874057, 1.684632
0.8860449, 1.661064
0.7827777, 1.637545
0.6759713, 1.613735
0.5724856, 1.591185
0.4753156, 1.570524
0.3752891, 1.549751
0.2681995, 1.52801
0.167617, 1.508092
0.0650918, 1.488316
-0.03804026, 1.468941
-0.1399399, 1.450298
-0.2397814, 1.432513
-0.3387325, 1.415354
-0.4396251, 1.398339
-0.5414135, 1.381666
-0.6428491, 1.365528
-0.7477972, 1.349297
-0.8499505, 1.333997
-0.9546462, 1.318821
-1.062963, 1.30369
-1.16556, 1.289877
-1.266899, 1.276731
-1.338953, 1.267647
-1.340778, 1.26742
-1.340778, 1.26742
-1.340778, 1.26742
-1.340778, 1.26742
