0, 0
-1.741682E-11, 0.008485
-1.057011E-05, 0.08070051
-4.011916E-05, 0.1845496
-7.307379E-05, 0.2891543
-0.0001061388, 0.3939174
-0.0001392882, 0.4973668
0.001849756, 0.5988358
0.07546477, 0.7062514
0.129954, 0.8091165
0.1344421, 0.9119975
0.1475589, 1.01323
0.1046525, 1.13429
0.05217675, 1.268537
0.07325829, 1.376112
0.1374958, 1.459951
0.213037, 1.536326
0.2934823, 1.600224
0.3756516, 1.659764
0.4582277, 1.720103
0.5427125, 1.781812
0.6272137, 1.843529
0.7114336, 1.905039
0.7968586, 1.96743
0.8810598, 2.028927
0.9455475, 2.076025
0.930018, 2.064691
0.8509491, 2.006957
0.7655109, 1.94456
0.6814731, 1.883183
0.5959448, 1.820714
0.5075795, 1.756169
0.4220532, 1.693695
0.3418308, 1.6351
0.2593317, 1.574846
0.1710898, 1.510393
0.08828996, 1.449913
0.003970751, 1.388327
-0.08077002, 1.326435
-0.1644244, 1.265337
-0.24632, 1.205523
-0.3274202, 1.14629
-0.4100466, 1.085942
-0.4933414, 1.025107
-0.5762856, 0.9645273
-0.6620414, 0.9018893
-0.7454523, 0.8409629
-0.8308795, 0.7785631
-0.9191992, 0.7140555
-1.002798, 0.6529979
-1.085321, 0.5927275
-1.143968, 0.5498941
-1.145453, 0.5488092
-1.145453, 0.5488092
-1.145453, 0.5488092
-1.145453, 0.5488092
