0, 1
0, 1
0, 1
0, 1
0, 1
0, 1
5.456968E-12, 1
2.910383E-11, 1
4.029761E-10, 1
2.149206E-10, 1
1.791005E-10, 1
1.330461E-09, 1
1.396984E-09, 1
1.396984E-09, 1
1.396984E-09, 1
1.396984E-09, 1
1.629815E-09, 1
2.328306E-09, 1
1.064369E-09, 1
9.313226E-10, 1
9.313226E-10, 1
1.929168E-09, 1
4.323998E-09, 1
4.656613E-09, 1
4.656613E-09, 1
4.035731E-09, 1
2.793968E-09, 1
2.793968E-09, 1
2.579047E-09, 1
1.862645E-09, 1
1.862645E-09, 1
1.862645E-09, 1
1.862645E-09, 1
1.862645E-09, 1
1.862645E-09, 1
0.002358767, 0.9999766
0.1114698, 0.992602
0.2778405, 0.9593761
0.4334591, 0.8998938
0.6000419, 0.7987148
0.7137437, 0.6986058
0.8230138, 0.5658628
0.9090945, 0.4139428
0.965269, 0.2566601
0.9949247, 0.08913688
0.9961656, -0.07236678
0.9691637, -0.241533
0.9148208, -0.4009087
0.8326263, -0.5516697
0.7257888, -0.6862077
0.5994255, -0.7989121
0.4544322, -0.8892804
0.2939308, -0.9545062
0.123047, -0.9912161
-0.04711434, -0.9977345
-0.2117549, -0.9761137
-0.3695653, -0.9279867
-0.518638, -0.8536214
-0.6519264, -0.7567747
-0.7687014, -0.6377903
-0.8663694, -0.496905
-0.938826, -0.3406719
-0.9828607, -0.1778535
-0.9987792, -0.01307667
-0.9869365, 0.1539551
-0.9491493, 0.3113114
-0.8830636, 0.4668232
-0.7909589, 0.6097525
-0.6771052, 0.7343253
-0.5428671, 0.8383215
-0.3953163, 0.9173247
-0.2346494, 0.970893
-0.0728818, 0.996199
0.1076258, 0.993013
0.2640714, 0.9634036
0.4160152, 0.9081395
0.5568162, 0.829358
0.683154, 0.7287374
0.7915835, 0.6092942
0.8793547, 0.4739595
0.9308416, 0.365137
0.9340122, 0.3572415
0.9340121, 0.3572415
0.9340121, 0.3572415
0.9340121, 0.3572414
0.9340121, 0.3572414
0.9340121, 0.3572415
0.9340121, 0.3572415
0.9340121, 0.3572415
0.9340121, 0.3572415
0.9340121, 0.3572415
